672
Lattice="37.2043739024 0.0 0.0 2.70320591208e-15 44.1467027714 0.0 0.0 0.0 17.9298329584" Properties=species:S:1:pos:R:3 unit_cell=conventional pbc="T T F"
Mo       6.26323311       6.73584873      12.92983296 
Mo       5.36657514       4.30082697      11.62706025 
Mo       7.76066265       4.30082697       5.12515027 
Mo       3.79000259       6.73584873      11.75221857 
Mo       8.65732062       6.73584873       6.42792299 
Mo       0.93279969       4.30082697       6.30276466 
Mo       0.93279504       7.97972622      11.67275617 
Mo       0.71602375       7.97972622       8.94206852 
Mo       7.76065800       7.97972622      10.49514178 
Mo       8.44055863      10.41473694       9.06721879 
Mo       8.65732062      10.41473694      11.79790644 
Mo       1.61269102      10.41473694      10.24484123 
Mo       5.58333713       0.62193875       8.98776444 
Mo       5.36657514       0.62193875       6.25707679 
Mo       3.11011126       0.62193875       7.81014200 
Mo       3.79000724       3.05694947       6.38222707 
Mo       4.00677853       3.05694947       9.11291471 
Mo       6.26323776       3.05694947       7.55984145 
S       8.13867769       4.61305452       7.53302641 
S       7.47961151       4.61305452      12.82643919 
S       3.09228107       4.61305452      10.75050086 
S       5.88521807       6.42362117      10.52195682 
S       6.54428425       6.42362117       5.22854404 
S       1.63052122       6.42362117       7.30448237 
S       0.03612777       8.58363104       5.00000000 
S       0.03612777       2.45304465       5.00000000 
S       8.13867769       8.29194274      12.90300986 
S       2.82906942       8.29194274      10.14144747 
S       7.74283711       8.29194274       8.06550108 
S       1.23467598      10.10252043       7.83696509 
S       6.54428425      10.10252043      10.59852749 
S       1.63051657      10.10252043      12.67447388 
S       0.03612312       1.22585461      10.36999151 
S       0.03612312       6.13193287      10.36999151 
S       3.48812630       0.93415527      10.21801814 
S       7.47961151       0.93415527       7.45645574 
S       3.09228572       0.93415527       5.38050935 
S       5.88521807       2.74473295       5.15197337 
S       1.89373286       2.74473295       7.91353577 
S       6.28105865       2.74473295       9.98948215 
S       4.68667916       4.90474282       7.68499173 
S       4.68667916       9.81082109       7.68499173 
Mo       0.93279969      15.33750266       6.30276466 
Mo       5.36657514      15.33750266      11.62706025 
Mo       7.76066265      15.33750266       5.12515027 
Mo       3.79000259      17.77252442      11.75221857 
Mo       8.65732062      17.77252442       6.42792299 
Mo       6.26323311      17.77252442      12.92983296 
Mo       0.93279504      19.01640192      11.67275617 
Mo       0.71602375      19.01640192       8.94206852 
Mo       7.76065800      19.01640192      10.49514178 
Mo       8.44055863      21.45141264       9.06721879 
Mo       8.65732062      21.45141264      11.79790644 
Mo       1.61269102      21.45141264      10.24484123 
Mo       5.58333713      11.65861444       8.98776444 
Mo       5.36657514      11.65861444       6.25707679 
Mo       3.11011126      11.65861444       7.81014200 
Mo       3.79000724      14.09362516       6.38222707 
Mo       4.00677853      14.09362516       9.11291471 
Mo       6.26323776      14.09362516       7.55984145 
S       8.13867769      15.64973022       7.53302641 
S       7.47961151      15.64973022      12.82643919 
S       3.09228107      15.64973022      10.75050086 
S       5.88521807      17.46029686      10.52195682 
S       6.54428425      17.46029686       5.22854404 
S       1.63052122      17.46029686       7.30448237 
S       0.03612777      19.62030674       5.00000000 
S       0.03612777      13.48972034       5.00000000 
S       8.13867769      19.32861843      12.90300986 
S       2.82906942      19.32861843      10.14144747 
S       7.74283711      19.32861843       8.06550108 
S       1.23467598      21.13919612       7.83696509 
S       6.54428425      21.13919612      10.59852749 
S       1.63051657      21.13919612      12.67447388 
S       0.03612312      12.26253030      10.36999151 
S       0.03612312      17.16860856      10.36999151 
S       3.48812630      11.97083096      10.21801814 
S       7.47961151      11.97083096       7.45645574 
S       3.09228572      11.97083096       5.38050935 
S       5.88521807      13.78140864       5.15197337 
S       1.89373286      13.78140864       7.91353577 
S       6.28105865      13.78140864       9.98948215 
S       4.68667916      15.94141852       7.68499173 
S       4.68667916      20.84749678       7.68499173 
Mo      10.23389316       4.30082697       6.30276466 
Mo      14.66766862       4.30082697      11.62706025 
Mo      17.06175613       4.30082697       5.12515027 
Mo      13.09109607       6.73584873      11.75221857 
Mo      17.95841409       6.73584873       6.42792299 
Mo      15.56432658       6.73584873      12.92983296 
Mo      10.23388851       7.97972622      11.67275617 
Mo      10.01711723       7.97972622       8.94206852 
Mo      17.06175148       7.97972622      10.49514178 
Mo      17.74165211      10.41473694       9.06721879 
Mo      17.95841409      10.41473694      11.79790644 
Mo      10.91378450      10.41473694      10.24484123 
Mo      14.88443060       0.62193875       8.98776444 
Mo      14.66766862       0.62193875       6.25707679 
Mo      12.41120474       0.62193875       7.81014200 
Mo      13.09110072       3.05694947       6.38222707 
Mo      13.30787200       3.05694947       9.11291471 
Mo      15.56433123       3.05694947       7.55984145 
S      17.43977117       4.61305452       7.53302641 
S      16.78070499       4.61305452      12.82643919 
S      12.39337454       4.61305452      10.75050086 
S      15.18631154       6.42362117      10.52195682 
S      15.84537772       6.42362117       5.22854404 
S      10.93161469       6.42362117       7.30448237 
S       9.33722125       8.58363104       5.00000000 
S       9.33722125       2.45304465       5.00000000 
S      17.43977117       8.29194274      12.90300986 
S      12.13016290       8.29194274      10.14144747 
S      17.04393058       8.29194274       8.06550108 
S      10.53576945      10.10252043       7.83696509 
S      15.84537772      10.10252043      10.59852749 
S      10.93161004      10.10252043      12.67447388 
S       9.33721660       1.22585461      10.36999151 
S       9.33721660       6.13193287      10.36999151 
S      12.78921978       0.93415527      10.21801814 
S      16.78070499       0.93415527       7.45645574 
S      12.39337919       0.93415527       5.38050935 
S      15.18631154       2.74473295       5.15197337 
S      11.19482634       2.74473295       7.91353577 
S      15.58215213       2.74473295       9.98948215 
S      13.98777264       4.90474282       7.68499173 
S      13.98777264       9.81082109       7.68499173 
Mo      10.23389316      15.33750266       6.30276466 
Mo      14.66766862      15.33750266      11.62706025 
Mo      17.06175613      15.33750266       5.12515027 
Mo      13.09109607      17.77252442      11.75221857 
Mo      17.95841409      17.77252442       6.42792299 
Mo      15.56432658      17.77252442      12.92983296 
Mo      10.23388851      19.01640192      11.67275617 
Mo      10.01711723      19.01640192       8.94206852 
Mo      17.06175148      19.01640192      10.49514178 
Mo      17.74165211      21.45141264       9.06721879 
Mo      17.95841409      21.45141264      11.79790644 
Mo      10.91378450      21.45141264      10.24484123 
Mo      14.88443060      11.65861444       8.98776444 
Mo      14.66766862      11.65861444       6.25707679 
Mo      12.41120474      11.65861444       7.81014200 
Mo      13.09110072      14.09362516       6.38222707 
Mo      13.30787200      14.09362516       9.11291471 
Mo      15.56433123      14.09362516       7.55984145 
S      17.43977117      15.64973022       7.53302641 
S      16.78070499      15.64973022      12.82643919 
S      12.39337454      15.64973022      10.75050086 
S      15.18631154      17.46029686      10.52195682 
S      15.84537772      17.46029686       5.22854404 
S      10.93161469      17.46029686       7.30448237 
S       9.33722125      19.62030674       5.00000000 
S       9.33722125      13.48972034       5.00000000 
S      17.43977117      19.32861843      12.90300986 
S      12.13016290      19.32861843      10.14144747 
S      17.04393058      19.32861843       8.06550108 
S      10.53576945      21.13919612       7.83696509 
S      15.84537772      21.13919612      10.59852749 
S      10.93161004      21.13919612      12.67447388 
S       9.33721660      12.26253030      10.36999151 
S       9.33721660      17.16860856      10.36999151 
S      12.78921978      11.97083096      10.21801814 
S      16.78070499      11.97083096       7.45645574 
S      12.39337919      11.97083096       5.38050935 
S      15.18631154      13.78140864       5.15197337 
S      11.19482634      13.78140864       7.91353577 
S      15.58215213      13.78140864       9.98948215 
S      13.98777264      15.94141852       7.68499173 
S      13.98777264      20.84749678       7.68499173 
Mo       0.93279969      26.37417836       6.30276466 
Mo       5.36657514      26.37417836      11.62706025 
Mo       7.76066265      26.37417836       5.12515027 
Mo       3.79000259      28.80920012      11.75221857 
Mo       8.65732062      28.80920012       6.42792299 
Mo       6.26323311      28.80920012      12.92983296 
Mo       0.93279504      30.05307761      11.67275617 
Mo       0.71602375      30.05307761       8.94206852 
Mo       7.76065800      30.05307761      10.49514178 
Mo       8.44055863      32.48808833       9.06721879 
Mo       8.65732062      32.48808833      11.79790644 
Mo       1.61269102      32.48808833      10.24484123 
Mo       5.58333713      22.69529014       8.98776444 
Mo       5.36657514      22.69529014       6.25707679 
Mo       3.11011126      22.69529014       7.81014200 
Mo       3.79000724      25.13030086       6.38222707 
Mo       4.00677853      25.13030086       9.11291471 
Mo       6.26323776      25.13030086       7.55984145 
S       8.13867769      26.68640591       7.53302641 
S       7.47961151      26.68640591      12.82643919 
S       3.09228107      26.68640591      10.75050086 
S       5.88521807      28.49697256      10.52195682 
S       6.54428425      28.49697256       5.22854404 
S       1.63052122      28.49697256       7.30448237 
S       0.03612777      30.65698243       5.00000000 
S       0.03612777      24.52639604       5.00000000 
S       8.13867769      30.36529413      12.90300986 
S       2.82906942      30.36529413      10.14144747 
S       7.74283711      30.36529413       8.06550108 
S       1.23467598      32.17587182       7.83696509 
S       6.54428425      32.17587182      10.59852749 
S       1.63051657      32.17587182      12.67447388 
S       0.03612312      23.29920600      10.36999151 
S       0.03612312      28.20528426      10.36999151 
S       3.48812630      23.00750666      10.21801814 
S       7.47961151      23.00750666       7.45645574 
S       3.09228572      23.00750666       5.38050935 
S       5.88521807      24.81808434       5.15197337 
S       1.89373286      24.81808434       7.91353577 
S       6.28105865      24.81808434       9.98948215 
S       4.68667916      26.97809421       7.68499173 
S       4.68667916      31.88417248       7.68499173 
Mo       0.93279969      37.41085405       6.30276466 
Mo       5.36657514      37.41085405      11.62706025 
Mo       7.76066265      37.41085405       5.12515027 
Mo       3.79000259      39.84587581      11.75221857 
Mo       8.65732062      39.84587581       6.42792299 
Mo       6.26323311      39.84587581      12.92983296 
Mo       0.93279504      41.08975331      11.67275617 
Mo       0.71602375      41.08975331       8.94206852 
Mo       7.76065800      41.08975331      10.49514178 
Mo       8.44055863      43.52476403       9.06721879 
Mo       8.65732062      43.52476403      11.79790644 
Mo       1.61269102      43.52476403      10.24484123 
Mo       5.58333713      33.73196583       8.98776444 
Mo       5.36657514      33.73196583       6.25707679 
Mo       3.11011126      33.73196583       7.81014200 
Mo       3.79000724      36.16697655       6.38222707 
Mo       4.00677853      36.16697655       9.11291471 
Mo       6.26323776      36.16697655       7.55984145 
S       8.13867769      37.72308161       7.53302641 
S       7.47961151      37.72308161      12.82643919 
S       3.09228107      37.72308161      10.75050086 
S       5.88521807      39.53364825      10.52195682 
S       6.54428425      39.53364825       5.22854404 
S       1.63052122      39.53364825       7.30448237 
S       0.03612777      41.69365813       5.00000000 
S       0.03612777      35.56307173       5.00000000 
S       8.13867769      41.40196982      12.90300986 
S       2.82906942      41.40196982      10.14144747 
S       7.74283711      41.40196982       8.06550108 
S       1.23467598      43.21254751       7.83696509 
S       6.54428425      43.21254751      10.59852749 
S       1.63051657      43.21254751      12.67447388 
S       0.03612312      34.33588169      10.36999151 
S       0.03612312      39.24195995      10.36999151 
S       3.48812630      34.04418235      10.21801814 
S       7.47961151      34.04418235       7.45645574 
S       3.09228572      34.04418235       5.38050935 
S       5.88521807      35.85476003       5.15197337 
S       1.89373286      35.85476003       7.91353577 
S       6.28105865      35.85476003       9.98948215 
S       4.68667916      38.01476991       7.68499173 
S       4.68667916      42.92084817       7.68499173 
Mo      10.23389316      26.37417836       6.30276466 
Mo      14.66766862      26.37417836      11.62706025 
Mo      17.06175613      26.37417836       5.12515027 
Mo      13.09109607      28.80920012      11.75221857 
Mo      17.95841409      28.80920012       6.42792299 
Mo      15.56432658      28.80920012      12.92983296 
Mo      10.23388851      30.05307761      11.67275617 
Mo      10.01711723      30.05307761       8.94206852 
Mo      17.06175148      30.05307761      10.49514178 
Mo      17.74165211      32.48808833       9.06721879 
Mo      17.95841409      32.48808833      11.79790644 
Mo      10.91378450      32.48808833      10.24484123 
Mo      14.88443060      22.69529014       8.98776444 
Mo      14.66766862      22.69529014       6.25707679 
Mo      12.41120474      22.69529014       7.81014200 
Mo      13.09110072      25.13030086       6.38222707 
Mo      13.30787200      25.13030086       9.11291471 
Mo      15.56433123      25.13030086       7.55984145 
S      17.43977117      26.68640591       7.53302641 
S      16.78070499      26.68640591      12.82643919 
S      12.39337454      26.68640591      10.75050086 
S      15.18631154      28.49697256      10.52195682 
S      15.84537772      28.49697256       5.22854404 
S      10.93161469      28.49697256       7.30448237 
S       9.33722125      30.65698243       5.00000000 
S       9.33722125      24.52639604       5.00000000 
S      17.43977117      30.36529413      12.90300986 
S      12.13016290      30.36529413      10.14144747 
S      17.04393058      30.36529413       8.06550108 
S      10.53576945      32.17587182       7.83696509 
S      15.84537772      32.17587182      10.59852749 
S      10.93161004      32.17587182      12.67447388 
S       9.33721660      23.29920600      10.36999151 
S       9.33721660      28.20528426      10.36999151 
S      12.78921978      23.00750666      10.21801814 
S      16.78070499      23.00750666       7.45645574 
S      12.39337919      23.00750666       5.38050935 
S      15.18631154      24.81808434       5.15197337 
S      11.19482634      24.81808434       7.91353577 
S      15.58215213      24.81808434       9.98948215 
S      13.98777264      26.97809421       7.68499173 
S      13.98777264      31.88417248       7.68499173 
Mo      10.23389316      37.41085405       6.30276466 
Mo      14.66766862      37.41085405      11.62706025 
Mo      17.06175613      37.41085405       5.12515027 
Mo      13.09109607      39.84587581      11.75221857 
Mo      17.95841409      39.84587581       6.42792299 
Mo      15.56432658      39.84587581      12.92983296 
Mo      10.23388851      41.08975331      11.67275617 
Mo      10.01711723      41.08975331       8.94206852 
Mo      17.06175148      41.08975331      10.49514178 
Mo      17.74165211      43.52476403       9.06721879 
Mo      17.95841409      43.52476403      11.79790644 
Mo      10.91378450      43.52476403      10.24484123 
Mo      14.88443060      33.73196583       8.98776444 
Mo      14.66766862      33.73196583       6.25707679 
Mo      12.41120474      33.73196583       7.81014200 
Mo      13.09110072      36.16697655       6.38222707 
Mo      13.30787200      36.16697655       9.11291471 
Mo      15.56433123      36.16697655       7.55984145 
S      17.43977117      37.72308161       7.53302641 
S      16.78070499      37.72308161      12.82643919 
S      12.39337454      37.72308161      10.75050086 
S      15.18631154      39.53364825      10.52195682 
S      15.84537772      39.53364825       5.22854404 
S      10.93161469      39.53364825       7.30448237 
S       9.33722125      41.69365813       5.00000000 
S       9.33722125      35.56307173       5.00000000 
S      17.43977117      41.40196982      12.90300986 
S      12.13016290      41.40196982      10.14144747 
S      17.04393058      41.40196982       8.06550108 
S      10.53576945      43.21254751       7.83696509 
S      15.84537772      43.21254751      10.59852749 
S      10.93161004      43.21254751      12.67447388 
S       9.33721660      34.33588169      10.36999151 
S       9.33721660      39.24195995      10.36999151 
S      12.78921978      34.04418235      10.21801814 
S      16.78070499      34.04418235       7.45645574 
S      12.39337919      34.04418235       5.38050935 
S      15.18631154      35.85476003       5.15197337 
S      11.19482634      35.85476003       7.91353577 
S      15.58215213      35.85476003       9.98948215 
S      13.98777264      38.01476991       7.68499173 
S      13.98777264      42.92084817       7.68499173 
Mo      19.53498664       4.30082697       6.30276466 
Mo      23.96876209       4.30082697      11.62706025 
Mo      26.36284960       4.30082697       5.12515027 
Mo      22.39218954       6.73584873      11.75221857 
Mo      27.25950757       6.73584873       6.42792299 
Mo      24.86542006       6.73584873      12.92983296 
Mo      19.53498199       7.97972622      11.67275617 
Mo      19.31821070       7.97972622       8.94206852 
Mo      26.36284495       7.97972622      10.49514178 
Mo      27.04274558      10.41473694       9.06721879 
Mo      27.25950757      10.41473694      11.79790644 
Mo      20.21487797      10.41473694      10.24484123 
Mo      24.18552408       0.62193875       8.98776444 
Mo      23.96876209       0.62193875       6.25707679 
Mo      21.71229821       0.62193875       7.81014200 
Mo      22.39219419       3.05694947       6.38222707 
Mo      22.60896548       3.05694947       9.11291471 
Mo      24.86542471       3.05694947       7.55984145 
S      26.74086464       4.61305452       7.53302641 
S      26.08179846       4.61305452      12.82643919 
S      21.69446802       4.61305452      10.75050086 
S      24.48740502       6.42362117      10.52195682 
S      25.14647120       6.42362117       5.22854404 
S      20.23270817       6.42362117       7.30448237 
S      18.63831472       8.58363104       5.00000000 
S      18.63831472       2.45304465       5.00000000 
S      26.74086464       8.29194274      12.90300986 
S      21.43125637       8.29194274      10.14144747 
S      26.34502406       8.29194274       8.06550108 
S      19.83686293      10.10252043       7.83696509 
S      25.14647120      10.10252043      10.59852749 
S      20.23270352      10.10252043      12.67447388 
S      18.63831007       1.22585461      10.36999151 
S      18.63831007       6.13193287      10.36999151 
S      22.09031325       0.93415527      10.21801814 
S      26.08179846       0.93415527       7.45645574 
S      21.69447267       0.93415527       5.38050935 
S      24.48740502       2.74473295       5.15197337 
S      20.49591981       2.74473295       7.91353577 
S      24.88324560       2.74473295       9.98948215 
S      23.28886611       4.90474282       7.68499173 
S      23.28886611       9.81082109       7.68499173 
Mo      19.53498664      15.33750266       6.30276466 
Mo      23.96876209      15.33750266      11.62706025 
Mo      26.36284960      15.33750266       5.12515027 
Mo      22.39218954      17.77252442      11.75221857 
Mo      27.25950757      17.77252442       6.42792299 
Mo      24.86542006      17.77252442      12.92983296 
Mo      19.53498199      19.01640192      11.67275617 
Mo      19.31821070      19.01640192       8.94206852 
Mo      26.36284495      19.01640192      10.49514178 
Mo      27.04274558      21.45141264       9.06721879 
Mo      27.25950757      21.45141264      11.79790644 
Mo      20.21487797      21.45141264      10.24484123 
Mo      24.18552408      11.65861444       8.98776444 
Mo      23.96876209      11.65861444       6.25707679 
Mo      21.71229821      11.65861444       7.81014200 
Mo      22.39219419      14.09362516       6.38222707 
Mo      22.60896548      14.09362516       9.11291471 
Mo      24.86542471      14.09362516       7.55984145 
S      26.74086464      15.64973022       7.53302641 
S      26.08179846      15.64973022      12.82643919 
S      21.69446802      15.64973022      10.75050086 
S      24.48740502      17.46029686      10.52195682 
S      25.14647120      17.46029686       5.22854404 
S      20.23270817      17.46029686       7.30448237 
S      18.63831472      19.62030674       5.00000000 
S      18.63831472      13.48972034       5.00000000 
S      26.74086464      19.32861843      12.90300986 
S      21.43125637      19.32861843      10.14144747 
S      26.34502406      19.32861843       8.06550108 
S      19.83686293      21.13919612       7.83696509 
S      25.14647120      21.13919612      10.59852749 
S      20.23270352      21.13919612      12.67447388 
S      18.63831007      12.26253030      10.36999151 
S      18.63831007      17.16860856      10.36999151 
S      22.09031325      11.97083096      10.21801814 
S      26.08179846      11.97083096       7.45645574 
S      21.69447267      11.97083096       5.38050935 
S      24.48740502      13.78140864       5.15197337 
S      20.49591981      13.78140864       7.91353577 
S      24.88324560      13.78140864       9.98948215 
S      23.28886611      15.94141852       7.68499173 
S      23.28886611      20.84749678       7.68499173 
Mo      28.83608011       4.30082697       6.30276466 
Mo      33.26985557       4.30082697      11.62706025 
Mo      35.66394308       4.30082697       5.12515027 
Mo      31.69328302       6.73584873      11.75221857 
Mo      36.56060104       6.73584873       6.42792299 
Mo      34.16651353       6.73584873      12.92983296 
Mo      28.83607546       7.97972622      11.67275617 
Mo      28.61930418       7.97972622       8.94206852 
Mo      35.66393843       7.97972622      10.49514178 
Mo      36.34383906      10.41473694       9.06721879 
Mo      36.56060104      10.41473694      11.79790644 
Mo      29.51597145      10.41473694      10.24484123 
Mo      33.48661755       0.62193875       8.98776444 
Mo      33.26985557       0.62193875       6.25707679 
Mo      31.01339169       0.62193875       7.81014200 
Mo      31.69328767       3.05694947       6.38222707 
Mo      31.91005895       3.05694947       9.11291471 
Mo      34.16651818       3.05694947       7.55984145 
S      36.04195812       4.61305452       7.53302641 
S      35.38289194       4.61305452      12.82643919 
S      30.99556149       4.61305452      10.75050086 
S      33.78849849       6.42362117      10.52195682 
S      34.44756467       6.42362117       5.22854404 
S      29.53380164       6.42362117       7.30448237 
S      27.93940820       8.58363104       5.00000000 
S      27.93940820       2.45304465       5.00000000 
S      36.04195812       8.29194274      12.90300986 
S      30.73234985       8.29194274      10.14144747 
S      35.64611753       8.29194274       8.06550108 
S      29.13795640      10.10252043       7.83696509 
S      34.44756467      10.10252043      10.59852749 
S      29.53379699      10.10252043      12.67447388 
S      27.93940355       1.22585461      10.36999151 
S      27.93940355       6.13193287      10.36999151 
S      31.39140673       0.93415527      10.21801814 
S      35.38289194       0.93415527       7.45645574 
S      30.99556614       0.93415527       5.38050935 
S      33.78849849       2.74473295       5.15197337 
S      29.79701329       2.74473295       7.91353577 
S      34.18433908       2.74473295       9.98948215 
S      32.58995959       4.90474282       7.68499173 
S      32.58995959       9.81082109       7.68499173 
Mo      28.83608011      15.33750266       6.30276466 
Mo      33.26985557      15.33750266      11.62706025 
Mo      35.66394308      15.33750266       5.12515027 
Mo      31.69328302      17.77252442      11.75221857 
Mo      36.56060104      17.77252442       6.42792299 
Mo      34.16651353      17.77252442      12.92983296 
Mo      28.83607546      19.01640192      11.67275617 
Mo      28.61930418      19.01640192       8.94206852 
Mo      35.66393843      19.01640192      10.49514178 
Mo      36.34383906      21.45141264       9.06721879 
Mo      36.56060104      21.45141264      11.79790644 
Mo      29.51597145      21.45141264      10.24484123 
Mo      33.48661755      11.65861444       8.98776444 
Mo      33.26985557      11.65861444       6.25707679 
Mo      31.01339169      11.65861444       7.81014200 
Mo      31.69328767      14.09362516       6.38222707 
Mo      31.91005895      14.09362516       9.11291471 
Mo      34.16651818      14.09362516       7.55984145 
S      36.04195812      15.64973022       7.53302641 
S      35.38289194      15.64973022      12.82643919 
S      30.99556149      15.64973022      10.75050086 
S      33.78849849      17.46029686      10.52195682 
S      34.44756467      17.46029686       5.22854404 
S      29.53380164      17.46029686       7.30448237 
S      27.93940820      19.62030674       5.00000000 
S      27.93940820      13.48972034       5.00000000 
S      36.04195812      19.32861843      12.90300986 
S      30.73234985      19.32861843      10.14144747 
S      35.64611753      19.32861843       8.06550108 
S      29.13795640      21.13919612       7.83696509 
S      34.44756467      21.13919612      10.59852749 
S      29.53379699      21.13919612      12.67447388 
S      27.93940355      12.26253030      10.36999151 
S      27.93940355      17.16860856      10.36999151 
S      31.39140673      11.97083096      10.21801814 
S      35.38289194      11.97083096       7.45645574 
S      30.99556614      11.97083096       5.38050935 
S      33.78849849      13.78140864       5.15197337 
S      29.79701329      13.78140864       7.91353577 
S      34.18433908      13.78140864       9.98948215 
S      32.58995959      15.94141852       7.68499173 
S      32.58995959      20.84749678       7.68499173 
Mo      19.53498664      26.37417836       6.30276466 
Mo      23.96876209      26.37417836      11.62706025 
Mo      26.36284960      26.37417836       5.12515027 
Mo      22.39218954      28.80920012      11.75221857 
Mo      27.25950757      28.80920012       6.42792299 
Mo      24.86542006      28.80920012      12.92983296 
Mo      19.53498199      30.05307761      11.67275617 
Mo      19.31821070      30.05307761       8.94206852 
Mo      26.36284495      30.05307761      10.49514178 
Mo      27.04274558      32.48808833       9.06721879 
Mo      27.25950757      32.48808833      11.79790644 
Mo      20.21487797      32.48808833      10.24484123 
Mo      24.18552408      22.69529014       8.98776444 
Mo      23.96876209      22.69529014       6.25707679 
Mo      21.71229821      22.69529014       7.81014200 
Mo      22.39219419      25.13030086       6.38222707 
Mo      22.60896548      25.13030086       9.11291471 
Mo      24.86542471      25.13030086       7.55984145 
S      26.74086464      26.68640591       7.53302641 
S      26.08179846      26.68640591      12.82643919 
S      21.69446802      26.68640591      10.75050086 
S      24.48740502      28.49697256      10.52195682 
S      25.14647120      28.49697256       5.22854404 
S      20.23270817      28.49697256       7.30448237 
S      18.63831472      30.65698243       5.00000000 
S      18.63831472      24.52639604       5.00000000 
S      26.74086464      30.36529413      12.90300986 
S      21.43125637      30.36529413      10.14144747 
S      26.34502406      30.36529413       8.06550108 
S      19.83686293      32.17587182       7.83696509 
S      25.14647120      32.17587182      10.59852749 
S      20.23270352      32.17587182      12.67447388 
S      18.63831007      23.29920600      10.36999151 
S      18.63831007      28.20528426      10.36999151 
S      22.09031325      23.00750666      10.21801814 
S      26.08179846      23.00750666       7.45645574 
S      21.69447267      23.00750666       5.38050935 
S      24.48740502      24.81808434       5.15197337 
S      20.49591981      24.81808434       7.91353577 
S      24.88324560      24.81808434       9.98948215 
S      23.28886611      26.97809421       7.68499173 
S      23.28886611      31.88417248       7.68499173 
Mo      19.53498664      37.41085405       6.30276466 
Mo      23.96876209      37.41085405      11.62706025 
Mo      26.36284960      37.41085405       5.12515027 
Mo      22.39218954      39.84587581      11.75221857 
Mo      27.25950757      39.84587581       6.42792299 
Mo      24.86542006      39.84587581      12.92983296 
Mo      19.53498199      41.08975331      11.67275617 
Mo      19.31821070      41.08975331       8.94206852 
Mo      26.36284495      41.08975331      10.49514178 
Mo      27.04274558      43.52476403       9.06721879 
Mo      27.25950757      43.52476403      11.79790644 
Mo      20.21487797      43.52476403      10.24484123 
Mo      24.18552408      33.73196583       8.98776444 
Mo      23.96876209      33.73196583       6.25707679 
Mo      21.71229821      33.73196583       7.81014200 
Mo      22.39219419      36.16697655       6.38222707 
Mo      22.60896548      36.16697655       9.11291471 
Mo      24.86542471      36.16697655       7.55984145 
S      26.74086464      37.72308161       7.53302641 
S      26.08179846      37.72308161      12.82643919 
S      21.69446802      37.72308161      10.75050086 
S      24.48740502      39.53364825      10.52195682 
S      25.14647120      39.53364825       5.22854404 
S      20.23270817      39.53364825       7.30448237 
S      18.63831472      41.69365813       5.00000000 
S      18.63831472      35.56307173       5.00000000 
S      26.74086464      41.40196982      12.90300986 
S      21.43125637      41.40196982      10.14144747 
S      26.34502406      41.40196982       8.06550108 
S      19.83686293      43.21254751       7.83696509 
S      25.14647120      43.21254751      10.59852749 
S      20.23270352      43.21254751      12.67447388 
S      18.63831007      34.33588169      10.36999151 
S      18.63831007      39.24195995      10.36999151 
S      22.09031325      34.04418235      10.21801814 
S      26.08179846      34.04418235       7.45645574 
S      21.69447267      34.04418235       5.38050935 
S      24.48740502      35.85476003       5.15197337 
S      20.49591981      35.85476003       7.91353577 
S      24.88324560      35.85476003       9.98948215 
S      23.28886611      38.01476991       7.68499173 
S      23.28886611      42.92084817       7.68499173 
Mo      28.83608011      26.37417836       6.30276466 
Mo      33.26985557      26.37417836      11.62706025 
Mo      35.66394308      26.37417836       5.12515027 
Mo      31.69328302      28.80920012      11.75221857 
Mo      36.56060104      28.80920012       6.42792299 
Mo      34.16651353      28.80920012      12.92983296 
Mo      28.83607546      30.05307761      11.67275617 
Mo      28.61930418      30.05307761       8.94206852 
Mo      35.66393843      30.05307761      10.49514178 
Mo      36.34383906      32.48808833       9.06721879 
Mo      36.56060104      32.48808833      11.79790644 
Mo      29.51597145      32.48808833      10.24484123 
Mo      33.48661755      22.69529014       8.98776444 
Mo      33.26985557      22.69529014       6.25707679 
Mo      31.01339169      22.69529014       7.81014200 
Mo      31.69328767      25.13030086       6.38222707 
Mo      31.91005895      25.13030086       9.11291471 
Mo      34.16651818      25.13030086       7.55984145 
S      36.04195812      26.68640591       7.53302641 
S      35.38289194      26.68640591      12.82643919 
S      30.99556149      26.68640591      10.75050086 
S      33.78849849      28.49697256      10.52195682 
S      34.44756467      28.49697256       5.22854404 
S      29.53380164      28.49697256       7.30448237 
S      27.93940820      30.65698243       5.00000000 
S      27.93940820      24.52639604       5.00000000 
S      36.04195812      30.36529413      12.90300986 
S      30.73234985      30.36529413      10.14144747 
S      35.64611753      30.36529413       8.06550108 
S      29.13795640      32.17587182       7.83696509 
S      34.44756467      32.17587182      10.59852749 
S      29.53379699      32.17587182      12.67447388 
S      27.93940355      23.29920600      10.36999151 
S      27.93940355      28.20528426      10.36999151 
S      31.39140673      23.00750666      10.21801814 
S      35.38289194      23.00750666       7.45645574 
S      30.99556614      23.00750666       5.38050935 
S      33.78849849      24.81808434       5.15197337 
S      29.79701329      24.81808434       7.91353577 
S      34.18433908      24.81808434       9.98948215 
S      32.58995959      26.97809421       7.68499173 
S      32.58995959      31.88417248       7.68499173 
Mo      28.83608011      37.41085405       6.30276466 
Mo      33.26985557      37.41085405      11.62706025 
Mo      35.66394308      37.41085405       5.12515027 
Mo      31.69328302      39.84587581      11.75221857 
Mo      36.56060104      39.84587581       6.42792299 
Mo      34.16651353      39.84587581      12.92983296 
Mo      28.83607546      41.08975331      11.67275617 
Mo      28.61930418      41.08975331       8.94206852 
Mo      35.66393843      41.08975331      10.49514178 
Mo      36.34383906      43.52476403       9.06721879 
Mo      36.56060104      43.52476403      11.79790644 
Mo      29.51597145      43.52476403      10.24484123 
Mo      33.48661755      33.73196583       8.98776444 
Mo      33.26985557      33.73196583       6.25707679 
Mo      31.01339169      33.73196583       7.81014200 
Mo      31.69328767      36.16697655       6.38222707 
Mo      31.91005895      36.16697655       9.11291471 
Mo      34.16651818      36.16697655       7.55984145 
S      36.04195812      37.72308161       7.53302641 
S      35.38289194      37.72308161      12.82643919 
S      30.99556149      37.72308161      10.75050086 
S      33.78849849      39.53364825      10.52195682 
S      34.44756467      39.53364825       5.22854404 
S      29.53380164      39.53364825       7.30448237 
S      27.93940820      41.69365813       5.00000000 
S      27.93940820      35.56307173       5.00000000 
S      36.04195812      41.40196982      12.90300986 
S      30.73234985      41.40196982      10.14144747 
S      35.64611753      41.40196982       8.06550108 
S      29.13795640      43.21254751       7.83696509 
S      34.44756467      43.21254751      10.59852749 
S      29.53379699      43.21254751      12.67447388 
S      27.93940355      34.33588169      10.36999151 
S      27.93940355      39.24195995      10.36999151 
S      31.39140673      34.04418235      10.21801814 
S      35.38289194      34.04418235       7.45645574 
S      30.99556614      34.04418235       5.38050935 
S      33.78849849      35.85476003       5.15197337 
S      29.79701329      35.85476003       7.91353577 
S      34.18433908      35.85476003       9.98948215 
S      32.58995959      38.01476991       7.68499173 
S      32.58995959      42.92084817       7.68499173 
