1344
Lattice="64.4398658628 0.0 0.0 3.9173807439e-31 44.1467027714 0.0 0.0 0.0 18.6211974942" Properties=species:S:1:pos:R:3 unit_cell=conventional pbc="T T F"
Mo      12.16789795       3.05694947      13.62119749 
Mo       6.75221052       6.73584873       8.75387947 
Mo       9.48289817       6.73584873       8.97065076 
Mo       8.18014156       4.30082697       8.07398349 
Mo       1.30277271       4.30082697       5.89666727 
Mo      14.68205153       4.30082697       5.67989598 
Mo      10.61482468       3.05694947       6.57656325 
Mo       1.38222707       3.05694947       8.75387947 
Mo       4.11291471       3.05694947       8.97065076 
Mo       2.81014200       0.62193875       8.07398349 
Mo      12.04274767       0.62193875       5.89666262 
Mo       9.31206003       0.62193875       5.67990063 
Mo       5.24484123      10.41473694       6.57656325 
Mo      12.12220203      10.41473694       8.75388412 
Mo      14.85288967      10.41473694       8.97064611 
Mo      13.55012501       7.97972622       8.07398349 
Mo       6.67275617       7.97972622       5.89666727 
Mo       3.94206852       7.97972622       5.67989598 
S       2.30448237       6.42362117       6.59439344 
S      13.57694005       6.42362117       6.19854356 
S       8.28352727       6.42362117       6.85760974 
S       5.75050086       4.61305452       8.05615329 
S      10.58800965       4.61305452       8.45200318 
S      15.88142243       4.61305452       7.79293700 
S       0.00000000       2.45304465       5.00000000 
S       0.00000000       8.58363104       5.00000000 
S      13.04445733       2.74473295       6.59438879 
S       8.20694855       2.74473295       6.19854821 
S       2.91352771       2.74473295       6.85760974 
S       0.38050935       0.93415527       8.05615794 
S       5.21801814       0.93415527       8.45199853 
S      10.51143897       0.93415527       7.79293700 
S      10.73998301       9.81082109       5.00000000 
S      10.73998301       4.90474282       5.00000000 
S       7.67447388      10.10252043       6.59438879 
S       2.83696509      10.10252043       6.19854821 
S      13.65351072      10.10252043       6.85760974 
S      11.12049237       8.29194274       8.05615794 
S      15.95800115       8.29194274       8.45199853 
S       5.14145552       8.29194274       7.79293700 
S       5.36998345       6.13193287       5.00000000 
S       5.36998345       1.22585461       5.00000000 
Mo       7.92982490       6.73584873      11.22710999 
Mo      14.80719375       6.73584873      13.40442621 
Mo       1.42791493       6.73584873      13.62119749 
Mo       0.12515833       4.30082697      12.72453023 
Mo       9.35775595       4.30082697      10.54721400 
Mo       6.62706830       4.30082697      10.33044272 
Mo       2.55984145       3.05694947      11.22710999 
Mo       9.43721030       3.05694947      13.40442621 
Mo      15.98480814       6.73584873       6.57656325 
Mo      10.86512523       0.62193875      12.72453023 
Mo       3.98776444       0.62193875      10.54720935 
Mo       1.25707679       0.62193875      10.33044737 
Mo      13.29982447      10.41473694      11.22710999 
Mo       4.06721879      10.41473694      13.40443086 
Mo       6.79790644      10.41473694      13.62119284 
Mo       5.49514178       7.97972622      12.72453023 
Mo      14.72773940       7.97972622      10.54721400 
Mo      11.99705175       7.97972622      10.33044272 
S      10.35946561       6.42362117      11.24494018 
S       5.52195682       6.42362117      10.84909029 
S       0.22854404       6.42362117      11.50815648 
S      13.80548409       4.61305452      12.70670003 
S       2.53302641       4.61305452      13.10254992 
S       7.82643919       4.61305452      12.44348374 
S       8.05498323       2.45304465       9.65054674 
S       8.05498323       8.58363104       9.65054674 
S       4.98947410       2.74473295      11.24493553 
S       0.15196531       2.74473295      10.84909494 
S      10.96851094       2.74473295      11.50815648 
S       8.43549259       0.93415527      12.70670468 
S      13.27300137       0.93415527      13.10254527 
S       2.45645574       0.93415527      12.44348374 
S       2.68499978       9.81082109       9.65054674 
S       2.68499978       4.90474282       9.65054674 
S      15.72945711      10.10252043      11.24493553 
S      10.89194833      10.10252043      10.84909494 
S       5.59852749      10.10252043      11.50815648 
S       3.06550913       8.29194274      12.70670468 
S       7.90301792       8.29194274      13.10254527 
S      13.19643876       8.29194274      12.44348374 
S      13.42496668       6.13193287       9.65054674 
S      13.42496668       1.22585461       9.65054674 
Mo      15.98480814      17.77252442       6.57656325 
Mo       6.75221052      17.77252442       8.75387947 
Mo       9.48289817      17.77252442       8.97065076 
Mo       8.18014156      15.33750266       8.07398349 
Mo       1.30277271      15.33750266       5.89666727 
Mo      14.68205153      15.33750266       5.67989598 
Mo      10.61482468      14.09362516       6.57656325 
Mo       1.38222707      14.09362516       8.75387947 
Mo       4.11291471      14.09362516       8.97065076 
Mo       2.81014200      11.65861444       8.07398349 
Mo      12.04274767      11.65861444       5.89666262 
Mo       9.31206003      11.65861444       5.67990063 
Mo       5.24484123      21.45141264       6.57656325 
Mo      12.12220203      21.45141264       8.75388412 
Mo      14.85288967      21.45141264       8.97064611 
Mo      13.55012501      19.01640192       8.07398349 
Mo       6.67275617      19.01640192       5.89666727 
Mo       3.94206852      19.01640192       5.67989598 
S       2.30448237      17.46029686       6.59439344 
S      13.57694005      17.46029686       6.19854356 
S       8.28352727      17.46029686       6.85760974 
S       5.75050086      15.64973022       8.05615329 
S      10.58800965      15.64973022       8.45200318 
S      15.88142243      15.64973022       7.79293700 
S       0.00000000      13.48972034       5.00000000 
S       0.00000000      19.62030674       5.00000000 
S      13.04445733      13.78140864       6.59438879 
S       8.20694855      13.78140864       6.19854821 
S       2.91352771      13.78140864       6.85760974 
S       0.38050935      11.97083096       8.05615794 
S       5.21801814      11.97083096       8.45199853 
S      10.51143897      11.97083096       7.79293700 
S      10.73998301      20.84749678       5.00000000 
S      10.73998301      15.94141852       5.00000000 
S       7.67447388      21.13919612       6.59438879 
S       2.83696509      21.13919612       6.19854821 
S      13.65351072      21.13919612       6.85760974 
S      11.12049237      19.32861843       8.05615794 
S      15.95800115      19.32861843       8.45199853 
S       5.14145552      19.32861843       7.79293700 
S       5.36998345      17.16860856       5.00000000 
S       5.36998345      12.26253030       5.00000000 
Mo       7.92982490      17.77252442      11.22710999 
Mo      14.80719375      17.77252442      13.40442621 
Mo       1.42791493      17.77252442      13.62119749 
Mo       0.12515833      15.33750266      12.72453023 
Mo       9.35775595      15.33750266      10.54721400 
Mo       6.62706830      15.33750266      10.33044272 
Mo       2.55984145      14.09362516      11.22710999 
Mo       9.43721030      14.09362516      13.40442621 
Mo      12.16789795      14.09362516      13.62119749 
Mo      10.86512523      11.65861444      12.72453023 
Mo       3.98776444      11.65861444      10.54720935 
Mo       1.25707679      11.65861444      10.33044737 
Mo      13.29982447      21.45141264      11.22710999 
Mo       4.06721879      21.45141264      13.40443086 
Mo       6.79790644      21.45141264      13.62119284 
Mo       5.49514178      19.01640192      12.72453023 
Mo      14.72773940      19.01640192      10.54721400 
Mo      11.99705175      19.01640192      10.33044272 
S      10.35946561      17.46029686      11.24494018 
S       5.52195682      17.46029686      10.84909029 
S       0.22854404      17.46029686      11.50815648 
S      13.80548409      15.64973022      12.70670003 
S       2.53302641      15.64973022      13.10254992 
S       7.82643919      15.64973022      12.44348374 
S       8.05498323      13.48972034       9.65054674 
S       8.05498323      19.62030674       9.65054674 
S       4.98947410      13.78140864      11.24493553 
S       0.15196531      13.78140864      10.84909494 
S      10.96851094      13.78140864      11.50815648 
S       8.43549259      11.97083096      12.70670468 
S      13.27300137      11.97083096      13.10254527 
S       2.45645574      11.97083096      12.44348374 
S       2.68499978      20.84749678       9.65054674 
S       2.68499978      15.94141852       9.65054674 
S      15.72945711      21.13919612      11.24493553 
S      10.89194833      21.13919612      10.84909494 
S       5.59852749      21.13919612      11.50815648 
S       3.06550913      19.32861843      12.70670468 
S       7.90301792      19.32861843      13.10254527 
S      13.19643876      19.32861843      12.44348374 
S      13.42496668      17.16860856       9.65054674 
S      13.42496668      12.26253030       9.65054674 
Mo      32.09477460       6.73584873       6.57656325 
Mo      22.86217699       6.73584873       8.75387947 
Mo      25.59286463       6.73584873       8.97065076 
Mo      24.29010803       4.30082697       8.07398349 
Mo      17.41273918       4.30082697       5.89666727 
Mo      30.79201800       4.30082697       5.67989598 
Mo      26.72479115       3.05694947       6.57656325 
Mo      17.49219353       3.05694947       8.75387947 
Mo      20.22288118       3.05694947       8.97065076 
Mo      18.92010847       0.62193875       8.07398349 
Mo      28.15271414       0.62193875       5.89666262 
Mo      25.42202649       0.62193875       5.67990063 
Mo      21.35480770      10.41473694       6.57656325 
Mo      28.23216849      10.41473694       8.75388412 
Mo      30.96285614      10.41473694       8.97064611 
Mo      29.66009148       7.97972622       8.07398349 
Mo      22.78272263       7.97972622       5.89666727 
Mo      20.05203498       7.97972622       5.67989598 
S      18.41444884       6.42362117       6.59439344 
S      29.68690652       6.42362117       6.19854356 
S      24.39349374       6.42362117       6.85760974 
S      21.86046733       4.61305452       8.05615329 
S      26.69797611       4.61305452       8.45200318 
S      31.99138889       4.61305452       7.79293700 
S      16.10996647       2.45304465       5.00000000 
S      16.10996647       8.58363104       5.00000000 
S      29.15442380       2.74473295       6.59438879 
S      24.31691501       2.74473295       6.19854821 
S      19.02349418       2.74473295       6.85760974 
S      16.49047582       0.93415527       8.05615794 
S      21.32798460       0.93415527       8.45199853 
S      26.62140544       0.93415527       7.79293700 
S      26.84994948       9.81082109       5.00000000 
S      26.84994948       4.90474282       5.00000000 
S      23.78444035      10.10252043       6.59438879 
S      18.94693156      10.10252043       6.19854821 
S      29.76347719      10.10252043       6.85760974 
S      27.23045883       8.29194274       8.05615794 
S      32.06796762       8.29194274       8.45199853 
S      21.25142199       8.29194274       7.79293700 
S      21.47994992       6.13193287       5.00000000 
S      21.47994992       1.22585461       5.00000000 
Mo      24.03979137       6.73584873      11.22710999 
Mo      30.91716022       6.73584873      13.40442621 
Mo      17.53788140       6.73584873      13.62119749 
Mo      16.23512480       4.30082697      12.72453023 
Mo      25.46772241       4.30082697      10.54721400 
Mo      22.73703477       4.30082697      10.33044272 
Mo      18.66980792       3.05694947      11.22710999 
Mo      25.54717677       3.05694947      13.40442621 
Mo      28.27786441       3.05694947      13.62119749 
Mo      26.97509170       0.62193875      12.72453023 
Mo      20.09773090       0.62193875      10.54720935 
Mo      17.36704326       0.62193875      10.33044737 
Mo      29.40979093      10.41473694      11.22710999 
Mo      20.17718526      10.41473694      13.40443086 
Mo      22.90787291      10.41473694      13.62119284 
Mo      21.60510825       7.97972622      12.72453023 
Mo      30.83770586       7.97972622      10.54721400 
Mo      28.10701822       7.97972622      10.33044272 
S      26.46943207       6.42362117      11.24494018 
S      21.63192329       6.42362117      10.84909029 
S      16.33851050       6.42362117      11.50815648 
S      29.91545056       4.61305452      12.70670003 
S      18.64299288       4.61305452      13.10254992 
S      23.93640566       4.61305452      12.44348374 
S      24.16494970       2.45304465       9.65054674 
S      24.16494970       8.58363104       9.65054674 
S      21.09944056       2.74473295      11.24493553 
S      16.26193178       2.74473295      10.84909494 
S      27.07847741       2.74473295      11.50815648 
S      24.54545905       0.93415527      12.70670468 
S      29.38296784       0.93415527      13.10254527 
S      18.56642221       0.93415527      12.44348374 
S      18.79496625       9.81082109       9.65054674 
S      18.79496625       4.90474282       9.65054674 
S      31.83942358      10.10252043      11.24493553 
S      27.00191479      10.10252043      10.84909494 
S      21.70849396      10.10252043      11.50815648 
S      19.17547560       8.29194274      12.70670468 
S      24.01298438       8.29194274      13.10254527 
S      29.30640522       8.29194274      12.44348374 
S      29.53493315       6.13193287       9.65054674 
S      29.53493315       1.22585461       9.65054674 
Mo      32.09477460      17.77252442       6.57656325 
Mo      22.86217699      17.77252442       8.75387947 
Mo      25.59286463      17.77252442       8.97065076 
Mo      24.29010803      15.33750266       8.07398349 
Mo      17.41273918      15.33750266       5.89666727 
Mo      30.79201800      15.33750266       5.67989598 
Mo      26.72479115      14.09362516       6.57656325 
Mo      17.49219353      14.09362516       8.75387947 
Mo      20.22288118      14.09362516       8.97065076 
Mo      18.92010847      11.65861444       8.07398349 
Mo      28.15271414      11.65861444       5.89666262 
Mo      25.42202649      11.65861444       5.67990063 
Mo      21.35480770      21.45141264       6.57656325 
Mo      28.23216849      21.45141264       8.75388412 
Mo      30.96285614      21.45141264       8.97064611 
Mo      29.66009148      19.01640192       8.07398349 
Mo      22.78272263      19.01640192       5.89666727 
Mo      20.05203498      19.01640192       5.67989598 
S      18.41444884      17.46029686       6.59439344 
S      29.68690652      17.46029686       6.19854356 
S      24.39349374      17.46029686       6.85760974 
S      21.86046733      15.64973022       8.05615329 
S      26.69797611      15.64973022       8.45200318 
S      31.99138889      15.64973022       7.79293700 
S      16.10996647      13.48972034       5.00000000 
S      16.10996647      19.62030674       5.00000000 
S      29.15442380      13.78140864       6.59438879 
S      24.31691501      13.78140864       6.19854821 
S      19.02349418      13.78140864       6.85760974 
S      16.49047582      11.97083096       8.05615794 
S      21.32798460      11.97083096       8.45199853 
S      26.62140544      11.97083096       7.79293700 
S      26.84994948      20.84749678       5.00000000 
S      26.84994948      15.94141852       5.00000000 
S      23.78444035      21.13919612       6.59438879 
S      18.94693156      21.13919612       6.19854821 
S      29.76347719      21.13919612       6.85760974 
S      27.23045883      19.32861843       8.05615794 
S      32.06796762      19.32861843       8.45199853 
S      21.25142199      19.32861843       7.79293700 
S      21.47994992      17.16860856       5.00000000 
S      21.47994992      12.26253030       5.00000000 
Mo      24.03979137      17.77252442      11.22710999 
Mo      30.91716022      17.77252442      13.40442621 
Mo      17.53788140      17.77252442      13.62119749 
Mo      16.23512480      15.33750266      12.72453023 
Mo      25.46772241      15.33750266      10.54721400 
Mo      22.73703477      15.33750266      10.33044272 
Mo      18.66980792      14.09362516      11.22710999 
Mo      25.54717677      14.09362516      13.40442621 
Mo      28.27786441      14.09362516      13.62119749 
Mo      26.97509170      11.65861444      12.72453023 
Mo      20.09773090      11.65861444      10.54720935 
Mo      17.36704326      11.65861444      10.33044737 
Mo      29.40979093      21.45141264      11.22710999 
Mo      20.17718526      21.45141264      13.40443086 
Mo      22.90787291      21.45141264      13.62119284 
Mo      21.60510825      19.01640192      12.72453023 
Mo      30.83770586      19.01640192      10.54721400 
Mo      28.10701822      19.01640192      10.33044272 
S      26.46943207      17.46029686      11.24494018 
S      21.63192329      17.46029686      10.84909029 
S      16.33851050      17.46029686      11.50815648 
S      29.91545056      15.64973022      12.70670003 
S      18.64299288      15.64973022      13.10254992 
S      23.93640566      15.64973022      12.44348374 
S      24.16494970      13.48972034       9.65054674 
S      24.16494970      19.62030674       9.65054674 
S      21.09944056      13.78140864      11.24493553 
S      16.26193178      13.78140864      10.84909494 
S      27.07847741      13.78140864      11.50815648 
S      24.54545905      11.97083096      12.70670468 
S      29.38296784      11.97083096      13.10254527 
S      18.56642221      11.97083096      12.44348374 
S      18.79496625      20.84749678       9.65054674 
S      18.79496625      15.94141852       9.65054674 
S      31.83942358      21.13919612      11.24493553 
S      27.00191479      21.13919612      10.84909494 
S      21.70849396      21.13919612      11.50815648 
S      19.17547560      19.32861843      12.70670468 
S      24.01298438      19.32861843      13.10254527 
S      29.30640522      19.32861843      12.44348374 
S      29.53493315      17.16860856       9.65054674 
S      29.53493315      12.26253030       9.65054674 
Mo      15.98480814      28.80920012       6.57656325 
Mo       6.75221052      28.80920012       8.75387947 
Mo       9.48289817      28.80920012       8.97065076 
Mo       8.18014156      26.37417836       8.07398349 
Mo       1.30277271      26.37417836       5.89666727 
Mo      14.68205153      26.37417836       5.67989598 
Mo      10.61482468      25.13030086       6.57656325 
Mo       1.38222707      25.13030086       8.75387947 
Mo       4.11291471      25.13030086       8.97065076 
Mo       2.81014200      22.69529014       8.07398349 
Mo      12.04274767      22.69529014       5.89666262 
Mo       9.31206003      22.69529014       5.67990063 
Mo       5.24484123      32.48808833       6.57656325 
Mo      12.12220203      32.48808833       8.75388412 
Mo      14.85288967      32.48808833       8.97064611 
Mo      13.55012501      30.05307761       8.07398349 
Mo       6.67275617      30.05307761       5.89666727 
Mo       3.94206852      30.05307761       5.67989598 
S       2.30448237      28.49697256       6.59439344 
S      13.57694005      28.49697256       6.19854356 
S       8.28352727      28.49697256       6.85760974 
S       5.75050086      26.68640591       8.05615329 
S      10.58800965      26.68640591       8.45200318 
S      15.88142243      26.68640591       7.79293700 
S       0.00000000      24.52639604       5.00000000 
S       0.00000000      30.65698243       5.00000000 
S      13.04445733      24.81808434       6.59438879 
S       8.20694855      24.81808434       6.19854821 
S       2.91352771      24.81808434       6.85760974 
S       0.38050935      23.00750666       8.05615794 
S       5.21801814      23.00750666       8.45199853 
S      10.51143897      23.00750666       7.79293700 
S      10.73998301      31.88417248       5.00000000 
S      10.73998301      26.97809421       5.00000000 
S       7.67447388      32.17587182       6.59438879 
S       2.83696509      32.17587182       6.19854821 
S      13.65351072      32.17587182       6.85760974 
S      11.12049237      30.36529413       8.05615794 
S      15.95800115      30.36529413       8.45199853 
S       5.14145552      30.36529413       7.79293700 
S       5.36998345      28.20528426       5.00000000 
S       5.36998345      23.29920600       5.00000000 
Mo       7.92982490      28.80920012      11.22710999 
Mo      14.80719375      28.80920012      13.40442621 
Mo       1.42791493      28.80920012      13.62119749 
Mo       0.12515833      26.37417836      12.72453023 
Mo       9.35775595      26.37417836      10.54721400 
Mo       6.62706830      26.37417836      10.33044272 
Mo       2.55984145      25.13030086      11.22710999 
Mo       9.43721030      25.13030086      13.40442621 
Mo      12.16789795      25.13030086      13.62119749 
Mo      10.86512523      22.69529014      12.72453023 
Mo       3.98776444      22.69529014      10.54720935 
Mo       1.25707679      22.69529014      10.33044737 
Mo      13.29982447      32.48808833      11.22710999 
Mo       4.06721879      32.48808833      13.40443086 
Mo       6.79790644      32.48808833      13.62119284 
Mo       5.49514178      30.05307761      12.72453023 
Mo      14.72773940      30.05307761      10.54721400 
Mo      11.99705175      30.05307761      10.33044272 
S      10.35946561      28.49697256      11.24494018 
S       5.52195682      28.49697256      10.84909029 
S       0.22854404      28.49697256      11.50815648 
S      13.80548409      26.68640591      12.70670003 
S       2.53302641      26.68640591      13.10254992 
S       7.82643919      26.68640591      12.44348374 
S       8.05498323      24.52639604       9.65054674 
S       8.05498323      30.65698243       9.65054674 
S       4.98947410      24.81808434      11.24493553 
S       0.15196531      24.81808434      10.84909494 
S      10.96851094      24.81808434      11.50815648 
S       8.43549259      23.00750666      12.70670468 
S      13.27300137      23.00750666      13.10254527 
S       2.45645574      23.00750666      12.44348374 
S       2.68499978      31.88417248       9.65054674 
S       2.68499978      26.97809421       9.65054674 
S      15.72945711      32.17587182      11.24493553 
S      10.89194833      32.17587182      10.84909494 
S       5.59852749      32.17587182      11.50815648 
S       3.06550913      30.36529413      12.70670468 
S       7.90301792      30.36529413      13.10254527 
S      13.19643876      30.36529413      12.44348374 
S      13.42496668      28.20528426       9.65054674 
S      13.42496668      23.29920600       9.65054674 
Mo      15.98480814      39.84587581       6.57656325 
Mo       6.75221052      39.84587581       8.75387947 
Mo       9.48289817      39.84587581       8.97065076 
Mo       8.18014156      37.41085405       8.07398349 
Mo       1.30277271      37.41085405       5.89666727 
Mo      14.68205153      37.41085405       5.67989598 
Mo      10.61482468      36.16697655       6.57656325 
Mo       1.38222707      36.16697655       8.75387947 
Mo       4.11291471      36.16697655       8.97065076 
Mo       2.81014200      33.73196583       8.07398349 
Mo      12.04274767      33.73196583       5.89666262 
Mo       9.31206003      33.73196583       5.67990063 
Mo       5.24484123      43.52476403       6.57656325 
Mo      12.12220203      43.52476403       8.75388412 
Mo      14.85288967      43.52476403       8.97064611 
Mo      13.55012501      41.08975331       8.07398349 
Mo       6.67275617      41.08975331       5.89666727 
Mo       3.94206852      41.08975331       5.67989598 
S       2.30448237      39.53364825       6.59439344 
S      13.57694005      39.53364825       6.19854356 
S       8.28352727      39.53364825       6.85760974 
S       5.75050086      37.72308161       8.05615329 
S      10.58800965      37.72308161       8.45200318 
S      15.88142243      37.72308161       7.79293700 
S       0.00000000      35.56307173       5.00000000 
S       0.00000000      41.69365813       5.00000000 
S      13.04445733      35.85476003       6.59438879 
S       8.20694855      35.85476003       6.19854821 
S       2.91352771      35.85476003       6.85760974 
S       0.38050935      34.04418235       8.05615794 
S       5.21801814      34.04418235       8.45199853 
S      10.51143897      34.04418235       7.79293700 
S      10.73998301      42.92084817       5.00000000 
S      10.73998301      38.01476991       5.00000000 
S       7.67447388      43.21254751       6.59438879 
S       2.83696509      43.21254751       6.19854821 
S      13.65351072      43.21254751       6.85760974 
S      11.12049237      41.40196982       8.05615794 
S      15.95800115      41.40196982       8.45199853 
S       5.14145552      41.40196982       7.79293700 
S       5.36998345      39.24195995       5.00000000 
S       5.36998345      34.33588169       5.00000000 
Mo       7.92982490      39.84587581      11.22710999 
Mo      14.80719375      39.84587581      13.40442621 
Mo       1.42791493      39.84587581      13.62119749 
Mo       0.12515833      37.41085405      12.72453023 
Mo       9.35775595      37.41085405      10.54721400 
Mo       6.62706830      37.41085405      10.33044272 
Mo       2.55984145      36.16697655      11.22710999 
Mo       9.43721030      36.16697655      13.40442621 
Mo      12.16789795      36.16697655      13.62119749 
Mo      10.86512523      33.73196583      12.72453023 
Mo       3.98776444      33.73196583      10.54720935 
Mo       1.25707679      33.73196583      10.33044737 
Mo      13.29982447      43.52476403      11.22710999 
Mo       4.06721879      43.52476403      13.40443086 
Mo       6.79790644      43.52476403      13.62119284 
Mo       5.49514178      41.08975331      12.72453023 
Mo      14.72773940      41.08975331      10.54721400 
Mo      11.99705175      41.08975331      10.33044272 
S      10.35946561      39.53364825      11.24494018 
S       5.52195682      39.53364825      10.84909029 
S       0.22854404      39.53364825      11.50815648 
S      13.80548409      37.72308161      12.70670003 
S       2.53302641      37.72308161      13.10254992 
S       7.82643919      37.72308161      12.44348374 
S       8.05498323      35.56307173       9.65054674 
S       8.05498323      41.69365813       9.65054674 
S       4.98947410      35.85476003      11.24493553 
S       0.15196531      35.85476003      10.84909494 
S      10.96851094      35.85476003      11.50815648 
S       8.43549259      34.04418235      12.70670468 
S      13.27300137      34.04418235      13.10254527 
S       2.45645574      34.04418235      12.44348374 
S       2.68499978      42.92084817       9.65054674 
S       2.68499978      38.01476991       9.65054674 
S      15.72945711      43.21254751      11.24493553 
S      10.89194833      43.21254751      10.84909494 
S       5.59852749      43.21254751      11.50815648 
S       3.06550913      41.40196982      12.70670468 
S       7.90301792      41.40196982      13.10254527 
S      13.19643876      41.40196982      12.44348374 
S      13.42496668      39.24195995       9.65054674 
S      13.42496668      34.33588169       9.65054674 
Mo      32.09477460      28.80920012       6.57656325 
Mo      22.86217699      28.80920012       8.75387947 
Mo      25.59286463      28.80920012       8.97065076 
Mo      24.29010803      26.37417836       8.07398349 
Mo      17.41273918      26.37417836       5.89666727 
Mo      30.79201800      26.37417836       5.67989598 
Mo      26.72479115      25.13030086       6.57656325 
Mo      17.49219353      25.13030086       8.75387947 
Mo      20.22288118      25.13030086       8.97065076 
Mo      18.92010847      22.69529014       8.07398349 
Mo      28.15271414      22.69529014       5.89666262 
Mo      25.42202649      22.69529014       5.67990063 
Mo      21.35480770      32.48808833       6.57656325 
Mo      28.23216849      32.48808833       8.75388412 
Mo      30.96285614      32.48808833       8.97064611 
Mo      29.66009148      30.05307761       8.07398349 
Mo      22.78272263      30.05307761       5.89666727 
Mo      20.05203498      30.05307761       5.67989598 
S      18.41444884      28.49697256       6.59439344 
S      29.68690652      28.49697256       6.19854356 
S      24.39349374      28.49697256       6.85760974 
S      21.86046733      26.68640591       8.05615329 
S      26.69797611      26.68640591       8.45200318 
S      31.99138889      26.68640591       7.79293700 
S      16.10996647      24.52639604       5.00000000 
S      16.10996647      30.65698243       5.00000000 
S      29.15442380      24.81808434       6.59438879 
S      24.31691501      24.81808434       6.19854821 
S      19.02349418      24.81808434       6.85760974 
S      16.49047582      23.00750666       8.05615794 
S      21.32798460      23.00750666       8.45199853 
S      26.62140544      23.00750666       7.79293700 
S      26.84994948      31.88417248       5.00000000 
S      26.84994948      26.97809421       5.00000000 
S      23.78444035      32.17587182       6.59438879 
S      18.94693156      32.17587182       6.19854821 
S      29.76347719      32.17587182       6.85760974 
S      27.23045883      30.36529413       8.05615794 
S      32.06796762      30.36529413       8.45199853 
S      21.25142199      30.36529413       7.79293700 
S      21.47994992      28.20528426       5.00000000 
S      21.47994992      23.29920600       5.00000000 
Mo      24.03979137      28.80920012      11.22710999 
Mo      30.91716022      28.80920012      13.40442621 
Mo      17.53788140      28.80920012      13.62119749 
Mo      16.23512480      26.37417836      12.72453023 
Mo      25.46772241      26.37417836      10.54721400 
Mo      22.73703477      26.37417836      10.33044272 
Mo      18.66980792      25.13030086      11.22710999 
Mo      25.54717677      25.13030086      13.40442621 
Mo      28.27786441      25.13030086      13.62119749 
Mo      26.97509170      22.69529014      12.72453023 
Mo      20.09773090      22.69529014      10.54720935 
Mo      17.36704326      22.69529014      10.33044737 
Mo      29.40979093      32.48808833      11.22710999 
Mo      20.17718526      32.48808833      13.40443086 
Mo      22.90787291      32.48808833      13.62119284 
Mo      21.60510825      30.05307761      12.72453023 
Mo      30.83770586      30.05307761      10.54721400 
Mo      28.10701822      30.05307761      10.33044272 
S      26.46943207      28.49697256      11.24494018 
S      21.63192329      28.49697256      10.84909029 
S      16.33851050      28.49697256      11.50815648 
S      29.91545056      26.68640591      12.70670003 
S      18.64299288      26.68640591      13.10254992 
S      23.93640566      26.68640591      12.44348374 
S      24.16494970      24.52639604       9.65054674 
S      24.16494970      30.65698243       9.65054674 
S      21.09944056      24.81808434      11.24493553 
S      16.26193178      24.81808434      10.84909494 
S      27.07847741      24.81808434      11.50815648 
S      24.54545905      23.00750666      12.70670468 
S      29.38296784      23.00750666      13.10254527 
S      18.56642221      23.00750666      12.44348374 
S      18.79496625      31.88417248       9.65054674 
S      18.79496625      26.97809421       9.65054674 
S      31.83942358      32.17587182      11.24493553 
S      27.00191479      32.17587182      10.84909494 
S      21.70849396      32.17587182      11.50815648 
S      19.17547560      30.36529413      12.70670468 
S      24.01298438      30.36529413      13.10254527 
S      29.30640522      30.36529413      12.44348374 
S      29.53493315      28.20528426       9.65054674 
S      29.53493315      23.29920600       9.65054674 
Mo      32.09477460      39.84587581       6.57656325 
Mo      22.86217699      39.84587581       8.75387947 
Mo      25.59286463      39.84587581       8.97065076 
Mo      24.29010803      37.41085405       8.07398349 
Mo      17.41273918      37.41085405       5.89666727 
Mo      30.79201800      37.41085405       5.67989598 
Mo      26.72479115      36.16697655       6.57656325 
Mo      17.49219353      36.16697655       8.75387947 
Mo      20.22288118      36.16697655       8.97065076 
Mo      18.92010847      33.73196583       8.07398349 
Mo      28.15271414      33.73196583       5.89666262 
Mo      25.42202649      33.73196583       5.67990063 
Mo      21.35480770      43.52476403       6.57656325 
Mo      28.23216849      43.52476403       8.75388412 
Mo      30.96285614      43.52476403       8.97064611 
Mo      29.66009148      41.08975331       8.07398349 
Mo      22.78272263      41.08975331       5.89666727 
Mo      20.05203498      41.08975331       5.67989598 
S      18.41444884      39.53364825       6.59439344 
S      29.68690652      39.53364825       6.19854356 
S      24.39349374      39.53364825       6.85760974 
S      21.86046733      37.72308161       8.05615329 
S      26.69797611      37.72308161       8.45200318 
S      31.99138889      37.72308161       7.79293700 
S      16.10996647      35.56307173       5.00000000 
S      16.10996647      41.69365813       5.00000000 
S      29.15442380      35.85476003       6.59438879 
S      24.31691501      35.85476003       6.19854821 
S      19.02349418      35.85476003       6.85760974 
S      16.49047582      34.04418235       8.05615794 
S      21.32798460      34.04418235       8.45199853 
S      26.62140544      34.04418235       7.79293700 
S      26.84994948      42.92084817       5.00000000 
S      26.84994948      38.01476991       5.00000000 
S      23.78444035      43.21254751       6.59438879 
S      18.94693156      43.21254751       6.19854821 
S      29.76347719      43.21254751       6.85760974 
S      27.23045883      41.40196982       8.05615794 
S      32.06796762      41.40196982       8.45199853 
S      21.25142199      41.40196982       7.79293700 
S      21.47994992      39.24195995       5.00000000 
S      21.47994992      34.33588169       5.00000000 
Mo      24.03979137      39.84587581      11.22710999 
Mo      30.91716022      39.84587581      13.40442621 
Mo      17.53788140      39.84587581      13.62119749 
Mo      16.23512480      37.41085405      12.72453023 
Mo      25.46772241      37.41085405      10.54721400 
Mo      22.73703477      37.41085405      10.33044272 
Mo      18.66980792      36.16697655      11.22710999 
Mo      25.54717677      36.16697655      13.40442621 
Mo      28.27786441      36.16697655      13.62119749 
Mo      26.97509170      33.73196583      12.72453023 
Mo      20.09773090      33.73196583      10.54720935 
Mo      17.36704326      33.73196583      10.33044737 
Mo      29.40979093      43.52476403      11.22710999 
Mo      20.17718526      43.52476403      13.40443086 
Mo      22.90787291      43.52476403      13.62119284 
Mo      21.60510825      41.08975331      12.72453023 
Mo      30.83770586      41.08975331      10.54721400 
Mo      28.10701822      41.08975331      10.33044272 
S      26.46943207      39.53364825      11.24494018 
S      21.63192329      39.53364825      10.84909029 
S      16.33851050      39.53364825      11.50815648 
S      29.91545056      37.72308161      12.70670003 
S      18.64299288      37.72308161      13.10254992 
S      23.93640566      37.72308161      12.44348374 
S      24.16494970      35.56307173       9.65054674 
S      24.16494970      41.69365813       9.65054674 
S      21.09944056      35.85476003      11.24493553 
S      16.26193178      35.85476003      10.84909494 
S      27.07847741      35.85476003      11.50815648 
S      24.54545905      34.04418235      12.70670468 
S      29.38296784      34.04418235      13.10254527 
S      18.56642221      34.04418235      12.44348374 
S      18.79496625      42.92084817       9.65054674 
S      18.79496625      38.01476991       9.65054674 
S      31.83942358      43.21254751      11.24493553 
S      27.00191479      43.21254751      10.84909494 
S      21.70849396      43.21254751      11.50815648 
S      19.17547560      41.40196982      12.70670468 
S      24.01298438      41.40196982      13.10254527 
S      29.30640522      41.40196982      12.44348374 
S      29.53493315      39.24195995       9.65054674 
S      29.53493315      34.33588169       9.65054674 
Mo      48.20474107       6.73584873       6.57656325 
Mo      38.97214345       6.73584873       8.75387947 
Mo      41.70283110       6.73584873       8.97065076 
Mo      40.40007449       4.30082697       8.07398349 
Mo      33.52270564       4.30082697       5.89666727 
Mo      46.90198446       4.30082697       5.67989598 
Mo      42.83475761       3.05694947       6.57656325 
Mo      33.60216000       3.05694947       8.75387947 
Mo      36.33284764       3.05694947       8.97065076 
Mo      35.03007493       0.62193875       8.07398349 
Mo      44.26268060       0.62193875       5.89666262 
Mo      41.53199296       0.62193875       5.67990063 
Mo      37.46477416      10.41473694       6.57656325 
Mo      44.34213496      10.41473694       8.75388412 
Mo      47.07282260      10.41473694       8.97064611 
Mo      45.77005794       7.97972622       8.07398349 
Mo      38.89268910       7.97972622       5.89666727 
Mo      36.16200145       7.97972622       5.67989598 
S      34.52441530       6.42362117       6.59439344 
S      45.79687298       6.42362117       6.19854356 
S      40.50346020       6.42362117       6.85760974 
S      37.97043379       4.61305452       8.05615329 
S      42.80794258       4.61305452       8.45200318 
S      48.10135536       4.61305452       7.79293700 
S      32.21993293       2.45304465       5.00000000 
S      32.21993293       8.58363104       5.00000000 
S      45.26439026       2.74473295       6.59438879 
S      40.42688148       2.74473295       6.19854821 
S      35.13346064       2.74473295       6.85760974 
S      32.60044228       0.93415527       8.05615794 
S      37.43795107       0.93415527       8.45199853 
S      42.73137190       0.93415527       7.79293700 
S      42.95991594       9.81082109       5.00000000 
S      42.95991594       4.90474282       5.00000000 
S      39.89440681      10.10252043       6.59438879 
S      35.05689802      10.10252043       6.19854821 
S      45.87344365      10.10252043       6.85760974 
S      43.34042530       8.29194274       8.05615794 
S      48.17793408       8.29194274       8.45199853 
S      37.36138845       8.29194274       7.79293700 
S      37.58991638       6.13193287       5.00000000 
S      37.58991638       1.22585461       5.00000000 
Mo      40.14975783       6.73584873      11.22710999 
Mo      47.02712668       6.73584873      13.40442621 
Mo      33.64784786       6.73584873      13.62119749 
Mo      32.34509126       4.30082697      12.72453023 
Mo      41.57768888       4.30082697      10.54721400 
Mo      38.84700123       4.30082697      10.33044272 
Mo      34.77977438       3.05694947      11.22710999 
Mo      41.65714323       3.05694947      13.40442621 
Mo      44.38783088       3.05694947      13.62119749 
Mo      43.08505816       0.62193875      12.72453023 
Mo      36.20769737       0.62193875      10.54720935 
Mo      33.47700972       0.62193875      10.33044737 
Mo      45.51975740      10.41473694      11.22710999 
Mo      36.28715172      10.41473694      13.40443086 
Mo      39.01783937      10.41473694      13.62119284 
Mo      37.71507471       7.97972622      12.72453023 
Mo      46.94767233       7.97972622      10.54721400 
Mo      44.21698468       7.97972622      10.33044272 
S      42.57939854       6.42362117      11.24494018 
S      37.74188975       6.42362117      10.84909029 
S      32.44847697       6.42362117      11.50815648 
S      46.02541702       4.61305452      12.70670003 
S      34.75295934       4.61305452      13.10254992 
S      40.04637212       4.61305452      12.44348374 
S      40.27491616       2.45304465       9.65054674 
S      40.27491616       8.58363104       9.65054674 
S      37.20940703       2.74473295      11.24493553 
S      32.37189824       2.74473295      10.84909494 
S      43.18844387       2.74473295      11.50815648 
S      40.65542552       0.93415527      12.70670468 
S      45.49293430       0.93415527      13.10254527 
S      34.67638867       0.93415527      12.44348374 
S      34.90493271       9.81082109       9.65054674 
S      34.90493271       4.90474282       9.65054674 
S      47.94939004      10.10252043      11.24493553 
S      43.11188126      10.10252043      10.84909494 
S      37.81846042      10.10252043      11.50815648 
S      35.28544206       8.29194274      12.70670468 
S      40.12295085       8.29194274      13.10254527 
S      45.41637169       8.29194274      12.44348374 
S      45.64489961       6.13193287       9.65054674 
S      45.64489961       1.22585461       9.65054674 
Mo      48.20474107      17.77252442       6.57656325 
Mo      38.97214345      17.77252442       8.75387947 
Mo      41.70283110      17.77252442       8.97065076 
Mo      40.40007449      15.33750266       8.07398349 
Mo      33.52270564      15.33750266       5.89666727 
Mo      46.90198446      15.33750266       5.67989598 
Mo      42.83475761      14.09362516       6.57656325 
Mo      33.60216000      14.09362516       8.75387947 
Mo      36.33284764      14.09362516       8.97065076 
Mo      35.03007493      11.65861444       8.07398349 
Mo      44.26268060      11.65861444       5.89666262 
Mo      41.53199296      11.65861444       5.67990063 
Mo      37.46477416      21.45141264       6.57656325 
Mo      44.34213496      21.45141264       8.75388412 
Mo      47.07282260      21.45141264       8.97064611 
Mo      45.77005794      19.01640192       8.07398349 
Mo      38.89268910      19.01640192       5.89666727 
Mo      36.16200145      19.01640192       5.67989598 
S      34.52441530      17.46029686       6.59439344 
S      45.79687298      17.46029686       6.19854356 
S      40.50346020      17.46029686       6.85760974 
S      37.97043379      15.64973022       8.05615329 
S      42.80794258      15.64973022       8.45200318 
S      48.10135536      15.64973022       7.79293700 
S      32.21993293      13.48972034       5.00000000 
S      32.21993293      19.62030674       5.00000000 
S      45.26439026      13.78140864       6.59438879 
S      40.42688148      13.78140864       6.19854821 
S      35.13346064      13.78140864       6.85760974 
S      32.60044228      11.97083096       8.05615794 
S      37.43795107      11.97083096       8.45199853 
S      42.73137190      11.97083096       7.79293700 
S      42.95991594      20.84749678       5.00000000 
S      42.95991594      15.94141852       5.00000000 
S      39.89440681      21.13919612       6.59438879 
S      35.05689802      21.13919612       6.19854821 
S      45.87344365      21.13919612       6.85760974 
S      43.34042530      19.32861843       8.05615794 
S      48.17793408      19.32861843       8.45199853 
S      37.36138845      19.32861843       7.79293700 
S      37.58991638      17.16860856       5.00000000 
S      37.58991638      12.26253030       5.00000000 
Mo      40.14975783      17.77252442      11.22710999 
Mo      47.02712668      17.77252442      13.40442621 
Mo      33.64784786      17.77252442      13.62119749 
Mo      32.34509126      15.33750266      12.72453023 
Mo      41.57768888      15.33750266      10.54721400 
Mo      38.84700123      15.33750266      10.33044272 
Mo      34.77977438      14.09362516      11.22710999 
Mo      41.65714323      14.09362516      13.40442621 
Mo      44.38783088      14.09362516      13.62119749 
Mo      43.08505816      11.65861444      12.72453023 
Mo      36.20769737      11.65861444      10.54720935 
Mo      33.47700972      11.65861444      10.33044737 
Mo      45.51975740      21.45141264      11.22710999 
Mo      36.28715172      21.45141264      13.40443086 
Mo      39.01783937      21.45141264      13.62119284 
Mo      37.71507471      19.01640192      12.72453023 
Mo      46.94767233      19.01640192      10.54721400 
Mo      44.21698468      19.01640192      10.33044272 
S      42.57939854      17.46029686      11.24494018 
S      37.74188975      17.46029686      10.84909029 
S      32.44847697      17.46029686      11.50815648 
S      46.02541702      15.64973022      12.70670003 
S      34.75295934      15.64973022      13.10254992 
S      40.04637212      15.64973022      12.44348374 
S      40.27491616      13.48972034       9.65054674 
S      40.27491616      19.62030674       9.65054674 
S      37.20940703      13.78140864      11.24493553 
S      32.37189824      13.78140864      10.84909494 
S      43.18844387      13.78140864      11.50815648 
S      40.65542552      11.97083096      12.70670468 
S      45.49293430      11.97083096      13.10254527 
S      34.67638867      11.97083096      12.44348374 
S      34.90493271      20.84749678       9.65054674 
S      34.90493271      15.94141852       9.65054674 
S      47.94939004      21.13919612      11.24493553 
S      43.11188126      21.13919612      10.84909494 
S      37.81846042      21.13919612      11.50815648 
S      35.28544206      19.32861843      12.70670468 
S      40.12295085      19.32861843      13.10254527 
S      45.41637169      19.32861843      12.44348374 
S      45.64489961      17.16860856       9.65054674 
S      45.64489961      12.26253030       9.65054674 
Mo      64.31470753       6.73584873       6.57656325 
Mo      55.08210992       6.73584873       8.75387947 
Mo      57.81279756       6.73584873       8.97065076 
Mo      56.51004096       4.30082697       8.07398349 
Mo      49.63267211       4.30082697       5.89666727 
Mo      63.01195093       4.30082697       5.67989598 
Mo      58.94472408       3.05694947       6.57656325 
Mo      49.71212646       3.05694947       8.75387947 
Mo      52.44281411       3.05694947       8.97065076 
Mo      51.14004140       0.62193875       8.07398349 
Mo      60.37264707       0.62193875       5.89666262 
Mo      57.64195942       0.62193875       5.67990063 
Mo      53.57474063      10.41473694       6.57656325 
Mo      60.45210142      10.41473694       8.75388412 
Mo      63.18278907      10.41473694       8.97064611 
Mo      61.88002441       7.97972622       8.07398349 
Mo      55.00265556       7.97972622       5.89666727 
Mo      52.27196791       7.97972622       5.67989598 
S      50.63438177       6.42362117       6.59439344 
S      61.90683945       6.42362117       6.19854356 
S      56.61342667       6.42362117       6.85760974 
S      54.08040026       4.61305452       8.05615329 
S      58.91790904       4.61305452       8.45200318 
S      64.21132182       4.61305452       7.79293700 
S      48.32989940       2.45304465       5.00000000 
S      48.32989940       8.58363104       5.00000000 
S      61.37435673       2.74473295       6.59438879 
S      56.53684794       2.74473295       6.19854821 
S      51.24342711       2.74473295       6.85760974 
S      48.71040875       0.93415527       8.05615794 
S      53.54791753       0.93415527       8.45199853 
S      58.84133837       0.93415527       7.79293700 
S      59.06988241       9.81082109       5.00000000 
S      59.06988241       4.90474282       5.00000000 
S      56.00437328      10.10252043       6.59438879 
S      51.16686449      10.10252043       6.19854821 
S      61.98341012      10.10252043       6.85760974 
S      59.45039176       8.29194274       8.05615794 
S      64.28790055       8.29194274       8.45199853 
S      53.47135492       8.29194274       7.79293700 
S      53.69988285       6.13193287       5.00000000 
S      53.69988285       1.22585461       5.00000000 
Mo      56.25972430       6.73584873      11.22710999 
Mo      63.13709315       6.73584873      13.40442621 
Mo      49.75781433       6.73584873      13.62119749 
Mo      48.45505773       4.30082697      12.72453023 
Mo      57.68765534       4.30082697      10.54721400 
Mo      54.95696770       4.30082697      10.33044272 
Mo      50.88974085       3.05694947      11.22710999 
Mo      57.76710970       3.05694947      13.40442621 
Mo      60.49779734       3.05694947      13.62119749 
Mo      59.19502463       0.62193875      12.72453023 
Mo      52.31766383       0.62193875      10.54720935 
Mo      49.58697619       0.62193875      10.33044737 
Mo      61.62972386      10.41473694      11.22710999 
Mo      52.39711819      10.41473694      13.40443086 
Mo      55.12780584      10.41473694      13.62119284 
Mo      53.82504118       7.97972622      12.72453023 
Mo      63.05763879       7.97972622      10.54721400 
Mo      60.32695115       7.97972622      10.33044272 
S      58.68936500       6.42362117      11.24494018 
S      53.85185622       6.42362117      10.84909029 
S      48.55844343       6.42362117      11.50815648 
S      62.13538349       4.61305452      12.70670003 
S      50.86292581       4.61305452      13.10254992 
S      56.15633859       4.61305452      12.44348374 
S      56.38488263       2.45304465       9.65054674 
S      56.38488263       8.58363104       9.65054674 
S      53.31937349       2.74473295      11.24493553 
S      48.48186471       2.74473295      10.84909494 
S      59.29841034       2.74473295      11.50815648 
S      56.76539198       0.93415527      12.70670468 
S      61.60290077       0.93415527      13.10254527 
S      50.78635514       0.93415527      12.44348374 
S      51.01489918       9.81082109       9.65054674 
S      51.01489918       4.90474282       9.65054674 
S      64.05935651      10.10252043      11.24493553 
S      59.22184772      10.10252043      10.84909494 
S      53.92842689      10.10252043      11.50815648 
S      51.39540853       8.29194274      12.70670468 
S      56.23291731       8.29194274      13.10254527 
S      61.52633815       8.29194274      12.44348374 
S      61.75486608       6.13193287       9.65054674 
S      61.75486608       1.22585461       9.65054674 
Mo      64.31470753      17.77252442       6.57656325 
Mo      55.08210992      17.77252442       8.75387947 
Mo      57.81279756      17.77252442       8.97065076 
Mo      56.51004096      15.33750266       8.07398349 
Mo      49.63267211      15.33750266       5.89666727 
Mo      63.01195093      15.33750266       5.67989598 
Mo      58.94472408      14.09362516       6.57656325 
Mo      49.71212646      14.09362516       8.75387947 
Mo      52.44281411      14.09362516       8.97065076 
Mo      51.14004140      11.65861444       8.07398349 
Mo      60.37264707      11.65861444       5.89666262 
Mo      57.64195942      11.65861444       5.67990063 
Mo      53.57474063      21.45141264       6.57656325 
Mo      60.45210142      21.45141264       8.75388412 
Mo      63.18278907      21.45141264       8.97064611 
Mo      61.88002441      19.01640192       8.07398349 
Mo      55.00265556      19.01640192       5.89666727 
Mo      52.27196791      19.01640192       5.67989598 
S      50.63438177      17.46029686       6.59439344 
S      61.90683945      17.46029686       6.19854356 
S      56.61342667      17.46029686       6.85760974 
S      54.08040026      15.64973022       8.05615329 
S      58.91790904      15.64973022       8.45200318 
S      64.21132182      15.64973022       7.79293700 
S      48.32989940      13.48972034       5.00000000 
S      48.32989940      19.62030674       5.00000000 
S      61.37435673      13.78140864       6.59438879 
S      56.53684794      13.78140864       6.19854821 
S      51.24342711      13.78140864       6.85760974 
S      48.71040875      11.97083096       8.05615794 
S      53.54791753      11.97083096       8.45199853 
S      58.84133837      11.97083096       7.79293700 
S      59.06988241      20.84749678       5.00000000 
S      59.06988241      15.94141852       5.00000000 
S      56.00437328      21.13919612       6.59438879 
S      51.16686449      21.13919612       6.19854821 
S      61.98341012      21.13919612       6.85760974 
S      59.45039176      19.32861843       8.05615794 
S      64.28790055      19.32861843       8.45199853 
S      53.47135492      19.32861843       7.79293700 
S      53.69988285      17.16860856       5.00000000 
S      53.69988285      12.26253030       5.00000000 
Mo      56.25972430      17.77252442      11.22710999 
Mo      63.13709315      17.77252442      13.40442621 
Mo      49.75781433      17.77252442      13.62119749 
Mo      48.45505773      15.33750266      12.72453023 
Mo      57.68765534      15.33750266      10.54721400 
Mo      54.95696770      15.33750266      10.33044272 
Mo      50.88974085      14.09362516      11.22710999 
Mo      57.76710970      14.09362516      13.40442621 
Mo      60.49779734      14.09362516      13.62119749 
Mo      59.19502463      11.65861444      12.72453023 
Mo      52.31766383      11.65861444      10.54720935 
Mo      49.58697619      11.65861444      10.33044737 
Mo      61.62972386      21.45141264      11.22710999 
Mo      52.39711819      21.45141264      13.40443086 
Mo      55.12780584      21.45141264      13.62119284 
Mo      53.82504118      19.01640192      12.72453023 
Mo      63.05763879      19.01640192      10.54721400 
Mo      60.32695115      19.01640192      10.33044272 
S      58.68936500      17.46029686      11.24494018 
S      53.85185622      17.46029686      10.84909029 
S      48.55844343      17.46029686      11.50815648 
S      62.13538349      15.64973022      12.70670003 
S      50.86292581      15.64973022      13.10254992 
S      56.15633859      15.64973022      12.44348374 
S      56.38488263      13.48972034       9.65054674 
S      56.38488263      19.62030674       9.65054674 
S      53.31937349      13.78140864      11.24493553 
S      48.48186471      13.78140864      10.84909494 
S      59.29841034      13.78140864      11.50815648 
S      56.76539198      11.97083096      12.70670468 
S      61.60290077      11.97083096      13.10254527 
S      50.78635514      11.97083096      12.44348374 
S      51.01489918      20.84749678       9.65054674 
S      51.01489918      15.94141852       9.65054674 
S      64.05935651      21.13919612      11.24493553 
S      59.22184772      21.13919612      10.84909494 
S      53.92842689      21.13919612      11.50815648 
S      51.39540853      19.32861843      12.70670468 
S      56.23291731      19.32861843      13.10254527 
S      61.52633815      19.32861843      12.44348374 
S      61.75486608      17.16860856       9.65054674 
S      61.75486608      12.26253030       9.65054674 
Mo      48.20474107      28.80920012       6.57656325 
Mo      38.97214345      28.80920012       8.75387947 
Mo      41.70283110      28.80920012       8.97065076 
Mo      40.40007449      26.37417836       8.07398349 
Mo      33.52270564      26.37417836       5.89666727 
Mo      46.90198446      26.37417836       5.67989598 
Mo      42.83475761      25.13030086       6.57656325 
Mo      33.60216000      25.13030086       8.75387947 
Mo      36.33284764      25.13030086       8.97065076 
Mo      35.03007493      22.69529014       8.07398349 
Mo      44.26268060      22.69529014       5.89666262 
Mo      41.53199296      22.69529014       5.67990063 
Mo      37.46477416      32.48808833       6.57656325 
Mo      44.34213496      32.48808833       8.75388412 
Mo      47.07282260      32.48808833       8.97064611 
Mo      45.77005794      30.05307761       8.07398349 
Mo      38.89268910      30.05307761       5.89666727 
Mo      36.16200145      30.05307761       5.67989598 
S      34.52441530      28.49697256       6.59439344 
S      45.79687298      28.49697256       6.19854356 
S      40.50346020      28.49697256       6.85760974 
S      37.97043379      26.68640591       8.05615329 
S      42.80794258      26.68640591       8.45200318 
S      48.10135536      26.68640591       7.79293700 
S      32.21993293      24.52639604       5.00000000 
S      32.21993293      30.65698243       5.00000000 
S      45.26439026      24.81808434       6.59438879 
S      40.42688148      24.81808434       6.19854821 
S      35.13346064      24.81808434       6.85760974 
S      32.60044228      23.00750666       8.05615794 
S      37.43795107      23.00750666       8.45199853 
S      42.73137190      23.00750666       7.79293700 
S      42.95991594      31.88417248       5.00000000 
S      42.95991594      26.97809421       5.00000000 
S      39.89440681      32.17587182       6.59438879 
S      35.05689802      32.17587182       6.19854821 
S      45.87344365      32.17587182       6.85760974 
S      43.34042530      30.36529413       8.05615794 
S      48.17793408      30.36529413       8.45199853 
S      37.36138845      30.36529413       7.79293700 
S      37.58991638      28.20528426       5.00000000 
S      37.58991638      23.29920600       5.00000000 
Mo      40.14975783      28.80920012      11.22710999 
Mo      47.02712668      28.80920012      13.40442621 
Mo      33.64784786      28.80920012      13.62119749 
Mo      32.34509126      26.37417836      12.72453023 
Mo      41.57768888      26.37417836      10.54721400 
Mo      38.84700123      26.37417836      10.33044272 
Mo      34.77977438      25.13030086      11.22710999 
Mo      41.65714323      25.13030086      13.40442621 
Mo      44.38783088      25.13030086      13.62119749 
Mo      43.08505816      22.69529014      12.72453023 
Mo      36.20769737      22.69529014      10.54720935 
Mo      33.47700972      22.69529014      10.33044737 
Mo      45.51975740      32.48808833      11.22710999 
Mo      36.28715172      32.48808833      13.40443086 
Mo      39.01783937      32.48808833      13.62119284 
Mo      37.71507471      30.05307761      12.72453023 
Mo      46.94767233      30.05307761      10.54721400 
Mo      44.21698468      30.05307761      10.33044272 
S      42.57939854      28.49697256      11.24494018 
S      37.74188975      28.49697256      10.84909029 
S      32.44847697      28.49697256      11.50815648 
S      46.02541702      26.68640591      12.70670003 
S      34.75295934      26.68640591      13.10254992 
S      40.04637212      26.68640591      12.44348374 
S      40.27491616      24.52639604       9.65054674 
S      40.27491616      30.65698243       9.65054674 
S      37.20940703      24.81808434      11.24493553 
S      32.37189824      24.81808434      10.84909494 
S      43.18844387      24.81808434      11.50815648 
S      40.65542552      23.00750666      12.70670468 
S      45.49293430      23.00750666      13.10254527 
S      34.67638867      23.00750666      12.44348374 
S      34.90493271      31.88417248       9.65054674 
S      34.90493271      26.97809421       9.65054674 
S      47.94939004      32.17587182      11.24493553 
S      43.11188126      32.17587182      10.84909494 
S      37.81846042      32.17587182      11.50815648 
S      35.28544206      30.36529413      12.70670468 
S      40.12295085      30.36529413      13.10254527 
S      45.41637169      30.36529413      12.44348374 
S      45.64489961      28.20528426       9.65054674 
S      45.64489961      23.29920600       9.65054674 
Mo      48.20474107      39.84587581       6.57656325 
Mo      38.97214345      39.84587581       8.75387947 
Mo      41.70283110      39.84587581       8.97065076 
Mo      40.40007449      37.41085405       8.07398349 
Mo      33.52270564      37.41085405       5.89666727 
Mo      46.90198446      37.41085405       5.67989598 
Mo      42.83475761      36.16697655       6.57656325 
Mo      33.60216000      36.16697655       8.75387947 
Mo      36.33284764      36.16697655       8.97065076 
Mo      35.03007493      33.73196583       8.07398349 
Mo      44.26268060      33.73196583       5.89666262 
Mo      41.53199296      33.73196583       5.67990063 
Mo      37.46477416      43.52476403       6.57656325 
Mo      44.34213496      43.52476403       8.75388412 
Mo      47.07282260      43.52476403       8.97064611 
Mo      45.77005794      41.08975331       8.07398349 
Mo      38.89268910      41.08975331       5.89666727 
Mo      36.16200145      41.08975331       5.67989598 
S      34.52441530      39.53364825       6.59439344 
S      45.79687298      39.53364825       6.19854356 
S      40.50346020      39.53364825       6.85760974 
S      37.97043379      37.72308161       8.05615329 
S      42.80794258      37.72308161       8.45200318 
S      48.10135536      37.72308161       7.79293700 
S      32.21993293      35.56307173       5.00000000 
S      32.21993293      41.69365813       5.00000000 
S      45.26439026      35.85476003       6.59438879 
S      40.42688148      35.85476003       6.19854821 
S      35.13346064      35.85476003       6.85760974 
S      32.60044228      34.04418235       8.05615794 
S      37.43795107      34.04418235       8.45199853 
S      42.73137190      34.04418235       7.79293700 
S      42.95991594      42.92084817       5.00000000 
S      42.95991594      38.01476991       5.00000000 
S      39.89440681      43.21254751       6.59438879 
S      35.05689802      43.21254751       6.19854821 
S      45.87344365      43.21254751       6.85760974 
S      43.34042530      41.40196982       8.05615794 
S      48.17793408      41.40196982       8.45199853 
S      37.36138845      41.40196982       7.79293700 
S      37.58991638      39.24195995       5.00000000 
S      37.58991638      34.33588169       5.00000000 
Mo      40.14975783      39.84587581      11.22710999 
Mo      47.02712668      39.84587581      13.40442621 
Mo      33.64784786      39.84587581      13.62119749 
Mo      32.34509126      37.41085405      12.72453023 
Mo      41.57768888      37.41085405      10.54721400 
Mo      38.84700123      37.41085405      10.33044272 
Mo      34.77977438      36.16697655      11.22710999 
Mo      41.65714323      36.16697655      13.40442621 
Mo      44.38783088      36.16697655      13.62119749 
Mo      43.08505816      33.73196583      12.72453023 
Mo      36.20769737      33.73196583      10.54720935 
Mo      33.47700972      33.73196583      10.33044737 
Mo      45.51975740      43.52476403      11.22710999 
Mo      36.28715172      43.52476403      13.40443086 
Mo      39.01783937      43.52476403      13.62119284 
Mo      37.71507471      41.08975331      12.72453023 
Mo      46.94767233      41.08975331      10.54721400 
Mo      44.21698468      41.08975331      10.33044272 
S      42.57939854      39.53364825      11.24494018 
S      37.74188975      39.53364825      10.84909029 
S      32.44847697      39.53364825      11.50815648 
S      46.02541702      37.72308161      12.70670003 
S      34.75295934      37.72308161      13.10254992 
S      40.04637212      37.72308161      12.44348374 
S      40.27491616      35.56307173       9.65054674 
S      40.27491616      41.69365813       9.65054674 
S      37.20940703      35.85476003      11.24493553 
S      32.37189824      35.85476003      10.84909494 
S      43.18844387      35.85476003      11.50815648 
S      40.65542552      34.04418235      12.70670468 
S      45.49293430      34.04418235      13.10254527 
S      34.67638867      34.04418235      12.44348374 
S      34.90493271      42.92084817       9.65054674 
S      34.90493271      38.01476991       9.65054674 
S      47.94939004      43.21254751      11.24493553 
S      43.11188126      43.21254751      10.84909494 
S      37.81846042      43.21254751      11.50815648 
S      35.28544206      41.40196982      12.70670468 
S      40.12295085      41.40196982      13.10254527 
S      45.41637169      41.40196982      12.44348374 
S      45.64489961      39.24195995       9.65054674 
S      45.64489961      34.33588169       9.65054674 
Mo      64.31470753      28.80920012       6.57656325 
Mo      55.08210992      28.80920012       8.75387947 
Mo      57.81279756      28.80920012       8.97065076 
Mo      56.51004096      26.37417836       8.07398349 
Mo      49.63267211      26.37417836       5.89666727 
Mo      63.01195093      26.37417836       5.67989598 
Mo      58.94472408      25.13030086       6.57656325 
Mo      49.71212646      25.13030086       8.75387947 
Mo      52.44281411      25.13030086       8.97065076 
Mo      51.14004140      22.69529014       8.07398349 
Mo      60.37264707      22.69529014       5.89666262 
Mo      57.64195942      22.69529014       5.67990063 
Mo      53.57474063      32.48808833       6.57656325 
Mo      60.45210142      32.48808833       8.75388412 
Mo      63.18278907      32.48808833       8.97064611 
Mo      61.88002441      30.05307761       8.07398349 
Mo      55.00265556      30.05307761       5.89666727 
Mo      52.27196791      30.05307761       5.67989598 
S      50.63438177      28.49697256       6.59439344 
S      61.90683945      28.49697256       6.19854356 
S      56.61342667      28.49697256       6.85760974 
S      54.08040026      26.68640591       8.05615329 
S      58.91790904      26.68640591       8.45200318 
S      64.21132182      26.68640591       7.79293700 
S      48.32989940      24.52639604       5.00000000 
S      48.32989940      30.65698243       5.00000000 
S      61.37435673      24.81808434       6.59438879 
S      56.53684794      24.81808434       6.19854821 
S      51.24342711      24.81808434       6.85760974 
S      48.71040875      23.00750666       8.05615794 
S      53.54791753      23.00750666       8.45199853 
S      58.84133837      23.00750666       7.79293700 
S      59.06988241      31.88417248       5.00000000 
S      59.06988241      26.97809421       5.00000000 
S      56.00437328      32.17587182       6.59438879 
S      51.16686449      32.17587182       6.19854821 
S      61.98341012      32.17587182       6.85760974 
S      59.45039176      30.36529413       8.05615794 
S      64.28790055      30.36529413       8.45199853 
S      53.47135492      30.36529413       7.79293700 
S      53.69988285      28.20528426       5.00000000 
S      53.69988285      23.29920600       5.00000000 
Mo      56.25972430      28.80920012      11.22710999 
Mo      63.13709315      28.80920012      13.40442621 
Mo      49.75781433      28.80920012      13.62119749 
Mo      48.45505773      26.37417836      12.72453023 
Mo      57.68765534      26.37417836      10.54721400 
Mo      54.95696770      26.37417836      10.33044272 
Mo      50.88974085      25.13030086      11.22710999 
Mo      57.76710970      25.13030086      13.40442621 
Mo      60.49779734      25.13030086      13.62119749 
Mo      59.19502463      22.69529014      12.72453023 
Mo      52.31766383      22.69529014      10.54720935 
Mo      49.58697619      22.69529014      10.33044737 
Mo      61.62972386      32.48808833      11.22710999 
Mo      52.39711819      32.48808833      13.40443086 
Mo      55.12780584      32.48808833      13.62119284 
Mo      53.82504118      30.05307761      12.72453023 
Mo      63.05763879      30.05307761      10.54721400 
Mo      60.32695115      30.05307761      10.33044272 
S      58.68936500      28.49697256      11.24494018 
S      53.85185622      28.49697256      10.84909029 
S      48.55844343      28.49697256      11.50815648 
S      62.13538349      26.68640591      12.70670003 
S      50.86292581      26.68640591      13.10254992 
S      56.15633859      26.68640591      12.44348374 
S      56.38488263      24.52639604       9.65054674 
S      56.38488263      30.65698243       9.65054674 
S      53.31937349      24.81808434      11.24493553 
S      48.48186471      24.81808434      10.84909494 
S      59.29841034      24.81808434      11.50815648 
S      56.76539198      23.00750666      12.70670468 
S      61.60290077      23.00750666      13.10254527 
S      50.78635514      23.00750666      12.44348374 
S      51.01489918      31.88417248       9.65054674 
S      51.01489918      26.97809421       9.65054674 
S      64.05935651      32.17587182      11.24493553 
S      59.22184772      32.17587182      10.84909494 
S      53.92842689      32.17587182      11.50815648 
S      51.39540853      30.36529413      12.70670468 
S      56.23291731      30.36529413      13.10254527 
S      61.52633815      30.36529413      12.44348374 
S      61.75486608      28.20528426       9.65054674 
S      61.75486608      23.29920600       9.65054674 
Mo      64.31470753      39.84587581       6.57656325 
Mo      55.08210992      39.84587581       8.75387947 
Mo      57.81279756      39.84587581       8.97065076 
Mo      56.51004096      37.41085405       8.07398349 
Mo      49.63267211      37.41085405       5.89666727 
Mo      63.01195093      37.41085405       5.67989598 
Mo      58.94472408      36.16697655       6.57656325 
Mo      49.71212646      36.16697655       8.75387947 
Mo      52.44281411      36.16697655       8.97065076 
Mo      51.14004140      33.73196583       8.07398349 
Mo      60.37264707      33.73196583       5.89666262 
Mo      57.64195942      33.73196583       5.67990063 
Mo      53.57474063      43.52476403       6.57656325 
Mo      60.45210142      43.52476403       8.75388412 
Mo      63.18278907      43.52476403       8.97064611 
Mo      61.88002441      41.08975331       8.07398349 
Mo      55.00265556      41.08975331       5.89666727 
Mo      52.27196791      41.08975331       5.67989598 
S      50.63438177      39.53364825       6.59439344 
S      61.90683945      39.53364825       6.19854356 
S      56.61342667      39.53364825       6.85760974 
S      54.08040026      37.72308161       8.05615329 
S      58.91790904      37.72308161       8.45200318 
S      64.21132182      37.72308161       7.79293700 
S      48.32989940      35.56307173       5.00000000 
S      48.32989940      41.69365813       5.00000000 
S      61.37435673      35.85476003       6.59438879 
S      56.53684794      35.85476003       6.19854821 
S      51.24342711      35.85476003       6.85760974 
S      48.71040875      34.04418235       8.05615794 
S      53.54791753      34.04418235       8.45199853 
S      58.84133837      34.04418235       7.79293700 
S      59.06988241      42.92084817       5.00000000 
S      59.06988241      38.01476991       5.00000000 
S      56.00437328      43.21254751       6.59438879 
S      51.16686449      43.21254751       6.19854821 
S      61.98341012      43.21254751       6.85760974 
S      59.45039176      41.40196982       8.05615794 
S      64.28790055      41.40196982       8.45199853 
S      53.47135492      41.40196982       7.79293700 
S      53.69988285      39.24195995       5.00000000 
S      53.69988285      34.33588169       5.00000000 
Mo      56.25972430      39.84587581      11.22710999 
Mo      63.13709315      39.84587581      13.40442621 
Mo      49.75781433      39.84587581      13.62119749 
Mo      48.45505773      37.41085405      12.72453023 
Mo      57.68765534      37.41085405      10.54721400 
Mo      54.95696770      37.41085405      10.33044272 
Mo      50.88974085      36.16697655      11.22710999 
Mo      57.76710970      36.16697655      13.40442621 
Mo      60.49779734      36.16697655      13.62119749 
Mo      59.19502463      33.73196583      12.72453023 
Mo      52.31766383      33.73196583      10.54720935 
Mo      49.58697619      33.73196583      10.33044737 
Mo      61.62972386      43.52476403      11.22710999 
Mo      52.39711819      43.52476403      13.40443086 
Mo      55.12780584      43.52476403      13.62119284 
Mo      53.82504118      41.08975331      12.72453023 
Mo      63.05763879      41.08975331      10.54721400 
Mo      60.32695115      41.08975331      10.33044272 
S      58.68936500      39.53364825      11.24494018 
S      53.85185622      39.53364825      10.84909029 
S      48.55844343      39.53364825      11.50815648 
S      62.13538349      37.72308161      12.70670003 
S      50.86292581      37.72308161      13.10254992 
S      56.15633859      37.72308161      12.44348374 
S      56.38488263      35.56307173       9.65054674 
S      56.38488263      41.69365813       9.65054674 
S      53.31937349      35.85476003      11.24493553 
S      48.48186471      35.85476003      10.84909494 
S      59.29841034      35.85476003      11.50815648 
S      56.76539198      34.04418235      12.70670468 
S      61.60290077      34.04418235      13.10254527 
S      50.78635514      34.04418235      12.44348374 
S      51.01489918      42.92084817       9.65054674 
S      51.01489918      38.01476991       9.65054674 
S      64.05935651      43.21254751      11.24493553 
S      59.22184772      43.21254751      10.84909494 
S      53.92842689      43.21254751      11.50815648 
S      51.39540853      41.40196982      12.70670468 
S      56.23291731      41.40196982      13.10254527 
S      61.52633815      41.40196982      12.44348374 
S      61.75486608      39.24195995       9.65054674 
S      61.75486608      34.33588169       9.65054674 
