544
Lattice="27.922702624 0.0 0.0 1.691226903582e-06 27.9227035532 0.0 0.0 0.0 18.623065564" Properties=species:S:1:pos:R:3 unit_cell=conventional pbc="T T F"
Co       3.49033804       3.49033794       5.00000000 
Co       0.00000017       1.76650204       6.24910543 
Co       3.49033811       1.72383639       8.68697760 
Co       5.21417777       6.98067252       6.24910049 
Co       1.76649885       6.98067252       6.24910049 
Co       5.25683659       3.49034180       8.68698254 
Co       3.49033833       5.25683325       8.68697760 
Co       0.00000038       5.21418108       6.24910543 
Co       1.72383985       3.49034180       8.68698254 
S       5.15631807       1.82435776       5.00000000 
S       1.82435801       5.15631813       5.00000000 
S       0.00000013       0.00000026       7.58003137 
S       3.49033815       3.49033818       7.35605166 
S       1.82435781       1.82435776       5.00000000 
S       5.15631827       5.15631813       5.00000000 
S       3.49033795       0.00000025       7.46804151 
S       0.00000033       3.49033819       7.46804151 
Co       1.76649879       0.00000435      13.62306556 
Co       3.49033845       5.25684048      11.18518845 
Co       0.00000074       5.21417483      13.62306063 
Co       1.72383997       3.49033507      11.18518352 
Co       5.25683671       3.49033507      11.18518352 
Co       0.00000024       0.00000049       9.93608303 
Co       0.00000053       1.76649580      13.62306063 
Co       3.49033824       1.72384362      11.18518845 
Co       5.21417771       0.00000435      13.62306556 
S       1.66598069       5.31469620       9.93608303 
S       5.31469587       1.66598068       9.93608303 
S       3.49033841       3.49033869      12.51611439 
S       0.00000036       0.00000073      12.29213469 
S       5.31469609       5.31469620       9.93608303 
S       1.66598047       1.66598068       9.93608303 
S       0.00000057       3.49033868      12.40412454 
S       3.49033819       0.00000074      12.40412454 
Co       5.25683701      10.47101769       8.68698254 
Co       0.00000059       8.74717793       6.24910543 
Co       3.49033854       8.70451228       8.68697760 
Co       5.21417819      13.96134841       6.24910049 
Co       1.76649928      13.96134841       6.24910049 
Co       3.49033846      10.47101383       5.00000000 
Co       3.49033875      12.23750914       8.68697760 
Co       0.00000080      12.19485696       6.24910543 
Co       1.72384027      10.47101769       8.68698254 
S       5.15631849       8.80503365       5.00000000 
S       1.82435843      12.13699402       5.00000000 
S       0.00000055       6.98067615       7.58003137 
S       3.49033858      10.47101407       7.35605166 
S       1.82435823       8.80503365       5.00000000 
S       5.15631869      12.13699402       5.00000000 
S       3.49033837       6.98067613       7.46804151 
S       0.00000076      10.47101408       7.46804151 
Co       1.76649921       6.98068024      13.62306556 
Co       3.49033887      12.23751637      11.18518845 
Co       0.00000116      12.19485072      13.62306063 
Co       1.72384040      10.47101096      11.18518352 
Co       5.25683713      10.47101096      11.18518352 
Co       0.00000066       6.98067638       9.93608303 
Co       0.00000095       8.74717169      13.62306063 
Co       3.49033866       8.70451951      11.18518845 
Co       5.21417813       6.98068024      13.62306556 
S       1.66598112      12.29537208       9.93608303 
S       5.31469629       8.64665657       9.93608303 
S       3.49033883      10.47101458      12.51611439 
S       0.00000078       6.98067662      12.29213469 
S       5.31469651      12.29537208       9.93608303 
S       1.66598089       8.64665657       9.93608303 
S       0.00000100      10.47101457      12.40412454 
S       3.49033861       6.98067663      12.40412454 
Co      12.23751224       3.49034180       8.68698254 
Co       6.98067582       1.76650204       6.24910543 
Co      10.47101377       1.72383639       8.68697760 
Co      12.19485343       6.98067252       6.24910049 
Co       8.74717451       6.98067252       6.24910049 
Co      10.47101370       3.49033794       5.00000000 
Co      10.47101398       5.25683325       8.68697760 
Co       6.98067603       5.21418108       6.24910543 
Co       8.70451551       3.49034180       8.68698254 
S      12.13699372       1.82435776       5.00000000 
S       8.80503367       5.15631813       5.00000000 
S       6.98067578       0.00000026       7.58003137 
S      10.47101381       3.49033818       7.35605166 
S       8.80503347       1.82435776       5.00000000 
S      12.13699393       5.15631813       5.00000000 
S      10.47101360       0.00000025       7.46804151 
S       6.98067599       3.49033819       7.46804151 
Co       8.74717445       0.00000435      13.62306556 
Co      10.47101411       5.25684048      11.18518845 
Co       6.98067639       5.21417483      13.62306063 
Co       8.70451563       3.49033507      11.18518352 
Co      12.23751237       3.49033507      11.18518352 
Co       6.98067590       0.00000049       9.93608303 
Co       6.98067619       1.76649580      13.62306063 
Co      10.47101389       1.72384362      11.18518845 
Co      12.19485337       0.00000435      13.62306556 
S       8.64665635       5.31469620       9.93608303 
S      12.29537153       1.66598068       9.93608303 
S      10.47101406       3.49033869      12.51611439 
S       6.98067601       0.00000073      12.29213469 
S      12.29537175       5.31469620       9.93608303 
S       8.64665613       1.66598068       9.93608303 
S       6.98067623       3.49033868      12.40412454 
S      10.47101385       0.00000074      12.40412454 
Co      12.23751267      10.47101769       8.68698254 
Co       6.98067625       8.74717793       6.24910543 
Co      10.47101419       8.70451228       8.68697760 
Co      12.19485385      13.96134841       6.24910049 
Co       8.74717493      13.96134841       6.24910049 
Co      10.47101412      10.47101383       5.00000000 
Co      10.47101441      12.23750914       8.68697760 
Co       6.98067646      12.19485696       6.24910543 
Co       8.70451593      10.47101769       8.68698254 
S      12.13699415       8.80503365       5.00000000 
S       8.80503409      12.13699402       5.00000000 
S       6.98067621       6.98067615       7.58003137 
S      10.47101423      10.47101407       7.35605166 
S       8.80503389       8.80503365       5.00000000 
S      12.13699435      12.13699402       5.00000000 
S      10.47101403       6.98067613       7.46804151 
S       6.98067641      10.47101408       7.46804151 
Co       8.74717487       6.98068024      13.62306556 
Co      10.47101453      12.23751637      11.18518845 
Co       6.98067682      12.19485072      13.62306063 
Co       8.70451605      10.47101096      11.18518352 
Co      12.23751279      10.47101096      11.18518352 
Co       6.98067632       6.98067638       9.93608303 
Co       6.98067661       8.74717169      13.62306063 
Co      10.47101431       8.70451951      11.18518845 
Co      12.19485379       6.98068024      13.62306556 
S       8.64665677      12.29537208       9.93608303 
S      12.29537195       8.64665657       9.93608303 
S      10.47101449      10.47101458      12.51611439 
S       6.98067644       6.98067662      12.29213469 
S      12.29537217      12.29537208       9.93608303 
S       8.64665655       8.64665657       9.93608303 
S       6.98067665      10.47101457      12.40412454 
S      10.47101427       6.98067663      12.40412454 
Co       5.25683744      17.45169358       8.68698254 
Co       0.00000102      15.72785382       6.24910543 
Co       3.49033896      15.68518817       8.68697760 
Co       5.21417862      20.94202430       6.24910049 
Co       1.76649970      20.94202430       6.24910049 
Co       3.49033889      17.45168972       5.00000000 
Co       3.49033918      19.21818503       8.68697760 
Co       0.00000123      19.17553286       6.24910543 
Co       1.72384070      17.45169358       8.68698254 
S       5.15631892      15.78570954       5.00000000 
S       1.82435886      19.11766991       5.00000000 
S       0.00000098      13.96135204       7.58003137 
S       3.49033900      17.45168996       7.35605166 
S       1.82435866      15.78570954       5.00000000 
S       5.15631912      19.11766991       5.00000000 
S       3.49033880      13.96135203       7.46804151 
S       0.00000118      17.45168997       7.46804151 
Co       1.76649964      13.96135613      13.62306556 
Co       3.49033930      19.21819226      11.18518845 
Co       0.00000159      19.17552661      13.62306063 
Co       1.72384082      17.45168685      11.18518352 
Co       5.25683756      17.45168685      11.18518352 
Co       0.00000109      13.96135227       9.93608303 
Co       0.00000138      15.72784758      13.62306063 
Co       3.49033909      15.68519540      11.18518845 
Co       5.21417856      13.96135613      13.62306556 
S       1.66598154      19.27604798       9.93608303 
S       5.31469672      15.62733246       9.93608303 
S       3.49033926      17.45169047      12.51611439 
S       0.00000121      13.96135251      12.29213469 
S       5.31469694      19.27604798       9.93608303 
S       1.66598132      15.62733246       9.93608303 
S       0.00000142      17.45169046      12.40412454 
S       3.49033904      13.96135252      12.40412454 
Co       5.25683786      24.43236947       8.68698254 
Co       0.00000144      22.70852971       6.24910543 
Co       3.49033939      22.66586406       8.68697760 
Co       5.21417904      27.92270019       6.24910049 
Co       1.76650013      27.92270019       6.24910049 
Co       3.49033931      24.43236561       5.00000000 
Co       3.49033960      26.19886092       8.68697760 
Co       0.00000165      26.15620874       6.24910543 
Co       1.72384112      24.43236947       8.68698254 
S       5.15631934      22.76638543       5.00000000 
S       1.82435928      26.09834580       5.00000000 
S       0.00000140      20.94202793       7.58003137 
S       3.49033943      24.43236585       7.35605166 
S       1.82435908      22.76638543       5.00000000 
S       5.15631954      26.09834580       5.00000000 
S       3.49033922      20.94202791       7.46804151 
S       0.00000161      24.43236586       7.46804151 
Co       1.76650006      20.94203202      13.62306556 
Co       3.49033972      26.19886815      11.18518845 
Co       0.00000201      26.15620250      13.62306063 
Co       1.72384125      24.43236274      11.18518352 
Co       5.25683798      24.43236274      11.18518352 
Co       0.00000151      20.94202816       9.93608303 
Co       0.00000180      22.70852347      13.62306063 
Co       3.49033951      22.66587129      11.18518845 
Co       5.21417898      20.94203202      13.62306556 
S       1.66598197      26.25672386       9.93608303 
S       5.31469714      22.60800835       9.93608303 
S       3.49033968      24.43236636      12.51611439 
S       0.00000163      20.94202840      12.29213469 
S       5.31469736      26.25672386       9.93608303 
S       1.66598174      22.60800835       9.93608303 
S       0.00000185      24.43236635      12.40412454 
S       3.49033946      20.94202841      12.40412454 
Co      12.23751309      17.45169358       8.68698254 
Co       6.98067667      15.72785382       6.24910543 
Co      10.47101462      15.68518817       8.68697760 
Co      12.19485428      20.94202430       6.24910049 
Co       8.74717536      20.94202430       6.24910049 
Co      10.47101455      17.45168972       5.00000000 
Co      10.47101483      19.21818503       8.68697760 
Co       6.98067688      19.17553286       6.24910543 
Co       8.70451636      17.45169358       8.68698254 
S      12.13699457      15.78570954       5.00000000 
S       8.80503452      19.11766991       5.00000000 
S       6.98067663      13.96135204       7.58003137 
S      10.47101466      17.45168996       7.35605166 
S       8.80503432      15.78570954       5.00000000 
S      12.13699478      19.11766991       5.00000000 
S      10.47101445      13.96135203       7.46804151 
S       6.98067684      17.45168997       7.46804151 
Co       8.74717530      13.96135613      13.62306556 
Co      10.47101496      19.21819226      11.18518845 
Co       6.98067724      19.17552661      13.62306063 
Co       8.70451648      17.45168685      11.18518352 
Co      12.23751322      17.45168685      11.18518352 
Co       6.98067675      13.96135227       9.93608303 
Co       6.98067704      15.72784758      13.62306063 
Co      10.47101474      15.68519540      11.18518845 
Co      12.19485422      13.96135613      13.62306556 
S       8.64665720      19.27604798       9.93608303 
S      12.29537238      15.62733246       9.93608303 
S      10.47101491      17.45169047      12.51611439 
S       6.98067686      13.96135251      12.29213469 
S      12.29537260      19.27604798       9.93608303 
S       8.64665698      15.62733246       9.93608303 
S       6.98067708      17.45169046      12.40412454 
S      10.47101470      13.96135252      12.40412454 
Co      12.23751352      24.43236947       8.68698254 
Co       6.98067710      22.70852971       6.24910543 
Co      10.47101504      22.66586406       8.68697760 
Co      12.19485470      27.92270019       6.24910049 
Co       8.74717578      27.92270019       6.24910049 
Co      10.47101497      24.43236561       5.00000000 
Co      10.47101526      26.19886092       8.68697760 
Co       6.98067731      26.15620874       6.24910543 
Co       8.70451678      24.43236947       8.68698254 
S      12.13699500      22.76638543       5.00000000 
S       8.80503494      26.09834580       5.00000000 
S       6.98067706      20.94202793       7.58003137 
S      10.47101508      24.43236585       7.35605166 
S       8.80503474      22.76638543       5.00000000 
S      12.13699520      26.09834580       5.00000000 
S      10.47101488      20.94202791       7.46804151 
S       6.98067726      24.43236586       7.46804151 
Co       8.74717572      20.94203202      13.62306556 
Co      10.47101538      26.19886815      11.18518845 
Co       6.98067767      26.15620250      13.62306063 
Co       8.70451690      24.43236274      11.18518352 
Co      12.23751364      24.43236274      11.18518352 
Co       6.98067717      20.94202816       9.93608303 
Co       6.98067746      22.70852347      13.62306063 
Co      10.47101516      22.66587129      11.18518845 
Co      12.19485464      20.94203202      13.62306556 
S       8.64665762      26.25672386       9.93608303 
S      12.29537280      22.60800835       9.93608303 
S      10.47101534      24.43236636      12.51611439 
S       6.98067729      20.94202840      12.29213469 
S      12.29537302      26.25672386       9.93608303 
S       8.64665740      22.60800835       9.93608303 
S       6.98067750      24.43236635      12.40412454 
S      10.47101512      20.94202841      12.40412454 
Co      19.21818790       3.49034180       8.68698254 
Co      13.96135148       1.76650204       6.24910543 
Co      17.45168942       1.72383639       8.68697760 
Co      19.17552908       6.98067252       6.24910049 
Co      15.72785016       6.98067252       6.24910049 
Co      17.45168935       3.49033794       5.00000000 
Co      17.45168964       5.25683325       8.68697760 
Co      13.96135169       5.21418108       6.24910543 
Co      15.68519116       3.49034180       8.68698254 
S      19.11766938       1.82435776       5.00000000 
S      15.78570932       5.15631813       5.00000000 
S      13.96135144       0.00000026       7.58003137 
S      17.45168946       3.49033818       7.35605166 
S      15.78570912       1.82435776       5.00000000 
S      19.11766958       5.15631813       5.00000000 
S      17.45168926       0.00000025       7.46804151 
S      13.96135164       3.49033819       7.46804151 
Co      15.72785010       0.00000435      13.62306556 
Co      17.45168976       5.25684048      11.18518845 
Co      13.96135205       5.21417483      13.62306063 
Co      15.68519128       3.49033507      11.18518352 
Co      19.21818802       3.49033507      11.18518352 
Co      13.96135155       0.00000049       9.93608303 
Co      13.96135184       1.76649580      13.62306063 
Co      17.45168955       1.72384362      11.18518845 
Co      19.17552902       0.00000435      13.62306556 
S      15.62733200       5.31469620       9.93608303 
S      19.27604718       1.66598068       9.93608303 
S      17.45168972       3.49033869      12.51611439 
S      13.96135167       0.00000073      12.29213469 
S      19.27604740       5.31469620       9.93608303 
S      15.62733178       1.66598068       9.93608303 
S      13.96135188       3.49033868      12.40412454 
S      17.45168950       0.00000074      12.40412454 
Co      19.21818832      10.47101769       8.68698254 
Co      13.96135190       8.74717793       6.24910543 
Co      17.45168985       8.70451228       8.68697760 
Co      19.17552950      13.96134841       6.24910049 
Co      15.72785059      13.96134841       6.24910049 
Co      17.45168977      10.47101383       5.00000000 
Co      17.45169006      12.23750914       8.68697760 
Co      13.96135211      12.19485696       6.24910543 
Co      15.68519158      10.47101769       8.68698254 
S      19.11766980       8.80503365       5.00000000 
S      15.78570974      12.13699402       5.00000000 
S      13.96135186       6.98067615       7.58003137 
S      17.45168989      10.47101407       7.35605166 
S      15.78570954       8.80503365       5.00000000 
S      19.11767000      12.13699402       5.00000000 
S      17.45168968       6.98067613       7.46804151 
S      13.96135207      10.47101408       7.46804151 
Co      15.72785052       6.98068024      13.62306556 
Co      17.45169018      12.23751637      11.18518845 
Co      13.96135247      12.19485072      13.62306063 
Co      15.68519171      10.47101096      11.18518352 
Co      19.21818844      10.47101096      11.18518352 
Co      13.96135197       6.98067638       9.93608303 
Co      13.96135226       8.74717169      13.62306063 
Co      17.45168997       8.70451951      11.18518845 
Co      19.17552944       6.98068024      13.62306556 
S      15.62733243      12.29537208       9.93608303 
S      19.27604760       8.64665657       9.93608303 
S      17.45169014      10.47101458      12.51611439 
S      13.96135209       6.98067662      12.29213469 
S      19.27604782      12.29537208       9.93608303 
S      15.62733220       8.64665657       9.93608303 
S      13.96135231      10.47101457      12.40412454 
S      17.45168992       6.98067663      12.40412454 
Co      26.19886355       3.49034180       8.68698254 
Co      20.94202713       1.76650204       6.24910543 
Co      24.43236508       1.72383639       8.68697760 
Co      26.15620474       6.98067252       6.24910049 
Co      22.70852582       6.98067252       6.24910049 
Co      24.43236501       3.49033794       5.00000000 
Co      24.43236529       5.25683325       8.68697760 
Co      20.94202734       5.21418108       6.24910543 
Co      22.66586682       3.49034180       8.68698254 
S      26.09834503       1.82435776       5.00000000 
S      22.76638498       5.15631813       5.00000000 
S      20.94202709       0.00000026       7.58003137 
S      24.43236512       3.49033818       7.35605166 
S      22.76638478       1.82435776       5.00000000 
S      26.09834524       5.15631813       5.00000000 
S      24.43236491       0.00000025       7.46804151 
S      20.94202730       3.49033819       7.46804151 
Co      22.70852576       0.00000435      13.62306556 
Co      24.43236542       5.25684048      11.18518845 
Co      20.94202770       5.21417483      13.62306063 
Co      22.66586694       3.49033507      11.18518352 
Co      26.19886368       3.49033507      11.18518352 
Co      20.94202721       0.00000049       9.93608303 
Co      20.94202750       1.76649580      13.62306063 
Co      24.43236520       1.72384362      11.18518845 
Co      26.15620468       0.00000435      13.62306556 
S      22.60800766       5.31469620       9.93608303 
S      26.25672284       1.66598068       9.93608303 
S      24.43236537       3.49033869      12.51611439 
S      20.94202732       0.00000073      12.29213469 
S      26.25672306       5.31469620       9.93608303 
S      22.60800744       1.66598068       9.93608303 
S      20.94202754       3.49033868      12.40412454 
S      24.43236516       0.00000074      12.40412454 
Co      26.19886398      10.47101769       8.68698254 
Co      20.94202756       8.74717793       6.24910543 
Co      24.43236550       8.70451228       8.68697760 
Co      26.15620516      13.96134841       6.24910049 
Co      22.70852624      13.96134841       6.24910049 
Co      24.43236543      10.47101383       5.00000000 
Co      24.43236572      12.23750914       8.68697760 
Co      20.94202777      12.19485696       6.24910543 
Co      22.66586724      10.47101769       8.68698254 
S      26.09834546       8.80503365       5.00000000 
S      22.76638540      12.13699402       5.00000000 
S      20.94202752       6.98067615       7.58003137 
S      24.43236554      10.47101407       7.35605166 
S      22.76638520       8.80503365       5.00000000 
S      26.09834566      12.13699402       5.00000000 
S      24.43236534       6.98067613       7.46804151 
S      20.94202772      10.47101408       7.46804151 
Co      22.70852618       6.98068024      13.62306556 
Co      24.43236584      12.23751637      11.18518845 
Co      20.94202813      12.19485072      13.62306063 
Co      22.66586736      10.47101096      11.18518352 
Co      26.19886410      10.47101096      11.18518352 
Co      20.94202763       6.98067638       9.93608303 
Co      20.94202792       8.74717169      13.62306063 
Co      24.43236562       8.70451951      11.18518845 
Co      26.15620510       6.98068024      13.62306556 
S      22.60800808      12.29537208       9.93608303 
S      26.25672326       8.64665657       9.93608303 
S      24.43236580      10.47101458      12.51611439 
S      20.94202775       6.98067662      12.29213469 
S      26.25672348      12.29537208       9.93608303 
S      22.60800786       8.64665657       9.93608303 
S      20.94202796      10.47101457      12.40412454 
S      24.43236558       6.98067663      12.40412454 
Co      19.21818875      17.45169358       8.68698254 
Co      13.96135233      15.72785382       6.24910543 
Co      17.45169027      15.68518817       8.68697760 
Co      19.17552993      20.94202430       6.24910049 
Co      15.72785101      20.94202430       6.24910049 
Co      17.45169020      17.45168972       5.00000000 
Co      17.45169049      19.21818503       8.68697760 
Co      13.96135254      19.17553286       6.24910543 
Co      15.68519201      17.45169358       8.68698254 
S      19.11767023      15.78570954       5.00000000 
S      15.78571017      19.11766991       5.00000000 
S      13.96135229      13.96135204       7.58003137 
S      17.45169031      17.45168996       7.35605166 
S      15.78570997      15.78570954       5.00000000 
S      19.11767043      19.11766991       5.00000000 
S      17.45169011      13.96135203       7.46804151 
S      13.96135249      17.45168997       7.46804151 
Co      15.72785095      13.96135613      13.62306556 
Co      17.45169061      19.21819226      11.18518845 
Co      13.96135290      19.17552661      13.62306063 
Co      15.68519213      17.45168685      11.18518352 
Co      19.21818887      17.45168685      11.18518352 
Co      13.96135240      13.96135227       9.93608303 
Co      13.96135269      15.72784758      13.62306063 
Co      17.45169040      15.68519540      11.18518845 
Co      19.17552987      13.96135613      13.62306556 
S      15.62733285      19.27604798       9.93608303 
S      19.27604803      15.62733246       9.93608303 
S      17.45169057      17.45169047      12.51611439 
S      13.96135252      13.96135251      12.29213469 
S      19.27604825      19.27604798       9.93608303 
S      15.62733263      15.62733246       9.93608303 
S      13.96135273      17.45169046      12.40412454 
S      17.45169035      13.96135252      12.40412454 
Co      19.21818917      24.43236947       8.68698254 
Co      13.96135275      22.70852971       6.24910543 
Co      17.45169070      22.66586406       8.68697760 
Co      19.17553035      27.92270019       6.24910049 
Co      15.72785144      27.92270019       6.24910049 
Co      17.45169062      24.43236561       5.00000000 
Co      17.45169091      26.19886092       8.68697760 
Co      13.96135296      26.15620874       6.24910543 
Co      15.68519243      24.43236947       8.68698254 
S      19.11767065      22.76638543       5.00000000 
S      15.78571059      26.09834580       5.00000000 
S      13.96135271      20.94202793       7.58003137 
S      17.45169074      24.43236585       7.35605166 
S      15.78571039      22.76638543       5.00000000 
S      19.11767085      26.09834580       5.00000000 
S      17.45169053      20.94202791       7.46804151 
S      13.96135292      24.43236586       7.46804151 
Co      15.72785137      20.94203202      13.62306556 
Co      17.45169103      26.19886815      11.18518845 
Co      13.96135332      26.15620250      13.62306063 
Co      15.68519256      24.43236274      11.18518352 
Co      19.21818929      24.43236274      11.18518352 
Co      13.96135282      20.94202816       9.93608303 
Co      13.96135311      22.70852347      13.62306063 
Co      17.45169082      22.66587129      11.18518845 
Co      19.17553029      20.94203202      13.62306556 
S      15.62733328      26.25672386       9.93608303 
S      19.27604845      22.60800835       9.93608303 
S      17.45169099      24.43236636      12.51611439 
S      13.96135294      20.94202840      12.29213469 
S      19.27604867      26.25672386       9.93608303 
S      15.62733305      22.60800835       9.93608303 
S      13.96135316      24.43236635      12.40412454 
S      17.45169077      20.94202841      12.40412454 
Co      26.19886440      17.45169358       8.68698254 
Co      20.94202798      15.72785382       6.24910543 
Co      24.43236593      15.68518817       8.68697760 
Co      26.15620559      20.94202430       6.24910049 
Co      22.70852667      20.94202430       6.24910049 
Co      24.43236586      17.45168972       5.00000000 
Co      24.43236614      19.21818503       8.68697760 
Co      20.94202819      19.17553286       6.24910543 
Co      22.66586767      17.45169358       8.68698254 
S      26.09834588      15.78570954       5.00000000 
S      22.76638583      19.11766991       5.00000000 
S      20.94202794      13.96135204       7.58003137 
S      24.43236597      17.45168996       7.35605166 
S      22.76638563      15.78570954       5.00000000 
S      26.09834609      19.11766991       5.00000000 
S      24.43236576      13.96135203       7.46804151 
S      20.94202815      17.45168997       7.46804151 
Co      22.70852661      13.96135613      13.62306556 
Co      24.43236627      19.21819226      11.18518845 
Co      20.94202855      19.17552661      13.62306063 
Co      22.66586779      17.45168685      11.18518352 
Co      26.19886453      17.45168685      11.18518352 
Co      20.94202806      13.96135227       9.93608303 
Co      20.94202835      15.72784758      13.62306063 
Co      24.43236605      15.68519540      11.18518845 
Co      26.15620553      13.96135613      13.62306556 
S      22.60800851      19.27604798       9.93608303 
S      26.25672369      15.62733246       9.93608303 
S      24.43236622      17.45169047      12.51611439 
S      20.94202817      13.96135251      12.29213469 
S      26.25672391      19.27604798       9.93608303 
S      22.60800829      15.62733246       9.93608303 
S      20.94202839      17.45169046      12.40412454 
S      24.43236601      13.96135252      12.40412454 
Co      26.19886483      24.43236947       8.68698254 
Co      20.94202841      22.70852971       6.24910543 
Co      24.43236635      22.66586406       8.68697760 
Co      26.15620601      27.92270019       6.24910049 
Co      22.70852709      27.92270019       6.24910049 
Co      24.43236628      24.43236561       5.00000000 
Co      24.43236657      26.19886092       8.68697760 
Co      20.94202862      26.15620874       6.24910543 
Co      22.66586809      24.43236947       8.68698254 
S      26.09834631      22.76638543       5.00000000 
S      22.76638625      26.09834580       5.00000000 
S      20.94202837      20.94202793       7.58003137 
S      24.43236639      24.43236585       7.35605166 
S      22.76638605      22.76638543       5.00000000 
S      26.09834651      26.09834580       5.00000000 
S      24.43236619      20.94202791       7.46804151 
S      20.94202857      24.43236586       7.46804151 
Co      22.70852703      20.94203202      13.62306556 
Co      24.43236669      26.19886815      11.18518845 
Co      20.94202898      26.15620250      13.62306063 
Co      22.66586821      24.43236274      11.18518352 
Co      26.19886495      24.43236274      11.18518352 
Co      20.94202848      20.94202816       9.93608303 
Co      20.94202877      22.70852347      13.62306063 
Co      24.43236647      22.66587129      11.18518845 
Co      26.15620595      20.94203202      13.62306556 
S      22.60800893      26.25672386       9.93608303 
S      26.25672411      22.60800835       9.93608303 
S      24.43236665      24.43236636      12.51611439 
S      20.94202860      20.94202840      12.29213469 
S      26.25672433      26.25672386       9.93608303 
S      22.60800871      22.60800835       9.93608303 
S      20.94202881      24.43236635      12.40412454 
S      24.43236643      20.94202841      12.40412454 
