544
Lattice="27.9227017438 0.0 0.0 -13.96134987044 24.1817694906 0.0 0.0 0.0 19.9570649276" Properties=species:S:1:pos:R:3 unit_cell=conventional pbc="T T F"
Co       1.76649838       1.01988835       5.00000000 
Co       0.00000006       0.00000016       6.44234852 
Co       3.49033791       2.01514771       7.81501823 
Co       3.49033791       4.00566584       5.00000000 
Co       3.49033803       4.05492441       9.25736675 
Co       0.00000025       4.03029512       7.12868338 
Co       5.21417719       1.01988835       5.00000000 
Co       5.25683622       0.99525952       9.25736675 
Co       1.72383959       0.99525952       9.25736675 
S       1.66598033       4.99214909       5.76841621 
S      -1.66597983       3.06844116       8.48895054 
S      -1.66597983       4.99214909       5.76841621 
S       1.66598033       3.06844116       8.48895054 
S       0.00000013       2.10658690       5.76841621 
S       0.00000037       5.95400335       8.48895054 
S       3.49033784       2.01514756       5.70375883 
S       0.00000013       0.00000031       8.55360792 
Co       3.49033803       0.02462991      14.95706493 
Co       3.49033803       2.01514803      12.14204670 
Co       0.00000044       4.03029559      13.51471641 
Co       0.00000044       6.02081371      10.69969817 
Co      -1.72383909       3.03503622      10.69969817 
Co       0.00000025       0.00000062      12.82838155 
Co       1.72383972       3.03503622      10.69969817 
Co       1.76649875       3.01040740      14.95706493 
Co       5.21417756       3.01040740      14.95706493 
S       1.66598033       0.96185459      11.46811438 
S       1.82435814       5.08358903      14.18864872 
S       5.31469561       0.96185459      11.46811438 
S      -1.82435714       5.08358903      14.18864872 
S       3.49033810       4.12173477      11.46811438 
S       0.00000037       1.92370885      14.18864872 
S       0.00000038       4.03029543      11.40345701 
S       3.49033810       2.01514818      14.25330609 
Co       0.00000057      10.10036678       9.25736675 
Co      -3.49033740       6.04544253       6.44234852 
Co       0.00000044       8.06059009       7.81501823 
Co       0.00000044      10.05110821       5.00000000 
Co      -1.72383909       7.06533072       5.00000000 
Co      -3.49033722      10.07573749       7.12868338 
Co       1.72383972       7.06533072       5.00000000 
Co       1.76649875       7.04070190       9.25736675 
Co      -1.76649787       7.04070190       9.25736675 
S      -1.82435714      11.03759146       5.76841621 
S      -5.15631729       9.11388353       8.48895054 
S      -5.15631729      11.03759146       5.76841621 
S      -1.82435714       9.11388353       8.48895054 
S      -3.49033734       8.15202927       5.76841621 
S      -3.49033710      11.99944572       8.48895054 
S       0.00000038       8.06058993       5.70375883 
S      -3.49033734       6.04544268       8.55360792 
Co       0.00000057       6.07007228      14.95706493 
Co       0.00000057       8.06059040      12.14204670 
Co      -3.49033703      10.07573796      13.51471641 
Co      -3.49033703      12.06625608      10.69969817 
Co      -5.21417656       9.08047859      10.69969817 
Co      -3.49033722       6.04544299      12.82838155 
Co      -1.76649775       9.08047859      10.69969817 
Co      -1.72383871       9.05584977      14.95706493 
Co       1.72384010       9.05584977      14.95706493 
S      -1.82435714       7.00729696      11.46811438 
S      -1.66597932      11.12903140      14.18864872 
S       1.82435814       7.00729696      11.46811438 
S      -5.31469461      11.12903140      14.18864872 
S       0.00000063      10.16717714      11.46811438 
S      -3.49033710       7.96915122      14.18864872 
S      -3.49033709      10.07573781      11.40345701 
S       0.00000063       8.06059056      14.25330609 
Co      10.47101347       4.05492441       9.25736675 
Co       6.98067550       0.00000016       6.44234852 
Co      10.47101334       2.01514771       7.81501823 
Co      10.47101334       4.00566584       5.00000000 
Co       8.74717381       1.01988835       5.00000000 
Co       6.98067569       4.03029512       7.12868338 
Co      12.19485262       1.01988835       5.00000000 
Co      12.23751165       0.99525952       9.25736675 
Co       8.70451503       0.99525952       9.25736675 
S       8.64665576       4.99214909       5.76841621 
S       5.31469561       3.06844116       8.48895054 
S       5.31469561       4.99214909       5.76841621 
S       8.64665576       3.06844116       8.48895054 
S       6.98067557       2.10658690       5.76841621 
S       6.98067581       5.95400335       8.48895054 
S      10.47101328       2.01514756       5.70375883 
S       6.98067556       0.00000031       8.55360792 
Co      10.47101347       0.02462991      14.95706493 
Co      10.47101347       2.01514803      12.14204670 
Co       6.98067588       4.03029559      13.51471641 
Co       6.98067587       6.02081371      10.69969817 
Co       5.25683635       3.03503622      10.69969817 
Co       6.98067569       0.00000062      12.82838155 
Co       8.70451516       3.03503622      10.69969817 
Co       8.74717419       3.01040740      14.95706493 
Co      12.19485300       3.01040740      14.95706493 
S       8.64665576       0.96185459      11.46811438 
S       8.80503358       5.08358903      14.18864872 
S      12.29537105       0.96185459      11.46811438 
S       5.15631830       5.08358903      14.18864872 
S      10.47101354       4.12173477      11.46811438 
S       6.98067581       1.92370885      14.18864872 
S       6.98067581       4.03029543      11.40345701 
S      10.47101353       2.01514818      14.25330609 
Co       6.98067600      10.10036678       9.25736675 
Co       3.49033803       6.04544253       6.44234852 
Co       6.98067587       8.06059009       7.81501823 
Co       6.98067587      10.05110821       5.00000000 
Co       5.25683634       7.06533072       5.00000000 
Co       3.49033822      10.07573749       7.12868338 
Co       8.70451516       7.06533072       5.00000000 
Co       8.74717419       7.04070190       9.25736675 
Co       5.21417756       7.04070190       9.25736675 
S       5.15631830      11.03759146       5.76841621 
S       1.82435814       9.11388353       8.48895054 
S       1.82435814      11.03759146       5.76841621 
S       5.15631830       9.11388353       8.48895054 
S       3.49033810       8.15202927       5.76841621 
S       3.49033834      11.99944572       8.48895054 
S       6.98067581       8.06058993       5.70375883 
S       3.49033809       6.04544268       8.55360792 
Co       6.98067600       6.07007228      14.95706493 
Co       6.98067600       8.06059040      12.14204670 
Co       3.49033841      10.07573796      13.51471641 
Co       3.49033841      12.06625608      10.69969817 
Co       1.76649888       9.08047859      10.69969817 
Co       3.49033822       6.04544299      12.82838155 
Co       5.21417769       9.08047859      10.69969817 
Co       5.25683672       9.05584977      14.95706493 
Co       8.70451553       9.05584977      14.95706493 
S       5.15631830       7.00729696      11.46811438 
S       5.31469611      11.12903140      14.18864872 
S       8.80503358       7.00729696      11.46811438 
S       1.66598083      11.12903140      14.18864872 
S       6.98067607      10.16717714      11.46811438 
S       3.49033834       7.96915122      14.18864872 
S       3.49033835      10.07573781      11.40345701 
S       6.98067606       8.06059056      14.25330609 
Co      -3.49033691      16.14580916       9.25736675 
Co      -6.98067488      12.09088491       6.44234852 
Co      -3.49033703      14.10603246       7.81501823 
Co      -3.49033703      16.09655059       5.00000000 
Co      -5.21417656      13.11077310       5.00000000 
Co      -6.98067469      16.12117987       7.12868338 
Co      -1.76649775      13.11077310       5.00000000 
Co      -1.72383872      13.08614427       9.25736675 
Co      -5.25683535      13.08614427       9.25736675 
S      -5.31469461      17.08303384       5.76841621 
S      -8.64665477      15.15932591       8.48895054 
S      -8.64665477      17.08303384       5.76841621 
S      -5.31469461      15.15932591       8.48895054 
S      -6.98067481      14.19747165       5.76841621 
S      -6.98067457      18.04488810       8.48895054 
S      -3.49033710      14.10603231       5.70375883 
S      -6.98067481      12.09088506       8.55360792 
Co      -3.49033691      12.11551466      14.95706493 
Co      -3.49033691      14.10603278      12.14204670 
Co      -6.98067450      16.12118034      13.51471641 
Co      -6.98067450      18.11169846      10.69969817 
Co      -8.70451403      15.12592097      10.69969817 
Co      -6.98067469      12.09088537      12.82838155 
Co      -5.25683522      15.12592097      10.69969817 
Co      -5.21417619      15.10129215      14.95706493 
Co      -1.76649738      15.10129215      14.95706493 
S      -5.31469461      13.05273934      11.46811438 
S      -5.15631680      17.17447378      14.18864872 
S      -1.66597933      13.05273934      11.46811438 
S      -8.80503208      17.17447378      14.18864872 
S      -3.49033684      16.21261952      11.46811438 
S      -6.98067457      14.01459360      14.18864872 
S      -6.98067456      16.12118018      11.40345701 
S      -3.49033684      14.10603293      14.25330609 
Co      -6.98067437      22.19125153       9.25736675 
Co     -10.47101234      18.13632728       6.44234852 
Co      -6.98067450      20.15147484       7.81501823 
Co      -6.98067450      22.14199296       5.00000000 
Co      -8.70451403      19.15621547       5.00000000 
Co     -10.47101216      22.16662224       7.12868338 
Co      -5.25683522      19.15621547       5.00000000 
Co      -5.21417619      19.13158665       9.25736675 
Co      -8.74717281      19.13158665       9.25736675 
S      -8.80503208      23.12847621       5.76841621 
S     -12.13699223      21.20476828       8.48895054 
S     -12.13699223      23.12847621       5.76841621 
S      -8.80503208      21.20476828       8.48895054 
S     -10.47101228      20.24291402       5.76841621 
S     -10.47101204      24.09033047       8.48895054 
S      -6.98067456      20.15147468       5.70375883 
S     -10.47101228      18.13632743       8.55360792 
Co      -6.98067437      18.16095703      14.95706493 
Co      -6.98067437      20.15147515      12.14204670 
Co     -10.47101197      22.16662271      13.51471641 
Co     -10.47101197      24.15714083      10.69969817 
Co     -12.19485150      21.17136334      10.69969817 
Co     -10.47101216      18.13632774      12.82838155 
Co      -8.74717269      21.17136334      10.69969817 
Co      -8.70451365      21.14673452      14.95706493 
Co      -5.25683484      21.14673452      14.95706493 
S      -8.80503208      19.09818171      11.46811438 
S      -8.64665426      23.21991615      14.18864872 
S      -5.15631680      19.09818171      11.46811438 
S     -12.29536955      23.21991615      14.18864872 
S      -6.98067431      22.25806189      11.46811438 
S     -10.47101204      20.06003597      14.18864872 
S     -10.47101203      22.16662256      11.40345701 
S      -6.98067431      20.15147531      14.25330609 
Co       3.49033853      16.14580916       9.25736675 
Co       0.00000056      12.09088491       6.44234852 
Co       3.49033840      14.10603246       7.81501823 
Co       3.49033840      16.09655059       5.00000000 
Co       1.76649887      13.11077310       5.00000000 
Co       0.00000075      16.12117987       7.12868338 
Co       5.21417768      13.11077310       5.00000000 
Co       5.25683671      13.08614427       9.25736675 
Co       1.72384009      13.08614427       9.25736675 
S       1.66598082      17.08303384       5.76841621 
S      -1.66597933      15.15932591       8.48895054 
S      -1.66597933      17.08303384       5.76841621 
S       1.66598082      15.15932591       8.48895054 
S       0.00000063      14.19747165       5.76841621 
S       0.00000087      18.04488810       8.48895054 
S       3.49033834      14.10603231       5.70375883 
S       0.00000062      12.09088506       8.55360792 
Co       3.49033853      12.11551466      14.95706493 
Co       3.49033853      14.10603278      12.14204670 
Co       0.00000094      16.12118034      13.51471641 
Co       0.00000093      18.11169846      10.69969817 
Co      -1.72383859      15.12592097      10.69969817 
Co       0.00000075      12.09088537      12.82838155 
Co       1.72384022      15.12592097      10.69969817 
Co       1.76649925      15.10129215      14.95706493 
Co       5.21417806      15.10129215      14.95706493 
S       1.66598082      13.05273934      11.46811438 
S       1.82435864      17.17447378      14.18864872 
S       5.31469611      13.05273934      11.46811438 
S      -1.82435664      17.17447378      14.18864872 
S       3.49033860      16.21261952      11.46811438 
S       0.00000087      14.01459360      14.18864872 
S       0.00000087      16.12118018      11.40345701 
S       3.49033859      14.10603293      14.25330609 
Co       0.00000106      22.19125153       9.25736675 
Co      -3.49033691      18.13632728       6.44234852 
Co       0.00000093      20.15147484       7.81501823 
Co       0.00000093      22.14199296       5.00000000 
Co      -1.72383860      19.15621547       5.00000000 
Co      -3.49033672      22.16662224       7.12868338 
Co       1.72384022      19.15621547       5.00000000 
Co       1.76649925      19.13158665       9.25736675 
Co      -1.76649738      19.13158665       9.25736675 
S      -1.82435664      23.12847621       5.76841621 
S      -5.15631680      21.20476828       8.48895054 
S      -5.15631680      23.12847621       5.76841621 
S      -1.82435664      21.20476828       8.48895054 
S      -3.49033684      20.24291402       5.76841621 
S      -3.49033660      24.09033047       8.48895054 
S       0.00000087      20.15147468       5.70375883 
S      -3.49033685      18.13632743       8.55360792 
Co       0.00000106      18.16095703      14.95706493 
Co       0.00000106      20.15147515      12.14204670 
Co      -3.49033653      22.16662271      13.51471641 
Co      -3.49033653      24.15714083      10.69969817 
Co      -5.21417606      21.17136334      10.69969817 
Co      -3.49033672      18.13632774      12.82838155 
Co      -1.76649725      21.17136334      10.69969817 
Co      -1.72383822      21.14673452      14.95706493 
Co       1.72384059      21.14673452      14.95706493 
S      -1.82435664      19.09818171      11.46811438 
S      -1.66597883      23.21991615      14.18864872 
S       1.82435864      19.09818171      11.46811438 
S      -5.31469411      23.21991615      14.18864872 
S       0.00000113      22.25806189      11.46811438 
S      -3.49033660      20.06003597      14.18864872 
S      -3.49033659      22.16662256      11.40345701 
S       0.00000112      20.15147531      14.25330609 
Co      17.45168890       4.05492441       9.25736675 
Co      13.96135093       0.00000016       6.44234852 
Co      17.45168878       2.01514771       7.81501823 
Co      17.45168878       4.00566584       5.00000000 
Co      15.72784925       1.01988835       5.00000000 
Co      13.96135112       4.03029512       7.12868338 
Co      19.17552806       1.01988835       5.00000000 
Co      19.21818709       0.99525952       9.25736675 
Co      15.68519046       0.99525952       9.25736675 
S      15.62733120       4.99214909       5.76841621 
S      12.29537104       3.06844116       8.48895054 
S      12.29537104       4.99214909       5.76841621 
S      15.62733120       3.06844116       8.48895054 
S      13.96135100       2.10658690       5.76841621 
S      13.96135124       5.95400335       8.48895054 
S      17.45168871       2.01514756       5.70375883 
S      13.96135100       0.00000031       8.55360792 
Co      17.45168890       0.02462991      14.95706493 
Co      17.45168890       2.01514803      12.14204670 
Co      13.96135131       4.03029559      13.51471641 
Co      13.96135131       6.02081371      10.69969817 
Co      12.23751178       3.03503622      10.69969817 
Co      13.96135112       0.00000062      12.82838155 
Co      15.68519059       3.03503622      10.69969817 
Co      15.72784962       3.01040740      14.95706493 
Co      19.17552843       3.01040740      14.95706493 
S      15.62733120       0.96185459      11.46811438 
S      15.78570901       5.08358903      14.18864872 
S      19.27604648       0.96185459      11.46811438 
S      12.13699373       5.08358903      14.18864872 
S      17.45168897       4.12173477      11.46811438 
S      13.96135124       1.92370885      14.18864872 
S      13.96135125       4.03029543      11.40345701 
S      17.45168897       2.01514818      14.25330609 
Co      13.96135144      10.10036678       9.25736675 
Co      10.47101347       6.04544253       6.44234852 
Co      13.96135131       8.06059009       7.81501823 
Co      13.96135131      10.05110821       5.00000000 
Co      12.23751178       7.06533072       5.00000000 
Co      10.47101365      10.07573749       7.12868338 
Co      15.68519059       7.06533072       5.00000000 
Co      15.72784962       7.04070190       9.25736675 
Co      12.19485300       7.04070190       9.25736675 
S      12.13699373      11.03759146       5.76841621 
S       8.80503358       9.11388353       8.48895054 
S       8.80503358      11.03759146       5.76841621 
S      12.13699373       9.11388353       8.48895054 
S      10.47101353       8.15202927       5.76841621 
S      10.47101377      11.99944572       8.48895054 
S      13.96135125       8.06058993       5.70375883 
S      10.47101353       6.04544268       8.55360792 
Co      13.96135144       6.07007228      14.95706493 
Co      13.96135144       8.06059040      12.14204670 
Co      10.47101384      10.07573796      13.51471641 
Co      10.47101384      12.06625608      10.69969817 
Co       8.74717431       9.08047859      10.69969817 
Co      10.47101365       6.04544299      12.82838155 
Co      12.19485312       9.08047859      10.69969817 
Co      12.23751216       9.05584977      14.95706493 
Co      15.68519097       9.05584977      14.95706493 
S      12.13699373       7.00729696      11.46811438 
S      12.29537155      11.12903140      14.18864872 
S      15.78570901       7.00729696      11.46811438 
S       8.64665626      11.12903140      14.18864872 
S      13.96135150      10.16717714      11.46811438 
S      10.47101377       7.96915122      14.18864872 
S      10.47101378      10.07573781      11.40345701 
S      13.96135150       8.06059056      14.25330609 
Co      24.43236434       4.05492441       9.25736675 
Co      20.94202637       0.00000016       6.44234852 
Co      24.43236421       2.01514771       7.81501823 
Co      24.43236421       4.00566584       5.00000000 
Co      22.70852468       1.01988835       5.00000000 
Co      20.94202656       4.03029512       7.12868338 
Co      26.15620349       1.01988835       5.00000000 
Co      26.19886252       0.99525952       9.25736675 
Co      22.66586590       0.99525952       9.25736675 
S      22.60800663       4.99214909       5.76841621 
S      19.27604648       3.06844116       8.48895054 
S      19.27604648       4.99214909       5.76841621 
S      22.60800663       3.06844116       8.48895054 
S      20.94202644       2.10658690       5.76841621 
S      20.94202668       5.95400335       8.48895054 
S      24.43236415       2.01514756       5.70375883 
S      20.94202643       0.00000031       8.55360792 
Co      24.43236434       0.02462991      14.95706493 
Co      24.43236434       2.01514803      12.14204670 
Co      20.94202675       4.03029559      13.51471641 
Co      20.94202674       6.02081371      10.69969817 
Co      19.21818722       3.03503622      10.69969817 
Co      20.94202656       0.00000062      12.82838155 
Co      22.66586603       3.03503622      10.69969817 
Co      22.70852506       3.01040740      14.95706493 
Co      26.15620387       3.01040740      14.95706493 
S      22.60800663       0.96185459      11.46811438 
S      22.76638445       5.08358903      14.18864872 
S      26.25672192       0.96185459      11.46811438 
S      19.11766917       5.08358903      14.18864872 
S      24.43236441       4.12173477      11.46811438 
S      20.94202668       1.92370885      14.18864872 
S      20.94202668       4.03029543      11.40345701 
S      24.43236440       2.01514818      14.25330609 
Co      20.94202687      10.10036678       9.25736675 
Co      17.45168890       6.04544253       6.44234852 
Co      20.94202674       8.06059009       7.81501823 
Co      20.94202674      10.05110821       5.00000000 
Co      19.21818721       7.06533072       5.00000000 
Co      17.45168909      10.07573749       7.12868338 
Co      22.66586603       7.06533072       5.00000000 
Co      22.70852506       7.04070190       9.25736675 
Co      19.17552843       7.04070190       9.25736675 
S      19.11766917      11.03759146       5.76841621 
S      15.78570901       9.11388353       8.48895054 
S      15.78570901      11.03759146       5.76841621 
S      19.11766917       9.11388353       8.48895054 
S      17.45168897       8.15202927       5.76841621 
S      17.45168921      11.99944572       8.48895054 
S      20.94202668       8.06058993       5.70375883 
S      17.45168896       6.04544268       8.55360792 
Co      20.94202687       6.07007228      14.95706493 
Co      20.94202687       8.06059040      12.14204670 
Co      17.45168928      10.07573796      13.51471641 
Co      17.45168928      12.06625608      10.69969817 
Co      15.72784975       9.08047859      10.69969817 
Co      17.45168909       6.04544299      12.82838155 
Co      19.17552856       9.08047859      10.69969817 
Co      19.21818759       9.05584977      14.95706493 
Co      22.66586640       9.05584977      14.95706493 
S      19.11766917       7.00729696      11.46811438 
S      19.27604698      11.12903140      14.18864872 
S      22.76638445       7.00729696      11.46811438 
S      15.62733170      11.12903140      14.18864872 
S      20.94202694      10.16717714      11.46811438 
S      17.45168921       7.96915122      14.18864872 
S      17.45168922      10.07573781      11.40345701 
S      20.94202693       8.06059056      14.25330609 
Co      10.47101397      16.14580916       9.25736675 
Co       6.98067600      12.09088491       6.44234852 
Co      10.47101385      14.10603246       7.81501823 
Co      10.47101385      16.09655059       5.00000000 
Co       8.74717432      13.11077310       5.00000000 
Co       6.98067619      16.12117987       7.12868338 
Co      12.19485313      13.11077310       5.00000000 
Co      12.23751216      13.08614427       9.25736675 
Co       8.70451553      13.08614427       9.25736675 
S       8.64665627      17.08303384       5.76841621 
S       5.31469611      15.15932591       8.48895054 
S       5.31469611      17.08303384       5.76841621 
S       8.64665627      15.15932591       8.48895054 
S       6.98067607      14.19747165       5.76841621 
S       6.98067631      18.04488810       8.48895054 
S      10.47101378      14.10603231       5.70375883 
S       6.98067607      12.09088506       8.55360792 
Co      10.47101397      12.11551466      14.95706493 
Co      10.47101397      14.10603278      12.14204670 
Co       6.98067638      16.12118034      13.51471641 
Co       6.98067638      18.11169846      10.69969817 
Co       5.25683685      15.12592097      10.69969817 
Co       6.98067619      12.09088537      12.82838155 
Co       8.70451566      15.12592097      10.69969817 
Co       8.74717469      15.10129215      14.95706493 
Co      12.19485350      15.10129215      14.95706493 
S       8.64665627      13.05273934      11.46811438 
S       8.80503408      17.17447378      14.18864872 
S      12.29537155      13.05273934      11.46811438 
S       5.15631880      17.17447378      14.18864872 
S      10.47101404      16.21261952      11.46811438 
S       6.98067631      14.01459360      14.18864872 
S       6.98067632      16.12118018      11.40345701 
S      10.47101404      14.10603293      14.25330609 
Co       6.98067651      22.19125153       9.25736675 
Co       3.49033854      18.13632728       6.44234852 
Co       6.98067638      20.15147484       7.81501823 
Co       6.98067638      22.14199296       5.00000000 
Co       5.25683685      19.15621547       5.00000000 
Co       3.49033872      22.16662224       7.12868338 
Co       8.70451566      19.15621547       5.00000000 
Co       8.74717469      19.13158665       9.25736675 
Co       5.21417807      19.13158665       9.25736675 
S       5.15631880      23.12847621       5.76841621 
S       1.82435865      21.20476828       8.48895054 
S       1.82435865      23.12847621       5.76841621 
S       5.15631880      21.20476828       8.48895054 
S       3.49033860      20.24291402       5.76841621 
S       3.49033884      24.09033047       8.48895054 
S       6.98067632      20.15147468       5.70375883 
S       3.49033860      18.13632743       8.55360792 
Co       6.98067651      18.16095703      14.95706493 
Co       6.98067651      20.15147515      12.14204670 
Co       3.49033891      22.16662271      13.51471641 
Co       3.49033891      24.15714083      10.69969817 
Co       1.76649938      21.17136334      10.69969817 
Co       3.49033872      18.13632774      12.82838155 
Co       5.21417819      21.17136334      10.69969817 
Co       5.25683723      21.14673452      14.95706493 
Co       8.70451604      21.14673452      14.95706493 
S       5.15631880      19.09818171      11.46811438 
S       5.31469662      23.21991615      14.18864872 
S       8.80503408      19.09818171      11.46811438 
S       1.66598133      23.21991615      14.18864872 
S       6.98067657      22.25806189      11.46811438 
S       3.49033884      20.06003597      14.18864872 
S       3.49033885      22.16662256      11.40345701 
S       6.98067657      20.15147531      14.25330609 
Co      17.45168941      16.14580916       9.25736675 
Co      13.96135144      12.09088491       6.44234852 
Co      17.45168928      14.10603246       7.81501823 
Co      17.45168928      16.09655059       5.00000000 
Co      15.72784975      13.11077310       5.00000000 
Co      13.96135163      16.12117987       7.12868338 
Co      19.17552856      13.11077310       5.00000000 
Co      19.21818759      13.08614427       9.25736675 
Co      15.68519097      13.08614427       9.25736675 
S      15.62733170      17.08303384       5.76841621 
S      12.29537155      15.15932591       8.48895054 
S      12.29537155      17.08303384       5.76841621 
S      15.62733170      15.15932591       8.48895054 
S      13.96135151      14.19747165       5.76841621 
S      13.96135175      18.04488810       8.48895054 
S      17.45168922      14.10603231       5.70375883 
S      13.96135150      12.09088506       8.55360792 
Co      17.45168941      12.11551466      14.95706493 
Co      17.45168941      14.10603278      12.14204670 
Co      13.96135182      16.12118034      13.51471641 
Co      13.96135181      18.11169846      10.69969817 
Co      12.23751229      15.12592097      10.69969817 
Co      13.96135163      12.09088537      12.82838155 
Co      15.68519110      15.12592097      10.69969817 
Co      15.72785013      15.10129215      14.95706493 
Co      19.17552894      15.10129215      14.95706493 
S      15.62733170      13.05273934      11.46811438 
S      15.78570952      17.17447378      14.18864872 
S      19.27604699      13.05273934      11.46811438 
S      12.13699424      17.17447378      14.18864872 
S      17.45168948      16.21261952      11.46811438 
S      13.96135175      14.01459360      14.18864872 
S      13.96135175      16.12118018      11.40345701 
S      17.45168947      14.10603293      14.25330609 
Co      13.96135194      22.19125153       9.25736675 
Co      10.47101397      18.13632728       6.44234852 
Co      13.96135181      20.15147484       7.81501823 
Co      13.96135181      22.14199296       5.00000000 
Co      12.23751228      19.15621547       5.00000000 
Co      10.47101416      22.16662224       7.12868338 
Co      15.68519110      19.15621547       5.00000000 
Co      15.72785013      19.13158665       9.25736675 
Co      12.19485350      19.13158665       9.25736675 
S      12.13699424      23.12847621       5.76841621 
S       8.80503408      21.20476828       8.48895054 
S       8.80503408      23.12847621       5.76841621 
S      12.13699424      21.20476828       8.48895054 
S      10.47101404      20.24291402       5.76841621 
S      10.47101428      24.09033047       8.48895054 
S      13.96135175      20.15147468       5.70375883 
S      10.47101403      18.13632743       8.55360792 
Co      13.96135194      18.16095703      14.95706493 
Co      13.96135194      20.15147515      12.14204670 
Co      10.47101435      22.16662271      13.51471641 
Co      10.47101435      24.15714083      10.69969817 
Co       8.74717482      21.17136334      10.69969817 
Co      10.47101416      18.13632774      12.82838155 
Co      12.19485363      21.17136334      10.69969817 
Co      12.23751266      21.14673452      14.95706493 
Co      15.68519147      21.14673452      14.95706493 
S      12.13699424      19.09818171      11.46811438 
S      12.29537205      23.21991615      14.18864872 
S      15.78570952      19.09818171      11.46811438 
S       8.64665677      23.21991615      14.18864872 
S      13.96135201      22.25806189      11.46811438 
S      10.47101428      20.06003597      14.18864872 
S      10.47101429      22.16662256      11.40345701 
S      13.96135200      20.15147531      14.25330609 
