448
Lattice="26.5619227032 0.0 0.0 -8.02967095754e-09 26.5619226832 0.0 0.0 -0.0 18.2393370674" Properties=species:S:1:pos:R:3:magmoms:R:1 unit_cell=conventional pbc="T T F"
Co       4.93375994       4.15033922      12.01601326       0.02128740 
S       6.64037384       5.91509726       7.49621696       0.01345678 
S       1.76505404       4.15021488       5.00010070      -0.01220688 
S       4.87550646       4.15008876       5.00000000      -0.01222915 
S       4.87542622       0.83014511       5.14810074      -0.01087008 
S       1.76497461       0.83027125       5.14820145      -0.01087927 
S       0.00004830       2.38552303       7.49579522       0.01333573 
S       3.32034718       2.38550269       7.34751284       0.02110440 
Co       1.66012104       0.83005979       7.42186445      -0.00294952 
Co       4.98035964       0.83005979       7.42186445      -0.00294205 
Co       3.32024033       5.81042116       5.07410123      -0.22458250 
Co       3.32024034       2.49017966       5.07410082      -0.22608910 
Co       0.00000196       4.15151512       6.24711282      -1.49865045 
Co       3.32023833       4.14907520       8.59662438       1.61127395 
S       6.64048285       2.68588991      12.14534602       0.01671737 
S       3.32024377       2.64360983      12.23867027      -0.03468854 
S       5.11458497       0.83009422       9.68814402       0.00709138 
S       1.52590203       0.83008256       9.68815154       0.00708883 
S       1.57756597       4.15021951       9.83841725       0.00649446 
S       5.06291022       4.15021153       9.83843280       0.00649640 
S       3.32023464       5.65733457      12.23826057      -0.03474128 
S      -0.00000436       5.61439637      12.14495222       0.01669055 
S       3.32019204       5.91507609       7.34793572      -0.03735725 
Co       1.70672076       4.15034337      12.01598817      -0.03734943 
Co       6.64049098       2.54917886       9.78346187      -0.06681975 
Co       6.64047186       5.75138967       9.78347776      -0.06669625 
Co       3.32025415       0.83030782      11.00331070      -2.43823425 
Co       6.64048276       0.82975393      13.20101341       2.85934422 
S       3.32019203      12.55555676       7.34793572       0.02128740 
S       6.64037384      12.55557793       7.49621696       0.01345678 
S       1.76505404      10.79069555       5.00010070      -0.01220688 
S       4.87550646      10.79056943       5.00000000      -0.01222915 
S       4.87542622       7.47062578       5.14810074      -0.01087008 
S       1.76497460       7.47075192       5.14820145      -0.01087927 
S       0.00004830       9.02600370       7.49579522       0.01333573 
S       3.32034718       9.02598336       7.34751284       0.02110440 
Co       1.66012103       7.47054046       7.42186445      -0.00294952 
Co       4.98035963       7.47054046       7.42186445      -0.00294205 
Co       3.32024033      12.45090184       5.07410123      -0.22458250 
Co       3.32024033       9.13066033       5.07410082      -0.22608910 
Co       0.00000196      10.79199579       6.24711282      -1.49865045 
Co       3.32023832      10.78955587       8.59662438       1.61127395 
S       6.64048285       9.32637058      12.14534602       0.01671737 
S       3.32024377       9.28409050      12.23867027      -0.03468854 
S       5.11458497       7.47057489       9.68814402       0.00709138 
S       1.52590203       7.47056323       9.68815154       0.00708883 
S       1.57756597      10.79070018       9.83841725       0.00649446 
S       5.06291022      10.79069220       9.83843280       0.00649640 
S       3.32023463      12.29781524      12.23826057      -0.03474128 
S      -0.00000436      12.25487704      12.14495222       0.01669055 
Co       4.93375994      10.79081989      12.01601326      -0.03735725 
Co       1.70672076      10.79082404      12.01598817      -0.03734943 
Co       6.64049097       9.18965953       9.78346187      -0.06681975 
Co       6.64047186      12.39187034       9.78347776      -0.06669625 
Co       3.32025415       7.47078850      11.00331070      -2.43823425 
Co       6.64048276       7.47023460      13.20101341       2.85934422 
S       9.96067271       5.91507609       7.34793572       0.02128740 
S      13.28085451       5.91509726       7.49621696       0.01345678 
S       8.40553471       4.15021488       5.00010070      -0.01220688 
S      11.51598714       4.15008876       5.00000000      -0.01222915 
S      11.51590690       0.83014511       5.14810074      -0.01087008 
S       8.40545528       0.83027125       5.14820145      -0.01087927 
S       6.64052897       2.38552303       7.49579522       0.01333573 
S       9.96082786       2.38550269       7.34751284       0.02110440 
Co       8.30060171       0.83005979       7.42186445      -0.00294952 
Co      11.62084031       0.83005979       7.42186445      -0.00294205 
Co       9.96072101       5.81042116       5.07410123      -0.22458250 
Co       9.96072101       2.49017966       5.07410082      -0.22608910 
Co       6.64048264       4.15151512       6.24711282      -1.49865045 
Co       9.96071900       4.14907520       8.59662438       1.61127395 
S      13.28096353       2.68588991      12.14534602       0.01671737 
S       9.96072445       2.64360983      12.23867027      -0.03468854 
S      11.75506565       0.83009422       9.68814402       0.00709138 
S       8.16638271       0.83008256       9.68815154       0.00708883 
S       8.21804665       4.15021951       9.83841725       0.00649446 
S      11.70339090       4.15021153       9.83843280       0.00649640 
S       9.96071531       5.65733457      12.23826057      -0.03474128 
S       6.64047631       5.61439637      12.14495222       0.01669055 
Co      11.57424061       4.15033922      12.01601326      -0.03735725 
Co       8.34720144       4.15034337      12.01598817      -0.03734943 
Co      13.28097165       2.54917886       9.78346187      -0.06681975 
Co      13.28095254       5.75138967       9.78347776      -0.06669625 
Co       9.96073483       0.83030782      11.00331070      -2.43823425 
Co      13.28096344       0.82975393      13.20101341       2.85934422 
S       9.96067271      12.55555676       7.34793572       0.02128740 
S      13.28085451      12.55557793       7.49621696       0.01345678 
S       8.40553471      10.79069555       5.00010070      -0.01220688 
S      11.51598713      10.79056943       5.00000000      -0.01222915 
S      11.51590690       7.47062578       5.14810074      -0.01087008 
S       8.40545528       7.47075192       5.14820145      -0.01087927 
S       6.64052897       9.02600370       7.49579522       0.01333573 
S       9.96082786       9.02598336       7.34751284       0.02110440 
Co       8.30060171       7.47054046       7.42186445      -0.00294952 
Co      11.62084031       7.47054046       7.42186445      -0.00294205 
Co       9.96072101      12.45090184       5.07410123      -0.22458250 
Co       9.96072101       9.13066033       5.07410082      -0.22608910 
Co       6.64048264      10.79199579       6.24711282      -1.49865045 
Co       9.96071900      10.78955587       8.59662438       1.61127395 
S      13.28096353       9.32637058      12.14534602       0.01671737 
S       9.96072444       9.28409050      12.23867027      -0.03468854 
S      11.75506565       7.47057489       9.68814402       0.00709138 
S       8.16638271       7.47056323       9.68815154       0.00708883 
S       8.21804664      10.79070018       9.83841725       0.00649446 
S      11.70339090      10.79069220       9.83843280       0.00649640 
S       9.96071531      12.29781524      12.23826057      -0.03474128 
S       6.64047631      12.25487704      12.14495222       0.01669055 
Co      11.57424061      10.79081989      12.01601326      -0.03735725 
Co       8.34720143      10.79082404      12.01598817      -0.03734943 
Co      13.28097165       9.18965953       9.78346187      -0.06681975 
Co      13.28095253      12.39187034       9.78347776      -0.06669625 
Co       9.96073483       7.47078850      11.00331070      -2.43823425 
Co      13.28096344       7.47023460      13.20101341       2.85934422 
S       3.32019204      19.19603743       7.34793572       0.02128740 
S       6.64037384      19.19605860       7.49621696       0.01345678 
S       1.76505404      17.43117622       5.00010070      -0.01220688 
S       4.87550646      17.43105010       5.00000000      -0.01222915 
S       4.87542622      14.11110645       5.14810074      -0.01087008 
S       1.76497461      14.11123259       5.14820145      -0.01087927 
S       0.00004830      15.66648437       7.49579522       0.01333573 
S       3.32034718      15.66646403       7.34751284       0.02110440 
Co       1.66012104      14.11102113       7.42186445      -0.00294952 
Co       4.98035964      14.11102113       7.42186445      -0.00294205 
Co       3.32024033      19.09138250       5.07410123      -0.22458250 
Co       3.32024034      15.77114100       5.07410082      -0.22608910 
Co       0.00000196      17.43247646       6.24711282      -1.49865045 
Co       3.32023833      17.43003654       8.59662438       1.61127395 
S       6.64048285      15.96685125      12.14534602       0.01671737 
S       3.32024377      15.92457117      12.23867027      -0.03468854 
S       5.11458497      14.11105556       9.68814402       0.00709138 
S       1.52590203      14.11104390       9.68815154       0.00708883 
S       1.57756597      17.43118085       9.83841725       0.00649446 
S       5.06291022      17.43117287       9.83843280       0.00649640 
S       3.32023464      18.93829591      12.23826057      -0.03474128 
S      -0.00000436      18.89535771      12.14495222       0.01669055 
Co       4.93375994      17.43130056      12.01601326      -0.03735725 
Co       1.70672076      17.43130471      12.01598817      -0.03734943 
Co       6.64049098      15.83014020       9.78346187      -0.06681975 
Co       6.64047186      19.03235101       9.78347776      -0.06669625 
Co       3.32025415      14.11126916      11.00331070      -2.43823425 
Co       6.64048276      14.11071527      13.20101341       2.85934422 
S       3.32019203      25.83651810       7.34793572       0.02128740 
S       6.64037384      25.83653927       7.49621696       0.01345678 
S       1.76505404      24.07165689       5.00010070      -0.01220688 
S       4.87550646      24.07153077       5.00000000      -0.01222915 
S       4.87542622      20.75158712       5.14810074      -0.01087008 
S       1.76497460      20.75171326       5.14820145      -0.01087927 
S       0.00004830      22.30696504       7.49579522       0.01333573 
S       3.32034718      22.30694470       7.34751284       0.02110440 
Co       1.66012103      20.75150180       7.42186445      -0.00294952 
Co       4.98035963      20.75150180       7.42186445      -0.00294205 
Co       3.32024033      25.73186318       5.07410123      -0.22458250 
Co       3.32024033      22.41162167       5.07410082      -0.22608910 
Co       0.00000196      24.07295713       6.24711282      -1.49865045 
Co       3.32023832      24.07051721       8.59662438       1.61127395 
S       6.64048285      22.60733192      12.14534602       0.01671737 
S       3.32024377      22.56505184      12.23867027      -0.03468854 
S       5.11458497      20.75153623       9.68814402       0.00709138 
S       1.52590203      20.75152457       9.68815154       0.00708883 
S       1.57756597      24.07166152       9.83841725       0.00649446 
S       5.06291022      24.07165354       9.83843280       0.00649640 
S       3.32023463      25.57877658      12.23826057      -0.03474128 
S      -0.00000436      25.53583838      12.14495222       0.01669055 
Co       4.93375994      24.07178123      12.01601326      -0.03735725 
Co       1.70672076      24.07178538      12.01598817      -0.03734943 
Co       6.64049097      22.47062087       9.78346187      -0.06681975 
Co       6.64047186      25.67283168       9.78347776      -0.06669625 
Co       3.32025415      20.75174984      11.00331070      -2.43823425 
Co       6.64048276      20.75119594      13.20101341       2.85934422 
S       9.96067271      19.19603743       7.34793572       0.02128740 
S      13.28085451      19.19605860       7.49621696       0.01345678 
S       8.40553471      17.43117622       5.00010070      -0.01220688 
S      11.51598714      17.43105010       5.00000000      -0.01222915 
S      11.51590690      14.11110645       5.14810074      -0.01087008 
S       8.40545528      14.11123259       5.14820145      -0.01087927 
S       6.64052897      15.66648437       7.49579522       0.01333573 
S       9.96082786      15.66646403       7.34751284       0.02110440 
Co       8.30060171      14.11102113       7.42186445      -0.00294952 
Co      11.62084031      14.11102113       7.42186445      -0.00294205 
Co       9.96072101      19.09138250       5.07410123      -0.22458250 
Co       9.96072101      15.77114100       5.07410082      -0.22608910 
Co       6.64048264      17.43247646       6.24711282      -1.49865045 
Co       9.96071900      17.43003654       8.59662438       1.61127395 
S      13.28096353      15.96685125      12.14534602       0.01671737 
S       9.96072445      15.92457117      12.23867027      -0.03468854 
S      11.75506565      14.11105556       9.68814402       0.00709138 
S       8.16638271      14.11104390       9.68815154       0.00708883 
S       8.21804665      17.43118085       9.83841725       0.00649446 
S      11.70339090      17.43117287       9.83843280       0.00649640 
S       9.96071531      18.93829591      12.23826057      -0.03474128 
S       6.64047631      18.89535771      12.14495222       0.01669055 
Co      11.57424061      17.43130056      12.01601326      -0.03735725 
Co       8.34720144      17.43130471      12.01598817      -0.03734943 
Co      13.28097165      15.83014020       9.78346187      -0.06681975 
Co      13.28095254      19.03235101       9.78347776      -0.06669625 
Co       9.96073483      14.11126916      11.00331070      -2.43823425 
Co      13.28096344      14.11071527      13.20101341       2.85934422 
S       9.96067271      25.83651810       7.34793572       0.02128740 
S      13.28085451      25.83653927       7.49621696       0.01345678 
S       8.40553471      24.07165689       5.00010070      -0.01220688 
S      11.51598713      24.07153077       5.00000000      -0.01222915 
S      11.51590690      20.75158712       5.14810074      -0.01087008 
S       8.40545528      20.75171326       5.14820145      -0.01087927 
S       6.64052897      22.30696504       7.49579522       0.01333573 
S       9.96082786      22.30694470       7.34751284       0.02110440 
Co       8.30060171      20.75150180       7.42186445      -0.00294952 
Co      11.62084031      20.75150180       7.42186445      -0.00294205 
Co       9.96072101      25.73186318       5.07410123      -0.22458250 
Co       9.96072101      22.41162167       5.07410082      -0.22608910 
Co       6.64048264      24.07295713       6.24711282      -1.49865045 
Co       9.96071900      24.07051721       8.59662438       1.61127395 
S      13.28096353      22.60733192      12.14534602       0.01671737 
S       9.96072444      22.56505184      12.23867027      -0.03468854 
S      11.75506565      20.75153623       9.68814402       0.00709138 
S       8.16638271      20.75152457       9.68815154       0.00708883 
S       8.21804664      24.07166152       9.83841725       0.00649446 
S      11.70339090      24.07165354       9.83843280       0.00649640 
S       9.96071531      25.57877658      12.23826057      -0.03474128 
S       6.64047631      25.53583838      12.14495222       0.01669055 
Co      11.57424061      24.07178123      12.01601326      -0.03735725 
Co       8.34720143      24.07178538      12.01598817      -0.03734943 
Co      13.28097165      22.47062087       9.78346187      -0.06681975 
Co      13.28095253      25.67283168       9.78347776      -0.06669625 
Co       9.96073483      20.75174984      11.00331070      -2.43823425 
Co      13.28096344      20.75119594      13.20101341       2.85934422 
S      16.60115339       5.91507609       7.34793572       0.02128740 
S      19.92133519       5.91509726       7.49621696       0.01345678 
S      15.04601539       4.15021488       5.00010070      -0.01220688 
S      18.15646781       4.15008876       5.00000000      -0.01222915 
S      18.15638757       0.83014511       5.14810074      -0.01087008 
S      15.04593596       0.83027125       5.14820145      -0.01087927 
S      13.28100965       2.38552303       7.49579522       0.01333573 
S      16.60130853       2.38550269       7.34751284       0.02110440 
Co      14.94108239       0.83005979       7.42186445      -0.00294952 
Co      18.26132099       0.83005979       7.42186445      -0.00294205 
Co      16.60120168       5.81042116       5.07410123      -0.22458250 
Co      16.60120169       2.49017966       5.07410082      -0.22608910 
Co      13.28096331       4.15151512       6.24711282      -1.49865045 
Co      16.60119968       4.14907520       8.59662438       1.61127395 
S      19.92144420       2.68588991      12.14534602       0.01671737 
S      16.60120512       2.64360983      12.23867027      -0.03468854 
S      18.39554632       0.83009422       9.68814402       0.00709138 
S      14.80686338       0.83008256       9.68815154       0.00708883 
S      14.85852732       4.15021951       9.83841725       0.00649446 
S      18.34387157       4.15021153       9.83843280       0.00649640 
S      16.60119599       5.65733457      12.23826057      -0.03474128 
S      13.28095699       5.61439637      12.14495222       0.01669055 
Co      18.21472129       4.15033922      12.01601326      -0.03735725 
Co      14.98768211       4.15034337      12.01598817      -0.03734943 
Co      19.92145233       2.54917886       9.78346187      -0.06681975 
Co      19.92143321       5.75138967       9.78347776      -0.06669625 
Co      16.60121550       0.83030782      11.00331070      -2.43823425 
Co      19.92144411       0.82975393      13.20101341       2.85934422 
S      16.60115338      12.55555676       7.34793572       0.02128740 
S      19.92133519      12.55557793       7.49621696       0.01345678 
S      15.04601539      10.79069555       5.00010070      -0.01220688 
S      18.15646781      10.79056943       5.00000000      -0.01222915 
S      18.15638757       7.47062578       5.14810074      -0.01087008 
S      15.04593595       7.47075192       5.14820145      -0.01087927 
S      13.28100965       9.02600370       7.49579522       0.01333573 
S      16.60130853       9.02598336       7.34751284       0.02110440 
Co      14.94108238       7.47054046       7.42186445      -0.00294952 
Co      18.26132098       7.47054046       7.42186445      -0.00294205 
Co      16.60120168      12.45090184       5.07410123      -0.22458250 
Co      16.60120168       9.13066033       5.07410082      -0.22608910 
Co      13.28096331      10.79199579       6.24711282      -1.49865045 
Co      16.60119967      10.78955587       8.59662438       1.61127395 
S      19.92144420       9.32637058      12.14534602       0.01671737 
S      16.60120512       9.28409050      12.23867027      -0.03468854 
S      18.39554632       7.47057489       9.68814402       0.00709138 
S      14.80686338       7.47056323       9.68815154       0.00708883 
S      14.85852732      10.79070018       9.83841725       0.00649446 
S      18.34387157      10.79069220       9.83843280       0.00649640 
S      16.60119598      12.29781524      12.23826057      -0.03474128 
S      13.28095699      12.25487704      12.14495222       0.01669055 
Co      18.21472129      10.79081989      12.01601326      -0.03735725 
Co      14.98768211      10.79082404      12.01598817      -0.03734943 
Co      19.92145232       9.18965953       9.78346187      -0.06681975 
Co      19.92143321      12.39187034       9.78347776      -0.06669625 
Co      16.60121550       7.47078850      11.00331070      -2.43823425 
Co      19.92144411       7.47023460      13.20101341       2.85934422 
S      23.24163406       5.91507609       7.34793572       0.02128740 
S      26.56181586       5.91509726       7.49621696       0.01345678 
S      21.68649606       4.15021488       5.00010070      -0.01220688 
S      24.79694849       4.15008876       5.00000000      -0.01222915 
S      24.79686825       0.83014511       5.14810074      -0.01087008 
S      21.68641663       0.83027125       5.14820145      -0.01087927 
S      19.92149032       2.38552303       7.49579522       0.01333573 
S      23.24178921       2.38550269       7.34751284       0.02110440 
Co      21.58156306       0.83005979       7.42186445      -0.00294952 
Co      24.90180166       0.83005979       7.42186445      -0.00294205 
Co      23.24168236       5.81042116       5.07410123      -0.22458250 
Co      23.24168236       2.49017966       5.07410082      -0.22608910 
Co      19.92144399       4.15151512       6.24711282      -1.49865045 
Co      23.24168035       4.14907520       8.59662438       1.61127395 
S      26.56192488       2.68588991      12.14534602       0.01671737 
S      23.24168580       2.64360983      12.23867027      -0.03468854 
S      25.03602700       0.83009422       9.68814402       0.00709138 
S      21.44734406       0.83008256       9.68815154       0.00708883 
S      21.49900800       4.15021951       9.83841725       0.00649446 
S      24.98435225       4.15021153       9.83843280       0.00649640 
S      23.24167666       5.65733457      12.23826057      -0.03474128 
S      19.92143766       5.61439637      12.14495222       0.01669055 
Co      24.85520196       4.15033922      12.01601326      -0.03735725 
Co      21.62816279       4.15034337      12.01598817      -0.03734943 
Co      26.56193300       2.54917886       9.78346187      -0.06681975 
Co      26.56191389       5.75138967       9.78347776      -0.06669625 
Co      23.24169618       0.83030782      11.00331070      -2.43823425 
Co      26.56192479       0.82975393      13.20101341       2.85934422 
S      23.24163406      12.55555676       7.34793572       0.02128740 
S      26.56181586      12.55557793       7.49621696       0.01345678 
S      21.68649606      10.79069555       5.00010070      -0.01220688 
S      24.79694848      10.79056943       5.00000000      -0.01222915 
S      24.79686825       7.47062578       5.14810074      -0.01087008 
S      21.68641663       7.47075192       5.14820145      -0.01087927 
S      19.92149032       9.02600370       7.49579522       0.01333573 
S      23.24178921       9.02598336       7.34751284       0.02110440 
Co      21.58156306       7.47054046       7.42186445      -0.00294952 
Co      24.90180166       7.47054046       7.42186445      -0.00294205 
Co      23.24168236      12.45090184       5.07410123      -0.22458250 
Co      23.24168236       9.13066033       5.07410082      -0.22608910 
Co      19.92144399      10.79199579       6.24711282      -1.49865045 
Co      23.24168035      10.78955587       8.59662438       1.61127395 
S      26.56192488       9.32637058      12.14534602       0.01671737 
S      23.24168579       9.28409050      12.23867027      -0.03468854 
S      25.03602700       7.47057489       9.68814402       0.00709138 
S      21.44734406       7.47056323       9.68815154       0.00708883 
S      21.49900799      10.79070018       9.83841725       0.00649446 
S      24.98435225      10.79069220       9.83843280       0.00649640 
S      23.24167666      12.29781524      12.23826057      -0.03474128 
S      19.92143766      12.25487704      12.14495222       0.01669055 
Co      24.85520196      10.79081989      12.01601326      -0.03735725 
Co      21.62816278      10.79082404      12.01598817      -0.03734943 
Co      26.56193300       9.18965953       9.78346187      -0.06681975 
Co      26.56191388      12.39187034       9.78347776      -0.06669625 
Co      23.24169618       7.47078850      11.00331070      -2.43823425 
Co      26.56192479       7.47023460      13.20101341       2.85934422 
S      16.60115339      19.19603743       7.34793572       0.02128740 
S      19.92133519      19.19605860       7.49621696       0.01345678 
S      15.04601539      17.43117622       5.00010070      -0.01220688 
S      18.15646781      17.43105010       5.00000000      -0.01222915 
S      18.15638757      14.11110645       5.14810074      -0.01087008 
S      15.04593596      14.11123259       5.14820145      -0.01087927 
S      13.28100965      15.66648437       7.49579522       0.01333573 
S      16.60130853      15.66646403       7.34751284       0.02110440 
Co      14.94108239      14.11102113       7.42186445      -0.00294952 
Co      18.26132099      14.11102113       7.42186445      -0.00294205 
Co      16.60120168      19.09138250       5.07410123      -0.22458250 
Co      16.60120169      15.77114100       5.07410082      -0.22608910 
Co      13.28096331      17.43247646       6.24711282      -1.49865045 
Co      16.60119968      17.43003654       8.59662438       1.61127395 
S      19.92144420      15.96685125      12.14534602       0.01671737 
S      16.60120512      15.92457117      12.23867027      -0.03468854 
S      18.39554632      14.11105556       9.68814402       0.00709138 
S      14.80686338      14.11104390       9.68815154       0.00708883 
S      14.85852732      17.43118085       9.83841725       0.00649446 
S      18.34387157      17.43117287       9.83843280       0.00649640 
S      16.60119599      18.93829591      12.23826057      -0.03474128 
S      13.28095699      18.89535771      12.14495222       0.01669055 
Co      18.21472129      17.43130056      12.01601326      -0.03735725 
Co      14.98768211      17.43130471      12.01598817      -0.03734943 
Co      19.92145233      15.83014020       9.78346187      -0.06681975 
Co      19.92143321      19.03235101       9.78347776      -0.06669625 
Co      16.60121550      14.11126916      11.00331070      -2.43823425 
Co      19.92144411      14.11071527      13.20101341       2.85934422 
S      16.60115338      25.83651810       7.34793572       0.02128740 
S      19.92133519      25.83653927       7.49621696       0.01345678 
S      15.04601539      24.07165689       5.00010070      -0.01220688 
S      18.15646781      24.07153077       5.00000000      -0.01222915 
S      18.15638757      20.75158712       5.14810074      -0.01087008 
S      15.04593595      20.75171326       5.14820145      -0.01087927 
S      13.28100965      22.30696504       7.49579522       0.01333573 
S      16.60130853      22.30694470       7.34751284       0.02110440 
Co      14.94108238      20.75150180       7.42186445      -0.00294952 
Co      18.26132098      20.75150180       7.42186445      -0.00294205 
Co      16.60120168      25.73186318       5.07410123      -0.22458250 
Co      16.60120168      22.41162167       5.07410082      -0.22608910 
Co      13.28096331      24.07295713       6.24711282      -1.49865045 
Co      16.60119967      24.07051721       8.59662438       1.61127395 
S      19.92144420      22.60733192      12.14534602       0.01671737 
S      16.60120512      22.56505184      12.23867027      -0.03468854 
S      18.39554632      20.75153623       9.68814402       0.00709138 
S      14.80686338      20.75152457       9.68815154       0.00708883 
S      14.85852732      24.07166152       9.83841725       0.00649446 
S      18.34387157      24.07165354       9.83843280       0.00649640 
S      16.60119598      25.57877658      12.23826057      -0.03474128 
S      13.28095699      25.53583838      12.14495222       0.01669055 
Co      18.21472129      24.07178123      12.01601326      -0.03735725 
Co      14.98768211      24.07178538      12.01598817      -0.03734943 
Co      19.92145232      22.47062087       9.78346187      -0.06681975 
Co      19.92143321      25.67283168       9.78347776      -0.06669625 
Co      16.60121550      20.75174984      11.00331070      -2.43823425 
Co      19.92144411      20.75119594      13.20101341       2.85934422 
S      23.24163406      19.19603743       7.34793572       0.02128740 
S      26.56181586      19.19605860       7.49621696       0.01345678 
S      21.68649606      17.43117622       5.00010070      -0.01220688 
S      24.79694849      17.43105010       5.00000000      -0.01222915 
S      24.79686825      14.11110645       5.14810074      -0.01087008 
S      21.68641663      14.11123259       5.14820145      -0.01087927 
S      19.92149032      15.66648437       7.49579522       0.01333573 
S      23.24178921      15.66646403       7.34751284       0.02110440 
Co      21.58156306      14.11102113       7.42186445      -0.00294952 
Co      24.90180166      14.11102113       7.42186445      -0.00294205 
Co      23.24168236      19.09138250       5.07410123      -0.22458250 
Co      23.24168236      15.77114100       5.07410082      -0.22608910 
Co      19.92144399      17.43247646       6.24711282      -1.49865045 
Co      23.24168035      17.43003654       8.59662438       1.61127395 
S      26.56192488      15.96685125      12.14534602       0.01671737 
S      23.24168580      15.92457117      12.23867027      -0.03468854 
S      25.03602700      14.11105556       9.68814402       0.00709138 
S      21.44734406      14.11104390       9.68815154       0.00708883 
S      21.49900800      17.43118085       9.83841725       0.00649446 
S      24.98435225      17.43117287       9.83843280       0.00649640 
S      23.24167666      18.93829591      12.23826057      -0.03474128 
S      19.92143766      18.89535771      12.14495222       0.01669055 
Co      24.85520196      17.43130056      12.01601326      -0.03735725 
Co      21.62816279      17.43130471      12.01598817      -0.03734943 
Co      26.56193300      15.83014020       9.78346187      -0.06681975 
Co      26.56191389      19.03235101       9.78347776      -0.06669625 
Co      23.24169618      14.11126916      11.00331070      -2.43823425 
Co      26.56192479      14.11071527      13.20101341       2.85934422 
S      23.24163406      25.83651810       7.34793572       0.02128740 
S      26.56181586      25.83653927       7.49621696       0.01345678 
S      21.68649606      24.07165689       5.00010070      -0.01220688 
S      24.79694848      24.07153077       5.00000000      -0.01222915 
S      24.79686825      20.75158712       5.14810074      -0.01087008 
S      21.68641663      20.75171326       5.14820145      -0.01087927 
S      19.92149032      22.30696504       7.49579522       0.01333573 
S      23.24178921      22.30694470       7.34751284       0.02110440 
Co      21.58156306      20.75150180       7.42186445      -0.00294952 
Co      24.90180166      20.75150180       7.42186445      -0.00294205 
Co      23.24168236      25.73186318       5.07410123      -0.22458250 
Co      23.24168236      22.41162167       5.07410082      -0.22608910 
Co      19.92144399      24.07295713       6.24711282      -1.49865045 
Co      23.24168035      24.07051721       8.59662438       1.61127395 
S      26.56192488      22.60733192      12.14534602       0.01671737 
S      23.24168579      22.56505184      12.23867027      -0.03468854 
S      25.03602700      20.75153623       9.68814402       0.00709138 
S      21.44734406      20.75152457       9.68815154       0.00708883 
S      21.49900799      24.07166152       9.83841725       0.00649446 
S      24.98435225      24.07165354       9.83843280       0.00649640 
S      23.24167666      25.57877658      12.23826057      -0.03474128 
S      19.92143766      25.53583838      12.14495222       0.01669055 
Co      24.85520196      24.07178123      12.01601326      -0.03735725 
Co      21.62816278      24.07178538      12.01598817      -0.03734943 
Co      26.56193300      22.47062087       9.78346187      -0.06681975 
Co      26.56191388      25.67283168       9.78347776      -0.06669625 
Co      23.24169618      20.75174984      11.00331070      -2.43823425 
Co      26.56192479      20.75119594      13.20101341       2.85934422 
