128
Lattice="13.5369680785 0.0 0.0 6.36391367853e-16 10.3930597507 0.0 0.0 0.0 20.7468426982" Properties=species:S:1:pos:R:3:magmoms:R:1 unit_cell=conventional pbc="T T F"
S       1.95574250       4.54686503      15.74684270       0.00000000 
Co       0.26459145       3.24782067       5.00000000       0.00000000 
S       1.95760010       1.94869658       5.97641879       0.00000000 
S       0.26362115       4.54686503       6.95432420       0.00000000 
Co       3.64888163       0.64954300       5.00005636       0.00000000 
Co       3.64883347       3.24782067       5.00000000       0.00000000 
S       5.34184212       1.94869658       5.97641879       0.00000000 
S       3.64786317       4.54686503       6.95432420       0.00000000 
Co       5.34100275       0.64954300       7.93089586       0.00000000 
Co       5.34095460       3.24782067       7.93083950       0.00000000 
S       0.26547921       1.94869658       8.90725829       0.00000000 
S       5.33998430       4.54686503       9.88516370       0.00000000 
Co       1.95676073       0.64954300       7.93089586       0.00000000 
Co       1.95671258       3.24782067       7.93083950       0.00000000 
S       3.64972123       1.94869658       8.90725829       0.00000000 
S       1.95574228       4.54686503       9.88516370       0.00000000 
Co       3.64888185       0.64954300      10.86173535       0.00000000 
Co       3.64883370       3.24782067      10.86167900       0.00000000 
S       5.34184235       1.94869658      11.83809779       0.00000000 
S       3.64786340       4.54686503      12.81600320       0.00000000 
Co       0.26463983       0.64954300      10.86173535       0.00000000 
Co       0.26459168       3.24782067      10.86167900       0.00000000 
S       1.95760033       1.94869658      11.83809779       0.00000000 
S       0.26362138       4.54686503      12.81600320       0.00000000 
Co       1.95676095       0.64954300      13.79257485       0.00000000 
Co       1.95671280       3.24782067      13.79251849       0.00000000 
S       3.64972145       1.94869658      14.76893728       0.00000000 
Co       0.26463961       0.64954300       5.00005636       0.00000000 
Co       5.34100297       0.64954300      13.79257485       0.00000000 
Co       5.34095482       3.24782067      13.79251849       0.00000000 
S       0.26547943       1.94869658      14.76893728       0.00000000 
S       5.33998452       4.54686503      15.74684270       0.00000000 
Co       0.26463961       5.84607288       5.00005636       0.00000000 
Co       0.26459145       8.44435054       5.00000000       0.00000000 
S       1.95760010       7.14522646       5.97641879       0.00000000 
S       0.26362115       9.74339490       6.95432420       0.00000000 
Co       3.64888163       5.84607288       5.00005636       0.00000000 
Co       3.64883347       8.44435054       5.00000000       0.00000000 
S       5.34184212       7.14522646       5.97641879       0.00000000 
S       3.64786317       9.74339490       6.95432420       0.00000000 
Co       5.34100275       5.84607288       7.93089586       0.00000000 
Co       5.34095460       8.44435054       7.93083950       0.00000000 
S       0.26547921       7.14522646       8.90725829       0.00000000 
S       5.33998430       9.74339490       9.88516370       0.00000000 
Co       1.95676073       5.84607288       7.93089586       0.00000000 
Co       1.95671258       8.44435054       7.93083950       0.00000000 
S       3.64972123       7.14522646       8.90725829       0.00000000 
S       1.95574228       9.74339490       9.88516370       0.00000000 
Co       3.64888185       5.84607288      10.86173535       0.00000000 
Co       3.64883370       8.44435054      10.86167900       0.00000000 
S       5.34184235       7.14522646      11.83809779       0.00000000 
S       3.64786340       9.74339490      12.81600320       0.00000000 
Co       0.26463983       5.84607288      10.86173535       0.00000000 
Co       0.26459168       8.44435054      10.86167900       0.00000000 
S       1.95760033       7.14522646      11.83809779       0.00000000 
S       0.26362138       9.74339490      12.81600320       0.00000000 
Co       1.95676095       5.84607288      13.79257485       0.00000000 
Co       1.95671280       8.44435054      13.79251849       0.00000000 
S       3.64972145       7.14522646      14.76893728       0.00000000 
S       1.95574250       9.74339490      15.74684270       0.00000000 
Co       5.34100297       5.84607288      13.79257485       0.00000000 
Co       5.34095482       8.44435054      13.79251849       0.00000000 
S       0.26547943       7.14522646      14.76893728       0.00000000 
S       5.33998452       9.74339490      15.74684270       0.00000000 
Co       7.03312365       0.64954300       5.00005636       0.00000000 
Co       7.03307549       3.24782067       5.00000000       0.00000000 
S       8.72608414       1.94869658       5.97641879       0.00000000 
S       7.03210519       4.54686503       6.95432420       0.00000000 
Co      10.41736566       0.64954300       5.00005636       0.00000000 
Co      10.41731751       3.24782067       5.00000000       0.00000000 
S      12.11032616       1.94869658       5.97641879       0.00000000 
S      10.41634721       4.54686503       6.95432420       0.00000000 
Co      12.10948679       0.64954300       7.93089586       0.00000000 
Co      12.10943864       3.24782067       7.93083950       0.00000000 
S       7.03396324       1.94869658       8.90725829       0.00000000 
S      12.10846833       4.54686503       9.88516370       0.00000000 
Co       8.72524477       0.64954300       7.93089586       0.00000000 
Co       8.72519662       3.24782067       7.93083950       0.00000000 
S      10.41820526       1.94869658       8.90725829       0.00000000 
S       8.72422631       4.54686503       9.88516370       0.00000000 
Co      10.41736589       0.64954300      10.86173535       0.00000000 
Co      10.41731774       3.24782067      10.86167900       0.00000000 
S      12.11032639       1.94869658      11.83809779       0.00000000 
S      10.41634744       4.54686503      12.81600320       0.00000000 
Co       7.03312387       0.64954300      10.86173535       0.00000000 
Co       7.03307572       3.24782067      10.86167900       0.00000000 
S       8.72608437       1.94869658      11.83809779       0.00000000 
S       7.03210542       4.54686503      12.81600320       0.00000000 
Co       8.72524499       0.64954300      13.79257485       0.00000000 
Co       8.72519684       3.24782067      13.79251849       0.00000000 
S      10.41820549       1.94869658      14.76893728       0.00000000 
S       8.72422654       4.54686503      15.74684270       0.00000000 
Co      12.10948701       0.64954300      13.79257485       0.00000000 
Co      12.10943886       3.24782067      13.79251849       0.00000000 
S       7.03396347       1.94869658      14.76893728       0.00000000 
S      12.10846856       4.54686503      15.74684270       0.00000000 
Co       7.03312365       5.84607288       5.00005636       0.00000000 
Co       7.03307549       8.44435054       5.00000000       0.00000000 
S       8.72608414       7.14522646       5.97641879       0.00000000 
S       7.03210519       9.74339490       6.95432420       0.00000000 
Co      10.41736566       5.84607288       5.00005636       0.00000000 
Co      10.41731751       8.44435054       5.00000000       0.00000000 
S      12.11032616       7.14522646       5.97641879       0.00000000 
S      10.41634721       9.74339490       6.95432420       0.00000000 
Co      12.10948679       5.84607288       7.93089586       0.00000000 
Co      12.10943864       8.44435054       7.93083950       0.00000000 
S       7.03396324       7.14522646       8.90725829       0.00000000 
S      12.10846833       9.74339490       9.88516370       0.00000000 
Co       8.72524477       5.84607288       7.93089586       0.00000000 
Co       8.72519662       8.44435054       7.93083950       0.00000000 
S      10.41820526       7.14522646       8.90725829       0.00000000 
S       8.72422631       9.74339490       9.88516370       0.00000000 
Co      10.41736589       5.84607288      10.86173535       0.00000000 
Co      10.41731774       8.44435054      10.86167900       0.00000000 
S      12.11032639       7.14522646      11.83809779       0.00000000 
S      10.41634744       9.74339490      12.81600320       0.00000000 
Co       7.03312387       5.84607288      10.86173535       0.00000000 
Co       7.03307572       8.44435054      10.86167900       0.00000000 
S       8.72608437       7.14522646      11.83809779       0.00000000 
S       7.03210542       9.74339490      12.81600320       0.00000000 
Co       8.72524499       5.84607288      13.79257485       0.00000000 
Co       8.72519684       8.44435054      13.79251849       0.00000000 
S      10.41820549       7.14522646      14.76893728       0.00000000 
S       8.72422654       9.74339490      15.74684270       0.00000000 
Co      12.10948701       5.84607288      13.79257485       0.00000000 
Co      12.10943886       8.44435054      13.79251849       0.00000000 
S       7.03396347       7.14522646      14.76893728       0.00000000 
S      12.10846856       9.74339490      15.74684270       0.00000000 
