384
Lattice="32.235926493 0.0 0.0 -16.11796324652 27.9171312574 0.0 0.0 0.0 15.846321643" Properties=species:S:1:pos:R:3 unit_cell=conventional pbc="T T F"
Ru       4.02846217       0.00020646       5.53956031 
Ru       6.04457174       3.48864735       5.53956031 
Ru       2.01543853       3.49042900       5.53956031 
Ru       4.02949081       6.97928281       5.54193168 
S       1.10673424       1.68827344       6.81770288 
S       4.93821138       5.17668613       6.81770288 
S       6.04352682       0.11432324       6.81770288 
S       4.02949081       2.32642760       5.00000000 
S       0.00000000       4.65285521       6.07544396 
S       6.04307096       2.20751347       7.55625617 
S       3.12568339       4.12969624       7.55625617 
S       2.91971808       0.64207311       7.55625617 
Ru       2.01508092       5.81507495       8.82962578 
Ru      -0.00102864       2.32663407       8.82962578 
Ru      -2.01405228       5.81685661       8.82962578 
Ru       4.02949081       2.32642760       8.83199715 
S       5.13622505       4.01470105      10.10776835 
S       4.93821138       0.52383092      10.10776835 
S       2.01403600       2.44075085      10.10776835 
S       0.00000000       4.65285521       8.29006547 
S       4.02949081       6.97928281       9.36550943 
S       2.01358015       4.53394108      10.84632164 
S      -0.90380742       6.45612384      10.84632164 
S      -1.10977274       2.96850071      10.84632164 
Ru       2.01508092      10.46793016       5.53956031 
Ru      -0.00102864       6.97948928       5.53956031 
Ru      -2.01405228      10.46971182       5.53956031 
Ru       0.00000000      13.95856563       5.54193168 
S      -2.92275657       8.66755626       6.81770288 
S       0.90872057      12.15596894       6.81770288 
S       2.01403600       7.09360606       6.81770288 
S       0.00000000       9.30571042       5.00000000 
S      -4.02949081      11.63213802       6.07544396 
S       2.01358015       9.18679629       7.55625617 
S      -0.90380742      11.10897905       7.55625617 
S      -1.10977274       7.62135592       7.55625617 
Ru      -2.01440989      12.79435777       8.82962578 
Ru      -4.03051945       9.30591688       8.82962578 
Ru      -6.04354310      12.79613942       8.82962578 
Ru       0.00000000       9.30571042       8.83199715 
S       1.10673424      10.99398386      10.10776835 
S       0.90872057       7.50311373      10.10776835 
S      -2.01545481       9.42003366      10.10776835 
S      -4.02949081      11.63213802       8.29006547 
S       0.00000000      13.95856563       9.36550943 
S      -2.01591066      11.51322389      10.84632164 
S      -4.93329823      13.43540665      10.84632164 
S      -5.13926355       9.94778352      10.84632164 
Ru      14.10355336       3.48864735       5.53956031 
Ru      12.08744379       0.00020646       5.53956031 
Ru      10.07442015       3.49042900       5.53956031 
Ru      12.08847243       6.97928281       5.54193168 
S       9.16571586       1.68827344       6.81770288 
S      12.99719300       5.17668613       6.81770288 
S      14.10250844       0.11432324       6.81770288 
S      12.08847243       2.32642760       5.00000000 
S       8.05898162       4.65285521       6.07544396 
S      14.10205259       2.20751347       7.55625617 
S      11.18466502       4.12969624       7.55625617 
S      10.97869970       0.64207311       7.55625617 
Ru      10.07406255       5.81507495       8.82962578 
Ru       8.05795298       2.32663407       8.82962578 
Ru       6.04492934       5.81685661       8.82962578 
Ru      12.08847243       2.32642760       8.83199715 
S      13.19520667       4.01470105      10.10776835 
S      12.99719300       0.52383092      10.10776835 
S      10.07301763       2.44075085      10.10776835 
S       8.05898162       4.65285521       8.29006547 
S      12.08847243       6.97928281       9.36550943 
S      10.07256178       4.53394108      10.84632164 
S       7.15517421       6.45612384      10.84632164 
S       6.94920889       2.96850071      10.84632164 
Ru      10.07406255      10.46793016       5.53956031 
Ru       8.05795298       6.97948928       5.53956031 
Ru       6.04492934      10.46971182       5.53956031 
Ru       8.05898162      13.95856563       5.54193168 
S       5.13622505       8.66755626       6.81770288 
S       8.96770219      12.15596894       6.81770288 
S      10.07301763       7.09360606       6.81770288 
S       8.05898162       9.30571042       5.00000000 
S       4.02949081      11.63213802       6.07544396 
S      10.07256178       9.18679629       7.55625617 
S       7.15517421      11.10897905       7.55625617 
S       6.94920889       7.62135592       7.55625617 
Ru       6.04457174      12.79435777       8.82962578 
Ru       4.02846217       9.30591688       8.82962578 
Ru       2.01543853      12.79613942       8.82962578 
Ru       8.05898162       9.30571042       8.83199715 
S       9.16571586      10.99398386      10.10776835 
S       8.96770219       7.50311373      10.10776835 
S       6.04352682       9.42003366      10.10776835 
S       4.02949081      11.63213802       8.29006547 
S       8.05898162      13.95856563       9.36550943 
S       6.04307096      11.51322389      10.84632164 
S       3.12568339      13.43540665      10.84632164 
S       2.91971808       9.94778352      10.84632164 
Ru      -2.01440988      17.44721298       5.53956031 
Ru      -4.03051945      13.95877209       5.53956031 
Ru      -6.04354309      17.44899463       5.53956031 
Ru      -4.02949081      20.93784844       5.54193168 
S      -6.95224738      15.64683907       6.81770288 
S      -3.12077024      19.13525176       6.81770288 
S      -2.01545480      14.07288887       6.81770288 
S      -4.02949081      16.28499323       5.00000000 
S      -8.05898162      18.61142084       6.07544396 
S      -2.01591066      16.16607910       7.55625617 
S      -4.93329823      18.08826187       7.55625617 
S      -5.13926354      14.60063874       7.55625617 
Ru      -6.04390070      19.77364058       8.82962578 
Ru      -8.06001026      16.28519970       8.82962578 
Ru     -10.07303390      19.77542224       8.82962578 
Ru      -4.02949081      16.28499323       8.83199715 
S      -2.92275657      17.97326668      10.10776835 
S      -3.12077024      14.48239655      10.10776835 
S      -6.04494562      16.39931648      10.10776835 
S      -8.05898162      18.61142084       8.29006547 
S      -4.02949081      20.93784844       9.36550943 
S      -6.04540147      18.49250671      10.84632164 
S      -8.96278904      20.41468947      10.84632164 
S      -9.16875436      16.92706634      10.84632164 
Ru      -6.04390070      24.42649579       5.53956031 
Ru      -8.06001026      20.93805491       5.53956031 
Ru     -10.07303390      24.42827745       5.53956031 
Ru      -8.05898162      27.91713126       5.54193168 
S     -10.98173819      22.62612189       6.81770288 
S      -7.15026105      26.11453457       6.81770288 
S      -6.04494562      21.05217169       6.81770288 
S      -8.05898162      23.26427605       5.00000000 
S     -12.08847243      25.59070365       6.07544396 
S      -6.04540147      23.14536192       7.55625617 
S      -8.96278904      25.06754468       7.55625617 
S      -9.16875436      21.57992155       7.55625617 
Ru     -10.07339151      26.75292340       8.82962578 
Ru     -12.08950107      23.26448251       8.82962578 
Ru     -14.10252472      26.75470505       8.82962578 
Ru      -8.05898162      23.26427605       8.83199715 
S      -6.95224738      24.95254949      10.10776835 
S      -7.15026105      21.46167936      10.10776835 
S     -10.07443643      23.37859929      10.10776835 
S     -12.08847243      25.59070365       8.29006547 
S      -8.05898162      27.91713126       9.36550943 
S     -10.07489228      25.47178952      10.84632164 
S     -12.99227985      27.39397228      10.84632164 
S     -13.19824517      23.90634915      10.84632164 
Ru       6.04457174      17.44721298       5.53956031 
Ru       4.02846217      13.95877209       5.53956031 
Ru       2.01543853      17.44899463       5.53956031 
Ru       4.02949081      20.93784844       5.54193168 
S       1.10673424      15.64683907       6.81770288 
S       4.93821138      19.13525176       6.81770288 
S       6.04352682      14.07288887       6.81770288 
S       4.02949081      16.28499323       5.00000000 
S      -0.00000000      18.61142084       6.07544396 
S       6.04307097      16.16607910       7.55625617 
S       3.12568340      18.08826187       7.55625617 
S       2.91971808      14.60063874       7.55625617 
Ru       2.01508093      19.77364058       8.82962578 
Ru      -0.00102864      16.28519970       8.82962578 
Ru      -2.01405228      19.77542224       8.82962578 
Ru       4.02949081      16.28499323       8.83199715 
S       5.13622505      17.97326668      10.10776835 
S       4.93821138      14.48239655      10.10776835 
S       2.01403601      16.39931648      10.10776835 
S      -0.00000000      18.61142084       8.29006547 
S       4.02949081      20.93784844       9.36550943 
S       2.01358016      18.49250671      10.84632164 
S      -0.90380741      20.41468947      10.84632164 
S      -1.10977273      16.92706634      10.84632164 
Ru       2.01508093      24.42649579       5.53956031 
Ru      -0.00102864      20.93805491       5.53956031 
Ru      -2.01405228      24.42827745       5.53956031 
Ru      -0.00000000      27.91713126       5.54193168 
S      -2.92275657      22.62612189       6.81770288 
S       0.90872057      26.11453457       6.81770288 
S       2.01403601      21.05217169       6.81770288 
S      -0.00000000      23.26427605       5.00000000 
S      -4.02949081      25.59070365       6.07544396 
S       2.01358016      23.14536192       7.55625617 
S      -0.90380741      25.06754468       7.55625617 
S      -1.10977273      21.57992155       7.55625617 
Ru      -2.01440988      26.75292340       8.82962578 
Ru      -4.03051945      23.26448251       8.82962578 
Ru      -6.04354309      26.75470505       8.82962578 
Ru      -0.00000000      23.26427605       8.83199715 
S       1.10673424      24.95254949      10.10776835 
S       0.90872057      21.46167936      10.10776835 
S      -2.01545480      23.37859929      10.10776835 
S      -4.02949081      25.59070365       8.29006547 
S      -0.00000000      27.91713126       9.36550943 
S      -2.01591066      25.47178952      10.84632164 
S      -4.93329823      27.39397228      10.84632164 
S      -5.13926354      23.90634915      10.84632164 
Ru      22.16253499       3.48864735       5.53956031 
Ru      20.14642542       0.00020646       5.53956031 
Ru      18.13340178       3.49042900       5.53956031 
Ru      20.14745406       6.97928281       5.54193168 
S      17.22469749       1.68827344       6.81770288 
S      21.05617463       5.17668613       6.81770288 
S      22.16149007       0.11432324       6.81770288 
S      20.14745406       2.32642760       5.00000000 
S      16.11796325       4.65285521       6.07544396 
S      22.16103421       2.20751347       7.55625617 
S      19.24364664       4.12969624       7.55625617 
S      19.03768133       0.64207311       7.55625617 
Ru      18.13304417       5.81507495       8.82962578 
Ru      16.11693461       2.32663407       8.82962578 
Ru      14.10391097       5.81685661       8.82962578 
Ru      20.14745406       2.32642760       8.83199715 
S      21.25418830       4.01470105      10.10776835 
S      21.05617463       0.52383092      10.10776835 
S      18.13199925       2.44075085      10.10776835 
S      16.11796325       4.65285521       8.29006547 
S      20.14745406       6.97928281       9.36550943 
S      18.13154340       4.53394108      10.84632164 
S      15.21415583       6.45612384      10.84632164 
S      15.00819051       2.96850071      10.84632164 
Ru      18.13304417      10.46793016       5.53956031 
Ru      16.11693461       6.97948928       5.53956031 
Ru      14.10391097      10.46971182       5.53956031 
Ru      16.11796325      13.95856563       5.54193168 
S      13.19520668       8.66755626       6.81770288 
S      17.02668382      12.15596894       6.81770288 
S      18.13199925       7.09360606       6.81770288 
S      16.11796325       9.30571042       5.00000000 
S      12.08847244      11.63213802       6.07544396 
S      18.13154340       9.18679629       7.55625617 
S      15.21415583      11.10897905       7.55625617 
S      15.00819051       7.62135592       7.55625617 
Ru      14.10355336      12.79435777       8.82962578 
Ru      12.08744380       9.30591688       8.82962578 
Ru      10.07442015      12.79613942       8.82962578 
Ru      16.11796325       9.30571042       8.83199715 
S      17.22469749      10.99398386      10.10776835 
S      17.02668382       7.50311373      10.10776835 
S      14.10250844       9.42003366      10.10776835 
S      12.08847244      11.63213802       8.29006547 
S      16.11796325      13.95856563       9.36550943 
S      14.10205259      11.51322389      10.84632164 
S      11.18466502      13.43540665      10.84632164 
S      10.97869970       9.94778352      10.84632164 
Ru      30.22151661       3.48864735       5.53956031 
Ru      28.20540704       0.00020646       5.53956031 
Ru      26.19238340       3.49042900       5.53956031 
Ru      28.20643568       6.97928281       5.54193168 
S      25.28367911       1.68827344       6.81770288 
S      29.11515625       5.17668613       6.81770288 
S      30.22047169       0.11432324       6.81770288 
S      28.20643568       2.32642760       5.00000000 
S      24.17694487       4.65285521       6.07544396 
S      30.22001584       2.20751347       7.55625617 
S      27.30262827       4.12969624       7.55625617 
S      27.09666295       0.64207311       7.55625617 
Ru      26.19202580       5.81507495       8.82962578 
Ru      24.17591623       2.32663407       8.82962578 
Ru      22.16289259       5.81685661       8.82962578 
Ru      28.20643568       2.32642760       8.83199715 
S      29.31316992       4.01470105      10.10776835 
S      29.11515625       0.52383092      10.10776835 
S      26.19098088       2.44075085      10.10776835 
S      24.17694487       4.65285521       8.29006547 
S      28.20643568       6.97928281       9.36550943 
S      26.19052503       4.53394108      10.84632164 
S      23.27313746       6.45612384      10.84632164 
S      23.06717214       2.96850071      10.84632164 
Ru      26.19202580      10.46793016       5.53956031 
Ru      24.17591623       6.97948928       5.53956031 
Ru      22.16289259      10.46971182       5.53956031 
Ru      24.17694487      13.95856563       5.54193168 
S      21.25418830       8.66755626       6.81770288 
S      25.08566544      12.15596894       6.81770288 
S      26.19098088       7.09360606       6.81770288 
S      24.17694487       9.30571042       5.00000000 
S      20.14745406      11.63213802       6.07544396 
S      26.19052503       9.18679629       7.55625617 
S      23.27313746      11.10897905       7.55625617 
S      23.06717214       7.62135592       7.55625617 
Ru      22.16253499      12.79435777       8.82962578 
Ru      20.14642542       9.30591688       8.82962578 
Ru      18.13340178      12.79613942       8.82962578 
Ru      24.17694487       9.30571042       8.83199715 
S      25.28367911      10.99398386      10.10776835 
S      25.08566544       7.50311373      10.10776835 
S      22.16149007       9.42003366      10.10776835 
S      20.14745406      11.63213802       8.29006547 
S      24.17694487      13.95856563       9.36550943 
S      22.16103421      11.51322389      10.84632164 
S      19.24364664      13.43540665      10.84632164 
S      19.03768133       9.94778352      10.84632164 
Ru      14.10355336      17.44721298       5.53956031 
Ru      12.08744379      13.95877209       5.53956031 
Ru      10.07442015      17.44899463       5.53956031 
Ru      12.08847243      20.93784844       5.54193168 
S       9.16571586      15.64683907       6.81770288 
S      12.99719300      19.13525176       6.81770288 
S      14.10250844      14.07288887       6.81770288 
S      12.08847243      16.28499323       5.00000000 
S       8.05898162      18.61142084       6.07544396 
S      14.10205258      16.16607910       7.55625617 
S      11.18466501      18.08826187       7.55625617 
S      10.97869970      14.60063874       7.55625617 
Ru      10.07406254      19.77364058       8.82962578 
Ru       8.05795298      16.28519970       8.82962578 
Ru       6.04492934      19.77542224       8.82962578 
Ru      12.08847243      16.28499323       8.83199715 
S      13.19520667      17.97326668      10.10776835 
S      12.99719300      14.48239655      10.10776835 
S      10.07301762      16.39931648      10.10776835 
S       8.05898162      18.61142084       8.29006547 
S      12.08847243      20.93784844       9.36550943 
S      10.07256177      18.49250671      10.84632164 
S       7.15517420      20.41468947      10.84632164 
S       6.94920888      16.92706634      10.84632164 
Ru      10.07406254      24.42649579       5.53956031 
Ru       8.05795298      20.93805491       5.53956031 
Ru       6.04492934      24.42827745       5.53956031 
Ru       8.05898162      27.91713126       5.54193168 
S       5.13622505      22.62612189       6.81770288 
S       8.96770219      26.11453457       6.81770288 
S      10.07301762      21.05217169       6.81770288 
S       8.05898162      23.26427605       5.00000000 
S       4.02949081      25.59070365       6.07544396 
S      10.07256177      23.14536192       7.55625617 
S       7.15517420      25.06754468       7.55625617 
S       6.94920888      21.57992155       7.55625617 
Ru       6.04457173      26.75292340       8.82962578 
Ru       4.02846217      23.26448251       8.82962578 
Ru       2.01543852      26.75470505       8.82962578 
Ru       8.05898162      23.26427605       8.83199715 
S       9.16571586      24.95254949      10.10776835 
S       8.96770219      21.46167936      10.10776835 
S       6.04352681      23.37859929      10.10776835 
S       4.02949081      25.59070365       8.29006547 
S       8.05898162      27.91713126       9.36550943 
S       6.04307096      25.47178952      10.84632164 
S       3.12568339      27.39397228      10.84632164 
S       2.91971807      23.90634915      10.84632164 
Ru      22.16253498      17.44721298       5.53956031 
Ru      20.14642541      13.95877209       5.53956031 
Ru      18.13340177      17.44899463       5.53956031 
Ru      20.14745405      20.93784844       5.54193168 
S      17.22469748      15.64683907       6.81770288 
S      21.05617462      19.13525176       6.81770288 
S      22.16149006      14.07288887       6.81770288 
S      20.14745405      16.28499323       5.00000000 
S      16.11796324      18.61142084       6.07544396 
S      22.16103421      16.16607910       7.55625617 
S      19.24364664      18.08826187       7.55625617 
S      19.03768132      14.60063874       7.55625617 
Ru      18.13304417      19.77364058       8.82962578 
Ru      16.11693460      16.28519970       8.82962578 
Ru      14.10391096      19.77542224       8.82962578 
Ru      20.14745405      16.28499323       8.83199715 
S      21.25418829      17.97326668      10.10776835 
S      21.05617462      14.48239655      10.10776835 
S      18.13199925      16.39931648      10.10776835 
S      16.11796324      18.61142084       8.29006547 
S      20.14745405      20.93784844       9.36550943 
S      18.13154340      18.49250671      10.84632164 
S      15.21415583      20.41468947      10.84632164 
S      15.00819051      16.92706634      10.84632164 
Ru      18.13304417      24.42649579       5.53956031 
Ru      16.11693460      20.93805491       5.53956031 
Ru      14.10391096      24.42827745       5.53956031 
Ru      16.11796324      27.91713126       5.54193168 
S      13.19520667      22.62612189       6.81770288 
S      17.02668381      26.11453457       6.81770288 
S      18.13199925      21.05217169       6.81770288 
S      16.11796324      23.26427605       5.00000000 
S      12.08847243      25.59070365       6.07544396 
S      18.13154340      23.14536192       7.55625617 
S      15.21415583      25.06754468       7.55625617 
S      15.00819051      21.57992155       7.55625617 
Ru      14.10355336      26.75292340       8.82962578 
Ru      12.08744379      23.26448251       8.82962578 
Ru      10.07442015      26.75470505       8.82962578 
Ru      16.11796324      23.26427605       8.83199715 
S      17.22469748      24.95254949      10.10776835 
S      17.02668381      21.46167936      10.10776835 
S      14.10250844      23.37859929      10.10776835 
S      12.08847243      25.59070365       8.29006547 
S      16.11796324      27.91713126       9.36550943 
S      14.10205258      25.47178952      10.84632164 
S      11.18466501      27.39397228      10.84632164 
S      10.97869970      23.90634915      10.84632164 
