384
Lattice="22.794242221 0.0 0.0 1.39574478875e-15 22.794242221 0.0 0.0 0.0 20.7592023801" Properties=species:S:1:pos:R:3 unit_cell=conventional pbc="T T F"
Ru       0.32999800       0.32999800       5.00153769 
Ru       3.17872082       0.32846032       7.84880578 
Ru       0.32846032       3.17726610       7.85026050 
Ru       3.17726610       3.17872082       5.00000000 
S       0.97322031       5.38665591       7.20991856 
S       5.38665591       2.53837888       5.64475999 
S       2.53837888       0.97322031      10.05819559 
S       3.81615397       3.81615397       8.48769365 
S       2.53754164       2.53754164       7.20908133 
S       3.81964649       5.38910214       5.64025798 
S       0.96871829       3.81964649      10.06064182 
S       5.38910214       0.96871829       8.49118617 
Ru       3.17726610       3.17872082      10.69856056 
Ru       3.17872082       0.32846032      13.54736634 
Ru       0.32846032       3.17726610      13.54882106 
Ru       0.32999800       0.32999800      10.70009824 
S       0.97322031       5.38665591      12.90847912 
S       5.38665591       2.53837888      11.34332055 
S       2.53837888       0.97322031      15.75675615 
S       3.81615397       3.81615397      14.18625421 
S       2.53754164       2.53754164      12.90764188 
S       3.81964649       5.38910214      11.33881853 
S       0.96871829       3.81964649      15.75920238 
S       5.38910214       0.96871829      14.18974673 
Ru       3.17726610       8.87728137       5.00000000 
Ru       3.17872082       6.02702087       7.84880578 
Ru       0.32846032       8.87582665       7.85026050 
Ru       0.32999800       6.02855856       5.00153769 
S       0.97322031      11.08521646       7.20991856 
S       5.38665591       8.23693943       5.64475999 
S       2.53837888       6.67178086      10.05819559 
S       3.81615397       9.51471453       8.48769365 
S       2.53754164       8.23610220       7.20908133 
S       3.81964649      11.08766270       5.64025798 
S       0.96871829       9.51820704      10.06064182 
S       5.38910214       6.66727885       8.49118617 
Ru       3.17726610       8.87728137      10.69856056 
Ru       3.17872082       6.02702087      13.54736634 
Ru       0.32846032       8.87582665      13.54882106 
Ru       0.32999800       6.02855856      10.70009824 
S       0.97322031      11.08521646      12.90847912 
S       5.38665591       8.23693943      11.34332055 
S       2.53837888       6.67178086      15.75675615 
S       3.81615397       9.51471453      14.18625421 
S       2.53754164       8.23610220      12.90764188 
S       3.81964649      11.08766270      11.33881853 
S       0.96871829       9.51820704      15.75920238 
S       5.38910214       6.66727885      14.18974673 
Ru       8.87582665       3.17872082       5.00000000 
Ru       8.87728137       0.32846032       7.84880578 
Ru       6.02702087       3.17726610       7.85026050 
Ru       6.02855856       0.32999800       5.00153769 
S       6.67178086       5.38665591       7.20991856 
S      11.08521646       2.53837888       5.64475999 
S       8.23693943       0.97322031      10.05819559 
S       9.51471453       3.81615397       8.48769365 
S       8.23610220       2.53754164       7.20908133 
S       9.51820704       5.38910214       5.64025798 
S       6.66727885       3.81964649      10.06064182 
S      11.08766270       0.96871829       8.49118617 
Ru       8.87582665       3.17872082      10.69856056 
Ru       8.87728137       0.32846032      13.54736634 
Ru       6.02702087       3.17726610      13.54882106 
Ru       6.02855856       0.32999800      10.70009824 
S       6.67178086       5.38665591      12.90847912 
S      11.08521646       2.53837888      11.34332055 
S       8.23693943       0.97322031      15.75675615 
S       9.51471453       3.81615397      14.18625421 
S       8.23610220       2.53754164      12.90764188 
S       9.51820704       5.38910214      11.33881853 
S       6.66727885       3.81964649      15.75920238 
S      11.08766270       0.96871829      14.18974673 
Ru       8.87582665       8.87728137       5.00000000 
Ru       8.87728137       6.02702087       7.84880578 
Ru       6.02702087       8.87582665       7.85026050 
Ru       6.02855856       6.02855856       5.00153769 
S       6.67178086      11.08521646       7.20991856 
S      11.08521646       8.23693943       5.64475999 
S       8.23693943       6.67178086      10.05819559 
S       9.51471453       9.51471453       8.48769365 
S       8.23610220       8.23610220       7.20908133 
S       9.51820704      11.08766270       5.64025798 
S       6.66727885       9.51820704      10.06064182 
S      11.08766270       6.66727885       8.49118617 
Ru       8.87582665       8.87728137      10.69856056 
Ru       8.87728137       6.02702087      13.54736634 
Ru       6.02702087       8.87582665      13.54882106 
Ru       6.02855856       6.02855856      10.70009824 
S       6.67178086      11.08521646      12.90847912 
S      11.08521646       8.23693943      11.34332055 
S       8.23693943       6.67178086      15.75675615 
S       9.51471453       9.51471453      14.18625421 
S       8.23610220       8.23610220      12.90764188 
S       9.51820704      11.08766270      11.33881853 
S       6.66727885       9.51820704      15.75920238 
S      11.08766270       6.66727885      14.18974673 
Ru       3.17726610      14.57584193       5.00000000 
Ru       3.17872082      11.72558143       7.84880578 
Ru       0.32846032      14.57438721       7.85026050 
Ru       0.32999800      11.72711911       5.00153769 
S       0.97322031      16.78377702       7.20991856 
S       5.38665591      13.93549999       5.64475999 
S       2.53837888      12.37034142      10.05819559 
S       3.81615397      15.21327508       8.48769365 
S       2.53754164      13.93466275       7.20908133 
S       3.81964649      16.78622325       5.64025798 
S       0.96871829      15.21676760      10.06064182 
S       5.38910214      12.36583940       8.49118617 
Ru       3.17726610      14.57584193      10.69856056 
Ru       3.17872082      11.72558143      13.54736634 
Ru       0.32846032      14.57438721      13.54882106 
Ru       0.32999800      11.72711911      10.70009824 
S       0.97322031      16.78377702      12.90847912 
S       5.38665591      13.93549999      11.34332055 
S       2.53837888      12.37034142      15.75675615 
S       3.81615397      15.21327508      14.18625421 
S       2.53754164      13.93466275      12.90764188 
S       3.81964649      16.78622325      11.33881853 
S       0.96871829      15.21676760      15.75920238 
S       5.38910214      12.36583940      14.18974673 
Ru       3.17726610      20.27440248       5.00000000 
Ru       3.17872082      17.42414198       7.84880578 
Ru       0.32846032      20.27294776       7.85026050 
Ru       0.32999800      17.42567967       5.00153769 
S       0.97322031      22.48233757       7.20991856 
S       5.38665591      19.63406054       5.64475999 
S       2.53837888      18.06890197      10.05819559 
S       3.81615397      20.91183564       8.48769365 
S       2.53754164      19.63322331       7.20908133 
S       3.81964649      22.48478381       5.64025798 
S       0.96871829      20.91532815      10.06064182 
S       5.38910214      18.06439996       8.49118617 
Ru       3.17726610      20.27440248      10.69856056 
Ru       3.17872082      17.42414198      13.54736634 
Ru       0.32846032      20.27294776      13.54882106 
Ru       0.32999800      17.42567967      10.70009824 
S       0.97322031      22.48233757      12.90847912 
S       5.38665591      19.63406054      11.34332055 
S       2.53837888      18.06890197      15.75675615 
S       3.81615397      20.91183564      14.18625421 
S       2.53754164      19.63322331      12.90764188 
S       3.81964649      22.48478381      11.33881853 
S       0.96871829      20.91532815      15.75920238 
S       5.38910214      18.06439996      14.18974673 
Ru       8.87582665      14.57584193       5.00000000 
Ru       8.87728137      11.72558143       7.84880578 
Ru       6.02702087      14.57438721       7.85026050 
Ru       6.02855856      11.72711911       5.00153769 
S       6.67178086      16.78377702       7.20991856 
S      11.08521646      13.93549999       5.64475999 
S       8.23693943      12.37034142      10.05819559 
S       9.51471453      15.21327508       8.48769365 
S       8.23610220      13.93466275       7.20908133 
S       9.51820704      16.78622325       5.64025798 
S       6.66727885      15.21676760      10.06064182 
S      11.08766270      12.36583940       8.49118617 
Ru       8.87582665      14.57584193      10.69856056 
Ru       8.87728137      11.72558143      13.54736634 
Ru       6.02702087      14.57438721      13.54882106 
Ru       6.02855856      11.72711911      10.70009824 
S       6.67178086      16.78377702      12.90847912 
S      11.08521646      13.93549999      11.34332055 
S       8.23693943      12.37034142      15.75675615 
S       9.51471453      15.21327508      14.18625421 
S       8.23610220      13.93466275      12.90764188 
S       9.51820704      16.78622325      11.33881853 
S       6.66727885      15.21676760      15.75920238 
S      11.08766270      12.36583940      14.18974673 
Ru       8.87582665      20.27440248       5.00000000 
Ru       8.87728137      17.42414198       7.84880578 
Ru       6.02702087      20.27294776       7.85026050 
Ru       6.02855856      17.42567967       5.00153769 
S       6.67178086      22.48233757       7.20991856 
S      11.08521646      19.63406054       5.64475999 
S       8.23693943      18.06890197      10.05819559 
S       9.51471453      20.91183564       8.48769365 
S       8.23610220      19.63322331       7.20908133 
S       9.51820704      22.48478381       5.64025798 
S       6.66727885      20.91532815      10.06064182 
S      11.08766270      18.06439996       8.49118617 
Ru       8.87582665      20.27440248      10.69856056 
Ru       8.87728137      17.42414198      13.54736634 
Ru       6.02702087      20.27294776      13.54882106 
Ru       6.02855856      17.42567967      10.70009824 
S       6.67178086      22.48233757      12.90847912 
S      11.08521646      19.63406054      11.34332055 
S       8.23693943      18.06890197      15.75675615 
S       9.51471453      20.91183564      14.18625421 
S       8.23610220      19.63322331      12.90764188 
S       9.51820704      22.48478381      11.33881853 
S       6.66727885      20.91532815      15.75920238 
S      11.08766270      18.06439996      14.18974673 
Ru      14.57438721       3.17872082       5.00000000 
Ru      14.57584193       0.32846032       7.84880578 
Ru      11.72558143       3.17726610       7.85026050 
Ru      11.72711911       0.32999800       5.00153769 
S      12.37034142       5.38665591       7.20991856 
S      16.78377702       2.53837888       5.64475999 
S      13.93549999       0.97322031      10.05819559 
S      15.21327508       3.81615397       8.48769365 
S      13.93466275       2.53754164       7.20908133 
S      15.21676760       5.38910214       5.64025798 
S      12.36583940       3.81964649      10.06064182 
S      16.78622325       0.96871829       8.49118617 
Ru      14.57438721       3.17872082      10.69856056 
Ru      14.57584193       0.32846032      13.54736634 
Ru      11.72558143       3.17726610      13.54882106 
Ru      11.72711911       0.32999800      10.70009824 
S      12.37034142       5.38665591      12.90847912 
S      16.78377702       2.53837888      11.34332055 
S      13.93549999       0.97322031      15.75675615 
S      15.21327508       3.81615397      14.18625421 
S      13.93466275       2.53754164      12.90764188 
S      15.21676760       5.38910214      11.33881853 
S      12.36583940       3.81964649      15.75920238 
S      16.78622325       0.96871829      14.18974673 
Ru      14.57438721       8.87728137       5.00000000 
Ru      14.57584193       6.02702087       7.84880578 
Ru      11.72558143       8.87582665       7.85026050 
Ru      11.72711911       6.02855856       5.00153769 
S      12.37034142      11.08521646       7.20991856 
S      16.78377702       8.23693943       5.64475999 
S      13.93549999       6.67178086      10.05819559 
S      15.21327508       9.51471453       8.48769365 
S      13.93466275       8.23610220       7.20908133 
S      15.21676760      11.08766270       5.64025798 
S      12.36583940       9.51820704      10.06064182 
S      16.78622325       6.66727885       8.49118617 
Ru      14.57438721       8.87728137      10.69856056 
Ru      14.57584193       6.02702087      13.54736634 
Ru      11.72558143       8.87582665      13.54882106 
Ru      11.72711911       6.02855856      10.70009824 
S      12.37034142      11.08521646      12.90847912 
S      16.78377702       8.23693943      11.34332055 
S      13.93549999       6.67178086      15.75675615 
S      15.21327508       9.51471453      14.18625421 
S      13.93466275       8.23610220      12.90764188 
S      15.21676760      11.08766270      11.33881853 
S      12.36583940       9.51820704      15.75920238 
S      16.78622325       6.66727885      14.18974673 
Ru      20.27294776       3.17872082       5.00000000 
Ru      20.27440248       0.32846032       7.84880578 
Ru      17.42414198       3.17726610       7.85026050 
Ru      17.42567967       0.32999800       5.00153769 
S      18.06890197       5.38665591       7.20991856 
S      22.48233757       2.53837888       5.64475999 
S      19.63406054       0.97322031      10.05819559 
S      20.91183564       3.81615397       8.48769365 
S      19.63322331       2.53754164       7.20908133 
S      20.91532815       5.38910214       5.64025798 
S      18.06439996       3.81964649      10.06064182 
S      22.48478381       0.96871829       8.49118617 
Ru      20.27294776       3.17872082      10.69856056 
Ru      20.27440248       0.32846032      13.54736634 
Ru      17.42414198       3.17726610      13.54882106 
Ru      17.42567967       0.32999800      10.70009824 
S      18.06890197       5.38665591      12.90847912 
S      22.48233757       2.53837888      11.34332055 
S      19.63406054       0.97322031      15.75675615 
S      20.91183564       3.81615397      14.18625421 
S      19.63322331       2.53754164      12.90764188 
S      20.91532815       5.38910214      11.33881853 
S      18.06439996       3.81964649      15.75920238 
S      22.48478381       0.96871829      14.18974673 
Ru      20.27294776       8.87728137       5.00000000 
Ru      20.27440248       6.02702087       7.84880578 
Ru      17.42414198       8.87582665       7.85026050 
Ru      17.42567967       6.02855856       5.00153769 
S      18.06890197      11.08521646       7.20991856 
S      22.48233757       8.23693943       5.64475999 
S      19.63406054       6.67178086      10.05819559 
S      20.91183564       9.51471453       8.48769365 
S      19.63322331       8.23610220       7.20908133 
S      20.91532815      11.08766270       5.64025798 
S      18.06439996       9.51820704      10.06064182 
S      22.48478381       6.66727885       8.49118617 
Ru      20.27294776       8.87728137      10.69856056 
Ru      20.27440248       6.02702087      13.54736634 
Ru      17.42414198       8.87582665      13.54882106 
Ru      17.42567967       6.02855856      10.70009824 
S      18.06890197      11.08521646      12.90847912 
S      22.48233757       8.23693943      11.34332055 
S      19.63406054       6.67178086      15.75675615 
S      20.91183564       9.51471453      14.18625421 
S      19.63322331       8.23610220      12.90764188 
S      20.91532815      11.08766270      11.33881853 
S      18.06439996       9.51820704      15.75920238 
S      22.48478381       6.66727885      14.18974673 
Ru      14.57438721      14.57584193       5.00000000 
Ru      14.57584193      11.72558143       7.84880578 
Ru      11.72558143      14.57438721       7.85026050 
Ru      11.72711911      11.72711911       5.00153769 
S      12.37034142      16.78377702       7.20991856 
S      16.78377702      13.93549999       5.64475999 
S      13.93549999      12.37034142      10.05819559 
S      15.21327508      15.21327508       8.48769365 
S      13.93466275      13.93466275       7.20908133 
S      15.21676760      16.78622325       5.64025798 
S      12.36583940      15.21676760      10.06064182 
S      16.78622325      12.36583940       8.49118617 
Ru      14.57438721      14.57584193      10.69856056 
Ru      14.57584193      11.72558143      13.54736634 
Ru      11.72558143      14.57438721      13.54882106 
Ru      11.72711911      11.72711911      10.70009824 
S      12.37034142      16.78377702      12.90847912 
S      16.78377702      13.93549999      11.34332055 
S      13.93549999      12.37034142      15.75675615 
S      15.21327508      15.21327508      14.18625421 
S      13.93466275      13.93466275      12.90764188 
S      15.21676760      16.78622325      11.33881853 
S      12.36583940      15.21676760      15.75920238 
S      16.78622325      12.36583940      14.18974673 
Ru      14.57438721      20.27440248       5.00000000 
Ru      14.57584193      17.42414198       7.84880578 
Ru      11.72558143      20.27294776       7.85026050 
Ru      11.72711911      17.42567967       5.00153769 
S      12.37034142      22.48233757       7.20991856 
S      16.78377702      19.63406054       5.64475999 
S      13.93549999      18.06890197      10.05819559 
S      15.21327508      20.91183564       8.48769365 
S      13.93466275      19.63322331       7.20908133 
S      15.21676760      22.48478381       5.64025798 
S      12.36583940      20.91532815      10.06064182 
S      16.78622325      18.06439996       8.49118617 
Ru      14.57438721      20.27440248      10.69856056 
Ru      14.57584193      17.42414198      13.54736634 
Ru      11.72558143      20.27294776      13.54882106 
Ru      11.72711911      17.42567967      10.70009824 
S      12.37034142      22.48233757      12.90847912 
S      16.78377702      19.63406054      11.34332055 
S      13.93549999      18.06890197      15.75675615 
S      15.21327508      20.91183564      14.18625421 
S      13.93466275      19.63322331      12.90764188 
S      15.21676760      22.48478381      11.33881853 
S      12.36583940      20.91532815      15.75920238 
S      16.78622325      18.06439996      14.18974673 
Ru      20.27294776      14.57584193       5.00000000 
Ru      20.27440248      11.72558143       7.84880578 
Ru      17.42414198      14.57438721       7.85026050 
Ru      17.42567967      11.72711911       5.00153769 
S      18.06890197      16.78377702       7.20991856 
S      22.48233757      13.93549999       5.64475999 
S      19.63406054      12.37034142      10.05819559 
S      20.91183564      15.21327508       8.48769365 
S      19.63322331      13.93466275       7.20908133 
S      20.91532815      16.78622325       5.64025798 
S      18.06439996      15.21676760      10.06064182 
S      22.48478381      12.36583940       8.49118617 
Ru      20.27294776      14.57584193      10.69856056 
Ru      20.27440248      11.72558143      13.54736634 
Ru      17.42414198      14.57438721      13.54882106 
Ru      17.42567967      11.72711911      10.70009824 
S      18.06890197      16.78377702      12.90847912 
S      22.48233757      13.93549999      11.34332055 
S      19.63406054      12.37034142      15.75675615 
S      20.91183564      15.21327508      14.18625421 
S      19.63322331      13.93466275      12.90764188 
S      20.91532815      16.78622325      11.33881853 
S      18.06439996      15.21676760      15.75920238 
S      22.48478381      12.36583940      14.18974673 
Ru      20.27294776      20.27440248       5.00000000 
Ru      20.27440248      17.42414198       7.84880578 
Ru      17.42414198      20.27294776       7.85026050 
Ru      17.42567967      17.42567967       5.00153769 
S      18.06890197      22.48233757       7.20991856 
S      22.48233757      19.63406054       5.64475999 
S      19.63406054      18.06890197      10.05819559 
S      20.91183564      20.91183564       8.48769365 
S      19.63322331      19.63322331       7.20908133 
S      20.91532815      22.48478381       5.64025798 
S      18.06439996      20.91532815      10.06064182 
S      22.48478381      18.06439996       8.49118617 
Ru      20.27294776      20.27440248      10.69856056 
Ru      20.27440248      17.42414198      13.54736634 
Ru      17.42414198      20.27294776      13.54882106 
Ru      17.42567967      17.42567967      10.70009824 
S      18.06890197      22.48233757      12.90847912 
S      22.48233757      19.63406054      11.34332055 
S      19.63406054      18.06890197      15.75675615 
S      20.91183564      20.91183564      14.18625421 
S      19.63322331      19.63322331      12.90764188 
S      20.91532815      22.48478381      11.33881853 
S      18.06439996      20.91532815      15.75920238 
S      22.48478381      18.06439996      14.18974673 
