384
Lattice="32.235926493 0.0 0.0 0.0 22.794242221 0.0 0.0 0.0 17.1532459822" Properties=species:S:1:pos:R:3 unit_cell=conventional pbc="T T F"
Ru       4.02846217       5.37010024       5.00000000 
Ru       6.04457174       2.51983974       7.01405228 
Ru       2.01543853       2.52129446       7.01508092 
Ru       8.05898162       5.36856255       5.00181701 
S       1.10673424       0.31190465       7.01820496 
S       0.90872057       3.16018168       5.00275015 
S       6.04352682       4.72534025       6.10948439 
S       4.02949081       1.88240659       5.90249525 
S       8.05898162       3.16101891       8.12375517 
S       6.04307096       0.30945841       7.92101457 
S       7.15517421       1.87891407       5.00129649 
S       2.91971808       4.72984226       7.01720715 
Ru       2.01508092       2.51983974      11.04354310 
Ru       8.05795298       5.37010024       9.02949081 
Ru       6.04492934       2.52129446      11.04457174 
Ru       4.02949081       5.36856255       9.03130782 
S       5.13622505       0.31190465      11.04769577 
S       4.93821138       3.16018168       9.03224096 
S       2.01403600       4.72534025      10.13897520 
S       8.05898162       1.88240659       9.93198606 
S       4.02949081       3.16101891      12.15324598 
S       2.01358015       0.30945841      11.95050538 
S       3.12568339       1.87891407       9.03078730 
S       6.94920889       4.72984226      11.04669796 
Ru       6.04457174       8.21840029       7.01405228 
Ru       4.02846217      11.06866079       5.00000000 
Ru       2.01543853       8.21985501       7.01508092 
Ru       8.05898162      11.06712311       5.00181701 
S       1.10673424       6.01046520       7.01820496 
S       0.90872057       8.85874223       5.00275015 
S       6.04352682      10.42390080       6.10948439 
S       4.02949081       7.58096714       5.90249525 
S       8.05898162       8.85957947       8.12375517 
S       6.04307096       6.00801897       7.92101457 
S       7.15517421       7.57747462       5.00129649 
S       2.91971808      10.42840282       7.01720715 
Ru       2.01508092       8.21840029      11.04354310 
Ru       8.05795298      11.06866079       9.02949081 
Ru       6.04492934       8.21985501      11.04457174 
Ru       4.02949081      11.06712311       9.03130782 
S       5.13622505       6.01046520      11.04769577 
S       4.93821138       8.85874223       9.03224096 
S       2.01403600      10.42390080      10.13897520 
S       8.05898162       7.58096714       9.93198606 
S       4.02949081       8.85957947      12.15324598 
S       2.01358015       6.00801897      11.95050538 
S       3.12568339       7.57747462       9.03078730 
S       6.94920889      10.42840282      11.04669796 
Ru      14.10355336       2.51983974       7.01405228 
Ru      12.08744379       5.37010024       5.00000000 
Ru      10.07442015       2.52129446       7.01508092 
Ru      16.11796325       5.36856255       5.00181701 
S       9.16571586       0.31190465       7.01820496 
S       8.96770219       3.16018168       5.00275015 
S      14.10250844       4.72534025       6.10948439 
S      12.08847243       1.88240659       5.90249525 
S      16.11796325       3.16101891       8.12375517 
S      14.10205259       0.30945841       7.92101457 
S      15.21415583       1.87891407       5.00129649 
S      10.97869970       4.72984226       7.01720715 
Ru      10.07406255       2.51983974      11.04354310 
Ru      16.11693461       5.37010024       9.02949081 
Ru      14.10391096       2.52129446      11.04457174 
Ru      12.08847243       5.36856255       9.03130782 
S      13.19520667       0.31190465      11.04769577 
S      12.99719300       3.16018168       9.03224096 
S      10.07301763       4.72534025      10.13897520 
S      16.11796325       1.88240659       9.93198606 
S      12.08847243       3.16101891      12.15324598 
S      10.07256178       0.30945841      11.95050538 
S      11.18466502       1.87891407       9.03078730 
S      15.00819051       4.72984226      11.04669796 
Ru      14.10355336       8.21840029       7.01405228 
Ru      12.08744379      11.06866079       5.00000000 
Ru      10.07442015       8.21985501       7.01508092 
Ru      16.11796325      11.06712311       5.00181701 
S       9.16571586       6.01046520       7.01820496 
S       8.96770219       8.85874223       5.00275015 
S      14.10250844      10.42390080       6.10948439 
S      12.08847243       7.58096714       5.90249525 
S      16.11796325       8.85957947       8.12375517 
S      14.10205259       6.00801897       7.92101457 
S      15.21415583       7.57747462       5.00129649 
S      10.97869970      10.42840282       7.01720715 
Ru      10.07406255       8.21840029      11.04354310 
Ru      16.11693461      11.06866079       9.02949081 
Ru      14.10391096       8.21985501      11.04457174 
Ru      12.08847243      11.06712311       9.03130782 
S      13.19520667       6.01046520      11.04769577 
S      12.99719300       8.85874223       9.03224096 
S      10.07301763      10.42390080      10.13897520 
S      16.11796325       7.58096714       9.93198606 
S      12.08847243       8.85957947      12.15324598 
S      10.07256178       6.00801897      11.95050538 
S      11.18466502       7.57747462       9.03078730 
S      15.00819051      10.42840282      11.04669796 
Ru       6.04457174      13.91696085       7.01405228 
Ru       4.02846217      16.76722135       5.00000000 
Ru       2.01543853      13.91841557       7.01508092 
Ru       8.05898162      16.76568366       5.00181701 
S       1.10673424      11.70902576       7.01820496 
S       0.90872057      14.55730279       5.00275015 
S       6.04352682      16.12246136       6.10948439 
S       4.02949081      13.27952770       5.90249525 
S       8.05898162      14.55814002       8.12375517 
S       6.04307096      11.70657952       7.92101457 
S       7.15517421      13.27603518       5.00129649 
S       2.91971808      16.12696337       7.01720715 
Ru       2.01508092      13.91696085      11.04354310 
Ru       8.05795298      16.76722135       9.02949081 
Ru       6.04492934      13.91841557      11.04457174 
Ru       4.02949081      16.76568366       9.03130782 
S       5.13622505      11.70902576      11.04769577 
S       4.93821138      14.55730279       9.03224096 
S       2.01403600      16.12246136      10.13897520 
S       8.05898162      13.27952770       9.93198606 
S       4.02949081      14.55814002      12.15324598 
S       2.01358015      11.70657952      11.95050538 
S       3.12568339      13.27603518       9.03078730 
S       6.94920889      16.12696337      11.04669796 
Ru       6.04457174      19.61552140       7.01405228 
Ru       4.02846217      22.46578190       5.00000000 
Ru       2.01543853      19.61697612       7.01508092 
Ru       8.05898162      22.46424422       5.00181701 
S       1.10673424      17.40758631       7.01820496 
S       0.90872057      20.25586334       5.00275015 
S       6.04352682      21.82102191       6.10948439 
S       4.02949081      18.97808825       5.90249525 
S       8.05898162      20.25670058       8.12375517 
S       6.04307096      17.40514008       7.92101457 
S       7.15517421      18.97459573       5.00129649 
S       2.91971808      21.82552393       7.01720715 
Ru       2.01508092      19.61552140      11.04354310 
Ru       8.05795298      22.46578190       9.02949081 
Ru       6.04492934      19.61697612      11.04457174 
Ru       4.02949081      22.46424422       9.03130782 
S       5.13622505      17.40758631      11.04769577 
S       4.93821138      20.25586334       9.03224096 
S       2.01403600      21.82102191      10.13897520 
S       8.05898162      18.97808825       9.93198606 
S       4.02949081      20.25670058      12.15324598 
S       2.01358015      17.40514008      11.95050538 
S       3.12568339      18.97459573       9.03078730 
S       6.94920889      21.82552393      11.04669796 
Ru      14.10355336      13.91696085       7.01405228 
Ru      12.08744379      16.76722135       5.00000000 
Ru      10.07442015      13.91841557       7.01508092 
Ru      16.11796325      16.76568366       5.00181701 
S       9.16571586      11.70902576       7.01820496 
S       8.96770219      14.55730279       5.00275015 
S      14.10250844      16.12246136       6.10948439 
S      12.08847243      13.27952770       5.90249525 
S      16.11796325      14.55814002       8.12375517 
S      14.10205259      11.70657952       7.92101457 
S      15.21415583      13.27603518       5.00129649 
S      10.97869970      16.12696337       7.01720715 
Ru      10.07406255      13.91696085      11.04354310 
Ru      16.11693461      16.76722135       9.02949081 
Ru      14.10391096      13.91841557      11.04457174 
Ru      12.08847243      16.76568366       9.03130782 
S      13.19520667      11.70902576      11.04769577 
S      12.99719300      14.55730279       9.03224096 
S      10.07301763      16.12246136      10.13897520 
S      16.11796325      13.27952770       9.93198606 
S      12.08847243      14.55814002      12.15324598 
S      10.07256178      11.70657952      11.95050538 
S      11.18466502      13.27603518       9.03078730 
S      15.00819051      16.12696337      11.04669796 
Ru      14.10355336      19.61552140       7.01405228 
Ru      12.08744379      22.46578190       5.00000000 
Ru      10.07442015      19.61697612       7.01508092 
Ru      16.11796325      22.46424422       5.00181701 
S       9.16571586      17.40758631       7.01820496 
S       8.96770219      20.25586334       5.00275015 
S      14.10250844      21.82102191       6.10948439 
S      12.08847243      18.97808825       5.90249525 
S      16.11796325      20.25670058       8.12375517 
S      14.10205259      17.40514008       7.92101457 
S      15.21415583      18.97459573       5.00129649 
S      10.97869970      21.82552393       7.01720715 
Ru      10.07406255      19.61552140      11.04354310 
Ru      16.11693461      22.46578190       9.02949081 
Ru      14.10391096      19.61697612      11.04457174 
Ru      12.08847243      22.46424422       9.03130782 
S      13.19520667      17.40758631      11.04769577 
S      12.99719300      20.25586334       9.03224096 
S      10.07301763      21.82102191      10.13897520 
S      16.11796325      18.97808825       9.93198606 
S      12.08847243      20.25670058      12.15324598 
S      10.07256178      17.40514008      11.95050538 
S      11.18466502      18.97459573       9.03078730 
S      15.00819051      21.82552393      11.04669796 
Ru      22.16253499       2.51983974       7.01405228 
Ru      20.14642542       5.37010024       5.00000000 
Ru      18.13340178       2.52129446       7.01508092 
Ru      24.17694487       5.36856255       5.00181701 
S      17.22469749       0.31190465       7.01820496 
S      17.02668382       3.16018168       5.00275015 
S      22.16149007       4.72534025       6.10948439 
S      20.14745406       1.88240659       5.90249525 
S      24.17694487       3.16101891       8.12375517 
S      22.16103421       0.30945841       7.92101457 
S      23.27313746       1.87891407       5.00129649 
S      19.03768133       4.72984226       7.01720715 
Ru      18.13304417       2.51983974      11.04354310 
Ru      24.17591623       5.37010024       9.02949081 
Ru      22.16289259       2.52129446      11.04457174 
Ru      20.14745406       5.36856255       9.03130782 
S      21.25418830       0.31190465      11.04769577 
S      21.05617463       3.16018168       9.03224096 
S      18.13199925       4.72534025      10.13897520 
S      24.17694487       1.88240659       9.93198606 
S      20.14745406       3.16101891      12.15324598 
S      18.13154340       0.30945841      11.95050538 
S      19.24364664       1.87891407       9.03078730 
S      23.06717214       4.72984226      11.04669796 
Ru      22.16253499       8.21840029       7.01405228 
Ru      20.14642542      11.06866079       5.00000000 
Ru      18.13340178       8.21985501       7.01508092 
Ru      24.17694487      11.06712311       5.00181701 
S      17.22469749       6.01046520       7.01820496 
S      17.02668382       8.85874223       5.00275015 
S      22.16149007      10.42390080       6.10948439 
S      20.14745406       7.58096714       5.90249525 
S      24.17694487       8.85957947       8.12375517 
S      22.16103421       6.00801897       7.92101457 
S      23.27313746       7.57747462       5.00129649 
S      19.03768133      10.42840282       7.01720715 
Ru      18.13304417       8.21840029      11.04354310 
Ru      24.17591623      11.06866079       9.02949081 
Ru      22.16289259       8.21985501      11.04457174 
Ru      20.14745406      11.06712311       9.03130782 
S      21.25418830       6.01046520      11.04769577 
S      21.05617463       8.85874223       9.03224096 
S      18.13199925      10.42390080      10.13897520 
S      24.17694487       7.58096714       9.93198606 
S      20.14745406       8.85957947      12.15324598 
S      18.13154340       6.00801897      11.95050538 
S      19.24364664       7.57747462       9.03078730 
S      23.06717214      10.42840282      11.04669796 
Ru      30.22151661       2.51983974       7.01405228 
Ru      28.20540704       5.37010024       5.00000000 
Ru      26.19238340       2.52129446       7.01508092 
Ru      32.23592650       5.36856255       5.00181701 
S      25.28367911       0.31190465       7.01820496 
S      25.08566544       3.16018168       5.00275015 
S      30.22047169       4.72534025       6.10948439 
S      28.20643568       1.88240659       5.90249525 
S      32.23592650       3.16101891       8.12375517 
S      30.22001584       0.30945841       7.92101457 
S      31.33211908       1.87891407       5.00129649 
S      27.09666295       4.72984226       7.01720715 
Ru      26.19202580       2.51983974      11.04354310 
Ru      32.23489786       5.37010024       9.02949081 
Ru      30.22187421       2.52129446      11.04457174 
Ru      28.20643568       5.36856255       9.03130782 
S      29.31316992       0.31190465      11.04769577 
S      29.11515625       3.16018168       9.03224096 
S      26.19098088       4.72534025      10.13897520 
S      32.23592650       1.88240659       9.93198606 
S      28.20643568       3.16101891      12.15324598 
S      26.19052503       0.30945841      11.95050538 
S      27.30262827       1.87891407       9.03078730 
S      31.12615376       4.72984226      11.04669796 
Ru      30.22151661       8.21840029       7.01405228 
Ru      28.20540704      11.06866079       5.00000000 
Ru      26.19238340       8.21985501       7.01508092 
Ru      32.23592650      11.06712311       5.00181701 
S      25.28367911       6.01046520       7.01820496 
S      25.08566544       8.85874223       5.00275015 
S      30.22047169      10.42390080       6.10948439 
S      28.20643568       7.58096714       5.90249525 
S      32.23592650       8.85957947       8.12375517 
S      30.22001584       6.00801897       7.92101457 
S      31.33211908       7.57747462       5.00129649 
S      27.09666295      10.42840282       7.01720715 
Ru      26.19202580       8.21840029      11.04354310 
Ru      32.23489786      11.06866079       9.02949081 
Ru      30.22187421       8.21985501      11.04457174 
Ru      28.20643568      11.06712311       9.03130782 
S      29.31316992       6.01046520      11.04769577 
S      29.11515625       8.85874223       9.03224096 
S      26.19098088      10.42390080      10.13897520 
S      32.23592650       7.58096714       9.93198606 
S      28.20643568       8.85957947      12.15324598 
S      26.19052503       6.00801897      11.95050538 
S      27.30262827       7.57747462       9.03078730 
S      31.12615376      10.42840282      11.04669796 
Ru      22.16253499      13.91696085       7.01405228 
Ru      20.14642542      16.76722135       5.00000000 
Ru      18.13340178      13.91841557       7.01508092 
Ru      24.17694487      16.76568366       5.00181701 
S      17.22469749      11.70902576       7.01820496 
S      17.02668382      14.55730279       5.00275015 
S      22.16149007      16.12246136       6.10948439 
S      20.14745406      13.27952770       5.90249525 
S      24.17694487      14.55814002       8.12375517 
S      22.16103421      11.70657952       7.92101457 
S      23.27313746      13.27603518       5.00129649 
S      19.03768133      16.12696337       7.01720715 
Ru      18.13304417      13.91696085      11.04354310 
Ru      24.17591623      16.76722135       9.02949081 
Ru      22.16289259      13.91841557      11.04457174 
Ru      20.14745406      16.76568366       9.03130782 
S      21.25418830      11.70902576      11.04769577 
S      21.05617463      14.55730279       9.03224096 
S      18.13199925      16.12246136      10.13897520 
S      24.17694487      13.27952770       9.93198606 
S      20.14745406      14.55814002      12.15324598 
S      18.13154340      11.70657952      11.95050538 
S      19.24364664      13.27603518       9.03078730 
S      23.06717214      16.12696337      11.04669796 
Ru      22.16253499      19.61552140       7.01405228 
Ru      20.14642542      22.46578190       5.00000000 
Ru      18.13340178      19.61697612       7.01508092 
Ru      24.17694487      22.46424422       5.00181701 
S      17.22469749      17.40758631       7.01820496 
S      17.02668382      20.25586334       5.00275015 
S      22.16149007      21.82102191       6.10948439 
S      20.14745406      18.97808825       5.90249525 
S      24.17694487      20.25670058       8.12375517 
S      22.16103421      17.40514008       7.92101457 
S      23.27313746      18.97459573       5.00129649 
S      19.03768133      21.82552393       7.01720715 
Ru      18.13304417      19.61552140      11.04354310 
Ru      24.17591623      22.46578190       9.02949081 
Ru      22.16289259      19.61697612      11.04457174 
Ru      20.14745406      22.46424422       9.03130782 
S      21.25418830      17.40758631      11.04769577 
S      21.05617463      20.25586334       9.03224096 
S      18.13199925      21.82102191      10.13897520 
S      24.17694487      18.97808825       9.93198606 
S      20.14745406      20.25670058      12.15324598 
S      18.13154340      17.40514008      11.95050538 
S      19.24364664      18.97459573       9.03078730 
S      23.06717214      21.82552393      11.04669796 
Ru      30.22151661      13.91696085       7.01405228 
Ru      28.20540704      16.76722135       5.00000000 
Ru      26.19238340      13.91841557       7.01508092 
Ru      32.23592650      16.76568366       5.00181701 
S      25.28367911      11.70902576       7.01820496 
S      25.08566544      14.55730279       5.00275015 
S      30.22047169      16.12246136       6.10948439 
S      28.20643568      13.27952770       5.90249525 
S      32.23592650      14.55814002       8.12375517 
S      30.22001584      11.70657952       7.92101457 
S      31.33211908      13.27603518       5.00129649 
S      27.09666295      16.12696337       7.01720715 
Ru      26.19202580      13.91696085      11.04354310 
Ru      32.23489786      16.76722135       9.02949081 
Ru      30.22187421      13.91841557      11.04457174 
Ru      28.20643568      16.76568366       9.03130782 
S      29.31316992      11.70902576      11.04769577 
S      29.11515625      14.55730279       9.03224096 
S      26.19098088      16.12246136      10.13897520 
S      32.23592650      13.27952770       9.93198606 
S      28.20643568      14.55814002      12.15324598 
S      26.19052503      11.70657952      11.95050538 
S      27.30262827      13.27603518       9.03078730 
S      31.12615376      16.12696337      11.04669796 
Ru      30.22151661      19.61552140       7.01405228 
Ru      28.20540704      22.46578190       5.00000000 
Ru      26.19238340      19.61697612       7.01508092 
Ru      32.23592650      22.46424422       5.00181701 
S      25.28367911      17.40758631       7.01820496 
S      25.08566544      20.25586334       5.00275015 
S      30.22047169      21.82102191       6.10948439 
S      28.20643568      18.97808825       5.90249525 
S      32.23592650      20.25670058       8.12375517 
S      30.22001584      17.40514008       7.92101457 
S      31.33211908      18.97459573       5.00129649 
S      27.09666295      21.82552393       7.01720715 
Ru      26.19202580      19.61552140      11.04354310 
Ru      32.23489786      22.46578190       9.02949081 
Ru      30.22187421      19.61697612      11.04457174 
Ru      28.20643568      22.46424422       9.03130782 
S      29.31316992      17.40758631      11.04769577 
S      29.11515625      20.25586334       9.03224096 
S      26.19098088      21.82102191      10.13897520 
S      32.23592650      18.97808825       9.93198606 
S      28.20643568      20.25670058      12.15324598 
S      26.19052503      17.40514008      11.95050538 
S      27.30262827      18.97459573       9.03078730 
S      31.12615376      21.82552393      11.04669796 
