704
Lattice="45.5348750324 0.0 0.0 -22.8941776102 50.1259374506 0.0 0.0 -0.0 15.0311093459" Properties=species:S:1:pos:R:3 unit_cell=conventional pbc="T T F"
Cu      -3.98961432       9.17352512       8.95888385 
Cu       4.11661511       6.60369156       9.47226445 
Cu       3.81584056       2.10843542       5.00000000 
Cu      -1.37152769       9.12841140       8.41508899 
Cu      -4.72921750      11.83951517       7.57468798 
Cu       7.20373361       8.51298210       5.55884489 
Cu      -1.34990183      11.67987038       7.13870829 
Cu       7.70165942       0.09474474       6.89072711 
Cu       4.66584745       3.27715849       7.45642137 
Cu      -2.02329453       5.50253414       7.43517376 
Cu       1.30815764       5.98826226       6.61602036 
Cu       0.78861094       7.36033168       8.85200412 
Cu       6.53031671       2.43505108       5.80459988 
Cu       7.18215283       1.09832731       9.31458657 
Cu       1.09612833       1.07324975       5.36058409 
Cu       7.49597835       6.34465356       9.08695127 
Cu       6.64594051       5.04324981       6.69816103 
Cu      -0.85198099       7.75634198       6.17910523 
Cu       4.56404603       1.51193955       9.67052525 
Cu       1.28653178       3.43680328       7.89240106 
Cu       1.84433379       0.47675388      10.03110935 
Cu       3.82437036       8.77202010       5.94415807 
Cu      10.51357640       0.15013821       9.22650947 
Cu       1.95992448       9.61413952       7.59593558 
Cu       3.92624427       5.94314854       6.07222550 
Cu       9.86174028       1.48686199       5.71652278 
Cu       9.34223370       2.49044456       8.14038224 
Cu       4.67440820      10.07342385       8.33294832 
S       5.42738638       8.58503799       9.94164630 
S       5.66325725      10.17391333       6.18296647 
S       5.89296233       6.53163567       5.08946305 
S      -0.03095992       9.91770142       6.31615221 
S      -0.03241012       5.19897224       8.71495714 
S       5.63411173       1.12375814       7.55432543 
S       5.65709146       4.94276033       8.84814288 
S      -2.91952729       7.68889376       7.40168942 
S       8.52119711       3.64912169       6.31068478 
S      -2.89039762      11.20924453       8.84950823 
S       0.02606263       1.46143116       7.47678391 
S       2.79915160      11.46755197       8.72042456 
S      -2.66064911      12.46376245       5.25958588 
S       2.82702757       3.90742912       6.18160112 
S       2.85615724       7.42777990       7.62941993 
S       2.59727907       2.65291121       9.77152347 
Cu      -7.07344623      24.21135475       7.13870829 
Cu      -1.60692930      19.13517592       9.47226445 
Cu      -1.90770384      14.63991978       5.00000000 
Cu      -7.09507209      21.65989576       8.41508899 
Cu     -10.45276190      24.37099954       7.57468798 
Cu       1.48018920      21.04446646       5.55884489 
Cu      -9.71315872      21.70500948       8.95888385 
Cu       1.97811502      12.62622910       6.89072711 
Cu      -1.05769695      15.80864285       7.45642137 
Cu      -7.74683893      18.03401850       7.43517376 
Cu      -4.41538676      18.51974663       6.61602036 
Cu      -4.93493346      19.89181604       8.85200412 
Cu       0.80677231      14.96653545       5.80459988 
Cu       1.45860843      13.62981167       9.31458657 
Cu      -4.62741608      13.60473411       5.36058409 
Cu       1.77243395      18.87613792       9.08695127 
Cu       0.92239611      17.57473417       6.69816103 
Cu      -6.57552539      20.28782635       6.17910523 
Cu      -1.15949837      14.04342391       9.67052525 
Cu      -4.43701262      15.96828764       7.89240106 
Cu      -3.87921061      13.00823824      10.03110935 
Cu      -1.89917404      21.30350446       5.94415807 
Cu       4.79003200      12.68162258       9.22650947 
Cu      -3.76361992      22.14562388       7.59593558 
Cu      -1.79730013      18.47463290       6.07222550 
Cu       4.13819588      14.01834635       5.71652278 
Cu       3.61868929      15.02192892       8.14038224 
Cu      -1.04913620      22.60490821       8.33294832 
S      -0.29615802      21.11652235       9.94164630 
S      -0.06028715      22.70539769       6.18296647 
S       0.16941793      19.06312003       5.08946305 
S      -5.75450433      22.44918578       6.31615221 
S      -5.75595453      17.73045660       8.71495714 
S      -0.08943268      13.65524250       7.55432543 
S      -0.06645295      17.47424469       8.84814288 
S      -8.64307169      20.22037812       7.40168942 
S       2.79765270      16.18060606       6.31068478 
S      -8.61394202      23.74072890       8.84950823 
S      -5.69748177      13.99291552       7.47678391 
S      -2.92439280      23.99903633       8.72042456 
S      -8.38419352      24.99524681       5.25958588 
S      -2.89651683      16.43891349       6.18160112 
S      -2.86738716      19.95926426       7.62941993 
S      -3.12626534      15.18439557       9.77152347 
Cu      10.03381693      11.67987038       7.13870829 
Cu      15.50033386       6.60369156       9.47226445 
Cu      15.19955932       2.10843542       5.00000000 
Cu      10.01219107       9.12841140       8.41508899 
Cu       6.65450126      11.83951517       7.57468798 
Cu      18.58745236       8.51298210       5.55884489 
Cu       7.39410444       9.17352512       8.95888385 
Cu      19.08537818       0.09474474       6.89072711 
Cu      16.04956621       3.27715849       7.45642137 
Cu       9.36042423       5.50253414       7.43517376 
Cu      12.69187640       5.98826226       6.61602036 
Cu      12.17232970       7.36033168       8.85200412 
Cu      17.91403547       2.43505108       5.80459988 
Cu      18.56587159       1.09832731       9.31458657 
Cu      12.47984708       1.07324975       5.36058409 
Cu      18.87969711       6.34465356       9.08695127 
Cu      18.02965927       5.04324981       6.69816103 
Cu      10.53173777       7.75634198       6.17910523 
Cu      15.94776479       1.51193955       9.67052525 
Cu      12.67025054       3.43680328       7.89240106 
Cu      13.22805255       0.47675388      10.03110935 
Cu      15.20808912       8.77202010       5.94415807 
Cu      21.89729516       0.15013821       9.22650947 
Cu      13.34364324       9.61413952       7.59593558 
Cu      15.30996303       5.94314854       6.07222550 
Cu      21.24545904       1.48686199       5.71652278 
Cu      20.72595245       2.49044456       8.14038224 
Cu      16.05812696      10.07342385       8.33294832 
S      16.81110514       8.58503799       9.94164630 
S      17.04697601      10.17391333       6.18296647 
S      17.27668109       6.53163567       5.08946305 
S      11.35275883       9.91770142       6.31615221 
S      11.35130863       5.19897224       8.71495714 
S      17.01783049       1.12375814       7.55432543 
S      17.04081022       4.94276033       8.84814288 
S       8.46419147       7.68889376       7.40168942 
S      19.90491587       3.64912169       6.31068478 
S       8.49332114      11.20924453       8.84950823 
S      11.40978139       1.46143116       7.47678391 
S      14.18287036      11.46755197       8.72042456 
S       8.72306964      12.46376245       5.25958588 
S      14.21074633       3.90742912       6.18160112 
S      14.23987600       7.42777990       7.62941993 
S      13.98099782       2.65291121       9.77152347 
Cu       4.31027253      24.21135475       7.13870829 
Cu       9.77678946      19.13517592       9.47226445 
Cu       9.47601492      14.63991978       5.00000000 
Cu       4.28864667      21.65989576       8.41508899 
Cu       0.93095686      24.37099954       7.57468798 
Cu      12.86390796      21.04446646       5.55884489 
Cu       1.67056004      21.70500948       8.95888385 
Cu      13.36183377      12.62622910       6.89072711 
Cu      10.32602180      15.80864285       7.45642137 
Cu       3.63687983      18.03401850       7.43517376 
Cu       6.96833199      18.51974663       6.61602036 
Cu       6.44878529      19.89181604       8.85200412 
Cu      12.19049107      14.96653545       5.80459988 
Cu      12.84232719      13.62981167       9.31458657 
Cu       6.75630268      13.60473411       5.36058409 
Cu      13.15615271      18.87613792       9.08695127 
Cu      12.30611486      17.57473417       6.69816103 
Cu       4.80819337      20.28782635       6.17910523 
Cu      10.22422039      14.04342391       9.67052525 
Cu       6.94670613      15.96828764       7.89240106 
Cu       7.50450815      13.00823824      10.03110935 
Cu       9.48454471      21.30350446       5.94415807 
Cu      16.17375075      12.68162258       9.22650947 
Cu       7.62009883      22.14562388       7.59593558 
Cu       9.58641862      18.47463290       6.07222550 
Cu      15.52191464      14.01834635       5.71652278 
Cu      15.00240805      15.02192892       8.14038224 
Cu      10.33458256      22.60490821       8.33294832 
S      11.08756074      21.11652235       9.94164630 
S      11.32343161      22.70539769       6.18296647 
S      11.55313668      19.06312003       5.08946305 
S       5.62921443      22.44918578       6.31615221 
S       5.62776423      17.73045660       8.71495714 
S      11.29428608      13.65524250       7.55432543 
S      11.31726581      17.47424469       8.84814288 
S       2.74064707      20.22037812       7.40168942 
S      14.18137146      16.18060606       6.31068478 
S       2.76977673      23.74072890       8.84950823 
S       5.68623698      13.99291552       7.47678391 
S       8.45932596      23.99903633       8.72042456 
S       2.99952524      24.99524681       5.25958588 
S       8.48720193      16.43891349       6.18160112 
S       8.51633160      19.95926426       7.62941993 
S       8.25745342      15.18439557       9.77152347 
Cu     -12.79699064      36.74283911       7.13870829 
Cu      -7.33047370      31.66666029       9.47226445 
Cu      -7.63124825      27.17140415       5.00000000 
Cu     -12.81861650      34.19138013       8.41508899 
Cu     -16.17630631      36.90248390       7.57468798 
Cu      -4.24335520      33.57595083       5.55884489 
Cu     -15.43670313      34.23649385       8.95888385 
Cu      -3.74542939      25.15771347       6.89072711 
Cu      -6.78124136      28.34012722       7.45642137 
Cu     -13.47038334      30.56550287       7.43517376 
Cu     -10.13893117      31.05123099       6.61602036 
Cu     -10.65847787      32.42330041       8.85200412 
Cu      -4.91677210      27.49801981       5.80459988 
Cu      -4.26493598      26.16129604       9.31458657 
Cu     -10.35096048      26.13621848       5.36058409 
Cu      -3.95111046      31.40762229       9.08695127 
Cu      -4.80114830      30.10621854       6.69816103 
Cu     -12.29906980      32.81931071       6.17910523 
Cu      -6.88304278      26.57490828       9.67052525 
Cu     -10.16055703      28.49977201       7.89240106 
Cu      -9.60275502      25.53972261      10.03110935 
Cu      -7.62271845      33.83498883       5.94415807 
Cu      -0.93351241      25.21310694       9.22650947 
Cu      -9.48716433      34.67710825       7.59593558 
Cu      -7.52084454      31.00611727       6.07222550 
Cu      -1.58534853      26.54983072       5.71652278 
Cu      -2.10485511      27.55341329       8.14038224 
Cu      -6.77268061      35.13639258       8.33294832 
S      -6.01970243      33.64800672       9.94164630 
S      -5.78383156      35.23688206       6.18296647 
S      -5.55412648      31.59460440       5.08946305 
S     -11.47804873      34.98067015       6.31615221 
S     -11.47949893      30.26194097       8.71495714 
S      -5.81297708      26.18672687       7.55432543 
S      -5.78999735      30.00572906       8.84814288 
S     -14.36661610      32.75186249       7.40168942 
S      -2.92589170      28.71209042       6.31068478 
S     -14.33748643      36.27221326       8.84950823 
S     -11.42102618      26.52439989       7.47678391 
S      -8.64793721      36.53052070       8.72042456 
S     -14.10773792      37.52673118       5.25958588 
S      -8.62006124      28.97039785       6.18160112 
S      -8.59093157      32.49074863       7.62941993 
S      -8.84980974      27.71587994       9.77152347 
Cu     -18.52053504      49.27432348       7.13870829 
Cu     -13.05401811      44.19814465       9.47226445 
Cu     -13.35479265      39.70288851       5.00000000 
Cu     -18.54216090      46.72286449       8.41508899 
Cu     -21.89985071      49.43396827       7.57468798 
Cu      -9.96689961      46.10743519       5.55884489 
Cu     -21.16024753      46.76797821       8.95888385 
Cu      -9.46897379      37.68919783       6.89072711 
Cu     -12.50478576      40.87161158       7.45642137 
Cu     -19.19392774      43.09698723       7.43517376 
Cu     -15.86247557      43.58271536       6.61602036 
Cu     -16.38202227      44.95478477       8.85200412 
Cu     -10.64031650      40.02950418       5.80459988 
Cu      -9.98848038      38.69278040       9.31458657 
Cu     -16.07450489      38.66770284       5.36058409 
Cu      -9.67465486      43.93910665       9.08695127 
Cu     -10.52469270      42.63770290       6.69816103 
Cu     -18.02261420      45.35079508       6.17910523 
Cu     -12.60658718      39.10639264       9.67052525 
Cu     -15.88410143      41.03125637       7.89240106 
Cu     -15.32629942      38.07120697      10.03110935 
Cu     -13.34626285      46.36647319       5.94415807 
Cu      -6.65705681      37.74459131       9.22650947 
Cu     -15.21070873      47.20859261       7.59593558 
Cu     -13.24438894      43.53760163       6.07222550 
Cu      -7.30889293      39.08131508       5.71652278 
Cu      -7.82839952      40.08489765       8.14038224 
Cu     -12.49622501      47.66787694       8.33294832 
S     -11.74324683      46.17949108       9.94164630 
S     -11.50737596      47.76836642       6.18296647 
S     -11.27767088      44.12608876       5.08946305 
S     -17.20159314      47.51215451       6.31615221 
S     -17.20304334      42.79342533       8.71495714 
S     -11.53652149      38.71821123       7.55432543 
S     -11.51354176      42.53721342       8.84814288 
S     -20.09016050      45.28334685       7.40168942 
S      -8.64943611      41.24357479       6.31068478 
S     -20.06103083      48.80369763       8.84950823 
S     -17.14457058      39.05588425       7.47678391 
S     -14.37148161      49.06200506       8.72042456 
S     -19.83128233      50.05821554       5.25958588 
S     -14.34360564      41.50188222       6.18160112 
S     -14.31447597      45.02223299       7.62941993 
S     -14.57335415      40.24736430       9.77152347 
Cu      -1.41327188      36.74283911       7.13870829 
Cu       4.05324505      31.66666029       9.47226445 
Cu       3.75247051      27.17140415       5.00000000 
Cu      -1.43489774      34.19138013       8.41508899 
Cu      -4.79258755      36.90248390       7.57468798 
Cu       7.14036355      33.57595083       5.55884489 
Cu      -4.05298437      34.23649385       8.95888385 
Cu       7.63828937      25.15771347       6.89072711 
Cu       4.60247740      28.34012722       7.45642137 
Cu      -2.08666458      30.56550287       7.43517376 
Cu       1.24478759      31.05123099       6.61602036 
Cu       0.72524089      32.42330041       8.85200412 
Cu       6.46694666      27.49801981       5.80459988 
Cu       7.11878278      26.16129604       9.31458657 
Cu       1.03275827      26.13621848       5.36058409 
Cu       7.43260830      31.40762229       9.08695127 
Cu       6.58257046      30.10621854       6.69816103 
Cu      -0.91535104      32.81931071       6.17910523 
Cu       4.50067598      26.57490828       9.67052525 
Cu       1.22316173      28.49977201       7.89240106 
Cu       1.78096374      25.53972261      10.03110935 
Cu       3.76100031      33.83498883       5.94415807 
Cu      10.45020635      25.21310694       9.22650947 
Cu       1.89655443      34.67710825       7.59593558 
Cu       3.86287422      31.00611727       6.07222550 
Cu       9.79837023      26.54983072       5.71652278 
Cu       9.27886364      27.55341329       8.14038224 
Cu       4.61103815      35.13639258       8.33294832 
S       5.36401633      33.64800672       9.94164630 
S       5.59988720      35.23688206       6.18296647 
S       5.82959228      31.59460440       5.08946305 
S      -0.09432998      34.98067015       6.31615221 
S      -0.09578018      30.26194097       8.71495714 
S       5.57074168      26.18672687       7.55432543 
S       5.59372141      30.00572906       8.84814288 
S      -2.98289734      32.75186249       7.40168942 
S       8.45782706      28.71209042       6.31068478 
S      -2.95376767      36.27221326       8.84950823 
S      -0.03730742      26.52439989       7.47678391 
S       2.73578155      36.53052070       8.72042456 
S      -2.72401917      37.52673118       5.25958588 
S       2.76365752      28.97039785       6.18160112 
S       2.79278719      32.49074863       7.62941993 
S       2.53390901      27.71587994       9.77152347 
Cu      -7.13681628      49.27432348       7.13870829 
Cu      -1.67029935      44.19814465       9.47226445 
Cu      -1.97107389      39.70288851       5.00000000 
Cu      -7.15844214      46.72286449       8.41508899 
Cu     -10.51613195      49.43396827       7.57468798 
Cu       1.41681915      46.10743519       5.55884489 
Cu      -9.77652877      46.76797821       8.95888385 
Cu       1.91474496      37.68919783       6.89072711 
Cu      -1.12106701      40.87161158       7.45642137 
Cu      -7.81020898      43.09698723       7.43517376 
Cu      -4.47875682      43.58271536       6.61602036 
Cu      -4.99830352      44.95478477       8.85200412 
Cu       0.74340226      40.02950418       5.80459988 
Cu       1.39523838      38.69278040       9.31458657 
Cu      -4.69078613      38.66770284       5.36058409 
Cu       1.70906390      43.93910665       9.08695127 
Cu       0.85902605      42.63770290       6.69816103 
Cu      -6.63889544      45.35079508       6.17910523 
Cu      -1.22286842      39.10639264       9.67052525 
Cu      -4.50038268      41.03125637       7.89240106 
Cu      -3.94258066      38.07120697      10.03110935 
Cu      -1.96254410      46.36647319       5.94415807 
Cu       4.72666194      37.74459131       9.22650947 
Cu      -3.82698998      47.20859261       7.59593558 
Cu      -1.86067019      43.53760163       6.07222550 
Cu       4.07482583      39.08131508       5.71652278 
Cu       3.55531924      40.08489765       8.14038224 
Cu      -1.11250625      47.66787694       8.33294832 
S      -0.35952807      46.17949108       9.94164630 
S      -0.12365720      47.76836642       6.18296647 
S       0.10604787      44.12608876       5.08946305 
S      -5.81787438      47.51215451       6.31615221 
S      -5.81932458      42.79342533       8.71495714 
S      -0.15280273      38.71821123       7.55432543 
S      -0.12982300      42.53721342       8.84814288 
S      -8.70644174      45.28334685       7.40168942 
S       2.73428265      41.24357479       6.31068478 
S      -8.67731208      48.80369763       8.84950823 
S      -5.76085183      39.05588425       7.47678391 
S      -2.98776285      49.06200506       8.72042456 
S      -8.44756357      50.05821554       5.25958588 
S      -2.95988688      41.50188222       6.18160112 
S      -2.93075721      45.02223299       7.62941993 
S      -3.18963539      40.24736430       9.77152347 
Cu      21.41753569      11.67987038       7.13870829 
Cu      26.88405263       6.60369156       9.47226445 
Cu      26.58327808       2.10843542       5.00000000 
Cu      21.39590983       9.12841140       8.41508899 
Cu      18.03822002      11.83951517       7.57468798 
Cu      29.97117113       8.51298210       5.55884489 
Cu      18.77782320       9.17352512       8.95888385 
Cu      30.46909694       0.09474474       6.89072711 
Cu      27.43328497       3.27715849       7.45642137 
Cu      20.74414299       5.50253414       7.43517376 
Cu      24.07559516       5.98826226       6.61602036 
Cu      23.55604846       7.36033168       8.85200412 
Cu      29.29775423       2.43505108       5.80459988 
Cu      29.94959035       1.09832731       9.31458657 
Cu      23.86356585       1.07324975       5.36058409 
Cu      30.26341587       6.34465356       9.08695127 
Cu      29.41337803       5.04324981       6.69816103 
Cu      21.91545653       7.75634198       6.17910523 
Cu      27.33148355       1.51193955       9.67052525 
Cu      24.05396930       3.43680328       7.89240106 
Cu      24.61177131       0.47675388      10.03110935 
Cu      26.59180788       8.77202010       5.94415807 
Cu      33.28101392       0.15013821       9.22650947 
Cu      24.72736200       9.61413952       7.59593558 
Cu      26.69368179       5.94314854       6.07222550 
Cu      32.62917780       1.48686199       5.71652278 
Cu      32.10967122       2.49044456       8.14038224 
Cu      27.44184572      10.07342385       8.33294832 
S      28.19482390       8.58503799       9.94164630 
S      28.43069477      10.17391333       6.18296647 
S      28.66039985       6.53163567       5.08946305 
S      22.73647760       9.91770142       6.31615221 
S      22.73502740       5.19897224       8.71495714 
S      28.40154925       1.12375814       7.55432543 
S      28.42452898       4.94276033       8.84814288 
S      19.84791023       7.68889376       7.40168942 
S      31.28863463       3.64912169       6.31068478 
S      19.87703990      11.20924453       8.84950823 
S      22.79350015       1.46143116       7.47678391 
S      25.56658912      11.46755197       8.72042456 
S      20.10678841      12.46376245       5.25958588 
S      25.59446509       3.90742912       6.18160112 
S      25.62359476       7.42777990       7.62941993 
S      25.36471659       2.65291121       9.77152347 
Cu      15.69399129      24.21135475       7.13870829 
Cu      21.16050822      19.13517592       9.47226445 
Cu      20.85973368      14.63991978       5.00000000 
Cu      15.67236543      21.65989576       8.41508899 
Cu      12.31467562      24.37099954       7.57468798 
Cu      24.24762672      21.04446646       5.55884489 
Cu      13.05427880      21.70500948       8.95888385 
Cu      24.74555254      12.62622910       6.89072711 
Cu      21.70974057      15.80864285       7.45642137 
Cu      15.02059859      18.03401850       7.43517376 
Cu      18.35205076      18.51974663       6.61602036 
Cu      17.83250406      19.89181604       8.85200412 
Cu      23.57420983      14.96653545       5.80459988 
Cu      24.22604595      13.62981167       9.31458657 
Cu      18.14002144      13.60473411       5.36058409 
Cu      24.53987147      18.87613792       9.08695127 
Cu      23.68983363      17.57473417       6.69816103 
Cu      16.19191213      20.28782635       6.17910523 
Cu      21.60793915      14.04342391       9.67052525 
Cu      18.33042490      15.96828764       7.89240106 
Cu      18.88822691      13.00823824      10.03110935 
Cu      20.86826348      21.30350446       5.94415807 
Cu      27.55746952      12.68162258       9.22650947 
Cu      19.00381760      22.14562388       7.59593558 
Cu      20.97013739      18.47463290       6.07222550 
Cu      26.90563340      14.01834635       5.71652278 
Cu      26.38612681      15.02192892       8.14038224 
Cu      21.71830132      22.60490821       8.33294832 
S      22.47127950      21.11652235       9.94164630 
S      22.70715037      22.70539769       6.18296647 
S      22.93685545      19.06312003       5.08946305 
S      17.01293319      22.44918578       6.31615221 
S      17.01148299      17.73045660       8.71495714 
S      22.67800484      13.65524250       7.55432543 
S      22.70098457      17.47424469       8.84814288 
S      14.12436583      20.22037812       7.40168942 
S      25.56509022      16.18060606       6.31068478 
S      14.15349550      23.74072890       8.84950823 
S      17.06995575      13.99291552       7.47678391 
S      19.84304472      23.99903633       8.72042456 
S      14.38324400      24.99524681       5.25958588 
S      19.87092069      16.43891349       6.18160112 
S      19.90005036      19.95926426       7.62941993 
S      19.64117218      15.18439557       9.77152347 
Cu      32.80125445      11.67987038       7.13870829 
Cu      38.26777138       6.60369156       9.47226445 
Cu      37.96699684       2.10843542       5.00000000 
Cu      32.77962859       9.12841140       8.41508899 
Cu      29.42193878      11.83951517       7.57468798 
Cu      41.35488988       8.51298210       5.55884489 
Cu      30.16154196       9.17352512       8.95888385 
Cu      41.85281570       0.09474474       6.89072711 
Cu      38.81700373       3.27715849       7.45642137 
Cu      32.12786175       5.50253414       7.43517376 
Cu      35.45931392       5.98826226       6.61602036 
Cu      34.93976722       7.36033168       8.85200412 
Cu      40.68147299       2.43505108       5.80459988 
Cu      41.33330911       1.09832731       9.31458657 
Cu      35.24728460       1.07324975       5.36058409 
Cu      41.64713463       6.34465356       9.08695127 
Cu      40.79709679       5.04324981       6.69816103 
Cu      33.29917529       7.75634198       6.17910523 
Cu      38.71520231       1.51193955       9.67052525 
Cu      35.43768806       3.43680328       7.89240106 
Cu      35.99549007       0.47675388      10.03110935 
Cu      37.97552664       8.77202010       5.94415807 
Cu      44.66473268       0.15013821       9.22650947 
Cu      36.11108076       9.61413952       7.59593558 
Cu      38.07740055       5.94314854       6.07222550 
Cu      44.01289656       1.48686199       5.71652278 
Cu      43.49338997       2.49044456       8.14038224 
Cu      38.82556448      10.07342385       8.33294832 
S      39.57854266       8.58503799       9.94164630 
S      39.81441353      10.17391333       6.18296647 
S      40.04411861       6.53163567       5.08946305 
S      34.12019635       9.91770142       6.31615221 
S      34.11874615       5.19897224       8.71495714 
S      39.78526801       1.12375814       7.55432543 
S      39.80824774       4.94276033       8.84814288 
S      31.23162899       7.68889376       7.40168942 
S      42.67235339       3.64912169       6.31068478 
S      31.26075866      11.20924453       8.84950823 
S      34.17721891       1.46143116       7.47678391 
S      36.95030788      11.46755197       8.72042456 
S      31.49050716      12.46376245       5.25958588 
S      36.97818385       3.90742912       6.18160112 
S      37.00731352       7.42777990       7.62941993 
S      36.74843534       2.65291121       9.77152347 
Cu      27.07771005      24.21135475       7.13870829 
Cu      32.54422698      19.13517592       9.47226445 
Cu      32.24345244      14.63991978       5.00000000 
Cu      27.05608419      21.65989576       8.41508899 
Cu      23.69839438      24.37099954       7.57468798 
Cu      35.63134548      21.04446646       5.55884489 
Cu      24.43799756      21.70500948       8.95888385 
Cu      36.12927129      12.62622910       6.89072711 
Cu      33.09345932      15.80864285       7.45642137 
Cu      26.40431735      18.03401850       7.43517376 
Cu      29.73576951      18.51974663       6.61602036 
Cu      29.21622281      19.89181604       8.85200412 
Cu      34.95792859      14.96653545       5.80459988 
Cu      35.60976471      13.62981167       9.31458657 
Cu      29.52374020      13.60473411       5.36058409 
Cu      35.92359023      18.87613792       9.08695127 
Cu      35.07355238      17.57473417       6.69816103 
Cu      27.57563089      20.28782635       6.17910523 
Cu      32.99165791      14.04342391       9.67052525 
Cu      29.71414365      15.96828764       7.89240106 
Cu      30.27194567      13.00823824      10.03110935 
Cu      32.25198223      21.30350446       5.94415807 
Cu      38.94118827      12.68162258       9.22650947 
Cu      30.38753635      22.14562388       7.59593558 
Cu      32.35385614      18.47463290       6.07222550 
Cu      38.28935216      14.01834635       5.71652278 
Cu      37.76984557      15.02192892       8.14038224 
Cu      33.10202008      22.60490821       8.33294832 
S      33.85499826      21.11652235       9.94164630 
S      34.09086913      22.70539769       6.18296647 
S      34.32057420      19.06312003       5.08946305 
S      28.39665195      22.44918578       6.31615221 
S      28.39520175      17.73045660       8.71495714 
S      34.06172360      13.65524250       7.55432543 
S      34.08470333      17.47424469       8.84814288 
S      25.50808459      20.22037812       7.40168942 
S      36.94880898      16.18060606       6.31068478 
S      25.53721425      23.74072890       8.84950823 
S      28.45367450      13.99291552       7.47678391 
S      31.22676348      23.99903633       8.72042456 
S      25.76696276      24.99524681       5.25958588 
S      31.25463945      16.43891349       6.18160112 
S      31.28376912      19.95926426       7.62941993 
S      31.02489094      15.18439557       9.77152347 
Cu       9.97044688      36.74283911       7.13870829 
Cu      15.43696382      31.66666029       9.47226445 
Cu      15.13618927      27.17140415       5.00000000 
Cu       9.94882102      34.19138013       8.41508899 
Cu       6.59113121      36.90248390       7.57468798 
Cu      18.52408232      33.57595083       5.55884489 
Cu       7.33073439      34.23649385       8.95888385 
Cu      19.02200813      25.15771347       6.89072711 
Cu      15.98619616      28.34012722       7.45642137 
Cu       9.29705418      30.56550287       7.43517376 
Cu      12.62850635      31.05123099       6.61602036 
Cu      12.10895965      32.42330041       8.85200412 
Cu      17.85066542      27.49801981       5.80459988 
Cu      18.50250154      26.16129604       9.31458657 
Cu      12.41647704      26.13621848       5.36058409 
Cu      18.81632706      31.40762229       9.08695127 
Cu      17.96628922      30.10621854       6.69816103 
Cu      10.46836772      32.81931071       6.17910523 
Cu      15.88439474      26.57490828       9.67052525 
Cu      12.60688049      28.49977201       7.89240106 
Cu      13.16468250      25.53972261      10.03110935 
Cu      15.14471907      33.83498883       5.94415807 
Cu      21.83392511      25.21310694       9.22650947 
Cu      13.28027319      34.67710825       7.59593558 
Cu      15.24659298      31.00611727       6.07222550 
Cu      21.18208899      26.54983072       5.71652278 
Cu      20.66258241      27.55341329       8.14038224 
Cu      15.99475691      35.13639258       8.33294832 
S      16.74773509      33.64800672       9.94164630 
S      16.98360596      35.23688206       6.18296647 
S      17.21331104      31.59460440       5.08946305 
S      11.28938879      34.98067015       6.31615221 
S      11.28793859      30.26194097       8.71495714 
S      16.95446044      26.18672687       7.55432543 
S      16.97744017      30.00572906       8.84814288 
S       8.40082142      32.75186249       7.40168942 
S      19.84154582      28.71209042       6.31068478 
S       8.42995109      36.27221326       8.84950823 
S      11.34641134      26.52439989       7.47678391 
S      14.11950031      36.53052070       8.72042456 
S       8.65969960      37.52673118       5.25958588 
S      14.14737628      28.97039785       6.18160112 
S      14.17650595      32.49074863       7.62941993 
S      13.91762778      27.71587994       9.77152347 
Cu       4.24690248      49.27432348       7.13870829 
Cu       9.71341941      44.19814465       9.47226445 
Cu       9.41264487      39.70288851       5.00000000 
Cu       4.22527662      46.72286449       8.41508899 
Cu       0.86758681      49.43396827       7.57468798 
Cu      12.80053791      46.10743519       5.55884489 
Cu       1.60718999      46.76797821       8.95888385 
Cu      13.29846373      37.68919783       6.89072711 
Cu      10.26265176      40.87161158       7.45642137 
Cu       3.57350978      43.09698723       7.43517376 
Cu       6.90496195      43.58271536       6.61602036 
Cu       6.38541525      44.95478477       8.85200412 
Cu      12.12712102      40.02950418       5.80459988 
Cu      12.77895714      38.69278040       9.31458657 
Cu       6.69293263      38.66770284       5.36058409 
Cu      13.09278266      43.93910665       9.08695127 
Cu      12.24274482      42.63770290       6.69816103 
Cu       4.74482332      45.35079508       6.17910523 
Cu      10.16085034      39.10639264       9.67052525 
Cu       6.88333609      41.03125637       7.89240106 
Cu       7.44113810      38.07120697      10.03110935 
Cu       9.42117467      46.36647319       5.94415807 
Cu      16.11038071      37.74459131       9.22650947 
Cu       7.55672879      47.20859261       7.59593558 
Cu       9.52304858      43.53760163       6.07222550 
Cu      15.45854459      39.08131508       5.71652278 
Cu      14.93903800      40.08489765       8.14038224 
Cu      10.27121251      47.66787694       8.33294832 
S      11.02419069      46.17949108       9.94164630 
S      11.26006156      47.76836642       6.18296647 
S      11.48976664      44.12608876       5.08946305 
S       5.56584438      47.51215451       6.31615221 
S       5.56439418      42.79342533       8.71495714 
S      11.23091603      38.71821123       7.55432543 
S      11.25389576      42.53721342       8.84814288 
S       2.67727702      45.28334685       7.40168942 
S      14.11800141      41.24357479       6.31068478 
S       2.70640669      48.80369763       8.84950823 
S       5.62286694      39.05588425       7.47678391 
S       8.39595591      49.06200506       8.72042456 
S       2.93615519      50.05821554       5.25958588 
S       8.42383188      41.50188222       6.18160112 
S       8.45296155      45.02223299       7.62941993 
S       8.19408337      40.24736430       9.77152347 
Cu      21.35416564      36.74283911       7.13870829 
Cu      26.82068257      31.66666029       9.47226445 
Cu      26.51990803      27.17140415       5.00000000 
Cu      21.33253978      34.19138013       8.41508899 
Cu      17.97484997      36.90248390       7.57468798 
Cu      29.90780107      33.57595083       5.55884489 
Cu      18.71445315      34.23649385       8.95888385 
Cu      30.40572689      25.15771347       6.89072711 
Cu      27.36991492      28.34012722       7.45642137 
Cu      20.68077294      30.56550287       7.43517376 
Cu      24.01222511      31.05123099       6.61602036 
Cu      23.49267841      32.42330041       8.85200412 
Cu      29.23438418      27.49801981       5.80459988 
Cu      29.88622030      26.16129604       9.31458657 
Cu      23.80019579      26.13621848       5.36058409 
Cu      30.20004582      31.40762229       9.08695127 
Cu      29.35000798      30.10621854       6.69816103 
Cu      21.85208648      32.81931071       6.17910523 
Cu      27.26811350      26.57490828       9.67052525 
Cu      23.99059925      28.49977201       7.89240106 
Cu      24.54840126      25.53972261      10.03110935 
Cu      26.52843783      33.83498883       5.94415807 
Cu      33.21764387      25.21310694       9.22650947 
Cu      24.66399195      34.67710825       7.59593558 
Cu      26.63031174      31.00611727       6.07222550 
Cu      32.56580775      26.54983072       5.71652278 
Cu      32.04630116      27.55341329       8.14038224 
Cu      27.37847567      35.13639258       8.33294832 
S      28.13145385      33.64800672       9.94164630 
S      28.36732472      35.23688206       6.18296647 
S      28.59702980      31.59460440       5.08946305 
S      22.67310754      34.98067015       6.31615221 
S      22.67165734      30.26194097       8.71495714 
S      28.33817920      26.18672687       7.55432543 
S      28.36115893      30.00572906       8.84814288 
S      19.78454018      32.75186249       7.40168942 
S      31.22526458      28.71209042       6.31068478 
S      19.81366985      36.27221326       8.84950823 
S      22.73013010      26.52439989       7.47678391 
S      25.50321907      36.53052070       8.72042456 
S      20.04341835      37.52673118       5.25958588 
S      25.53109504      28.97039785       6.18160112 
S      25.56022471      32.49074863       7.62941993 
S      25.30134653      27.71587994       9.77152347 
Cu      15.63062124      49.27432348       7.13870829 
Cu      21.09713817      44.19814465       9.47226445 
Cu      20.79636363      39.70288851       5.00000000 
Cu      15.60899538      46.72286449       8.41508899 
Cu      12.25130557      49.43396827       7.57468798 
Cu      24.18425667      46.10743519       5.55884489 
Cu      12.99090875      46.76797821       8.95888385 
Cu      24.68218248      37.68919783       6.89072711 
Cu      21.64637051      40.87161158       7.45642137 
Cu      14.95722854      43.09698723       7.43517376 
Cu      18.28868070      43.58271536       6.61602036 
Cu      17.76913400      44.95478477       8.85200412 
Cu      23.51083978      40.02950418       5.80459988 
Cu      24.16267590      38.69278040       9.31458657 
Cu      18.07665139      38.66770284       5.36058409 
Cu      24.47650142      43.93910665       9.08695127 
Cu      23.62646357      42.63770290       6.69816103 
Cu      16.12854208      45.35079508       6.17910523 
Cu      21.54456910      39.10639264       9.67052525 
Cu      18.26705484      41.03125637       7.89240106 
Cu      18.82485686      38.07120697      10.03110935 
Cu      20.80489342      46.36647319       5.94415807 
Cu      27.49409946      37.74459131       9.22650947 
Cu      18.94044754      47.20859261       7.59593558 
Cu      20.90676733      43.53760163       6.07222550 
Cu      26.84226335      39.08131508       5.71652278 
Cu      26.32275676      40.08489765       8.14038224 
Cu      21.65493127      47.66787694       8.33294832 
S      22.40790945      46.17949108       9.94164630 
S      22.64378032      47.76836642       6.18296647 
S      22.87348539      44.12608876       5.08946305 
S      16.94956314      47.51215451       6.31615221 
S      16.94811294      42.79342533       8.71495714 
S      22.61463479      38.71821123       7.55432543 
S      22.63761452      42.53721342       8.84814288 
S      14.06099578      45.28334685       7.40168942 
S      25.50172017      41.24357479       6.31068478 
S      14.09012544      48.80369763       8.84950823 
S      17.00658569      39.05588425       7.47678391 
S      19.77967467      49.06200506       8.72042456 
S      14.31987395      50.05821554       5.25958588 
S      19.80755064      41.50188222       6.18160112 
S      19.83668031      45.02223299       7.62941993 
S      19.57780213      40.24736430       9.77152347 
