640
Lattice="25.7926014782 0.0 0.0 2.13555336194e-15 34.8762331054 0.0 0.0 0.0 21.6027674184" Properties=species:S:1:pos:R:3 unit_cell=conventional pbc="T T F"
Mo       0.80118039       0.36709274      15.93002475 
Mo       2.41805743       5.31233064       5.47726307 
Mo       0.80601824       7.69413345       8.96454996 
Mo       2.41805694       8.36528040       6.71690261 
S       0.80602004       3.85925846       6.46446408 
S       2.41805515       3.48109712       9.21698848 
S       0.80601769       7.30515846       5.00000000 
S       2.41800471       0.04354777      10.63419498 
S       2.41805699       6.31073903       7.88529650 
S       0.80601819       1.02961655       7.79615607 
Mo       0.80604058       2.04716907      10.20537806 
Mo       2.41801080       3.95985501      11.51072533 
Mo       0.80448911       6.45873622      14.75620354 
Mo       2.41683771       6.99494870      12.55408289 
S       0.80608097       2.51088817      12.50787812 
S       2.41806633       1.97420149      16.52098358 
S       0.80618228       5.92901678      10.95760738 
S       2.41811396       7.39526201      16.60083420 
S       2.41802004       4.94131193      13.91663402 
S       0.80605525       8.48748444      13.64468716 
Mo       4.03007012       2.04721491      10.20542358 
Mo       5.64213262       5.31233064       5.47726307 
Mo       4.03009343       7.69413345       8.96454996 
Mo       5.64213212       8.36528040       6.71690261 
S       4.03009522       3.85925846       6.46446408 
S       5.64213033       3.48109712       9.21698848 
S       4.03009287       7.30515846       5.00000000 
S       5.64218300       0.04366643      10.63412312 
S       5.64213218       6.31073903       7.88529650 
S       4.03009338       1.02961655       7.79615607 
Mo       4.03492112       0.36739368      15.92985137 
Mo       5.64217651       3.95956420      11.51047479 
Mo       4.03162941       6.45871381      14.75600639 
Mo       5.64335323       6.99562906      12.55411378 
S       4.03003019       2.51091870      12.50791107 
S       5.64212233       1.98261215      16.52084288 
S       4.02993032       5.92932351      10.95815524 
S       5.64207285       7.39353503      16.60276742 
S       5.64216912       4.94064210      13.91516843 
S       4.03005821       8.48650668      13.64398150 
Mo       0.80604058      10.76622735      10.20537806 
Mo       2.41805743      14.03138892       5.47726307 
Mo       0.80601824      16.41319173       8.96454996 
Mo       2.41805694      17.08433868       6.71690261 
S       0.80602004      12.57831674       6.46446408 
S       2.41805515      12.20015540       9.21698848 
S       0.80601769      16.02421674       5.00000000 
S       2.41800471       8.76260604      10.63419498 
S       2.41805699      15.02979730       7.88529650 
S       0.80601819       9.74867483       7.79615607 
Mo       0.80118039       9.08615102      15.93002475 
Mo       2.41801080      12.67891328      11.51072533 
Mo       0.80448911      15.17779449      14.75620354 
Mo       2.41683771      15.71400698      12.55408289 
S       0.80608097      11.22994644      12.50787812 
S       2.41806633      10.69325977      16.52098358 
S       0.80618228      14.64807506      10.95760738 
S       2.41811396      16.11432029      16.60083420 
S       2.41802004      13.66037021      13.91663402 
S       0.80605525      17.20654271      13.64468716 
Mo       4.03007012      10.76627319      10.20542358 
Mo       5.64213262      14.03138892       5.47726307 
Mo       4.03009343      16.41319173       8.96454996 
Mo       5.64213212      17.08433868       6.71690261 
S       4.03009522      12.57831674       6.46446408 
S       5.64213033      12.20015540       9.21698848 
S       4.03009287      16.02421674       5.00000000 
S       5.64218300       8.76272471      10.63412312 
S       5.64213218      15.02979730       7.88529650 
S       4.03009338       9.74867483       7.79615607 
Mo       4.03492112       9.08645196      15.92985137 
Mo       5.64217651      12.67862248      11.51047479 
Mo       4.03162941      15.17777209      14.75600639 
Mo       5.64335323      15.71468734      12.55411378 
S       4.03003019      11.22997698      12.50791107 
S       5.64212233      10.70167043      16.52084288 
S       4.02993032      14.64838179      10.95815524 
S       5.64207285      16.11259331      16.60276742 
S       5.64216912      13.65970038      13.91516843 
S       4.03005821      17.20556496      13.64398150 
Mo       7.25419094       2.04716907      10.20537806 
Mo       8.86620780       5.31233064       5.47726307 
Mo       7.25416861       7.69413345       8.96454996 
Mo       8.86620731       8.36528040       6.71690261 
S       7.25417041       3.85925846       6.46446408 
S       8.86620552       3.48109712       9.21698848 
S       7.25416806       7.30515846       5.00000000 
S       8.86615508       0.04354777      10.63419498 
S       8.86620736       6.31073903       7.88529650 
S       7.25416856       1.02961655       7.79615607 
Mo       7.24933076       0.36709274      15.93002475 
Mo       8.86616117       3.95985501      11.51072533 
Mo       7.25263948       6.45873622      14.75620354 
Mo       8.86498808       6.99494870      12.55408289 
S       7.25423134       2.51088817      12.50787812 
S       8.86621670       1.97420149      16.52098358 
S       7.25433265       5.92901678      10.95760738 
S       8.86626433       7.39526201      16.60083420 
S       8.86617041       4.94131193      13.91663402 
S       7.25420562       8.48748444      13.64468716 
Mo      10.47822049       2.04721491      10.20542358 
Mo      12.09028299       5.31233064       5.47726307 
Mo      10.47824380       7.69413345       8.96454996 
Mo      12.09028249       8.36528040       6.71690261 
S      10.47824559       3.85925846       6.46446408 
S      12.09028070       3.48109712       9.21698848 
S      10.47824324       7.30515846       5.00000000 
S      12.09033337       0.04366643      10.63412312 
S      12.09028255       6.31073903       7.88529650 
S      10.47824375       1.02961655       7.79615607 
Mo      10.48307149       0.36739368      15.92985137 
Mo      12.09032688       3.95956420      11.51047479 
Mo      10.47977978       6.45871381      14.75600639 
Mo      12.09150360       6.99562906      12.55411378 
S      10.47818056       2.51091870      12.50791107 
S      12.09027270       1.98261215      16.52084288 
S      10.47808069       5.92932351      10.95815524 
S      12.09022322       7.39353503      16.60276742 
S      12.09031949       4.94064210      13.91516843 
S      10.47820858       8.48650668      13.64398150 
Mo       7.25419094      10.76622735      10.20537806 
Mo       8.86620780      14.03138892       5.47726307 
Mo       7.25416861      16.41319173       8.96454996 
Mo       8.86620731      17.08433868       6.71690261 
S       7.25417041      12.57831674       6.46446408 
S       8.86620552      12.20015540       9.21698848 
S       7.25416806      16.02421674       5.00000000 
S       8.86615508       8.76260604      10.63419498 
S       8.86620736      15.02979730       7.88529650 
S       7.25416856       9.74867483       7.79615607 
Mo       7.24933076       9.08615102      15.93002475 
Mo       8.86616117      12.67891328      11.51072533 
Mo       7.25263948      15.17779449      14.75620354 
Mo       8.86498808      15.71400698      12.55408289 
S       7.25423134      11.22994644      12.50787812 
S       8.86621670      10.69325977      16.52098358 
S       7.25433265      14.64807506      10.95760738 
S       8.86626433      16.11432029      16.60083420 
S       8.86617041      13.66037021      13.91663402 
S       7.25420562      17.20654271      13.64468716 
Mo      10.47822049      10.76627319      10.20542358 
Mo      12.09028299      14.03138892       5.47726307 
Mo      10.47824380      16.41319173       8.96454996 
Mo      12.09028249      17.08433868       6.71690261 
S      10.47824559      12.57831674       6.46446408 
S      12.09028070      12.20015540       9.21698848 
S      10.47824324      16.02421674       5.00000000 
S      12.09033337       8.76272471      10.63412312 
S      12.09028255      15.02979730       7.88529650 
S      10.47824375       9.74867483       7.79615607 
Mo      10.48307149       9.08645196      15.92985137 
Mo      12.09032688      12.67862248      11.51047479 
Mo      10.47977978      15.17777209      14.75600639 
Mo      12.09150360      15.71468734      12.55411378 
S      10.47818056      11.22997698      12.50791107 
S      12.09027270      10.70167043      16.52084288 
S      10.47808069      14.64838179      10.95815524 
S      12.09022322      16.11259331      16.60276742 
S      12.09031949      13.65970038      13.91516843 
S      10.47820858      17.20556496      13.64398150 
Mo       0.80604058      19.48528562      10.20537806 
Mo       2.41805743      22.75044719       5.47726307 
Mo       0.80601824      25.13225000       8.96454996 
Mo       2.41805694      25.80339695       6.71690261 
S       0.80602004      21.29737501       6.46446408 
S       2.41805515      20.91921367       9.21698848 
S       0.80601769      24.74327501       5.00000000 
S       2.41800471      17.48166432      10.63419498 
S       2.41805699      23.74885558       7.88529650 
S       0.80601819      18.46773310       7.79615607 
Mo       0.80118039      17.80520929      15.93002475 
Mo       2.41801080      21.39797156      11.51072533 
Mo       0.80448911      23.89685277      14.75620354 
Mo       2.41683771      24.43306525      12.55408289 
S       0.80608097      19.94900472      12.50787812 
S       2.41806633      19.41231804      16.52098358 
S       0.80618228      23.36713333      10.95760738 
S       2.41811396      24.83337856      16.60083420 
S       2.41802004      22.37942848      13.91663402 
S       0.80605525      25.92560099      13.64468716 
Mo       4.03007012      19.48533146      10.20542358 
Mo       5.64213262      22.75044719       5.47726307 
Mo       4.03009343      25.13225000       8.96454996 
Mo       5.64213212      25.80339695       6.71690261 
S       4.03009522      21.29737501       6.46446408 
S       5.64213033      20.91921367       9.21698848 
S       4.03009287      24.74327501       5.00000000 
S       5.64218300      17.48178298      10.63412312 
S       5.64213218      23.74885558       7.88529650 
S       4.03009338      18.46773310       7.79615607 
Mo       4.03492112      17.80551023      15.92985137 
Mo       5.64217651      21.39768075      11.51047479 
Mo       4.03162941      23.89683036      14.75600639 
Mo       5.64335323      24.43374561      12.55411378 
S       4.03003019      19.94903525      12.50791107 
S       5.64212233      19.42072870      16.52084288 
S       4.02993032      23.36744006      10.95815524 
S       5.64207285      24.83165158      16.60276742 
S       5.64216912      22.37875865      13.91516843 
S       4.03005821      25.92462323      13.64398150 
Mo       0.80604058      28.20434390      10.20537806 
Mo       2.41805743      31.46950547       5.47726307 
Mo       0.80601824      33.85130828       8.96454996 
Mo       2.41805694      34.52245523       6.71690261 
S       0.80602004      30.01643329       6.46446408 
S       2.41805515      29.63827195       9.21698848 
S       0.80601769      33.46233329       5.00000000 
S       2.41800471      26.20072259      10.63419498 
S       2.41805699      32.46791385       7.88529650 
S       0.80601819      27.18679138       7.79615607 
Mo       0.80118039      26.52426757      15.93002475 
Mo       2.41801080      30.11702983      11.51072533 
Mo       0.80448911      32.61591104      14.75620354 
Mo       2.41683771      33.15212353      12.55408289 
S       0.80608097      28.66806299      12.50787812 
S       2.41806633      28.13137632      16.52098358 
S       0.80618228      32.08619161      10.95760738 
S       2.41811396      33.55243684      16.60083420 
S       2.41802004      31.09848676      13.91663402 
S       0.80605525      34.64465926      13.64468716 
Mo       4.03007012      28.20438974      10.20542358 
Mo       5.64213262      31.46950547       5.47726307 
Mo       4.03009343      33.85130828       8.96454996 
Mo       5.64213212      34.52245523       6.71690261 
S       4.03009522      30.01643329       6.46446408 
S       5.64213033      29.63827195       9.21698848 
S       4.03009287      33.46233329       5.00000000 
S       5.64218300      26.20084126      10.63412312 
S       5.64213218      32.46791385       7.88529650 
S       4.03009338      27.18679138       7.79615607 
Mo       4.03492112      26.52456851      15.92985137 
Mo       5.64217651      30.11673903      11.51047479 
Mo       4.03162941      32.61588864      14.75600639 
Mo       5.64335323      33.15280389      12.55411378 
S       4.03003019      28.66809353      12.50791107 
S       5.64212233      28.13978698      16.52084288 
S       4.02993032      32.08649834      10.95815524 
S       5.64207285      33.55070986      16.60276742 
S       5.64216912      31.09781693      13.91516843 
S       4.03005821      34.64368151      13.64398150 
Mo       7.25419094      19.48528562      10.20537806 
Mo       8.86620780      22.75044719       5.47726307 
Mo       7.25416861      25.13225000       8.96454996 
Mo       8.86620731      25.80339695       6.71690261 
S       7.25417041      21.29737501       6.46446408 
S       8.86620552      20.91921367       9.21698848 
S       7.25416806      24.74327501       5.00000000 
S       8.86615508      17.48166432      10.63419498 
S       8.86620736      23.74885558       7.88529650 
S       7.25416856      18.46773310       7.79615607 
Mo       7.24933076      17.80520929      15.93002475 
Mo       8.86616117      21.39797156      11.51072533 
Mo       7.25263948      23.89685277      14.75620354 
Mo       8.86498808      24.43306525      12.55408289 
S       7.25423134      19.94900472      12.50787812 
S       8.86621670      19.41231804      16.52098358 
S       7.25433265      23.36713333      10.95760738 
S       8.86626433      24.83337856      16.60083420 
S       8.86617041      22.37942848      13.91663402 
S       7.25420562      25.92560099      13.64468716 
Mo      10.47822049      19.48533146      10.20542358 
Mo      12.09028299      22.75044719       5.47726307 
Mo      10.47824380      25.13225000       8.96454996 
Mo      12.09028249      25.80339695       6.71690261 
S      10.47824559      21.29737501       6.46446408 
S      12.09028070      20.91921367       9.21698848 
S      10.47824324      24.74327501       5.00000000 
S      12.09033337      17.48178298      10.63412312 
S      12.09028255      23.74885558       7.88529650 
S      10.47824375      18.46773310       7.79615607 
Mo      10.48307149      17.80551023      15.92985137 
Mo      12.09032688      21.39768075      11.51047479 
Mo      10.47977978      23.89683036      14.75600639 
Mo      12.09150360      24.43374561      12.55411378 
S      10.47818056      19.94903525      12.50791107 
S      12.09027270      19.42072870      16.52084288 
S      10.47808069      23.36744006      10.95815524 
S      12.09022322      24.83165158      16.60276742 
S      12.09031949      22.37875865      13.91516843 
S      10.47820858      25.92462323      13.64398150 
Mo       7.25419094      28.20434390      10.20537806 
Mo       8.86620780      31.46950547       5.47726307 
Mo       7.25416861      33.85130828       8.96454996 
Mo       8.86620731      34.52245523       6.71690261 
S       7.25417041      30.01643329       6.46446408 
S       8.86620552      29.63827195       9.21698848 
S       7.25416806      33.46233329       5.00000000 
S       8.86615508      26.20072259      10.63419498 
S       8.86620736      32.46791385       7.88529650 
S       7.25416856      27.18679138       7.79615607 
Mo       7.24933076      26.52426757      15.93002475 
Mo       8.86616117      30.11702983      11.51072533 
Mo       7.25263948      32.61591104      14.75620354 
Mo       8.86498808      33.15212353      12.55408289 
S       7.25423134      28.66806299      12.50787812 
S       8.86621670      28.13137632      16.52098358 
S       7.25433265      32.08619161      10.95760738 
S       8.86626433      33.55243684      16.60083420 
S       8.86617041      31.09848676      13.91663402 
S       7.25420562      34.64465926      13.64468716 
Mo      10.47822049      28.20438974      10.20542358 
Mo      12.09028299      31.46950547       5.47726307 
Mo      10.47824380      33.85130828       8.96454996 
Mo      12.09028249      34.52245523       6.71690261 
S      10.47824559      30.01643329       6.46446408 
S      12.09028070      29.63827195       9.21698848 
S      10.47824324      33.46233329       5.00000000 
S      12.09033337      26.20084126      10.63412312 
S      12.09028255      32.46791385       7.88529650 
S      10.47824375      27.18679138       7.79615607 
Mo      10.48307149      26.52456851      15.92985137 
Mo      12.09032688      30.11673903      11.51047479 
Mo      10.47977978      32.61588864      14.75600639 
Mo      12.09150360      33.15280389      12.55411378 
S      10.47818056      28.66809353      12.50791107 
S      12.09027270      28.13978698      16.52084288 
S      10.47808069      32.08649834      10.95815524 
S      12.09022322      33.55070986      16.60276742 
S      12.09031949      31.09781693      13.91516843 
S      10.47820858      34.64368151      13.64398150 
Mo      13.70234132       2.04716907      10.20537806 
Mo      15.31435817       5.31233064       5.47726307 
Mo      13.70231898       7.69413345       8.96454996 
Mo      15.31435768       8.36528040       6.71690261 
S      13.70232078       3.85925846       6.46446408 
S      15.31435589       3.48109712       9.21698848 
S      13.70231843       7.30515846       5.00000000 
S      15.31430545       0.04354777      10.63419498 
S      15.31435773       6.31073903       7.88529650 
S      13.70231893       1.02961655       7.79615607 
Mo      13.69748113       0.36709274      15.93002475 
Mo      15.31431154       3.95985501      11.51072533 
Mo      13.70078985       6.45873622      14.75620354 
Mo      15.31313845       6.99494870      12.55408289 
S      13.70238171       2.51088817      12.50787812 
S      15.31436707       1.97420149      16.52098358 
S      13.70248302       5.92901678      10.95760738 
S      15.31441470       7.39526201      16.60083420 
S      15.31432078       4.94131193      13.91663402 
S      13.70235599       8.48748444      13.64468716 
Mo      16.92637086       2.04721491      10.20542358 
Mo      18.53843336       5.31233064       5.47726307 
Mo      16.92639417       7.69413345       8.96454996 
Mo      18.53843286       8.36528040       6.71690261 
S      16.92639596       3.85925846       6.46446408 
S      18.53843107       3.48109712       9.21698848 
S      16.92639361       7.30515846       5.00000000 
S      18.53848374       0.04366643      10.63412312 
S      18.53843292       6.31073903       7.88529650 
S      16.92639412       1.02961655       7.79615607 
Mo      16.93122186       0.36739368      15.92985137 
Mo      18.53847725       3.95956420      11.51047479 
Mo      16.92793015       6.45871381      14.75600639 
Mo      18.53965397       6.99562906      12.55411378 
S      16.92633093       2.51091870      12.50791107 
S      18.53842307       1.98261215      16.52084288 
S      16.92623106       5.92932351      10.95815524 
S      18.53837359       7.39353503      16.60276742 
S      18.53846986       4.94064210      13.91516843 
S      16.92635895       8.48650668      13.64398150 
Mo      13.70234132      10.76622735      10.20537806 
Mo      15.31435817      14.03138892       5.47726307 
Mo      13.70231898      16.41319173       8.96454996 
Mo      15.31435768      17.08433868       6.71690261 
S      13.70232078      12.57831674       6.46446408 
S      15.31435589      12.20015540       9.21698848 
S      13.70231843      16.02421674       5.00000000 
S      15.31430545       8.76260604      10.63419498 
S      15.31435773      15.02979730       7.88529650 
S      13.70231893       9.74867483       7.79615607 
Mo      13.69748113       9.08615102      15.93002475 
Mo      15.31431154      12.67891328      11.51072533 
Mo      13.70078985      15.17779449      14.75620354 
Mo      15.31313845      15.71400698      12.55408289 
S      13.70238171      11.22994644      12.50787812 
S      15.31436707      10.69325977      16.52098358 
S      13.70248302      14.64807506      10.95760738 
S      15.31441470      16.11432029      16.60083420 
S      15.31432078      13.66037021      13.91663402 
S      13.70235599      17.20654271      13.64468716 
Mo      16.92637086      10.76627319      10.20542358 
Mo      18.53843336      14.03138892       5.47726307 
Mo      16.92639417      16.41319173       8.96454996 
Mo      18.53843286      17.08433868       6.71690261 
S      16.92639596      12.57831674       6.46446408 
S      18.53843107      12.20015540       9.21698848 
S      16.92639361      16.02421674       5.00000000 
S      18.53848374       8.76272471      10.63412312 
S      18.53843292      15.02979730       7.88529650 
S      16.92639412       9.74867483       7.79615607 
Mo      16.93122186       9.08645196      15.92985137 
Mo      18.53847725      12.67862248      11.51047479 
Mo      16.92793015      15.17777209      14.75600639 
Mo      18.53965397      15.71468734      12.55411378 
S      16.92633093      11.22997698      12.50791107 
S      18.53842307      10.70167043      16.52084288 
S      16.92623106      14.64838179      10.95815524 
S      18.53837359      16.11259331      16.60276742 
S      18.53846986      13.65970038      13.91516843 
S      16.92635895      17.20556496      13.64398150 
Mo      20.15049168       2.04716907      10.20537806 
Mo      21.76250854       5.31233064       5.47726307 
Mo      20.15046935       7.69413345       8.96454996 
Mo      21.76250805       8.36528040       6.71690261 
S      20.15047115       3.85925846       6.46446408 
S      21.76250626       3.48109712       9.21698848 
S      20.15046880       7.30515846       5.00000000 
S      21.76245582       0.04354777      10.63419498 
S      21.76250810       6.31073903       7.88529650 
S      20.15046930       1.02961655       7.79615607 
Mo      20.14563150       0.36709274      15.93002475 
Mo      21.76246191       3.95985501      11.51072533 
Mo      20.14894022       6.45873622      14.75620354 
Mo      21.76128882       6.99494870      12.55408289 
S      20.15053208       2.51088817      12.50787812 
S      21.76251744       1.97420149      16.52098358 
S      20.15063339       5.92901678      10.95760738 
S      21.76256507       7.39526201      16.60083420 
S      21.76247115       4.94131193      13.91663402 
S      20.15050636       8.48748444      13.64468716 
Mo      23.37452123       2.04721491      10.20542358 
Mo      24.98658373       5.31233064       5.47726307 
Mo      23.37454454       7.69413345       8.96454996 
Mo      24.98658323       8.36528040       6.71690261 
S      23.37454633       3.85925846       6.46446408 
S      24.98658144       3.48109712       9.21698848 
S      23.37454398       7.30515846       5.00000000 
S      24.98663411       0.04366643      10.63412312 
S      24.98658329       6.31073903       7.88529650 
S      23.37454449       1.02961655       7.79615607 
Mo      23.37937223       0.36739368      15.92985137 
Mo      24.98662762       3.95956420      11.51047479 
Mo      23.37608052       6.45871381      14.75600639 
Mo      24.98780434       6.99562906      12.55411378 
S      23.37448130       2.51091870      12.50791107 
S      24.98657344       1.98261215      16.52084288 
S      23.37438143       5.92932351      10.95815524 
S      24.98652396       7.39353503      16.60276742 
S      24.98662023       4.94064210      13.91516843 
S      23.37450932       8.48650668      13.64398150 
Mo      20.15049168      10.76622735      10.20537806 
Mo      21.76250854      14.03138892       5.47726307 
Mo      20.15046935      16.41319173       8.96454996 
Mo      21.76250805      17.08433868       6.71690261 
S      20.15047115      12.57831674       6.46446408 
S      21.76250626      12.20015540       9.21698848 
S      20.15046880      16.02421674       5.00000000 
S      21.76245582       8.76260604      10.63419498 
S      21.76250810      15.02979730       7.88529650 
S      20.15046930       9.74867483       7.79615607 
Mo      20.14563150       9.08615102      15.93002475 
Mo      21.76246191      12.67891328      11.51072533 
Mo      20.14894022      15.17779449      14.75620354 
Mo      21.76128882      15.71400698      12.55408289 
S      20.15053208      11.22994644      12.50787812 
S      21.76251744      10.69325977      16.52098358 
S      20.15063339      14.64807506      10.95760738 
S      21.76256507      16.11432029      16.60083420 
S      21.76247115      13.66037021      13.91663402 
S      20.15050636      17.20654271      13.64468716 
Mo      23.37452123      10.76627319      10.20542358 
Mo      24.98658373      14.03138892       5.47726307 
Mo      23.37454454      16.41319173       8.96454996 
Mo      24.98658323      17.08433868       6.71690261 
S      23.37454633      12.57831674       6.46446408 
S      24.98658144      12.20015540       9.21698848 
S      23.37454398      16.02421674       5.00000000 
S      24.98663411       8.76272471      10.63412312 
S      24.98658329      15.02979730       7.88529650 
S      23.37454449       9.74867483       7.79615607 
Mo      23.37937223       9.08645196      15.92985137 
Mo      24.98662762      12.67862248      11.51047479 
Mo      23.37608052      15.17777209      14.75600639 
Mo      24.98780434      15.71468734      12.55411378 
S      23.37448130      11.22997698      12.50791107 
S      24.98657344      10.70167043      16.52084288 
S      23.37438143      14.64838179      10.95815524 
S      24.98652396      16.11259331      16.60276742 
S      24.98662023      13.65970038      13.91516843 
S      23.37450932      17.20556496      13.64398150 
Mo      13.70234132      19.48528562      10.20537806 
Mo      15.31435817      22.75044719       5.47726307 
Mo      13.70231898      25.13225000       8.96454996 
Mo      15.31435768      25.80339695       6.71690261 
S      13.70232078      21.29737501       6.46446408 
S      15.31435589      20.91921367       9.21698848 
S      13.70231843      24.74327501       5.00000000 
S      15.31430545      17.48166432      10.63419498 
S      15.31435773      23.74885558       7.88529650 
S      13.70231893      18.46773310       7.79615607 
Mo      13.69748113      17.80520929      15.93002475 
Mo      15.31431154      21.39797156      11.51072533 
Mo      13.70078985      23.89685277      14.75620354 
Mo      15.31313845      24.43306525      12.55408289 
S      13.70238171      19.94900472      12.50787812 
S      15.31436707      19.41231804      16.52098358 
S      13.70248302      23.36713333      10.95760738 
S      15.31441470      24.83337856      16.60083420 
S      15.31432078      22.37942848      13.91663402 
S      13.70235599      25.92560099      13.64468716 
Mo      16.92637086      19.48533146      10.20542358 
Mo      18.53843336      22.75044719       5.47726307 
Mo      16.92639417      25.13225000       8.96454996 
Mo      18.53843286      25.80339695       6.71690261 
S      16.92639596      21.29737501       6.46446408 
S      18.53843107      20.91921367       9.21698848 
S      16.92639361      24.74327501       5.00000000 
S      18.53848374      17.48178298      10.63412312 
S      18.53843292      23.74885558       7.88529650 
S      16.92639412      18.46773310       7.79615607 
Mo      16.93122186      17.80551023      15.92985137 
Mo      18.53847725      21.39768075      11.51047479 
Mo      16.92793015      23.89683036      14.75600639 
Mo      18.53965397      24.43374561      12.55411378 
S      16.92633093      19.94903525      12.50791107 
S      18.53842307      19.42072870      16.52084288 
S      16.92623106      23.36744006      10.95815524 
S      18.53837359      24.83165158      16.60276742 
S      18.53846986      22.37875865      13.91516843 
S      16.92635895      25.92462323      13.64398150 
Mo      13.70234132      28.20434390      10.20537806 
Mo      15.31435817      31.46950547       5.47726307 
Mo      13.70231898      33.85130828       8.96454996 
Mo      15.31435768      34.52245523       6.71690261 
S      13.70232078      30.01643329       6.46446408 
S      15.31435589      29.63827195       9.21698848 
S      13.70231843      33.46233329       5.00000000 
S      15.31430545      26.20072259      10.63419498 
S      15.31435773      32.46791385       7.88529650 
S      13.70231893      27.18679138       7.79615607 
Mo      13.69748113      26.52426757      15.93002475 
Mo      15.31431154      30.11702983      11.51072533 
Mo      13.70078985      32.61591104      14.75620354 
Mo      15.31313845      33.15212353      12.55408289 
S      13.70238171      28.66806299      12.50787812 
S      15.31436707      28.13137632      16.52098358 
S      13.70248302      32.08619161      10.95760738 
S      15.31441470      33.55243684      16.60083420 
S      15.31432078      31.09848676      13.91663402 
S      13.70235599      34.64465926      13.64468716 
Mo      16.92637086      28.20438974      10.20542358 
Mo      18.53843336      31.46950547       5.47726307 
Mo      16.92639417      33.85130828       8.96454996 
Mo      18.53843286      34.52245523       6.71690261 
S      16.92639596      30.01643329       6.46446408 
S      18.53843107      29.63827195       9.21698848 
S      16.92639361      33.46233329       5.00000000 
S      18.53848374      26.20084126      10.63412312 
S      18.53843292      32.46791385       7.88529650 
S      16.92639412      27.18679138       7.79615607 
Mo      16.93122186      26.52456851      15.92985137 
Mo      18.53847725      30.11673903      11.51047479 
Mo      16.92793015      32.61588864      14.75600639 
Mo      18.53965397      33.15280389      12.55411378 
S      16.92633093      28.66809353      12.50791107 
S      18.53842307      28.13978698      16.52084288 
S      16.92623106      32.08649834      10.95815524 
S      18.53837359      33.55070986      16.60276742 
S      18.53846986      31.09781693      13.91516843 
S      16.92635895      34.64368151      13.64398150 
Mo      20.15049168      19.48528562      10.20537806 
Mo      21.76250854      22.75044719       5.47726307 
Mo      20.15046935      25.13225000       8.96454996 
Mo      21.76250805      25.80339695       6.71690261 
S      20.15047115      21.29737501       6.46446408 
S      21.76250626      20.91921367       9.21698848 
S      20.15046880      24.74327501       5.00000000 
S      21.76245582      17.48166432      10.63419498 
S      21.76250810      23.74885558       7.88529650 
S      20.15046930      18.46773310       7.79615607 
Mo      20.14563150      17.80520929      15.93002475 
Mo      21.76246191      21.39797156      11.51072533 
Mo      20.14894022      23.89685277      14.75620354 
Mo      21.76128882      24.43306525      12.55408289 
S      20.15053208      19.94900472      12.50787812 
S      21.76251744      19.41231804      16.52098358 
S      20.15063339      23.36713333      10.95760738 
S      21.76256507      24.83337856      16.60083420 
S      21.76247115      22.37942848      13.91663402 
S      20.15050636      25.92560099      13.64468716 
Mo      23.37452123      19.48533146      10.20542358 
Mo      24.98658373      22.75044719       5.47726307 
Mo      23.37454454      25.13225000       8.96454996 
Mo      24.98658323      25.80339695       6.71690261 
S      23.37454633      21.29737501       6.46446408 
S      24.98658144      20.91921367       9.21698848 
S      23.37454398      24.74327501       5.00000000 
S      24.98663411      17.48178298      10.63412312 
S      24.98658329      23.74885558       7.88529650 
S      23.37454449      18.46773310       7.79615607 
Mo      23.37937223      17.80551023      15.92985137 
Mo      24.98662762      21.39768075      11.51047479 
Mo      23.37608052      23.89683036      14.75600639 
Mo      24.98780434      24.43374561      12.55411378 
S      23.37448130      19.94903525      12.50791107 
S      24.98657344      19.42072870      16.52084288 
S      23.37438143      23.36744006      10.95815524 
S      24.98652396      24.83165158      16.60276742 
S      24.98662023      22.37875865      13.91516843 
S      23.37450932      25.92462323      13.64398150 
Mo      20.15049168      28.20434390      10.20537806 
Mo      21.76250854      31.46950547       5.47726307 
Mo      20.15046935      33.85130828       8.96454996 
Mo      21.76250805      34.52245523       6.71690261 
S      20.15047115      30.01643329       6.46446408 
S      21.76250626      29.63827195       9.21698848 
S      20.15046880      33.46233329       5.00000000 
S      21.76245582      26.20072259      10.63419498 
S      21.76250810      32.46791385       7.88529650 
S      20.15046930      27.18679138       7.79615607 
Mo      20.14563150      26.52426757      15.93002475 
Mo      21.76246191      30.11702983      11.51072533 
Mo      20.14894022      32.61591104      14.75620354 
Mo      21.76128882      33.15212353      12.55408289 
S      20.15053208      28.66806299      12.50787812 
S      21.76251744      28.13137632      16.52098358 
S      20.15063339      32.08619161      10.95760738 
S      21.76256507      33.55243684      16.60083420 
S      21.76247115      31.09848676      13.91663402 
S      20.15050636      34.64465926      13.64468716 
Mo      23.37452123      28.20438974      10.20542358 
Mo      24.98658373      31.46950547       5.47726307 
Mo      23.37454454      33.85130828       8.96454996 
Mo      24.98658323      34.52245523       6.71690261 
S      23.37454633      30.01643329       6.46446408 
S      24.98658144      29.63827195       9.21698848 
S      23.37454398      33.46233329       5.00000000 
S      24.98663411      26.20084126      10.63412312 
S      24.98658329      32.46791385       7.88529650 
S      23.37454449      27.18679138       7.79615607 
Mo      23.37937223      26.52456851      15.92985137 
Mo      24.98662762      30.11673903      11.51047479 
Mo      23.37608052      32.61588864      14.75600639 
Mo      24.98780434      33.15280389      12.55411378 
S      23.37448130      28.66809353      12.50791107 
S      24.98657344      28.13978698      16.52084288 
S      23.37438143      32.08649834      10.95815524 
S      24.98652396      33.55070986      16.60276742 
S      24.98662023      31.09781693      13.91516843 
S      23.37450932      34.64368151      13.64398150 
