1344
Lattice="57.7329784704 0.0 0.0 21.7700295418 53.4711381662 0.0 0.0 0.0 18.3441209085" Properties=species:S:1:pos:R:3 unit_cell=conventional pbc="T T F"
Mo       9.96806425      11.50998487      13.02513803 
Mo      15.59434393      12.05826386       5.88243459 
Mo      17.18814690       9.83936046       6.08219585 
Mo      14.31019242       9.47373762       6.20142604 
Mo      15.76430331       9.03254265       8.48058232 
Mo      14.17050034      11.25144606       8.28082106 
Mo      14.23531226       6.48925719       5.30451463 
Mo       4.34178157       1.25437281       7.31097699 
Mo      11.37809193      12.40325395       7.51073825 
Mo       8.50013689      12.03765015       7.62996416 
Mo      12.95116319       3.90474230       5.62349751 
Mo      11.35736322       6.12364772       5.42374483 
Mo       8.42526573       9.05315636       6.73305275 
Mo      12.96497666       3.81827967       8.73951939 
Mo      14.55877664       1.59937425       8.93927208 
Mo      11.68082759       1.23376478       9.05850227 
Mo       7.14111366       6.46864916       7.05203991 
Mo       5.54731069       8.68755256       6.85227866 
S      18.17139574       9.44428077       8.29926208 
S       9.90159819       0.00479723       7.93447450 
S       7.15977997       4.54000910       8.54182381 
S      13.18725150      11.64652574       6.06375483 
S      16.01454166       7.71822474       6.42854240 
S       4.32311527       3.18301287       5.82119310 
S      13.33538448       8.96894601       8.37178332 
S      18.02326275      12.12186051       5.99123359 
S      15.35825563       4.31648042       5.44217727 
S      12.53096846       8.24478344       5.07739827 
S       9.78914424      12.78000099       5.68474329 
S       1.93468614       0.84264238       7.49230152 
S      10.20448070      10.28212391       7.85708052 
S      12.94630491       5.74690636       7.24973550 
S      10.52224192       3.84113430       5.51470708 
S       6.77070884       1.31797513       7.41977171 
S       9.54820909       6.88037959       6.87071539 
S       6.72092193      10.80868260       6.50593639 
S      12.96983494       1.97611561       7.11328140 
S      10.55788423       3.40654155       8.92083963 
S       7.39134657       5.15431788       5.00000000 
S       7.13625838       8.31080552       8.67827362 
S       4.71218640       6.40504684       6.94324520 
S      15.39389793       3.88188767       8.84830982 
Mo       8.60903502       5.94098955      12.44720950 
Mo       7.15492413       6.38218452      10.16805322 
Mo       8.74872711       4.16328111      10.36781448 
Mo       5.87077262       3.79765827      10.48704468 
Mo       7.32488351       3.35646330      12.76620095 
Mo       5.73108054       5.57536671      12.56643969 
Mo       5.79589246       0.81317784       9.59013327 
Mo      15.77811378       8.94607801      11.59659563 
Mo       2.93867213       6.72717460      11.79635688 
Mo      14.49396172       6.36157080      11.91558279 
Mo       9.95425078      11.59644749       9.90911615 
Mo       2.91794342       0.44756837       9.70936346 
Mo      14.41909055       3.37707701      11.01867138 
Mo      17.04845482      11.61706890       8.16159086 
Mo      11.56186422       9.29107944      13.22489071 
Mo       8.68391518       8.92546997      13.34412091 
Mo      13.13493849       0.79256981      11.33765855 
Mo      11.54113551       3.01147322      11.13789729 
S       9.73197595       3.76820142      12.58488071 
S       6.90468578       7.69650242      12.22009314 
S      18.59611218      12.23171430      12.82744244 
S       4.74783170       5.97044639      10.34937346 
S       7.57512186       2.04214539      10.71416104 
S      15.75944747      10.87471806      10.10681173 
S       4.89596469       3.29286666      12.65740195 
S       9.58384296       6.44578116      10.27685222 
S      12.36134322      12.00818561       9.72779591 
S       4.09154866       2.56870409       9.36301691 
S      15.78296906       7.10392164       9.97036192 
S      13.37101835       8.53434757      11.77792015 
S      16.19830552       4.60604456      12.14269915 
S       4.50688512       0.07082701      11.53535414 
S       7.52532951      11.53283950       9.80032572 
S       3.77379643       9.00968032      11.70539034 
S       1.10878930       1.20430024      11.15633402 
S      12.71474675       5.13260325      10.79155502 
S       9.97292253       9.66782081      11.39890004 
S       7.56097182      11.09824674      13.20645827 
S      18.82767878      12.84602308       9.28561863 
S      13.13008320       2.63472618      12.96389225 
S      10.70601122       0.72896749      11.22886383 
S      12.39698552      11.57359286      13.13392846 
Mo      22.49096221      24.98485344       8.16159086 
Mo      21.03685131      25.42604841       5.88243459 
Mo      22.63065429      23.20714500       6.08219585 
Mo      19.75269980      22.84152216       6.20142604 
Mo      21.20681070      22.40032719       8.48058232 
Mo      19.61300772      24.61923060       8.28082106 
Mo      19.67781964      19.85704174       5.30451463 
Mo       9.78428896      14.62215736       7.31097699 
Mo      16.82059932      25.77103849       7.51073825 
Mo      13.94264428      25.40543469       7.62996416 
Mo      18.39367058      17.27252684       5.62349751 
Mo      16.79987060      19.49143226       5.42374483 
Mo      13.86777311      22.42094090       6.73305275 
Mo      18.40748404      17.18606421       8.73951939 
Mo      20.00128402      14.96715879       8.93927208 
Mo      17.12333498      14.60154932       9.05850227 
Mo      12.58362105      19.83643370       7.05203991 
Mo      10.98981808      22.05533711       6.85227866 
S      23.61390313      22.81206531       8.29926208 
S      15.34410558      13.37258177       7.93447450 
S      12.60228735      17.90779365       8.54182381 
S      18.62975888      25.01431028       6.06375483 
S      21.45704905      21.08600928       6.42854240 
S       9.76562265      16.55079741       5.82119310 
S      18.77789187      22.33673055       8.37178332 
S      23.46577014      25.48964505       5.99123359 
S      20.80076301      17.68426496       5.44217727 
S      17.97347584      21.61256798       5.07739827 
S      15.23165163      26.14778553       5.68474329 
S       7.37719353      14.21042692       7.49230152 
S      15.64698808      23.64990845       7.85708052 
S      18.38881230      19.11469090       7.24973550 
S      15.96474931      17.20891885       5.51470708 
S      12.21321622      14.68575967       7.41977171 
S      14.99071648      20.24816413       6.87071539 
S      12.16342931      24.17646714       6.50593639 
S      18.41234233      15.34390016       7.11328140 
S      16.00039161      16.77432609       8.92083963 
S      12.83385396      18.52210243       5.00000000 
S      12.57876576      21.67859007       8.67827362 
S      10.15469378      19.77283138       6.94324520 
S      20.83640532      17.24967221       8.84830982 
Mo      14.05154241      19.30877409      12.44720950 
Mo      12.59743152      19.74996906      10.16805322 
Mo      14.19123449      17.53106565      10.36781448 
Mo      11.31328001      17.16544281      10.48704468 
Mo      12.76739090      16.72424784      12.76620095 
Mo      11.17358793      18.94315125      12.56643969 
Mo      11.23839985      14.18096239       9.59013327 
Mo      21.22062116      22.31386255      11.59659563 
Mo       8.38117952      20.09495914      11.79635688 
Mo      19.93646910      19.72935534      11.91558279 
Mo      15.39675817      24.96423203       9.90911615 
Mo       8.36045081      13.81535291       9.70936346 
Mo      19.86159793      16.74486155      11.01867138 
Mo      15.41057163      24.87776941      13.02513803 
Mo      17.00437161      22.65886398      13.22489071 
Mo      14.12642257      22.29325451      13.34412091 
Mo      18.57744587      14.16035435      11.33765855 
Mo      16.98364290      16.37925776      11.13789729 
S      15.17448333      17.13598596      12.58488071 
S      12.34719317      21.06428696      12.22009314 
S      24.03861956      25.59949884      12.82744244 
S      10.19033909      19.33823093      10.34937346 
S      13.01762925      15.40992994      10.71416104 
S      21.20195486      24.24250260      10.10681173 
S      10.33847207      16.66065120      12.65740195 
S      15.02635034      19.81356570      10.27685222 
S      17.80385060      25.37597016       9.72779591 
S       9.53405605      15.93648863       9.36301691 
S      21.22547645      20.47170618       9.97036192 
S      18.81352573      21.90213212      11.77792015 
S      21.64081290      17.97382910      12.14269915 
S       9.94939250      13.43861155      11.53535414 
S      12.96783690      24.90062404       9.80032572 
S       9.21630381      22.37746487      11.70539034 
S       6.55129668      14.57208478      11.15633402 
S      18.15725413      18.50038780      10.79155502 
S      15.41542992      23.03560535      11.39890004 
S      13.00347920      24.46603128      13.20645827 
S      24.27018617      26.21380762       9.28561863 
S      18.57259059      16.00251072      12.96389225 
S      16.14851861      14.09675203      11.22886383 
S      17.83949291      24.94137740      13.13392846 
Mo      31.48169944      11.61706890       8.16159086 
Mo      30.02758855      12.05826386       5.88243459 
Mo      31.62139152       9.83936046       6.08219585 
Mo      28.74343703       9.47373762       6.20142604 
Mo      30.19754793       9.03254265       8.48058232 
Mo      28.60374495      11.25144606       8.28082106 
Mo      28.66855688       6.48925719       5.30451463 
Mo      18.77502619       1.25437281       7.31097699 
Mo      25.81133655      12.40325395       7.51073825 
Mo      22.93338151      12.03765015       7.62996416 
Mo      27.38440781       3.90474230       5.62349751 
Mo      25.79060783       6.12364772       5.42374483 
Mo      22.85851034       9.05315636       6.73305275 
Mo      27.39822128       3.81827967       8.73951939 
Mo      28.99202125       1.59937425       8.93927208 
Mo      26.11407221       1.23376478       9.05850227 
Mo      21.57435828       6.46864916       7.05203991 
Mo      19.98055531       8.68755256       6.85227866 
S      32.60464036       9.44428077       8.29926208 
S      24.33484281       0.00479723       7.93447450 
S      21.59302459       4.54000910       8.54182381 
S      27.62049611      11.64652574       6.06375483 
S      30.44778628       7.71822474       6.42854240 
S      18.75635988       3.18301287       5.82119310 
S      27.76862910       8.96894601       8.37178332 
S      32.45650737      12.12186051       5.99123359 
S      29.79150024       4.31648042       5.44217727 
S      26.96421308       8.24478344       5.07739827 
S      24.22238886      12.78000099       5.68474329 
S      16.36793076       0.84264238       7.49230152 
S      24.63772531      10.28212391       7.85708052 
S      27.37954953       5.74690636       7.24973550 
S      24.95548654       3.84113430       5.51470708 
S      21.20395345       1.31797513       7.41977171 
S      23.98145371       6.88037959       6.87071539 
S      21.15416654      10.80868260       6.50593639 
S      27.40307956       1.97611561       7.11328140 
S      24.99112884       3.40654155       8.92083963 
S      21.82459119       5.15431788       5.00000000 
S      21.56950300       8.31080552       8.67827362 
S      19.14543102       6.40504684       6.94324520 
S      29.82714255       3.88188767       8.84830982 
Mo      23.04227964       5.94098955      12.44720950 
Mo      21.58816875       6.38218452      10.16805322 
Mo      23.18197172       4.16328111      10.36781448 
Mo      20.30401724       3.79765827      10.48704468 
Mo      21.75812813       3.35646330      12.76620095 
Mo      20.16432516       5.57536671      12.56643969 
Mo      20.22913708       0.81317784       9.59013327 
Mo      30.21135840       8.94607801      11.59659563 
Mo      17.37191675       6.72717460      11.79635688 
Mo      28.92720633       6.36157080      11.91558279 
Mo      24.38749540      11.59644749       9.90911615 
Mo      17.35118804       0.44756837       9.70936346 
Mo      28.85233517       3.37707701      11.01867138 
Mo      24.40130887      11.50998487      13.02513803 
Mo      25.99510884       9.29107944      13.22489071 
Mo      23.11715980       8.92546997      13.34412091 
Mo      27.56818310       0.79256981      11.33765855 
Mo      25.97438013       3.01147322      11.13789729 
S      24.16522056       3.76820142      12.58488071 
S      21.33793040       7.69650242      12.22009314 
S      33.02935679      12.23171430      12.82744244 
S      19.18107632       5.97044639      10.34937346 
S      22.00836648       2.04214539      10.71416104 
S      30.19269209      10.87471806      10.10681173 
S      19.32920930       3.29286666      12.65740195 
S      24.01708758       6.44578116      10.27685222 
S      26.79458783      12.00818561       9.72779591 
S      18.52479328       2.56870409       9.36301691 
S      30.21621368       7.10392164       9.97036192 
S      27.80426297       8.53434757      11.77792015 
S      30.63155013       4.60604456      12.14269915 
S      18.94012973       0.07082701      11.53535414 
S      21.95857413      11.53283950       9.80032572 
S      18.20704104       9.00968032      11.70539034 
S      15.54203391       1.20430024      11.15633402 
S      27.14799136       5.13260325      10.79155502 
S      24.40616715       9.66782081      11.39890004 
S      21.99421643      11.09824674      13.20645827 
S      33.26092340      12.84602308       9.28561863 
S      27.56332782       2.63472618      12.96389225 
S      25.13925584       0.72896749      11.22886383 
S      26.83023014      11.57359286      13.13392846 
Mo      36.92420682      24.98485344       8.16159086 
Mo      35.47009593      25.42604841       5.88243459 
Mo      37.06389890      23.20714500       6.08219585 
Mo      34.18594442      22.84152216       6.20142604 
Mo      35.64005531      22.40032719       8.48058232 
Mo      34.04625234      24.61923060       8.28082106 
Mo      34.11106426      19.85704174       5.30451463 
Mo      24.21753357      14.62215736       7.31097699 
Mo      31.25384393      25.77103849       7.51073825 
Mo      28.37588890      25.40543469       7.62996416 
Mo      32.82691520      17.27252684       5.62349751 
Mo      31.23311522      19.49143226       5.42374483 
Mo      28.30101773      22.42094090       6.73305275 
Mo      32.84072866      17.18606421       8.73951939 
Mo      34.43452864      14.96715879       8.93927208 
Mo      31.55657960      14.60154932       9.05850227 
Mo      27.01686567      19.83643370       7.05203991 
Mo      25.42306269      22.05533711       6.85227866 
S      38.04714775      22.81206531       8.29926208 
S      29.77735019      13.37258177       7.93447450 
S      27.03553197      17.90779365       8.54182381 
S      33.06300350      25.01431028       6.06375483 
S      35.89029366      21.08600928       6.42854240 
S      24.19886727      16.55079741       5.82119310 
S      33.21113649      22.33673055       8.37178332 
S      37.89901476      25.48964505       5.99123359 
S      35.23400763      17.68426496       5.44217727 
S      32.40672046      21.61256798       5.07739827 
S      29.66489624      26.14778553       5.68474329 
S      21.81043814      14.21042692       7.49230152 
S      30.08023270      23.64990845       7.85708052 
S      32.82205692      19.11469090       7.24973550 
S      30.39799392      17.20891885       5.51470708 
S      26.64646084      14.68575967       7.41977171 
S      29.42396110      20.24816413       6.87071539 
S      26.59667393      24.17646714       6.50593639 
S      32.84558694      15.34390016       7.11328140 
S      30.43363623      16.77432609       8.92083963 
S      27.26709858      18.52210243       5.00000000 
S      27.01201038      21.67859007       8.67827362 
S      24.58793840      19.77283138       6.94324520 
S      35.26964993      17.24967221       8.84830982 
Mo      28.48478703      19.30877409      12.44720950 
Mo      27.03067614      19.74996906      10.16805322 
Mo      28.62447911      17.53106565      10.36781448 
Mo      25.74652462      17.16544281      10.48704468 
Mo      27.20063552      16.72424784      12.76620095 
Mo      25.60683254      18.94315125      12.56643969 
Mo      25.67164447      14.18096239       9.59013327 
Mo      35.65386578      22.31386255      11.59659563 
Mo      22.81442414      20.09495914      11.79635688 
Mo      34.36971372      19.72935534      11.91558279 
Mo      29.83000279      24.96423203       9.90911615 
Mo      22.79369542      13.81535291       9.70936346 
Mo      34.29484255      16.74486155      11.01867138 
Mo      29.84381625      24.87776941      13.02513803 
Mo      31.43761623      22.65886398      13.22489071 
Mo      28.55966719      22.29325451      13.34412091 
Mo      33.01069049      14.16035435      11.33765855 
Mo      31.41688752      16.37925776      11.13789729 
S      29.60772795      17.13598596      12.58488071 
S      26.78043778      21.06428696      12.22009314 
S      38.47186418      25.59949884      12.82744244 
S      24.62358370      19.33823093      10.34937346 
S      27.45087387      15.40992994      10.71416104 
S      35.63519948      24.24250260      10.10681173 
S      24.77171669      16.66065120      12.65740195 
S      29.45959496      19.81356570      10.27685222 
S      32.23709522      25.37597016       9.72779591 
S      23.96730066      15.93648863       9.36301691 
S      35.65872107      20.47170618       9.97036192 
S      33.24677035      21.90213212      11.77792015 
S      36.07405752      17.97382910      12.14269915 
S      24.38263712      13.43861155      11.53535414 
S      27.40108151      24.90062404       9.80032572 
S      23.64954843      22.37746487      11.70539034 
S      20.98454130      14.57208478      11.15633402 
S      32.59049875      18.50038780      10.79155502 
S      29.84867453      23.03560535      11.39890004 
S      27.43672382      24.46603128      13.20645827 
S      38.70343078      26.21380762       9.28561863 
S      33.00583520      16.00251072      12.96389225 
S      30.58176322      14.09675203      11.22886383 
S      32.27273752      24.94137740      13.13392846 
Mo      27.93346959      38.35263798       8.16159086 
Mo      26.47935870      38.79383294       5.88243459 
Mo      28.07316167      36.57492954       6.08219585 
Mo      25.19520719      36.20930670       6.20142604 
Mo      26.64931808      35.76811173       8.48058232 
Mo      25.05551511      37.98701514       8.28082106 
Mo      25.12032703      33.22482627       5.30451463 
Mo      15.22679634      27.98994189       7.31097699 
Mo      22.26310670      39.13882303       7.51073825 
Mo      19.38515166      38.77321923       7.62996416 
Mo      23.83617796      30.64031138       5.62349751 
Mo      22.24237799      32.85921680       5.42374483 
Mo      19.31028050      35.78872544       6.73305275 
Mo      23.84999143      30.55384875       8.73951939 
Mo      25.44379141      28.33494333       8.93927208 
Mo      22.56584236      27.96933386       9.05850227 
Mo      18.02612843      33.20421824       7.05203991 
Mo      16.43232546      35.42312164       6.85227866 
S      29.05641051      36.17984985       8.29926208 
S      20.78661296      26.74036631       7.93447450 
S      18.04479474      31.27557818       8.54182381 
S      24.07226627      38.38209482       6.06375483 
S      26.89955643      34.45379382       6.42854240 
S      15.20813004      29.91858195       5.82119310 
S      24.22039925      35.70451509       8.37178332 
S      28.90827752      38.85742959       5.99123359 
S      26.24327040      31.05204950       5.44217727 
S      23.41598323      34.98035252       5.07739827 
S      20.67415901      39.51557007       5.68474329 
S      12.81970091      27.57821146       7.49230152 
S      21.08949547      37.01769299       7.85708052 
S      23.83131968      32.48247544       7.24973550 
S      21.40725669      30.57670338       5.51470708 
S      17.65572361      28.05354421       7.41977171 
S      20.43322386      33.61594867       6.87071539 
S      17.60593670      37.54425168       6.50593639 
S      23.85484971      28.71168469       7.11328140 
S      21.44289900      30.14211063       8.92083963 
S      18.27636134      31.88988696       5.00000000 
S      18.02127315      35.04637460       8.67827362 
S      15.59720117      33.14061592       6.94324520 
S      26.27891270      30.61745675       8.84830982 
Mo      19.49404979      32.67655863      12.44720950 
Mo      18.03993890      33.11775360      10.16805322 
Mo      19.63374188      30.89885019      10.36781448 
Mo      16.75578739      30.53322735      10.48704468 
Mo      18.20989828      30.09203238      12.76620095 
Mo      16.61609531      32.31093579      12.56643969 
Mo      16.68090723      27.54874692       9.59013327 
Mo      26.66312855      35.68164709      11.59659563 
Mo      13.82368690      33.46274368      11.79635688 
Mo      25.37897649      33.09713988      11.91558279 
Mo      20.83926555      38.33201657       9.90911615 
Mo      13.80295819      27.18313745       9.70936346 
Mo      25.30410532      30.11264609      11.01867138 
Mo      20.85307902      38.24555395      13.02513803 
Mo      22.44687899      36.02664852      13.22489071 
Mo      19.56892995      35.66103905      13.34412091 
Mo      24.01995326      27.52813889      11.33765855 
Mo      22.42615028      29.74704230      11.13789729 
S      20.61699072      30.50377050      12.58488071 
S      17.78970055      34.43207150      12.22009314 
S      29.48112695      38.96728338      12.82744244 
S      15.63284647      32.70601547      10.34937346 
S      18.46013663      28.77771447      10.71416104 
S      26.64446224      37.61028714      10.10681173 
S      15.78097946      30.02843574      12.65740195 
S      20.46885773      33.18135024      10.27685222 
S      23.24635799      38.74375469       9.72779591 
S      14.97656343      29.30427317       9.36301691 
S      26.66798383      33.83949072       9.97036192 
S      24.25603312      35.26991665      11.77792015 
S      27.08332029      31.34161364      12.14269915 
S      15.39189989      26.80639609      11.53535414 
S      18.41034428      38.26840858       9.80032572 
S      14.65881120      35.74524940      11.70539034 
S      11.99380407      27.93986932      11.15633402 
S      23.59976152      31.86817233      10.79155502 
S      20.85793730      36.40338989      11.39890004 
S      18.44598659      37.83381582      13.20645827 
S      29.71269355      39.58159216       9.28561863 
S      24.01509797      29.37029526      12.96389225 
S      21.59102599      27.46453657      11.22886383 
S      23.28200029      38.30916194      13.13392846 
Mo      33.37597698      51.72042252       8.16159086 
Mo      31.92186608      52.16161749       5.88243459 
Mo      33.51566906      49.94271408       6.08219585 
Mo      30.63771457      49.57709124       6.20142604 
Mo      32.09182547      49.13589627       8.48058232 
Mo      30.49802249      51.35479968       8.28082106 
Mo      30.56283441      46.59261082       5.30451463 
Mo      20.66930373      41.35772644       7.31097699 
Mo      27.70561409      52.50660757       7.51073825 
Mo      24.82765905      52.14100377       7.62996416 
Mo      29.27868535      44.00809592       5.62349751 
Mo      27.68488537      46.22700134       5.42374483 
Mo      24.75278788      49.15650998       6.73305275 
Mo      29.29249881      43.92163329       8.73951939 
Mo      30.88629879      41.70272787       8.93927208 
Mo      28.00834975      41.33711840       9.05850227 
Mo      23.46863582      46.57200278       7.05203991 
Mo      21.87483285      48.79090619       6.85227866 
S      34.49891790      49.54763439       8.29926208 
S      26.22912035      40.10815085       7.93447450 
S      23.48730212      44.64336273       8.54182381 
S      29.51477365      51.74987936       6.06375483 
S      32.34206382      47.82157836       6.42854240 
S      20.65063742      43.28636649       5.82119310 
S      29.66290664      49.07229963       8.37178332 
S      34.35078491      52.22521413       5.99123359 
S      31.68577778      44.41983404       5.44217727 
S      28.85849061      48.34813706       5.07739827 
S      26.11666640      52.88335461       5.68474329 
S      18.26220830      40.94599600       7.49230152 
S      26.53200285      50.38547753       7.85708052 
S      29.27382707      45.85025998       7.24973550 
S      26.84976408      43.94448793       5.51470708 
S      23.09823099      41.42132875       7.41977171 
S      25.87573125      46.98373321       6.87071539 
S      23.04844408      50.91203622       6.50593639 
S      29.29735710      42.07946924       7.11328140 
S      26.88540638      43.50989517       8.92083963 
S      23.71886873      45.25767151       5.00000000 
S      23.46378053      48.41415915       8.67827362 
S      21.03970855      46.50840046       6.94324520 
S      31.72142009      43.98524129       8.84830982 
Mo      24.93655718      46.04434317      12.44720950 
Mo      23.48244629      46.48553814      10.16805322 
Mo      25.07624926      44.26663473      10.36781448 
Mo      22.19829478      43.90101189      10.48704468 
Mo      23.65240567      43.45981692      12.76620095 
Mo      22.05860270      45.67872033      12.56643969 
Mo      22.12341462      40.91653147       9.59013327 
Mo      32.10563593      49.04943163      11.59659563 
Mo      19.26619429      46.83052822      11.79635688 
Mo      30.82148387      46.46492442      11.91558279 
Mo      26.28177294      51.69980111       9.90911615 
Mo      19.24546558      40.55092199       9.70936346 
Mo      30.74661270      43.48043063      11.01867138 
Mo      26.29558640      51.61333849      13.02513803 
Mo      27.88938638      49.39443306      13.22489071 
Mo      25.01143734      49.02882359      13.34412091 
Mo      29.46246064      40.89592343      11.33765855 
Mo      27.86865767      43.11482684      11.13789729 
S      26.05949810      43.87155504      12.58488071 
S      23.23220794      47.79985604      12.22009314 
S      34.92363433      52.33506792      12.82744244 
S      21.07535386      46.07380001      10.34937346 
S      23.90264402      42.14549902      10.71416104 
S      32.08696963      50.97807168      10.10681173 
S      21.22348684      43.39622028      12.65740195 
S      25.91136511      46.54913478      10.27685222 
S      28.68886537      52.11153924       9.72779591 
S      20.41907082      42.67205771       9.36301691 
S      32.11049122      47.20727526       9.97036192 
S      29.69854050      48.63770120      11.77792015 
S      32.52582767      44.70939818      12.14269915 
S      20.83440727      40.17418063      11.53535414 
S      23.85285167      51.63619312       9.80032572 
S      20.10131858      49.11303395      11.70539034 
S      17.43631145      41.30765386      11.15633402 
S      29.04226890      45.23595688      10.79155502 
S      26.30044469      49.77117443      11.39890004 
S      23.88849397      51.20160036      13.20645827 
S      35.15520094      52.94937670       9.28561863 
S      29.45760536      42.73807980      12.96389225 
S      27.03353338      40.83232111      11.22886383 
S      28.72450768      51.67694648      13.13392846 
Mo      42.36671421      38.35263798       8.16159086 
Mo      40.91260332      38.79383294       5.88243459 
Mo      42.50640629      36.57492954       6.08219585 
Mo      39.62845180      36.20930670       6.20142604 
Mo      41.08256270      35.76811173       8.48058232 
Mo      39.48875972      37.98701514       8.28082106 
Mo      39.55357165      33.22482627       5.30451463 
Mo      29.66004096      27.98994189       7.31097699 
Mo      36.69635132      39.13882303       7.51073825 
Mo      33.81839628      38.77321923       7.62996416 
Mo      38.26942258      30.64031138       5.62349751 
Mo      36.67562260      32.85921680       5.42374483 
Mo      33.74352511      35.78872544       6.73305275 
Mo      38.28323605      30.55384875       8.73951939 
Mo      39.87703602      28.33494333       8.93927208 
Mo      36.99908698      27.96933386       9.05850227 
Mo      32.45937305      33.20421824       7.05203991 
Mo      30.86557008      35.42312164       6.85227866 
S      43.48965513      36.17984985       8.29926208 
S      35.21985758      26.74036631       7.93447450 
S      32.47803936      31.27557818       8.54182381 
S      38.50551088      38.38209482       6.06375483 
S      41.33280105      34.45379382       6.42854240 
S      29.64137465      29.91858195       5.82119310 
S      38.65364387      35.70451509       8.37178332 
S      43.34152214      38.85742959       5.99123359 
S      40.67651501      31.05204950       5.44217727 
S      37.84922785      34.98035252       5.07739827 
S      35.10740363      39.51557007       5.68474329 
S      27.25294553      27.57821146       7.49230152 
S      35.52274008      37.01769299       7.85708052 
S      38.26456430      32.48247544       7.24973550 
S      35.84050131      30.57670338       5.51470708 
S      32.08896822      28.05354421       7.41977171 
S      34.86646848      33.61594867       6.87071539 
S      32.03918131      37.54425168       6.50593639 
S      38.28809433      28.71168469       7.11328140 
S      35.87614361      30.14211063       8.92083963 
S      32.70960596      31.88988696       5.00000000 
S      32.45451777      35.04637460       8.67827362 
S      30.03044579      33.14061592       6.94324520 
S      40.71215732      30.61745675       8.84830982 
Mo      33.92729441      32.67655863      12.44720950 
Mo      32.47318352      33.11775360      10.16805322 
Mo      34.06698649      30.89885019      10.36781448 
Mo      31.18903201      30.53322735      10.48704468 
Mo      32.64314290      30.09203238      12.76620095 
Mo      31.04933993      32.31093579      12.56643969 
Mo      31.11415185      27.54874692       9.59013327 
Mo      41.09637317      35.68164709      11.59659563 
Mo      28.25693152      33.46274368      11.79635688 
Mo      39.81222110      33.09713988      11.91558279 
Mo      35.27251017      38.33201657       9.90911615 
Mo      28.23620281      27.18313745       9.70936346 
Mo      39.73734994      30.11264609      11.01867138 
Mo      35.28632364      38.24555395      13.02513803 
Mo      36.88012361      36.02664852      13.22489071 
Mo      34.00217457      35.66103905      13.34412091 
Mo      38.45319787      27.52813889      11.33765855 
Mo      36.85939490      29.74704230      11.13789729 
S      35.05023533      30.50377050      12.58488071 
S      32.22294517      34.43207150      12.22009314 
S      43.91437156      38.96728338      12.82744244 
S      30.06609109      32.70601547      10.34937346 
S      32.89338125      28.77771447      10.71416104 
S      41.07770686      37.61028714      10.10681173 
S      30.21422407      30.02843574      12.65740195 
S      34.90210235      33.18135024      10.27685222 
S      37.67960260      38.74375469       9.72779591 
S      29.40980805      29.30427317       9.36301691 
S      41.10122845      33.83949072       9.97036192 
S      38.68927774      35.26991665      11.77792015 
S      41.51656490      31.34161364      12.14269915 
S      29.82514450      26.80639609      11.53535414 
S      32.84358890      38.26840858       9.80032572 
S      29.09205581      35.74524940      11.70539034 
S      26.42704868      27.93986932      11.15633402 
S      38.03300613      31.86817233      10.79155502 
S      35.29118192      36.40338989      11.39890004 
S      32.87923120      37.83381582      13.20645827 
S      44.14593817      39.58159216       9.28561863 
S      38.44834259      29.37029526      12.96389225 
S      36.02427061      27.46453657      11.22886383 
S      37.71524491      38.30916194      13.13392846 
Mo      47.80922159      51.72042252       8.16159086 
Mo      46.35511070      52.16161749       5.88243459 
Mo      47.94891367      49.94271408       6.08219585 
Mo      45.07095919      49.57709124       6.20142604 
Mo      46.52507008      49.13589627       8.48058232 
Mo      44.93126711      51.35479968       8.28082106 
Mo      44.99607903      46.59261082       5.30451463 
Mo      35.10254834      41.35772644       7.31097699 
Mo      42.13885870      52.50660757       7.51073825 
Mo      39.26090367      52.14100377       7.62996416 
Mo      43.71192997      44.00809592       5.62349751 
Mo      42.11812999      46.22700134       5.42374483 
Mo      39.18603250      49.15650998       6.73305275 
Mo      43.72574343      43.92163329       8.73951939 
Mo      45.31954341      41.70272787       8.93927208 
Mo      42.44159437      41.33711840       9.05850227 
Mo      37.90188044      46.57200278       7.05203991 
Mo      36.30807746      48.79090619       6.85227866 
S      48.93216252      49.54763439       8.29926208 
S      40.66236496      40.10815085       7.93447450 
S      37.92054674      44.64336273       8.54182381 
S      43.94801827      51.74987936       6.06375483 
S      46.77530843      47.82157836       6.42854240 
S      35.08388204      43.28636649       5.82119310 
S      44.09615126      49.07229963       8.37178332 
S      48.78402953      52.22521413       5.99123359 
S      46.11902240      44.41983404       5.44217727 
S      43.29173523      48.34813706       5.07739827 
S      40.54991101      52.88335461       5.68474329 
S      32.69545291      40.94599600       7.49230152 
S      40.96524747      50.38547753       7.85708052 
S      43.70707169      45.85025998       7.24973550 
S      41.28300869      43.94448793       5.51470708 
S      37.53147561      41.42132875       7.41977171 
S      40.30897587      46.98373321       6.87071539 
S      37.48168870      50.91203622       6.50593639 
S      43.73060171      42.07946924       7.11328140 
S      41.31865100      43.50989517       8.92083963 
S      38.15211335      45.25767151       5.00000000 
S      37.89702515      48.41415915       8.67827362 
S      35.47295317      46.50840046       6.94324520 
S      46.15466470      43.98524129       8.84830982 
Mo      39.36980180      46.04434317      12.44720950 
Mo      37.91569091      46.48553814      10.16805322 
Mo      39.50949388      44.26663473      10.36781448 
Mo      36.63153939      43.90101189      10.48704468 
Mo      38.08565029      43.45981692      12.76620095 
Mo      36.49184731      45.67872033      12.56643969 
Mo      36.55665924      40.91653147       9.59013327 
Mo      46.53888055      49.04943163      11.59659563 
Mo      33.69943891      46.83052822      11.79635688 
Mo      45.25472849      46.46492442      11.91558279 
Mo      40.71501756      51.69980111       9.90911615 
Mo      33.67871019      40.55092199       9.70936346 
Mo      45.17985732      43.48043063      11.01867138 
Mo      40.72883102      51.61333849      13.02513803 
Mo      42.32263100      49.39443306      13.22489071 
Mo      39.44468196      49.02882359      13.34412091 
Mo      43.89570526      40.89592343      11.33765855 
Mo      42.30190229      43.11482684      11.13789729 
S      40.49274272      43.87155504      12.58488071 
S      37.66545255      47.79985604      12.22009314 
S      49.35687895      52.33506792      12.82744244 
S      35.50859847      46.07380001      10.34937346 
S      38.33588864      42.14549902      10.71416104 
S      46.52021425      50.97807168      10.10681173 
S      35.65673146      43.39622028      12.65740195 
S      40.34460973      46.54913478      10.27685222 
S      43.12210999      52.11153924       9.72779591 
S      34.85231543      42.67205771       9.36301691 
S      46.54373584      47.20727526       9.97036192 
S      44.13178512      48.63770120      11.77792015 
S      46.95907229      44.70939818      12.14269915 
S      35.26765189      40.17418063      11.53535414 
S      38.28609628      51.63619312       9.80032572 
S      34.53456320      49.11303395      11.70539034 
S      31.86955607      41.30765386      11.15633402 
S      43.47551352      45.23595688      10.79155502 
S      40.73368930      49.77117443      11.39890004 
S      38.32173859      51.20160036      13.20645827 
S      49.58844555      52.94937670       9.28561863 
S      43.89084997      42.73807980      12.96389225 
S      41.46677799      40.83232111      11.22886383 
S      43.15775229      51.67694648      13.13392846 
Mo      45.91494406      11.61706890       8.16159086 
Mo      44.46083317      12.05826386       5.88243459 
Mo      46.05463614       9.83936046       6.08219585 
Mo      43.17668166       9.47373762       6.20142604 
Mo      44.63079255       9.03254265       8.48058232 
Mo      43.03698958      11.25144606       8.28082106 
Mo      43.10180150       6.48925719       5.30451463 
Mo      33.20827081       1.25437281       7.31097699 
Mo      40.24458117      12.40325395       7.51073825 
Mo      37.36662613      12.03765015       7.62996416 
Mo      41.81765243       3.90474230       5.62349751 
Mo      40.22385246       6.12364772       5.42374483 
Mo      37.29175497       9.05315636       6.73305275 
Mo      41.83146590       3.81827967       8.73951939 
Mo      43.42526588       1.59937425       8.93927208 
Mo      40.54731683       1.23376478       9.05850227 
Mo      36.00760290       6.46864916       7.05203991 
Mo      34.41379993       8.68755256       6.85227866 
S      47.03788498       9.44428077       8.29926208 
S      38.76808743       0.00479723       7.93447450 
S      36.02626921       4.54000910       8.54182381 
S      42.05374074      11.64652574       6.06375483 
S      44.88103090       7.71822474       6.42854240 
S      33.18960451       3.18301287       5.82119310 
S      42.20187372       8.96894601       8.37178332 
S      46.88975199      12.12186051       5.99123359 
S      44.22474487       4.31648042       5.44217727 
S      41.39745770       8.24478344       5.07739827 
S      38.65563348      12.78000099       5.68474329 
S      30.80117538       0.84264238       7.49230152 
S      39.07096994      10.28212391       7.85708052 
S      41.81279415       5.74690636       7.24973550 
S      39.38873116       3.84113430       5.51470708 
S      35.63719808       1.31797513       7.41977171 
S      38.41469833       6.88037959       6.87071539 
S      35.58741117      10.80868260       6.50593639 
S      41.83632418       1.97611561       7.11328140 
S      39.42437347       3.40654155       8.92083963 
S      36.25783581       5.15431788       5.00000000 
S      36.00274762       8.31080552       8.67827362 
S      33.57867564       6.40504684       6.94324520 
S      44.26038717       3.88188767       8.84830982 
Mo      37.47552426       5.94098955      12.44720950 
Mo      36.02141337       6.38218452      10.16805322 
Mo      37.61521635       4.16328111      10.36781448 
Mo      34.73726186       3.79765827      10.48704468 
Mo      36.19137275       3.35646330      12.76620095 
Mo      34.59756978       5.57536671      12.56643969 
Mo      34.66238170       0.81317784       9.59013327 
Mo      44.64460302       8.94607801      11.59659563 
Mo      31.80516137       6.72717460      11.79635688 
Mo      43.36045096       6.36157080      11.91558279 
Mo      38.82074002      11.59644749       9.90911615 
Mo      31.78443266       0.44756837       9.70936346 
Mo      43.28557979       3.37707701      11.01867138 
Mo      38.83455349      11.50998487      13.02513803 
Mo      40.42835346       9.29107944      13.22489071 
Mo      37.55040442       8.92546997      13.34412091 
Mo      42.00142773       0.79256981      11.33765855 
Mo      40.40762475       3.01147322      11.13789729 
S      38.59846519       3.76820142      12.58488071 
S      35.77117502       7.69650242      12.22009314 
S      47.46260142      12.23171430      12.82744244 
S      33.61432094       5.97044639      10.34937346 
S      36.44161110       2.04214539      10.71416104 
S      44.62593671      10.87471806      10.10681173 
S      33.76245393       3.29286666      12.65740195 
S      38.45033220       6.44578116      10.27685222 
S      41.22783246      12.00818561       9.72779591 
S      32.95803790       2.56870409       9.36301691 
S      44.64945830       7.10392164       9.97036192 
S      42.23750759       8.53434757      11.77792015 
S      45.06479476       4.60604456      12.14269915 
S      33.37337436       0.07082701      11.53535414 
S      36.39181875      11.53283950       9.80032572 
S      32.64028567       9.00968032      11.70539034 
S      29.97527854       1.20430024      11.15633402 
S      41.58123599       5.13260325      10.79155502 
S      38.83941177       9.66782081      11.39890004 
S      36.42746106      11.09824674      13.20645827 
S      47.69416802      12.84602308       9.28561863 
S      41.99657244       2.63472618      12.96389225 
S      39.57250046       0.72896749      11.22886383 
S      41.26347476      11.57359286      13.13392846 
Mo      51.35745145      24.98485344       8.16159086 
Mo      49.90334055      25.42604841       5.88243459 
Mo      51.49714353      23.20714500       6.08219585 
Mo      48.61918904      22.84152216       6.20142604 
Mo      50.07329994      22.40032719       8.48058232 
Mo      48.47949696      24.61923060       8.28082106 
Mo      48.54430888      19.85704174       5.30451463 
Mo      38.65077820      14.62215736       7.31097699 
Mo      45.68708856      25.77103849       7.51073825 
Mo      42.80913352      25.40543469       7.62996416 
Mo      47.26015982      17.27252684       5.62349751 
Mo      45.66635984      19.49143226       5.42374483 
Mo      42.73426235      22.42094090       6.73305275 
Mo      47.27397328      17.18606421       8.73951939 
Mo      48.86777326      14.96715879       8.93927208 
Mo      45.98982422      14.60154932       9.05850227 
Mo      41.45011029      19.83643370       7.05203991 
Mo      39.85630732      22.05533711       6.85227866 
S      52.48039237      22.81206531       8.29926208 
S      44.21059482      13.37258177       7.93447450 
S      41.46877659      17.90779365       8.54182381 
S      47.49624812      25.01431028       6.06375483 
S      50.32353829      21.08600928       6.42854240 
S      38.63211189      16.55079741       5.82119310 
S      47.64438111      22.33673055       8.37178332 
S      52.33225938      25.48964505       5.99123359 
S      49.66725225      17.68426496       5.44217727 
S      46.83996508      21.61256798       5.07739827 
S      44.09814087      26.14778553       5.68474329 
S      36.24368277      14.21042692       7.49230152 
S      44.51347732      23.64990845       7.85708052 
S      47.25530154      19.11469090       7.24973550 
S      44.83123855      17.20891885       5.51470708 
S      41.07970546      14.68575967       7.41977171 
S      43.85720572      20.24816413       6.87071539 
S      41.02991855      24.17646714       6.50593639 
S      47.27883157      15.34390016       7.11328140 
S      44.86688085      16.77432609       8.92083963 
S      41.70034320      18.52210243       5.00000000 
S      41.44525500      21.67859007       8.67827362 
S      39.02118302      19.77283138       6.94324520 
S      49.70289456      17.24967221       8.84830982 
Mo      42.91803165      19.30877409      12.44720950 
Mo      41.46392076      19.74996906      10.16805322 
Mo      43.05772373      17.53106565      10.36781448 
Mo      40.17976925      17.16544281      10.48704468 
Mo      41.63388014      16.72424784      12.76620095 
Mo      40.04007717      18.94315125      12.56643969 
Mo      40.10488909      14.18096239       9.59013327 
Mo      50.08711040      22.31386255      11.59659563 
Mo      37.24766876      20.09495914      11.79635688 
Mo      48.80295834      19.72935534      11.91558279 
Mo      44.26324741      24.96423203       9.90911615 
Mo      37.22694005      13.81535291       9.70936346 
Mo      48.72808717      16.74486155      11.01867138 
Mo      44.27706087      24.87776941      13.02513803 
Mo      45.87086085      22.65886398      13.22489071 
Mo      42.99291181      22.29325451      13.34412091 
Mo      47.44393511      14.16035435      11.33765855 
Mo      45.85013214      16.37925776      11.13789729 
S      44.04097257      17.13598596      12.58488071 
S      41.21368241      21.06428696      12.22009314 
S      52.90510880      25.59949884      12.82744244 
S      39.05682833      19.33823093      10.34937346 
S      41.88411849      15.40992994      10.71416104 
S      50.06844410      24.24250260      10.10681173 
S      39.20496131      16.66065120      12.65740195 
S      43.89283958      19.81356570      10.27685222 
S      46.67033984      25.37597016       9.72779591 
S      38.40054529      15.93648863       9.36301691 
S      50.09196569      20.47170618       9.97036192 
S      47.68001497      21.90213212      11.77792015 
S      50.50730214      17.97382910      12.14269915 
S      38.81588174      13.43861155      11.53535414 
S      41.83432614      24.90062404       9.80032572 
S      38.08279305      22.37746487      11.70539034 
S      35.41778592      14.57208478      11.15633402 
S      47.02374337      18.50038780      10.79155502 
S      44.28191916      23.03560535      11.39890004 
S      41.86996844      24.46603128      13.20645827 
S      53.13667541      26.21380762       9.28561863 
S      47.43907983      16.00251072      12.96389225 
S      45.01500785      14.09675203      11.22886383 
S      46.70598215      24.94137740      13.13392846 
Mo      60.34818868      11.61706890       8.16159086 
Mo      58.89407779      12.05826386       5.88243459 
Mo      60.48788076       9.83936046       6.08219585 
Mo      57.60992627       9.47373762       6.20142604 
Mo      59.06403717       9.03254265       8.48058232 
Mo      57.47023419      11.25144606       8.28082106 
Mo      57.53504612       6.48925719       5.30451463 
Mo      47.64151543       1.25437281       7.31097699 
Mo      54.67782579      12.40325395       7.51073825 
Mo      51.79987075      12.03765015       7.62996416 
Mo      56.25089705       3.90474230       5.62349751 
Mo      54.65709707       6.12364772       5.42374483 
Mo      51.72499958       9.05315636       6.73305275 
Mo      56.26471052       3.81827967       8.73951939 
Mo      57.85851049       1.59937425       8.93927208 
Mo      54.98056145       1.23376478       9.05850227 
Mo      50.44084752       6.46864916       7.05203991 
Mo      48.84704455       8.68755256       6.85227866 
S      61.47112960       9.44428077       8.29926208 
S      53.20133205       0.00479723       7.93447450 
S      50.45951383       4.54000910       8.54182381 
S      56.48698535      11.64652574       6.06375483 
S      59.31427552       7.71822474       6.42854240 
S      47.62284912       3.18301287       5.82119310 
S      56.63511834       8.96894601       8.37178332 
S      61.32299661      12.12186051       5.99123359 
S      58.65798948       4.31648042       5.44217727 
S      55.83070232       8.24478344       5.07739827 
S      53.08887810      12.78000099       5.68474329 
S      45.23442000       0.84264238       7.49230152 
S      53.50421455      10.28212391       7.85708052 
S      56.24603877       5.74690636       7.24973550 
S      53.82197578       3.84113430       5.51470708 
S      50.07044269       1.31797513       7.41977171 
S      52.84794295       6.88037959       6.87071539 
S      50.02065578      10.80868260       6.50593639 
S      56.26956880       1.97611561       7.11328140 
S      53.85761808       3.40654155       8.92083963 
S      50.69108043       5.15431788       5.00000000 
S      50.43599224       8.31080552       8.67827362 
S      48.01192026       6.40504684       6.94324520 
S      58.69363179       3.88188767       8.84830982 
Mo      51.90876888       5.94098955      12.44720950 
Mo      50.45465799       6.38218452      10.16805322 
Mo      52.04846096       4.16328111      10.36781448 
Mo      49.17050648       3.79765827      10.48704468 
Mo      50.62461737       3.35646330      12.76620095 
Mo      49.03081440       5.57536671      12.56643969 
Mo      49.09562632       0.81317784       9.59013327 
Mo      59.07784764       8.94607801      11.59659563 
Mo      46.23840599       6.72717460      11.79635688 
Mo      57.79369557       6.36157080      11.91558279 
Mo      53.25398464      11.59644749       9.90911615 
Mo      46.21767728       0.44756837       9.70936346 
Mo      57.71882441       3.37707701      11.01867138 
Mo      53.26779811      11.50998487      13.02513803 
Mo      54.86159808       9.29107944      13.22489071 
Mo      51.98364904       8.92546997      13.34412091 
Mo      56.43467234       0.79256981      11.33765855 
Mo      54.84086937       3.01147322      11.13789729 
S      53.03170980       3.76820142      12.58488071 
S      50.20441964       7.69650242      12.22009314 
S      61.89584603      12.23171430      12.82744244 
S      48.04756556       5.97044639      10.34937346 
S      50.87485572       2.04214539      10.71416104 
S      59.05918133      10.87471806      10.10681173 
S      48.19569854       3.29286666      12.65740195 
S      52.88357682       6.44578116      10.27685222 
S      55.66107707      12.00818561       9.72779591 
S      47.39128252       2.56870409       9.36301691 
S      59.08270292       7.10392164       9.97036192 
S      56.67075221       8.53434757      11.77792015 
S      59.49803937       4.60604456      12.14269915 
S      47.80661897       0.07082701      11.53535414 
S      50.82506337      11.53283950       9.80032572 
S      47.07353028       9.00968032      11.70539034 
S      44.40852315       1.20430024      11.15633402 
S      56.01448060       5.13260325      10.79155502 
S      53.27265639       9.66782081      11.39890004 
S      50.86070567      11.09824674      13.20645827 
S      62.12741264      12.84602308       9.28561863 
S      56.42981706       2.63472618      12.96389225 
S      54.00574508       0.72896749      11.22886383 
S      55.69671938      11.57359286      13.13392846 
Mo      65.79069606      24.98485344       8.16159086 
Mo      64.33658517      25.42604841       5.88243459 
Mo      65.93038814      23.20714500       6.08219585 
Mo      63.05243366      22.84152216       6.20142604 
Mo      64.50654455      22.40032719       8.48058232 
Mo      62.91274158      24.61923060       8.28082106 
Mo      62.97755350      19.85704174       5.30451463 
Mo      53.08402281      14.62215736       7.31097699 
Mo      60.12033317      25.77103849       7.51073825 
Mo      57.24237814      25.40543469       7.62996416 
Mo      61.69340444      17.27252684       5.62349751 
Mo      60.09960446      19.49143226       5.42374483 
Mo      57.16750697      22.42094090       6.73305275 
Mo      61.70721790      17.18606421       8.73951939 
Mo      63.30101788      14.96715879       8.93927208 
Mo      60.42306884      14.60154932       9.05850227 
Mo      55.88335491      19.83643370       7.05203991 
Mo      54.28955193      22.05533711       6.85227866 
S      66.91363699      22.81206531       8.29926208 
S      58.64383943      13.37258177       7.93447450 
S      55.90202121      17.90779365       8.54182381 
S      61.92949274      25.01431028       6.06375483 
S      64.75678290      21.08600928       6.42854240 
S      53.06535651      16.55079741       5.82119310 
S      62.07762573      22.33673055       8.37178332 
S      66.76550400      25.48964505       5.99123359 
S      64.10049687      17.68426496       5.44217727 
S      61.27320970      21.61256798       5.07739827 
S      58.53138548      26.14778553       5.68474329 
S      50.67692738      14.21042692       7.49230152 
S      58.94672194      23.64990845       7.85708052 
S      61.68854616      19.11469090       7.24973550 
S      59.26448316      17.20891885       5.51470708 
S      55.51295008      14.68575967       7.41977171 
S      58.29045034      20.24816413       6.87071539 
S      55.46316317      24.17646714       6.50593639 
S      61.71207618      15.34390016       7.11328140 
S      59.30012547      16.77432609       8.92083963 
S      56.13358782      18.52210243       5.00000000 
S      55.87849962      21.67859007       8.67827362 
S      53.45442764      19.77283138       6.94324520 
S      64.13613917      17.24967221       8.84830982 
Mo      57.35127627      19.30877409      12.44720950 
Mo      55.89716538      19.74996906      10.16805322 
Mo      57.49096835      17.53106565      10.36781448 
Mo      54.61301386      17.16544281      10.48704468 
Mo      56.06712476      16.72424784      12.76620095 
Mo      54.47332178      18.94315125      12.56643969 
Mo      54.53813371      14.18096239       9.59013327 
Mo      64.52035502      22.31386255      11.59659563 
Mo      51.68091338      20.09495914      11.79635688 
Mo      63.23620296      19.72935534      11.91558279 
Mo      58.69649203      24.96423203       9.90911615 
Mo      51.66018466      13.81535291       9.70936346 
Mo      63.16133179      16.74486155      11.01867138 
Mo      58.71030549      24.87776941      13.02513803 
Mo      60.30410547      22.65886398      13.22489071 
Mo      57.42615643      22.29325451      13.34412091 
Mo      61.87717973      14.16035435      11.33765855 
Mo      60.28337676      16.37925776      11.13789729 
S      58.47421719      17.13598596      12.58488071 
S      55.64692702      21.06428696      12.22009314 
S      67.33835342      25.59949884      12.82744244 
S      53.49007294      19.33823093      10.34937346 
S      56.31736311      15.40992994      10.71416104 
S      64.50168872      24.24250260      10.10681173 
S      53.63820593      16.66065120      12.65740195 
S      58.32608420      19.81356570      10.27685222 
S      61.10358446      25.37597016       9.72779591 
S      52.83378990      15.93648863       9.36301691 
S      64.52521031      20.47170618       9.97036192 
S      62.11325959      21.90213212      11.77792015 
S      64.94054676      17.97382910      12.14269915 
S      53.24912636      13.43861155      11.53535414 
S      56.26757075      24.90062404       9.80032572 
S      52.51603767      22.37746487      11.70539034 
S      49.85103054      14.57208478      11.15633402 
S      61.45698799      18.50038780      10.79155502 
S      58.71516377      23.03560535      11.39890004 
S      56.30321306      24.46603128      13.20645827 
S      67.56992002      26.21380762       9.28561863 
S      61.87232444      16.00251072      12.96389225 
S      59.44825246      14.09675203      11.22886383 
S      61.13922676      24.94137740      13.13392846 
Mo      56.79995883      38.35263798       8.16159086 
Mo      55.34584794      38.79383294       5.88243459 
Mo      56.93965091      36.57492954       6.08219585 
Mo      54.06169643      36.20930670       6.20142604 
Mo      55.51580732      35.76811173       8.48058232 
Mo      53.92200435      37.98701514       8.28082106 
Mo      53.98681627      33.22482627       5.30451463 
Mo      44.09328558      27.98994189       7.31097699 
Mo      51.12959594      39.13882303       7.51073825 
Mo      48.25164090      38.77321923       7.62996416 
Mo      52.70266720      30.64031138       5.62349751 
Mo      51.10886723      32.85921680       5.42374483 
Mo      48.17676974      35.78872544       6.73305275 
Mo      52.71648067      30.55384875       8.73951939 
Mo      54.31028065      28.33494333       8.93927208 
Mo      51.43233160      27.96933386       9.05850227 
Mo      46.89261767      33.20421824       7.05203991 
Mo      45.29881470      35.42312164       6.85227866 
S      57.92289975      36.17984985       8.29926208 
S      49.65310220      26.74036631       7.93447450 
S      46.91128398      31.27557818       8.54182381 
S      52.93875551      38.38209482       6.06375483 
S      55.76604567      34.45379382       6.42854240 
S      44.07461928      29.91858195       5.82119310 
S      53.08688849      35.70451509       8.37178332 
S      57.77476676      38.85742959       5.99123359 
S      55.10975964      31.05204950       5.44217727 
S      52.28247247      34.98035252       5.07739827 
S      49.54064825      39.51557007       5.68474329 
S      41.68619015      27.57821146       7.49230152 
S      49.95598471      37.01769299       7.85708052 
S      52.69780892      32.48247544       7.24973550 
S      50.27374593      30.57670338       5.51470708 
S      46.52221285      28.05354421       7.41977171 
S      49.29971310      33.61594867       6.87071539 
S      46.47242594      37.54425168       6.50593639 
S      52.72133895      28.71168469       7.11328140 
S      50.30938824      30.14211063       8.92083963 
S      47.14285058      31.88988696       5.00000000 
S      46.88776239      35.04637460       8.67827362 
S      44.46369041      33.14061592       6.94324520 
S      55.14540194      30.61745675       8.84830982 
Mo      48.36053903      32.67655863      12.44720950 
Mo      46.90642814      33.11775360      10.16805322 
Mo      48.50023112      30.89885019      10.36781448 
Mo      45.62227663      30.53322735      10.48704468 
Mo      47.07638752      30.09203238      12.76620095 
Mo      45.48258455      32.31093579      12.56643969 
Mo      45.54739647      27.54874692       9.59013327 
Mo      55.52961779      35.68164709      11.59659563 
Mo      42.69017614      33.46274368      11.79635688 
Mo      54.24546573      33.09713988      11.91558279 
Mo      49.70575479      38.33201657       9.90911615 
Mo      42.66944743      27.18313745       9.70936346 
Mo      54.17059456      30.11264609      11.01867138 
Mo      49.71956826      38.24555395      13.02513803 
Mo      51.31336823      36.02664852      13.22489071 
Mo      48.43541919      35.66103905      13.34412091 
Mo      52.88644250      27.52813889      11.33765855 
Mo      51.29263952      29.74704230      11.13789729 
S      49.48347996      30.50377050      12.58488071 
S      46.65618979      34.43207150      12.22009314 
S      58.34761619      38.96728338      12.82744244 
S      44.49933571      32.70601547      10.34937346 
S      47.32662587      28.77771447      10.71416104 
S      55.51095148      37.61028714      10.10681173 
S      44.64746870      30.02843574      12.65740195 
S      49.33534697      33.18135024      10.27685222 
S      52.11284723      38.74375469       9.72779591 
S      43.84305267      29.30427317       9.36301691 
S      55.53447307      33.83949072       9.97036192 
S      53.12252236      35.26991665      11.77792015 
S      55.94980953      31.34161364      12.14269915 
S      44.25838913      26.80639609      11.53535414 
S      47.27683352      38.26840858       9.80032572 
S      43.52530044      35.74524940      11.70539034 
S      40.86029331      27.93986932      11.15633402 
S      52.46625076      31.86817233      10.79155502 
S      49.72442654      36.40338989      11.39890004 
S      47.31247583      37.83381582      13.20645827 
S      58.57918279      39.58159216       9.28561863 
S      52.88158721      29.37029526      12.96389225 
S      50.45751523      27.46453657      11.22886383 
S      52.14848953      38.30916194      13.13392846 
Mo      62.24246622      51.72042252       8.16159086 
Mo      60.78835532      52.16161749       5.88243459 
Mo      62.38215830      49.94271408       6.08219585 
Mo      59.50420381      49.57709124       6.20142604 
Mo      60.95831471      49.13589627       8.48058232 
Mo      59.36451173      51.35479968       8.28082106 
Mo      59.42932365      46.59261082       5.30451463 
Mo      49.53579297      41.35772644       7.31097699 
Mo      56.57210333      52.50660757       7.51073825 
Mo      53.69414829      52.14100377       7.62996416 
Mo      58.14517459      44.00809592       5.62349751 
Mo      56.55137461      46.22700134       5.42374483 
Mo      53.61927712      49.15650998       6.73305275 
Mo      58.15898805      43.92163329       8.73951939 
Mo      59.75278803      41.70272787       8.93927208 
Mo      56.87483899      41.33711840       9.05850227 
Mo      52.33512506      46.57200278       7.05203991 
Mo      50.74132209      48.79090619       6.85227866 
S      63.36540714      49.54763439       8.29926208 
S      55.09560959      40.10815085       7.93447450 
S      52.35379136      44.64336273       8.54182381 
S      58.38126289      51.74987936       6.06375483 
S      61.20855306      47.82157836       6.42854240 
S      49.51712666      43.28636649       5.82119310 
S      58.52939588      49.07229963       8.37178332 
S      63.21727415      52.22521413       5.99123359 
S      60.55226702      44.41983404       5.44217727 
S      57.72497985      48.34813706       5.07739827 
S      54.98315564      52.88335461       5.68474329 
S      47.12869754      40.94599600       7.49230152 
S      55.39849209      50.38547753       7.85708052 
S      58.14031631      45.85025998       7.24973550 
S      55.71625332      43.94448793       5.51470708 
S      51.96472023      41.42132875       7.41977171 
S      54.74222049      46.98373321       6.87071539 
S      51.91493332      50.91203622       6.50593639 
S      58.16384634      42.07946924       7.11328140 
S      55.75189562      43.50989517       8.92083963 
S      52.58535797      45.25767151       5.00000000 
S      52.33026977      48.41415915       8.67827362 
S      49.90619779      46.50840046       6.94324520 
S      60.58790933      43.98524129       8.84830982 
Mo      53.80304642      46.04434317      12.44720950 
Mo      52.34893553      46.48553814      10.16805322 
Mo      53.94273850      44.26663473      10.36781448 
Mo      51.06478402      43.90101189      10.48704468 
Mo      52.51889491      43.45981692      12.76620095 
Mo      50.92509194      45.67872033      12.56643969 
Mo      50.98990386      40.91653147       9.59013327 
Mo      60.97212517      49.04943163      11.59659563 
Mo      48.13268353      46.83052822      11.79635688 
Mo      59.68797311      46.46492442      11.91558279 
Mo      55.14826218      51.69980111       9.90911615 
Mo      48.11195482      40.55092199       9.70936346 
Mo      59.61310194      43.48043063      11.01867138 
Mo      55.16207564      51.61333849      13.02513803 
Mo      56.75587562      49.39443306      13.22489071 
Mo      53.87792658      49.02882359      13.34412091 
Mo      58.32894988      40.89592343      11.33765855 
Mo      56.73514691      43.11482684      11.13789729 
S      54.92598734      43.87155504      12.58488071 
S      52.09869718      47.79985604      12.22009314 
S      63.79012357      52.33506792      12.82744244 
S      49.94184310      46.07380001      10.34937346 
S      52.76913326      42.14549902      10.71416104 
S      60.95345887      50.97807168      10.10681173 
S      50.08997608      43.39622028      12.65740195 
S      54.77785435      46.54913478      10.27685222 
S      57.55535461      52.11153924       9.72779591 
S      49.28556006      42.67205771       9.36301691 
S      60.97698046      47.20727526       9.97036192 
S      58.56502974      48.63770120      11.77792015 
S      61.39231691      44.70939818      12.14269915 
S      49.70089651      40.17418063      11.53535414 
S      52.71934091      51.63619312       9.80032572 
S      48.96780782      49.11303395      11.70539034 
S      46.30280069      41.30765386      11.15633402 
S      57.90875814      45.23595688      10.79155502 
S      55.16693393      49.77117443      11.39890004 
S      52.75498321      51.20160036      13.20645827 
S      64.02169018      52.94937670       9.28561863 
S      58.32409460      42.73807980      12.96389225 
S      55.90002262      40.83232111      11.22886383 
S      57.59099692      51.67694648      13.13392846 
Mo      71.23320345      38.35263798       8.16159086 
Mo      69.77909256      38.79383294       5.88243459 
Mo      71.37289553      36.57492954       6.08219585 
Mo      68.49494104      36.20930670       6.20142604 
Mo      69.94905194      35.76811173       8.48058232 
Mo      68.35524896      37.98701514       8.28082106 
Mo      68.42006089      33.22482627       5.30451463 
Mo      58.52653020      27.98994189       7.31097699 
Mo      65.56284056      39.13882303       7.51073825 
Mo      62.68488552      38.77321923       7.62996416 
Mo      67.13591182      30.64031138       5.62349751 
Mo      65.54211184      32.85921680       5.42374483 
Mo      62.61001435      35.78872544       6.73305275 
Mo      67.14972529      30.55384875       8.73951939 
Mo      68.74352526      28.33494333       8.93927208 
Mo      65.86557622      27.96933386       9.05850227 
Mo      61.32586229      33.20421824       7.05203991 
Mo      59.73205932      35.42312164       6.85227866 
S      72.35614437      36.17984985       8.29926208 
S      64.08634682      26.74036631       7.93447450 
S      61.34452860      31.27557818       8.54182381 
S      67.37200012      38.38209482       6.06375483 
S      70.19929029      34.45379382       6.42854240 
S      58.50786389      29.91858195       5.82119310 
S      67.52013311      35.70451509       8.37178332 
S      72.20801138      38.85742959       5.99123359 
S      69.54300425      31.05204950       5.44217727 
S      66.71571709      34.98035252       5.07739827 
S      63.97389287      39.51557007       5.68474329 
S      56.11943477      27.57821146       7.49230152 
S      64.38922932      37.01769299       7.85708052 
S      67.13105354      32.48247544       7.24973550 
S      64.70699055      30.57670338       5.51470708 
S      60.95545746      28.05354421       7.41977171 
S      63.73295772      33.61594867       6.87071539 
S      60.90567055      37.54425168       6.50593639 
S      67.15458357      28.71168469       7.11328140 
S      64.74263285      30.14211063       8.92083963 
S      61.57609520      31.88988696       5.00000000 
S      61.32100701      35.04637460       8.67827362 
S      58.89693503      33.14061592       6.94324520 
S      69.57864656      30.61745675       8.84830982 
Mo      62.79378365      32.67655863      12.44720950 
Mo      61.33967276      33.11775360      10.16805322 
Mo      62.93347573      30.89885019      10.36781448 
Mo      60.05552125      30.53322735      10.48704468 
Mo      61.50963214      30.09203238      12.76620095 
Mo      59.91582917      32.31093579      12.56643969 
Mo      59.98064109      27.54874692       9.59013327 
Mo      69.96286241      35.68164709      11.59659563 
Mo      57.12342076      33.46274368      11.79635688 
Mo      68.67871034      33.09713988      11.91558279 
Mo      64.13899941      38.33201657       9.90911615 
Mo      57.10269205      27.18313745       9.70936346 
Mo      68.60383918      30.11264609      11.01867138 
Mo      64.15281288      38.24555395      13.02513803 
Mo      65.74661285      36.02664852      13.22489071 
Mo      62.86866381      35.66103905      13.34412091 
Mo      67.31968711      27.52813889      11.33765855 
Mo      65.72588414      29.74704230      11.13789729 
S      63.91672457      30.50377050      12.58488071 
S      61.08943441      34.43207150      12.22009314 
S      72.78086080      38.96728338      12.82744244 
S      58.93258033      32.70601547      10.34937346 
S      61.75987049      28.77771447      10.71416104 
S      69.94419610      37.61028714      10.10681173 
S      59.08071331      30.02843574      12.65740195 
S      63.76859159      33.18135024      10.27685222 
S      66.54609184      38.74375469       9.72779591 
S      58.27629729      29.30427317       9.36301691 
S      69.96771769      33.83949072       9.97036192 
S      67.55576698      35.26991665      11.77792015 
S      70.38305414      31.34161364      12.14269915 
S      58.69163374      26.80639609      11.53535414 
S      61.71007814      38.26840858       9.80032572 
S      57.95854505      35.74524940      11.70539034 
S      55.29353792      27.93986932      11.15633402 
S      66.89949537      31.86817233      10.79155502 
S      64.15767116      36.40338989      11.39890004 
S      61.74572044      37.83381582      13.20645827 
S      73.01242741      39.58159216       9.28561863 
S      67.31483183      29.37029526      12.96389225 
S      64.89075985      27.46453657      11.22886383 
S      66.58173415      38.30916194      13.13392846 
Mo      76.67571083      51.72042252       8.16159086 
Mo      75.22159994      52.16161749       5.88243459 
Mo      76.81540291      49.94271408       6.08219585 
Mo      73.93744843      49.57709124       6.20142604 
Mo      75.39155932      49.13589627       8.48058232 
Mo      73.79775635      51.35479968       8.28082106 
Mo      73.86256827      46.59261082       5.30451463 
Mo      63.96903758      41.35772644       7.31097699 
Mo      71.00534794      52.50660757       7.51073825 
Mo      68.12739291      52.14100377       7.62996416 
Mo      72.57841921      44.00809592       5.62349751 
Mo      70.98461923      46.22700134       5.42374483 
Mo      68.05252174      49.15650998       6.73305275 
Mo      72.59223267      43.92163329       8.73951939 
Mo      74.18603265      41.70272787       8.93927208 
Mo      71.30808361      41.33711840       9.05850227 
Mo      66.76836968      46.57200278       7.05203991 
Mo      65.17456670      48.79090619       6.85227866 
S      77.79865176      49.54763439       8.29926208 
S      69.52885420      40.10815085       7.93447450 
S      66.78703598      44.64336273       8.54182381 
S      72.81450751      51.74987936       6.06375483 
S      75.64179767      47.82157836       6.42854240 
S      63.95037128      43.28636649       5.82119310 
S      72.96264050      49.07229963       8.37178332 
S      77.65051877      52.22521413       5.99123359 
S      74.98551164      44.41983404       5.44217727 
S      72.15822447      48.34813706       5.07739827 
S      69.41640025      52.88335461       5.68474329 
S      61.56194215      40.94599600       7.49230152 
S      69.83173671      50.38547753       7.85708052 
S      72.57356093      45.85025998       7.24973550 
S      70.14949793      43.94448793       5.51470708 
S      66.39796485      41.42132875       7.41977171 
S      69.17546511      46.98373321       6.87071539 
S      66.34817794      50.91203622       6.50593639 
S      72.59709095      42.07946924       7.11328140 
S      70.18514024      43.50989517       8.92083963 
S      67.01860259      45.25767151       5.00000000 
S      66.76351439      48.41415915       8.67827362 
S      64.33944241      46.50840046       6.94324520 
S      75.02115394      43.98524129       8.84830982 
Mo      68.23629104      46.04434317      12.44720950 
Mo      66.78218015      46.48553814      10.16805322 
Mo      68.37598312      44.26663473      10.36781448 
Mo      65.49802863      43.90101189      10.48704468 
Mo      66.95213953      43.45981692      12.76620095 
Mo      65.35833655      45.67872033      12.56643969 
Mo      65.42314848      40.91653147       9.59013327 
Mo      75.40536979      49.04943163      11.59659563 
Mo      62.56592815      46.83052822      11.79635688 
Mo      74.12121773      46.46492442      11.91558279 
Mo      69.58150680      51.69980111       9.90911615 
Mo      62.54519943      40.55092199       9.70936346 
Mo      74.04634656      43.48043063      11.01867138 
Mo      69.59532026      51.61333849      13.02513803 
Mo      71.18912024      49.39443306      13.22489071 
Mo      68.31117120      49.02882359      13.34412091 
Mo      72.76219450      40.89592343      11.33765855 
Mo      71.16839153      43.11482684      11.13789729 
S      69.35923196      43.87155504      12.58488071 
S      66.53194179      47.79985604      12.22009314 
S      78.22336819      52.33506792      12.82744244 
S      64.37508771      46.07380001      10.34937346 
S      67.20237788      42.14549902      10.71416104 
S      75.38670349      50.97807168      10.10681173 
S      64.52322070      43.39622028      12.65740195 
S      69.21109897      46.54913478      10.27685222 
S      71.98859923      52.11153924       9.72779591 
S      63.71880467      42.67205771       9.36301691 
S      75.41022508      47.20727526       9.97036192 
S      72.99827436      48.63770120      11.77792015 
S      75.82556153      44.70939818      12.14269915 
S      64.13414113      40.17418063      11.53535414 
S      67.15258552      51.63619312       9.80032572 
S      63.40105244      49.11303395      11.70539034 
S      60.73604531      41.30765386      11.15633402 
S      72.34200276      45.23595688      10.79155502 
S      69.60017854      49.77117443      11.39890004 
S      67.18822783      51.20160036      13.20645827 
S      78.45493479      52.94937670       9.28561863 
S      72.75733921      42.73807980      12.96389225 
S      70.33326723      40.83232111      11.22886383 
S      72.02424153      51.67694648      13.13392846 
