128
Lattice="13.1453222259 0.0 0.0 7.91444651178e-16 12.9252720332 0.0 0.0 0.0 19.4868182085" Properties=species:S:1:pos:R:3:Z:I:1 unit_cell=conventional pbc="T T F"
Ti      6.57266029       0.80782950       5.00000000       22 
S      1.64316610       2.42348851       5.94868097       16 
Ti      3.28632973       0.80782950       5.00000000       22 
S      4.92949666       2.42348851       5.94868097       16 
Ti      4.92949501       0.80782950       7.84604575       22 
S      0.00000082       2.42348851       8.79472671       16 
Ti      1.64316446       0.80782950       7.84604575       22 
S      3.28633138       2.42348851       8.79472671       16 
Ti      3.28632973       0.80782950      10.69209149       22 
S      4.92949666       2.42348851      11.64077246       16 
Ti      6.57266029       0.80782950      10.69209149       22 
S      1.64316610       2.42348851      11.64077246       16 
Ti      1.64316446       0.80782950      13.53813724       22 
S      3.28633138       2.42348851      14.48681821       16 
Ti      4.92949501       0.80782950      13.53813724       22 
S      0.00000082       2.42348851      14.48681821       16 
Ti      6.57266029       4.03914751       5.00000000       22 
S      1.64316610       5.65480651       5.94868097       16 
Ti      3.28632973       4.03914751       5.00000000       22 
S      4.92949666       5.65480651       5.94868097       16 
Ti      4.92949501       4.03914751       7.84604575       22 
S      0.00000082       5.65480651       8.79472671       16 
Ti      1.64316446       4.03914751       7.84604575       22 
S      3.28633138       5.65480651       8.79472671       16 
Ti      3.28632973       4.03914751      10.69209149       22 
S      4.92949666       5.65480651      11.64077246       16 
Ti      6.57266029       4.03914751      10.69209149       22 
S      1.64316610       5.65480651      11.64077246       16 
Ti      1.64316446       4.03914751      13.53813724       22 
S      3.28633138       5.65480651      14.48681821       16 
Ti      4.92949501       4.03914751      13.53813724       22 
S      0.00000082       5.65480651      14.48681821       16 
Ti      6.57266029       7.27046552       5.00000000       22 
S      1.64316610       8.88612452       5.94868097       16 
Ti      3.28632973       7.27046552       5.00000000       22 
S      4.92949666       8.88612452       5.94868097       16 
Ti      4.92949501       7.27046552       7.84604575       22 
S      0.00000082       8.88612452       8.79472671       16 
Ti      1.64316446       7.27046552       7.84604575       22 
S      3.28633138       8.88612452       8.79472671       16 
Ti      3.28632973       7.27046552      10.69209149       22 
S      4.92949666       8.88612452      11.64077246       16 
Ti      6.57266029       7.27046552      10.69209149       22 
S      1.64316610       8.88612452      11.64077246       16 
Ti      1.64316446       7.27046552      13.53813724       22 
S      3.28633138       8.88612452      14.48681821       16 
Ti      4.92949501       7.27046552      13.53813724       22 
S      0.00000082       8.88612452      14.48681821       16 
Ti      6.57266029      10.50178353       5.00000000       22 
S      1.64316610      12.11744253       5.94868097       16 
Ti      3.28632973      10.50178353       5.00000000       22 
S      4.92949666      12.11744253       5.94868097       16 
Ti      4.92949501      10.50178353       7.84604575       22 
S      0.00000082      12.11744253       8.79472671       16 
Ti      1.64316446      10.50178353       7.84604575       22 
S      3.28633138      12.11744253       8.79472671       16 
Ti      3.28632973      10.50178353      10.69209149       22 
S      4.92949666      12.11744253      11.64077246       16 
Ti      6.57266029      10.50178353      10.69209149       22 
S      1.64316610      12.11744253      11.64077246       16 
Ti      1.64316446      10.50178353      13.53813724       22 
S      3.28633138      12.11744253      14.48681821       16 
Ti      4.92949501      10.50178353      13.53813724       22 
S      0.00000082      12.11744253      14.48681821       16 
Ti     13.14532140       0.80782950       5.00000000       22 
S      8.21582721       2.42348851       5.94868097       16 
Ti      9.85899085       0.80782950       5.00000000       22 
S     11.50215777       2.42348851       5.94868097       16 
Ti     11.50215613       0.80782950       7.84604575       22 
S      6.57266193       2.42348851       8.79472671       16 
Ti      8.21582557       0.80782950       7.84604575       22 
S      9.85899249       2.42348851       8.79472671       16 
Ti      9.85899085       0.80782950      10.69209149       22 
S     11.50215777       2.42348851      11.64077246       16 
Ti     13.14532140       0.80782950      10.69209149       22 
S      8.21582721       2.42348851      11.64077246       16 
Ti      8.21582557       0.80782950      13.53813724       22 
S      9.85899249       2.42348851      14.48681821       16 
Ti     11.50215613       0.80782950      13.53813724       22 
S      6.57266193       2.42348851      14.48681821       16 
Ti     13.14532140       4.03914751       5.00000000       22 
S      8.21582721       5.65480651       5.94868097       16 
Ti      9.85899085       4.03914751       5.00000000       22 
S     11.50215777       5.65480651       5.94868097       16 
Ti     11.50215613       4.03914751       7.84604575       22 
S      6.57266193       5.65480651       8.79472671       16 
Ti      8.21582557       4.03914751       7.84604575       22 
S      9.85899249       5.65480651       8.79472671       16 
Ti      9.85899085       4.03914751      10.69209149       22 
S     11.50215777       5.65480651      11.64077246       16 
Ti     13.14532140       4.03914751      10.69209149       22 
S      8.21582721       5.65480651      11.64077246       16 
Ti      8.21582557       4.03914751      13.53813724       22 
S      9.85899249       5.65480651      14.48681821       16 
Ti     11.50215613       4.03914751      13.53813724       22 
S      6.57266193       5.65480651      14.48681821       16 
Ti     13.14532140       7.27046552       5.00000000       22 
S      8.21582721       8.88612452       5.94868097       16 
Ti      9.85899085       7.27046552       5.00000000       22 
S     11.50215777       8.88612452       5.94868097       16 
Ti     11.50215613       7.27046552       7.84604575       22 
S      6.57266193       8.88612452       8.79472671       16 
Ti      8.21582557       7.27046552       7.84604575       22 
S      9.85899249       8.88612452       8.79472671       16 
Ti      9.85899085       7.27046552      10.69209149       22 
S     11.50215777       8.88612452      11.64077246       16 
Ti     13.14532140       7.27046552      10.69209149       22 
S      8.21582721       8.88612452      11.64077246       16 
Ti      8.21582557       7.27046552      13.53813724       22 
S      9.85899249       8.88612452      14.48681821       16 
Ti     11.50215613       7.27046552      13.53813724       22 
S      6.57266193       8.88612452      14.48681821       16 
Ti     13.14532140      10.50178353       5.00000000       22 
S      8.21582721      12.11744253       5.94868097       16 
Ti      9.85899085      10.50178353       5.00000000       22 
S     11.50215777      12.11744253       5.94868097       16 
Ti     11.50215613      10.50178353       7.84604575       22 
S      6.57266193      12.11744253       8.79472671       16 
Ti      8.21582557      10.50178353       7.84604575       22 
S      9.85899249      12.11744253       8.79472671       16 
Ti      9.85899085      10.50178353      10.69209149       22 
S     11.50215777      12.11744253      11.64077246       16 
Ti     13.14532140      10.50178353      10.69209149       22 
S      8.21582721      12.11744253      11.64077246       16 
Ti      8.21582557      10.50178353      13.53813724       22 
S      9.85899249      12.11744253      14.48681821       16 
Ti     11.50215613      10.50178353      13.53813724       22 
S      6.57266193      12.11744253      14.48681821       16 
