384
Lattice="31.8826190542 0.0 0.0 0.0 22.5444161352 0.0 0.0 0.0 17.0194983355" Properties=species:S:1:pos:R:3 unit_cell=conventional pbc="T T F"
Mn       2.01119526       2.51966226      10.96469553 
Mn       2.00595923       2.56467259       7.01119526 
Mn       0.00000000       5.31583985       5.06276222 
Mn       5.99652264       2.51966226       6.97936815 
S       3.98532738       1.86740145       5.95426320 
S       1.04460728       0.41357811       7.02144367 
S       0.00000000       3.21473659       8.03417095 
S       5.95500927       0.38235187       7.95673849 
S       0.97594194       3.19219402       5.00089444 
S       7.03466480       1.84421301       5.00510303 
S       5.95010554       4.66949181       6.04550173 
S       2.95163546       4.69476621       7.02074853 
Mn       7.93882766       5.35651701       8.98532738 
Mn       5.99128661       2.56467259      10.99652264 
Mn       3.98532738       5.31583985       9.04808960 
Mn       3.95350027       5.35651701       5.00000000 
S       0.00000000       1.86740145       9.93959058 
S       5.02993467       0.41357811      11.00677105 
S       3.98532738       3.21473659      12.01949834 
S       1.96968188       0.38235187      11.94206587 
S       4.96126932       3.19219402       8.98622182 
S       3.04933742       1.84421301       8.99043041 
S       1.96477816       4.66949181      10.03082911 
S       6.93696284       4.69476621      11.00607591 
Mn       3.95350027      10.99262104       5.00000000 
Mn       2.00595923       8.20077662       7.01119526 
Mn       0.00000000      10.95194389       5.06276222 
Mn       5.99652264       8.15576629       6.97936815 
S       3.98532738       7.50350548       5.95426320 
S       1.04460728       6.04968214       7.02144367 
S       0.00000000       8.85084062       8.03417095 
S       5.95500927       6.01845590       7.95673849 
S       0.97594194       8.82829806       5.00089444 
S       7.03466480       7.48031704       5.00510303 
S       5.95010554      10.30559584       6.04550173 
S       2.95163546      10.33087024       7.02074853 
Mn       7.93882766      10.99262104       8.98532738 
Mn       5.99128661       8.20077662      10.99652264 
Mn       3.98532738      10.95194389       9.04808960 
Mn       2.01119526       8.15576629      10.96469553 
S       0.00000000       7.50350548       9.93959058 
S       5.02993467       6.04968214      11.00677105 
S       3.98532738       8.85084062      12.01949834 
S       1.96968188       6.01845590      11.94206587 
S       4.96126932       8.82829806       8.98622182 
S       3.04933742       7.48031704       8.99043041 
S       1.96477816      10.30559584      10.03082911 
S       6.93696284      10.33087024      11.00607591 
Mn      11.92415504       5.35651701       5.00000000 
Mn       9.97661399       2.56467259       7.01119526 
Mn       7.97065476       5.31583985       5.06276222 
Mn      13.96717741       2.51966226       6.97936815 
S      11.95598215       1.86740145       5.95426320 
S       9.01526205       0.41357811       7.02144367 
S       7.97065476       3.21473659       8.03417095 
S      13.92566403       0.38235187       7.95673849 
S       8.94659671       3.19219402       5.00089444 
S      15.00531957       1.84421301       5.00510303 
S      13.92076030       4.66949181       6.04550173 
S      10.92229022       4.69476621       7.02074853 
Mn      15.90948242       5.35651701       8.98532738 
Mn      13.96194137       2.56467259      10.99652264 
Mn      11.95598215       5.31583985       9.04808960 
Mn       9.98185002       2.51966226      10.96469553 
S       7.97065476       1.86740145       9.93959058 
S      13.00058943       0.41357811      11.00677105 
S      11.95598215       3.21473659      12.01949834 
S       9.94033665       0.38235187      11.94206587 
S      12.93192409       3.19219402       8.98622182 
S      11.01999218       1.84421301       8.99043041 
S       9.93543292       4.66949181      10.03082911 
S      14.90761760       4.69476621      11.00607591 
Mn      11.92415504      10.99262104       5.00000000 
Mn       9.97661399       8.20077662       7.01119526 
Mn       7.97065476      10.95194389       5.06276222 
Mn      13.96717741       8.15576629       6.97936815 
S      11.95598215       7.50350548       5.95426320 
S       9.01526205       6.04968214       7.02144367 
S       7.97065476       8.85084062       8.03417095 
S      13.92566403       6.01845590       7.95673849 
S       8.94659671       8.82829806       5.00089444 
S      15.00531957       7.48031704       5.00510303 
S      13.92076030      10.30559584       6.04550173 
S      10.92229022      10.33087024       7.02074853 
Mn      15.90948242      10.99262104       8.98532738 
Mn      13.96194137       8.20077662      10.99652264 
Mn      11.95598215      10.95194389       9.04808960 
Mn       9.98185002       8.15576629      10.96469553 
S       7.97065476       7.50350548       9.93959058 
S      13.00058943       6.04968214      11.00677105 
S      11.95598215       8.85084062      12.01949834 
S       9.94033665       6.01845590      11.94206587 
S      12.93192409       8.82829806       8.98622182 
S      11.01999218       7.48031704       8.99043041 
S       9.93543292      10.30559584      10.03082911 
S      14.90761760      10.33087024      11.00607591 
Mn       3.95350027      16.62872508       5.00000000 
Mn       2.00595923      13.83688066       7.01119526 
Mn       0.00000000      16.58804792       5.06276222 
Mn       5.99652264      13.79187033       6.97936815 
S       3.98532738      13.13960952       5.95426320 
S       1.04460728      11.68578618       7.02144367 
S       0.00000000      14.48694466       8.03417095 
S       5.95500927      11.65455994       7.95673849 
S       0.97594194      14.46440209       5.00089444 
S       7.03466480      13.11642108       5.00510303 
S       5.95010554      15.94169988       6.04550173 
S       2.95163546      15.96697428       7.02074853 
Mn       7.93882766      16.62872508       8.98532738 
Mn       5.99128661      13.83688066      10.99652264 
Mn       3.98532738      16.58804792       9.04808960 
Mn       2.01119526      13.79187033      10.96469553 
S       0.00000000      13.13960952       9.93959058 
S       5.02993467      11.68578618      11.00677105 
S       3.98532738      14.48694466      12.01949834 
S       1.96968188      11.65455994      11.94206587 
S       4.96126932      14.46440209       8.98622182 
S       3.04933742      13.11642108       8.99043041 
S       1.96477816      15.94169988      10.03082911 
S       6.93696284      15.96697428      11.00607591 
Mn       3.95350027      22.26482911       5.00000000 
Mn       2.00595923      19.47298469       7.01119526 
Mn       0.00000000      22.22415196       5.06276222 
Mn       5.99652264      19.42797436       6.97936815 
S       3.98532738      18.77571355       5.95426320 
S       1.04460728      17.32189021       7.02144367 
S       0.00000000      20.12304869       8.03417095 
S       5.95500927      17.29066397       7.95673849 
S       0.97594194      20.10050613       5.00089444 
S       7.03466480      18.75252511       5.00510303 
S       5.95010554      21.57780391       6.04550173 
S       2.95163546      21.60307831       7.02074853 
Mn       7.93882766      22.26482911       8.98532738 
Mn       5.99128661      19.47298469      10.99652264 
Mn       3.98532738      22.22415196       9.04808960 
Mn       2.01119526      19.42797436      10.96469553 
S       0.00000000      18.77571355       9.93959058 
S       5.02993467      17.32189021      11.00677105 
S       3.98532738      20.12304869      12.01949834 
S       1.96968188      17.29066397      11.94206587 
S       4.96126932      20.10050613       8.98622182 
S       3.04933742      18.75252511       8.99043041 
S       1.96477816      21.57780391      10.03082911 
S       6.93696284      21.60307831      11.00607591 
Mn      11.92415504      16.62872508       5.00000000 
Mn       9.97661399      13.83688066       7.01119526 
Mn       7.97065476      16.58804792       5.06276222 
Mn      13.96717741      13.79187033       6.97936815 
S      11.95598215      13.13960952       5.95426320 
S       9.01526205      11.68578618       7.02144367 
S       7.97065476      14.48694466       8.03417095 
S      13.92566403      11.65455994       7.95673849 
S       8.94659671      14.46440209       5.00089444 
S      15.00531957      13.11642108       5.00510303 
S      13.92076030      15.94169988       6.04550173 
S      10.92229022      15.96697428       7.02074853 
Mn      15.90948242      16.62872508       8.98532738 
Mn      13.96194137      13.83688066      10.99652264 
Mn      11.95598215      16.58804792       9.04808960 
Mn       9.98185002      13.79187033      10.96469553 
S       7.97065476      13.13960952       9.93959058 
S      13.00058943      11.68578618      11.00677105 
S      11.95598215      14.48694466      12.01949834 
S       9.94033665      11.65455994      11.94206587 
S      12.93192409      14.46440209       8.98622182 
S      11.01999218      13.11642108       8.99043041 
S       9.93543292      15.94169988      10.03082911 
S      14.90761760      15.96697428      11.00607591 
Mn      11.92415504      22.26482911       5.00000000 
Mn       9.97661399      19.47298469       7.01119526 
Mn       7.97065476      22.22415196       5.06276222 
Mn      13.96717741      19.42797436       6.97936815 
S      11.95598215      18.77571355       5.95426320 
S       9.01526205      17.32189021       7.02144367 
S       7.97065476      20.12304869       8.03417095 
S      13.92566403      17.29066397       7.95673849 
S       8.94659671      20.10050613       5.00089444 
S      15.00531957      18.75252511       5.00510303 
S      13.92076030      21.57780391       6.04550173 
S      10.92229022      21.60307831       7.02074853 
Mn      15.90948242      22.26482911       8.98532738 
Mn      13.96194137      19.47298469      10.99652264 
Mn      11.95598215      22.22415196       9.04808960 
Mn       9.98185002      19.42797436      10.96469553 
S       7.97065476      18.77571355       9.93959058 
S      13.00058943      17.32189021      11.00677105 
S      11.95598215      20.12304869      12.01949834 
S       9.94033665      17.29066397      11.94206587 
S      12.93192409      20.10050613       8.98622182 
S      11.01999218      18.75252511       8.99043041 
S       9.93543292      21.57780391      10.03082911 
S      14.90761760      21.60307831      11.00607591 
Mn      19.89480980       5.35651701       5.00000000 
Mn      17.94726876       2.56467259       7.01119526 
Mn      15.94130953       5.31583985       5.06276222 
Mn      21.93783217       2.51966226       6.97936815 
S      19.92663691       1.86740145       5.95426320 
S      16.98591681       0.41357811       7.02144367 
S      15.94130953       3.21473659       8.03417095 
S      21.89631880       0.38235187       7.95673849 
S      16.91725147       3.19219402       5.00089444 
S      22.97597433       1.84421301       5.00510303 
S      21.89141507       4.66949181       6.04550173 
S      18.89294499       4.69476621       7.02074853 
Mn      23.88013719       5.35651701       8.98532738 
Mn      21.93259614       2.56467259      10.99652264 
Mn      19.92663691       5.31583985       9.04808960 
Mn      17.95250479       2.51966226      10.96469553 
S      15.94130953       1.86740145       9.93959058 
S      20.97124420       0.41357811      11.00677105 
S      19.92663691       3.21473659      12.01949834 
S      17.91099141       0.38235187      11.94206587 
S      20.90257885       3.19219402       8.98622182 
S      18.99064695       1.84421301       8.99043041 
S      17.90608769       4.66949181      10.03082911 
S      22.87827237       4.69476621      11.00607591 
Mn      19.89480980      10.99262104       5.00000000 
Mn      17.94726876       8.20077662       7.01119526 
Mn      15.94130953      10.95194389       5.06276222 
Mn      21.93783217       8.15576629       6.97936815 
S      19.92663691       7.50350548       5.95426320 
S      16.98591681       6.04968214       7.02144367 
S      15.94130953       8.85084062       8.03417095 
S      21.89631880       6.01845590       7.95673849 
S      16.91725147       8.82829806       5.00089444 
S      22.97597433       7.48031704       5.00510303 
S      21.89141507      10.30559584       6.04550173 
S      18.89294499      10.33087024       7.02074853 
Mn      23.88013719      10.99262104       8.98532738 
Mn      21.93259614       8.20077662      10.99652264 
Mn      19.92663691      10.95194389       9.04808960 
Mn      17.95250479       8.15576629      10.96469553 
S      15.94130953       7.50350548       9.93959058 
S      20.97124420       6.04968214      11.00677105 
S      19.92663691       8.85084062      12.01949834 
S      17.91099141       6.01845590      11.94206587 
S      20.90257885       8.82829806       8.98622182 
S      18.99064695       7.48031704       8.99043041 
S      17.90608769      10.30559584      10.03082911 
S      22.87827237      10.33087024      11.00607591 
Mn      27.86546457       5.35651701       5.00000000 
Mn      25.91792352       2.56467259       7.01119526 
Mn      23.91196429       5.31583985       5.06276222 
Mn      29.90848694       2.51966226       6.97936815 
S      27.89729168       1.86740145       5.95426320 
S      24.95657158       0.41357811       7.02144367 
S      23.91196429       3.21473659       8.03417095 
S      29.86697356       0.38235187       7.95673849 
S      24.88790624       3.19219402       5.00089444 
S      30.94662910       1.84421301       5.00510303 
S      29.86206983       4.66949181       6.04550173 
S      26.86359975       4.69476621       7.02074853 
Mn      31.85079195       5.35651701       8.98532738 
Mn      29.90325090       2.56467259      10.99652264 
Mn      27.89729168       5.31583985       9.04808960 
Mn      25.92315955       2.51966226      10.96469553 
S      23.91196429       1.86740145       9.93959058 
S      28.94189896       0.41357811      11.00677105 
S      27.89729168       3.21473659      12.01949834 
S      25.88164618       0.38235187      11.94206587 
S      28.87323362       3.19219402       8.98622182 
S      26.96130171       1.84421301       8.99043041 
S      25.87674245       4.66949181      10.03082911 
S      30.84892713       4.69476621      11.00607591 
Mn      27.86546457      10.99262104       5.00000000 
Mn      25.91792352       8.20077662       7.01119526 
Mn      23.91196429      10.95194389       5.06276222 
Mn      29.90848694       8.15576629       6.97936815 
S      27.89729168       7.50350548       5.95426320 
S      24.95657158       6.04968214       7.02144367 
S      23.91196429       8.85084062       8.03417095 
S      29.86697356       6.01845590       7.95673849 
S      24.88790624       8.82829806       5.00089444 
S      30.94662910       7.48031704       5.00510303 
S      29.86206983      10.30559584       6.04550173 
S      26.86359975      10.33087024       7.02074853 
Mn      31.85079195      10.99262104       8.98532738 
Mn      29.90325090       8.20077662      10.99652264 
Mn      27.89729168      10.95194389       9.04808960 
Mn      25.92315955       8.15576629      10.96469553 
S      23.91196429       7.50350548       9.93959058 
S      28.94189896       6.04968214      11.00677105 
S      27.89729168       8.85084062      12.01949834 
S      25.88164618       6.01845590      11.94206587 
S      28.87323362       8.82829806       8.98622182 
S      26.96130171       7.48031704       8.99043041 
S      25.87674245      10.30559584      10.03082911 
S      30.84892713      10.33087024      11.00607591 
Mn      19.89480980      16.62872508       5.00000000 
Mn      17.94726876      13.83688066       7.01119526 
Mn      15.94130953      16.58804792       5.06276222 
Mn      21.93783217      13.79187033       6.97936815 
S      19.92663691      13.13960952       5.95426320 
S      16.98591681      11.68578618       7.02144367 
S      15.94130953      14.48694466       8.03417095 
S      21.89631880      11.65455994       7.95673849 
S      16.91725147      14.46440209       5.00089444 
S      22.97597433      13.11642108       5.00510303 
S      21.89141507      15.94169988       6.04550173 
S      18.89294499      15.96697428       7.02074853 
Mn      23.88013719      16.62872508       8.98532738 
Mn      21.93259614      13.83688066      10.99652264 
Mn      19.92663691      16.58804792       9.04808960 
Mn      17.95250479      13.79187033      10.96469553 
S      15.94130953      13.13960952       9.93959058 
S      20.97124420      11.68578618      11.00677105 
S      19.92663691      14.48694466      12.01949834 
S      17.91099141      11.65455994      11.94206587 
S      20.90257885      14.46440209       8.98622182 
S      18.99064695      13.11642108       8.99043041 
S      17.90608769      15.94169988      10.03082911 
S      22.87827237      15.96697428      11.00607591 
Mn      19.89480980      22.26482911       5.00000000 
Mn      17.94726876      19.47298469       7.01119526 
Mn      15.94130953      22.22415196       5.06276222 
Mn      21.93783217      19.42797436       6.97936815 
S      19.92663691      18.77571355       5.95426320 
S      16.98591681      17.32189021       7.02144367 
S      15.94130953      20.12304869       8.03417095 
S      21.89631880      17.29066397       7.95673849 
S      16.91725147      20.10050613       5.00089444 
S      22.97597433      18.75252511       5.00510303 
S      21.89141507      21.57780391       6.04550173 
S      18.89294499      21.60307831       7.02074853 
Mn      23.88013719      22.26482911       8.98532738 
Mn      21.93259614      19.47298469      10.99652264 
Mn      19.92663691      22.22415196       9.04808960 
Mn      17.95250479      19.42797436      10.96469553 
S      15.94130953      18.77571355       9.93959058 
S      20.97124420      17.32189021      11.00677105 
S      19.92663691      20.12304869      12.01949834 
S      17.91099141      17.29066397      11.94206587 
S      20.90257885      20.10050613       8.98622182 
S      18.99064695      18.75252511       8.99043041 
S      17.90608769      21.57780391      10.03082911 
S      22.87827237      21.60307831      11.00607591 
Mn      27.86546457      16.62872508       5.00000000 
Mn      25.91792352      13.83688066       7.01119526 
Mn      23.91196429      16.58804792       5.06276222 
Mn      29.90848694      13.79187033       6.97936815 
S      27.89729168      13.13960952       5.95426320 
S      24.95657158      11.68578618       7.02144367 
S      23.91196429      14.48694466       8.03417095 
S      29.86697356      11.65455994       7.95673849 
S      24.88790624      14.46440209       5.00089444 
S      30.94662910      13.11642108       5.00510303 
S      29.86206983      15.94169988       6.04550173 
S      26.86359975      15.96697428       7.02074853 
Mn      31.85079195      16.62872508       8.98532738 
Mn      29.90325090      13.83688066      10.99652264 
Mn      27.89729168      16.58804792       9.04808960 
Mn      25.92315955      13.79187033      10.96469553 
S      23.91196429      13.13960952       9.93959058 
S      28.94189896      11.68578618      11.00677105 
S      27.89729168      14.48694466      12.01949834 
S      25.88164618      11.65455994      11.94206587 
S      28.87323362      14.46440209       8.98622182 
S      26.96130171      13.11642108       8.99043041 
S      25.87674245      15.94169988      10.03082911 
S      30.84892713      15.96697428      11.00607591 
Mn      27.86546457      22.26482911       5.00000000 
Mn      25.91792352      19.47298469       7.01119526 
Mn      23.91196429      22.22415196       5.06276222 
Mn      29.90848694      19.42797436       6.97936815 
S      27.89729168      18.77571355       5.95426320 
S      24.95657158      17.32189021       7.02144367 
S      23.91196429      20.12304869       8.03417095 
S      29.86697356      17.29066397       7.95673849 
S      24.88790624      20.10050613       5.00089444 
S      30.94662910      18.75252511       5.00510303 
S      29.86206983      21.57780391       6.04550173 
S      26.86359975      21.60307831       7.02074853 
Mn      31.85079195      22.26482911       8.98532738 
Mn      29.90325090      19.47298469      10.99652264 
Mn      27.89729168      22.22415196       9.04808960 
Mn      25.92315955      19.42797436      10.96469553 
S      23.91196429      18.77571355       9.93959058 
S      28.94189896      17.32189021      11.00677105 
S      27.89729168      20.12304869      12.01949834 
S      25.88164618      17.29066397      11.94206587 
S      28.87323362      20.10050613       8.98622182 
S      26.96130171      18.75252511       8.99043041 
S      25.87674245      21.57780391      10.03082911 
S      30.84892713      21.60307831      11.00607591 
