192
Lattice="14.46400896806 0.0 0.0 1.411120094224e-15 23.0453400148 0.0 0.0 0.0 17.3083982934" Properties=species:S:1:pos:R:3 unit_cell=conventional pbc="T T F"
Mn       0.00294086       2.56351931      12.30597310 
Mn       0.00294086       2.56351931       6.04287350 
S       3.61474255       0.35975319       6.04529869 
S       1.80925075       3.24043926       5.00000000 
Mn       3.61304791       5.44420722       8.13397696 
Mn       1.81094198       2.56351931       9.17442330 
S       1.80674143       0.35975319       9.17684849 
S       0.00124963       3.24043926       8.13154980 
Mn       1.80504679       5.44420722      11.26552676 
Mn       1.80504679       5.44420722       5.00242716 
S       3.61474255       0.35975319      12.30839829 
S       1.80925075       3.24043926      11.26309960 
Mn       1.80504679      11.20554223       5.00242716 
Mn       0.00294086       8.32485432       6.04287350 
S       3.61474255       6.12108819       6.04529869 
S       1.80925075       9.00177426       5.00000000 
Mn       3.61304791      11.20554223       8.13397696 
Mn       1.81094198       8.32485432       9.17442330 
S       1.80674143       6.12108819       9.17684849 
S       0.00124963       9.00177426       8.13154980 
Mn       1.80504679      11.20554223      11.26552676 
Mn       0.00294086       8.32485432      12.30597310 
S       3.61474255       6.12108819      12.30839829 
S       1.80925075       9.00177426      11.26309960 
Mn       5.42104903       5.44420722       5.00242716 
Mn       3.61894310       2.56351931       6.04287350 
S       7.23074479       0.35975319       6.04529869 
S       5.42525299       3.24043926       5.00000000 
Mn       7.22905015       5.44420722       8.13397696 
Mn       5.42694422       2.56351931       9.17442330 
S       5.42274367       0.35975319       9.17684849 
S       3.61725187       3.24043926       8.13154980 
Mn       5.42104903       5.44420722      11.26552676 
Mn       3.61894310       2.56351931      12.30597310 
S       7.23074479       0.35975319      12.30839829 
S       5.42525299       3.24043926      11.26309960 
Mn       5.42104903      11.20554223       5.00242716 
Mn       3.61894310       8.32485432       6.04287350 
S       7.23074479       6.12108819       6.04529869 
S       5.42525299       9.00177426       5.00000000 
Mn       7.22905015      11.20554223       8.13397696 
Mn       5.42694422       8.32485432       9.17442330 
S       5.42274367       6.12108819       9.17684849 
S       3.61725187       9.00177426       8.13154980 
Mn       5.42104903      11.20554223      11.26552676 
Mn       3.61894310       8.32485432      12.30597310 
S       7.23074479       6.12108819      12.30839829 
S       5.42525299       9.00177426      11.26309960 
Mn       1.80504679      16.96687723       5.00242716 
Mn       0.00294086      14.08618932       6.04287350 
S       3.61474255      11.88242320       6.04529869 
S       1.80925075      14.76310927       5.00000000 
Mn       3.61304791      16.96687723       8.13397696 
Mn       1.81094198      14.08618932       9.17442330 
S       1.80674143      11.88242320       9.17684849 
S       0.00124963      14.76310927       8.13154980 
Mn       1.80504679      16.96687723      11.26552676 
Mn       0.00294086      14.08618932      12.30597310 
S       3.61474255      11.88242320      12.30839829 
S       1.80925075      14.76310927      11.26309960 
Mn       1.80504679      22.72821224       5.00242716 
Mn       0.00294086      19.84752433       6.04287350 
S       3.61474255      17.64375820       6.04529869 
S       1.80925075      20.52444427       5.00000000 
Mn       3.61304791      22.72821224       8.13397696 
Mn       1.81094198      19.84752433       9.17442330 
S       1.80674143      17.64375820       9.17684849 
S       0.00124963      20.52444427       8.13154980 
Mn       1.80504679      22.72821224      11.26552676 
Mn       0.00294086      19.84752433      12.30597310 
S       3.61474255      17.64375820      12.30839829 
S       1.80925075      20.52444427      11.26309960 
Mn       5.42104903      16.96687723       5.00242716 
Mn       3.61894310      14.08618932       6.04287350 
S       7.23074479      11.88242320       6.04529869 
S       5.42525299      14.76310927       5.00000000 
Mn       7.22905015      16.96687723       8.13397696 
Mn       5.42694422      14.08618932       9.17442330 
S       5.42274367      11.88242320       9.17684849 
S       3.61725187      14.76310927       8.13154980 
Mn       5.42104903      16.96687723      11.26552676 
Mn       3.61894310      14.08618932      12.30597310 
S       7.23074479      11.88242320      12.30839829 
S       5.42525299      14.76310927      11.26309960 
Mn       5.42104903      22.72821224       5.00242716 
Mn       3.61894310      19.84752433       6.04287350 
S       7.23074479      17.64375820       6.04529869 
S       5.42525299      20.52444427       5.00000000 
Mn       7.22905015      22.72821224       8.13397696 
Mn       5.42694422      19.84752433       9.17442330 
S       5.42274367      17.64375820       9.17684849 
S       3.61725187      20.52444427       8.13154980 
Mn       5.42104903      22.72821224      11.26552676 
Mn       3.61894310      19.84752433      12.30597310 
S       7.23074479      17.64375820      12.30839829 
S       5.42525299      20.52444427      11.26309960 
Mn       9.03705127       5.44420722       5.00242716 
Mn       7.23494534       2.56351931       6.04287350 
S      10.84674703       0.35975319       6.04529869 
S       9.04125523       3.24043926       5.00000000 
Mn      10.84505239       5.44420722       8.13397696 
Mn       9.04294646       2.56351931       9.17442330 
S       9.03874591       0.35975319       9.17684849 
S       7.23325411       3.24043926       8.13154980 
Mn       9.03705127       5.44420722      11.26552676 
Mn       7.23494534       2.56351931      12.30597310 
S      10.84674703       0.35975319      12.30839829 
S       9.04125523       3.24043926      11.26309960 
Mn       9.03705127      11.20554223       5.00242716 
Mn       7.23494534       8.32485432       6.04287350 
S      10.84674703       6.12108819       6.04529869 
S       9.04125523       9.00177426       5.00000000 
Mn      10.84505239      11.20554223       8.13397696 
Mn       9.04294646       8.32485432       9.17442330 
S       9.03874591       6.12108819       9.17684849 
S       7.23325411       9.00177426       8.13154980 
Mn       9.03705127      11.20554223      11.26552676 
Mn       7.23494534       8.32485432      12.30597310 
S      10.84674703       6.12108819      12.30839829 
S       9.04125523       9.00177426      11.26309960 
Mn      12.65305351       5.44420722       5.00242716 
Mn      10.85094758       2.56351931       6.04287350 
S      14.46274927       0.35975319       6.04529869 
S      12.65725747       3.24043926       5.00000000 
Mn      14.46105463       5.44420722       8.13397696 
Mn      12.65894870       2.56351931       9.17442330 
S      12.65474815       0.35975319       9.17684849 
S      10.84925635       3.24043926       8.13154980 
Mn      12.65305351       5.44420722      11.26552676 
Mn      10.85094758       2.56351931      12.30597310 
S      14.46274927       0.35975319      12.30839829 
S      12.65725747       3.24043926      11.26309960 
Mn      12.65305351      11.20554223       5.00242716 
Mn      10.85094758       8.32485432       6.04287350 
S      14.46274927       6.12108819       6.04529869 
S      12.65725747       9.00177426       5.00000000 
Mn      14.46105463      11.20554223       8.13397696 
Mn      12.65894870       8.32485432       9.17442330 
S      12.65474815       6.12108819       9.17684849 
S      10.84925635       9.00177426       8.13154980 
Mn      12.65305351      11.20554223      11.26552676 
Mn      10.85094758       8.32485432      12.30597310 
S      14.46274927       6.12108819      12.30839829 
S      12.65725747       9.00177426      11.26309960 
Mn       9.03705127      16.96687723       5.00242716 
Mn       7.23494534      14.08618932       6.04287350 
S      10.84674703      11.88242320       6.04529869 
S       9.04125523      14.76310927       5.00000000 
Mn      10.84505239      16.96687723       8.13397696 
Mn       9.04294646      14.08618932       9.17442330 
S       9.03874591      11.88242320       9.17684849 
S       7.23325411      14.76310927       8.13154980 
Mn       9.03705127      16.96687723      11.26552676 
Mn       7.23494534      14.08618932      12.30597310 
S      10.84674703      11.88242320      12.30839829 
S       9.04125523      14.76310927      11.26309960 
Mn       9.03705127      22.72821224       5.00242716 
Mn       7.23494534      19.84752433       6.04287350 
S      10.84674703      17.64375820       6.04529869 
S       9.04125523      20.52444427       5.00000000 
Mn      10.84505239      22.72821224       8.13397696 
Mn       9.04294646      19.84752433       9.17442330 
S       9.03874591      17.64375820       9.17684849 
S       7.23325411      20.52444427       8.13154980 
Mn       9.03705127      22.72821224      11.26552676 
Mn       7.23494534      19.84752433      12.30597310 
S      10.84674703      17.64375820      12.30839829 
S       9.04125523      20.52444427      11.26309960 
Mn      12.65305351      16.96687723       5.00242716 
Mn      10.85094758      14.08618932       6.04287350 
S      14.46274927      11.88242320       6.04529869 
S      12.65725747      14.76310927       5.00000000 
Mn      14.46105463      16.96687723       8.13397696 
Mn      12.65894870      14.08618932       9.17442330 
S      12.65474815      11.88242320       9.17684849 
S      10.84925635      14.76310927       8.13154980 
Mn      12.65305351      16.96687723      11.26552676 
Mn      10.85094758      14.08618932      12.30597310 
S      14.46274927      11.88242320      12.30839829 
S      12.65725747      14.76310927      11.26309960 
Mn      12.65305351      22.72821224       5.00242716 
Mn      10.85094758      19.84752433       6.04287350 
S      14.46274927      17.64375820       6.04529869 
S      12.65725747      20.52444427       5.00000000 
Mn      14.46105463      22.72821224       8.13397696 
Mn      12.65894870      19.84752433       9.17442330 
S      12.65474815      17.64375820       9.17684849 
S      10.84925635      20.52444427       8.13154980 
Mn      12.65305351      22.72821224      11.26552676 
Mn      10.85094758      19.84752433      12.30597310 
S      14.46274927      17.64375820      12.30839829 
S      12.65725747      20.52444427      11.26309960 
