256
Lattice="26.8431772672 0.0 0.0 0.0 18.98099267426 0.0 0.0 0.0 15.0330957376" Properties=species:S:1:pos:R:3 unit_cell=conventional pbc="T T F"
Mn       3.35539716       3.55893613      10.03309574 
Mn       1.67769858       1.18631204       5.00000000 
Mn       5.03309574       1.18631204       5.00000000 
Mn       3.35539716       3.55893613       6.67769858 
S       5.03309574       3.55893613       5.00000000 
S       3.35539716       1.18631204       6.67769858 
S       0.00000000       1.18631204       6.67769858 
S       1.67769858       3.55893613       5.00000000 
Mn       0.00000000       3.55893613       6.67769858 
Mn       5.03309574       1.18631204       8.35539716 
Mn       1.67769858       1.18631204       8.35539716 
Mn       0.00000000       3.55893613      10.03309574 
S       1.67769858       3.55893613       8.35539716 
S       0.00000000       1.18631204      10.03309574 
S       3.35539716       1.18631204      10.03309574 
S       5.03309574       3.55893613       8.35539716 
Mn       0.00000000       8.30418429       6.67769858 
Mn       1.67769858       5.93156021       5.00000000 
Mn       5.03309574       5.93156021       5.00000000 
Mn       3.35539716       8.30418429       6.67769858 
S       5.03309574       8.30418429       5.00000000 
S       3.35539716       5.93156021       6.67769858 
S       0.00000000       5.93156021       6.67769858 
S       1.67769858       8.30418429       5.00000000 
Mn       3.35539716       8.30418429      10.03309574 
Mn       5.03309574       5.93156021       8.35539716 
Mn       1.67769858       5.93156021       8.35539716 
Mn       0.00000000       8.30418429      10.03309574 
S       1.67769858       8.30418429       8.35539716 
S       0.00000000       5.93156021      10.03309574 
S       3.35539716       5.93156021      10.03309574 
S       5.03309574       8.30418429       8.35539716 
Mn       6.71079432       3.55893613       6.67769858 
Mn       8.38849290       1.18631204       5.00000000 
Mn      11.74389005       1.18631204       5.00000000 
Mn      10.06619148       3.55893613       6.67769858 
S      11.74389005       3.55893613       5.00000000 
S      10.06619148       1.18631204       6.67769858 
S       6.71079432       1.18631204       6.67769858 
S       8.38849290       3.55893613       5.00000000 
Mn      10.06619148       3.55893613      10.03309574 
Mn      11.74389005       1.18631204       8.35539716 
Mn       8.38849290       1.18631204       8.35539716 
Mn       6.71079432       3.55893613      10.03309574 
S       8.38849290       3.55893613       8.35539716 
S       6.71079432       1.18631204      10.03309574 
S      10.06619148       1.18631204      10.03309574 
S      11.74389005       3.55893613       8.35539716 
Mn       6.71079432       8.30418429       6.67769858 
Mn       8.38849290       5.93156021       5.00000000 
Mn      11.74389005       5.93156021       5.00000000 
Mn      10.06619148       8.30418429       6.67769858 
S      11.74389005       8.30418429       5.00000000 
S      10.06619148       5.93156021       6.67769858 
S       6.71079432       5.93156021       6.67769858 
S       8.38849290       8.30418429       5.00000000 
Mn      10.06619148       8.30418429      10.03309574 
Mn      11.74389005       5.93156021       8.35539716 
Mn       8.38849290       5.93156021       8.35539716 
Mn       6.71079432       8.30418429      10.03309574 
S       8.38849290       8.30418429       8.35539716 
S       6.71079432       5.93156021      10.03309574 
S      10.06619148       5.93156021      10.03309574 
S      11.74389005       8.30418429       8.35539716 
Mn       0.00000000      13.04943247       6.67769858 
Mn       1.67769858      10.67680838       5.00000000 
Mn       5.03309574      10.67680838       5.00000000 
Mn       3.35539716      13.04943247       6.67769858 
S       5.03309574      13.04943247       5.00000000 
S       3.35539716      10.67680838       6.67769858 
S       0.00000000      10.67680838       6.67769858 
S       1.67769858      13.04943247       5.00000000 
Mn       3.35539716      13.04943247      10.03309574 
Mn       5.03309574      10.67680838       8.35539716 
Mn       1.67769858      10.67680838       8.35539716 
Mn       0.00000000      13.04943247      10.03309574 
S       1.67769858      13.04943247       8.35539716 
S       0.00000000      10.67680838      10.03309574 
S       3.35539716      10.67680838      10.03309574 
S       5.03309574      13.04943247       8.35539716 
Mn       0.00000000      17.79468063       6.67769858 
Mn       1.67769858      15.42205655       5.00000000 
Mn       5.03309574      15.42205655       5.00000000 
Mn       3.35539716      17.79468063       6.67769858 
S       5.03309574      17.79468063       5.00000000 
S       3.35539716      15.42205655       6.67769858 
S       0.00000000      15.42205655       6.67769858 
S       1.67769858      17.79468063       5.00000000 
Mn       3.35539716      17.79468063      10.03309574 
Mn       5.03309574      15.42205655       8.35539716 
Mn       1.67769858      15.42205655       8.35539716 
Mn       0.00000000      17.79468063      10.03309574 
S       1.67769858      17.79468063       8.35539716 
S       0.00000000      15.42205655      10.03309574 
S       3.35539716      15.42205655      10.03309574 
S       5.03309574      17.79468063       8.35539716 
Mn       6.71079432      13.04943247       6.67769858 
Mn       8.38849290      10.67680838       5.00000000 
Mn      11.74389005      10.67680838       5.00000000 
Mn      10.06619148      13.04943247       6.67769858 
S      11.74389005      13.04943247       5.00000000 
S      10.06619148      10.67680838       6.67769858 
S       6.71079432      10.67680838       6.67769858 
S       8.38849290      13.04943247       5.00000000 
Mn      10.06619148      13.04943247      10.03309574 
Mn      11.74389005      10.67680838       8.35539716 
Mn       8.38849290      10.67680838       8.35539716 
Mn       6.71079432      13.04943247      10.03309574 
S       8.38849290      13.04943247       8.35539716 
S       6.71079432      10.67680838      10.03309574 
S      10.06619148      10.67680838      10.03309574 
S      11.74389005      13.04943247       8.35539716 
Mn       6.71079432      17.79468063       6.67769858 
Mn       8.38849290      15.42205655       5.00000000 
Mn      11.74389005      15.42205655       5.00000000 
Mn      10.06619148      17.79468063       6.67769858 
S      11.74389005      17.79468063       5.00000000 
S      10.06619148      15.42205655       6.67769858 
S       6.71079432      15.42205655       6.67769858 
S       8.38849290      17.79468063       5.00000000 
Mn      10.06619148      17.79468063      10.03309574 
Mn      11.74389005      15.42205655       8.35539716 
Mn       8.38849290      15.42205655       8.35539716 
Mn       6.71079432      17.79468063      10.03309574 
S       8.38849290      17.79468063       8.35539716 
S       6.71079432      15.42205655      10.03309574 
S      10.06619148      15.42205655      10.03309574 
S      11.74389005      17.79468063       8.35539716 
Mn      13.42158863       3.55893613       6.67769858 
Mn      15.09928721       1.18631204       5.00000000 
Mn      18.45468437       1.18631204       5.00000000 
Mn      16.77698579       3.55893613       6.67769858 
S      18.45468437       3.55893613       5.00000000 
S      16.77698579       1.18631204       6.67769858 
S      13.42158863       1.18631204       6.67769858 
S      15.09928721       3.55893613       5.00000000 
Mn      16.77698579       3.55893613      10.03309574 
Mn      18.45468437       1.18631204       8.35539716 
Mn      15.09928721       1.18631204       8.35539716 
Mn      13.42158863       3.55893613      10.03309574 
S      15.09928721       3.55893613       8.35539716 
S      13.42158863       1.18631204      10.03309574 
S      16.77698579       1.18631204      10.03309574 
S      18.45468437       3.55893613       8.35539716 
Mn      13.42158863       8.30418429       6.67769858 
Mn      15.09928721       5.93156021       5.00000000 
Mn      18.45468437       5.93156021       5.00000000 
Mn      16.77698579       8.30418429       6.67769858 
S      18.45468437       8.30418429       5.00000000 
S      16.77698579       5.93156021       6.67769858 
S      13.42158863       5.93156021       6.67769858 
S      15.09928721       8.30418429       5.00000000 
Mn      16.77698579       8.30418429      10.03309574 
Mn      18.45468437       5.93156021       8.35539716 
Mn      15.09928721       5.93156021       8.35539716 
Mn      13.42158863       8.30418429      10.03309574 
S      15.09928721       8.30418429       8.35539716 
S      13.42158863       5.93156021      10.03309574 
S      16.77698579       5.93156021      10.03309574 
S      18.45468437       8.30418429       8.35539716 
Mn      20.13238295       3.55893613       6.67769858 
Mn      21.81008153       1.18631204       5.00000000 
Mn      25.16547868       1.18631204       5.00000000 
Mn      23.48778011       3.55893613       6.67769858 
S      25.16547868       3.55893613       5.00000000 
S      23.48778011       1.18631204       6.67769858 
S      20.13238295       1.18631204       6.67769858 
S      21.81008153       3.55893613       5.00000000 
Mn      23.48778011       3.55893613      10.03309574 
Mn      25.16547868       1.18631204       8.35539716 
Mn      21.81008153       1.18631204       8.35539716 
Mn      20.13238295       3.55893613      10.03309574 
S      21.81008153       3.55893613       8.35539716 
S      20.13238295       1.18631204      10.03309574 
S      23.48778011       1.18631204      10.03309574 
S      25.16547868       3.55893613       8.35539716 
Mn      20.13238295       8.30418429       6.67769858 
Mn      21.81008153       5.93156021       5.00000000 
Mn      25.16547868       5.93156021       5.00000000 
Mn      23.48778011       8.30418429       6.67769858 
S      25.16547868       8.30418429       5.00000000 
S      23.48778011       5.93156021       6.67769858 
S      20.13238295       5.93156021       6.67769858 
S      21.81008153       8.30418429       5.00000000 
Mn      23.48778011       8.30418429      10.03309574 
Mn      25.16547868       5.93156021       8.35539716 
Mn      21.81008153       5.93156021       8.35539716 
Mn      20.13238295       8.30418429      10.03309574 
S      21.81008153       8.30418429       8.35539716 
S      20.13238295       5.93156021      10.03309574 
S      23.48778011       5.93156021      10.03309574 
S      25.16547868       8.30418429       8.35539716 
Mn      13.42158863      13.04943247       6.67769858 
Mn      15.09928721      10.67680838       5.00000000 
Mn      18.45468437      10.67680838       5.00000000 
Mn      16.77698579      13.04943247       6.67769858 
S      18.45468437      13.04943247       5.00000000 
S      16.77698579      10.67680838       6.67769858 
S      13.42158863      10.67680838       6.67769858 
S      15.09928721      13.04943247       5.00000000 
Mn      16.77698579      13.04943247      10.03309574 
Mn      18.45468437      10.67680838       8.35539716 
Mn      15.09928721      10.67680838       8.35539716 
Mn      13.42158863      13.04943247      10.03309574 
S      15.09928721      13.04943247       8.35539716 
S      13.42158863      10.67680838      10.03309574 
S      16.77698579      10.67680838      10.03309574 
S      18.45468437      13.04943247       8.35539716 
Mn      13.42158863      17.79468063       6.67769858 
Mn      15.09928721      15.42205655       5.00000000 
Mn      18.45468437      15.42205655       5.00000000 
Mn      16.77698579      17.79468063       6.67769858 
S      18.45468437      17.79468063       5.00000000 
S      16.77698579      15.42205655       6.67769858 
S      13.42158863      15.42205655       6.67769858 
S      15.09928721      17.79468063       5.00000000 
Mn      16.77698579      17.79468063      10.03309574 
Mn      18.45468437      15.42205655       8.35539716 
Mn      15.09928721      15.42205655       8.35539716 
Mn      13.42158863      17.79468063      10.03309574 
S      15.09928721      17.79468063       8.35539716 
S      13.42158863      15.42205655      10.03309574 
S      16.77698579      15.42205655      10.03309574 
S      18.45468437      17.79468063       8.35539716 
Mn      20.13238295      13.04943247       6.67769858 
Mn      21.81008153      10.67680838       5.00000000 
Mn      25.16547868      10.67680838       5.00000000 
Mn      23.48778011      13.04943247       6.67769858 
S      25.16547868      13.04943247       5.00000000 
S      23.48778011      10.67680838       6.67769858 
S      20.13238295      10.67680838       6.67769858 
S      21.81008153      13.04943247       5.00000000 
Mn      23.48778011      13.04943247      10.03309574 
Mn      25.16547868      10.67680838       8.35539716 
Mn      21.81008153      10.67680838       8.35539716 
Mn      20.13238295      13.04943247      10.03309574 
S      21.81008153      13.04943247       8.35539716 
S      20.13238295      10.67680838      10.03309574 
S      23.48778011      10.67680838      10.03309574 
S      25.16547868      13.04943247       8.35539716 
Mn      20.13238295      17.79468063       6.67769858 
Mn      21.81008153      15.42205655       5.00000000 
Mn      25.16547868      15.42205655       5.00000000 
Mn      23.48778011      17.79468063       6.67769858 
S      25.16547868      17.79468063       5.00000000 
S      23.48778011      15.42205655       6.67769858 
S      20.13238295      15.42205655       6.67769858 
S      21.81008153      17.79468063       5.00000000 
Mn      23.48778011      17.79468063      10.03309574 
Mn      25.16547868      15.42205655       8.35539716 
Mn      21.81008153      15.42205655       8.35539716 
Mn      20.13238295      17.79468063      10.03309574 
S      21.81008153      17.79468063       8.35539716 
S      20.13238295      15.42205655      10.03309574 
S      23.48778011      15.42205655      10.03309574 
S      25.16547868      17.79468063       8.35539716 
