256
Lattice="25.0523984138 0.0 0.0 -12.5261992069 24.1534590744 0.0 0.0 -0.0 16.6975415666" Properties=species:S:1:pos:R:3 unit_cell=conventional pbc="T T F"
Mn      -2.09109568       5.21650495      10.83500888 
Mn       1.04045412       3.59245530       5.65984944 
S       1.04530450       5.69511644       5.00000000 
S      -1.04529288       2.94659128       5.86253213 
Mn       2.09111124       1.38527827       8.24743527 
Mn      -2.09109568       4.13380518       7.38490259 
S       1.04530450       0.19810155       6.72505315 
S       2.08625692       3.48794116       7.58758528 
Mn       5.22266104       1.92662815       9.97248842 
Mn       1.04045412       4.67515507       9.10995574 
S       4.17685430       0.73945143       8.45010629 
S      -1.04529288       4.02929104       9.31263843 
Mn       2.09111124       2.46797803      11.69754157 
Mn       5.22266104       0.84392839       6.52238213 
S       1.04530450       1.28080131      10.17515944 
S       2.08625692       4.57064092      11.03769157 
Mn       2.09111124       6.88229316       6.52238213 
Mn      -2.09109568       9.63082007       5.65984944 
S      -2.08624530      11.73348121       5.00000000 
S      -4.17684268       8.98495604       5.86253213 
Mn      -1.04043857       7.42364304       8.24743527 
Mn      -5.22264548      10.17216995       7.38490259 
S      -2.08624530       6.23646632       6.72505315 
S      -1.04529288       9.52630593       7.58758528 
Mn       2.09111124       7.96499292       9.97248842 
Mn      -2.09109568      10.71351984       9.10995574 
S       1.04530450       6.77781620       8.45010629 
S      -4.17684268      10.06765581       9.31263843 
Mn      -1.04043857       8.50634280      11.69754157 
Mn      -5.22264548      11.25486972      10.83500888 
S      -2.08624530       7.31916608      10.17515944 
S      -1.04529288      10.60900569      11.03769157 
Mn      11.48576064       0.84392839       6.52238213 
Mn       7.30355372       3.59245530       5.65984944 
S       7.30840410       5.69511644       5.00000000 
S       5.21780672       2.94659128       5.86253213 
Mn       8.35421084       1.38527827       8.24743527 
Mn       4.17200392       4.13380518       7.38490259 
S       7.30840410       0.19810155       6.72505315 
S       8.34935652       3.48794116       7.58758528 
Mn      11.48576064       1.92662815       9.97248842 
Mn       7.30355372       4.67515507       9.10995574 
S      10.43995390       0.73945143       8.45010629 
S       5.21780672       4.02929104       9.31263843 
Mn       8.35421084       2.46797803      11.69754157 
Mn       4.17200392       5.21650495      10.83500888 
S       7.30840410       1.28080131      10.17515944 
S       8.34935652       4.57064092      11.03769157 
Mn       8.35421084       6.88229316       6.52238213 
Mn       4.17200392       9.63082007       5.65984944 
S       4.17685430      11.73348121       5.00000000 
S       2.08625692       8.98495604       5.86253213 
Mn       5.22266104       7.42364304       8.24743527 
Mn       1.04045412      10.17216995       7.38490259 
S       4.17685430       6.23646632       6.72505315 
S       5.21780672       9.52630593       7.58758528 
Mn       8.35421084       7.96499292       9.97248842 
Mn       4.17200392      10.71351984       9.10995574 
S       7.30840410       6.77781620       8.45010629 
S       2.08625692      10.06765581       9.31263843 
Mn       5.22266104       8.50634280      11.69754157 
Mn       1.04045412      11.25486972      10.83500888 
S       4.17685430       7.31916608      10.17515944 
S       5.21780672      10.60900569      11.03769157 
Mn      -1.04043856      12.92065793       6.52238213 
Mn      -5.22264548      15.66918484       5.65984944 
S      -5.21779510      17.77184598       5.00000000 
S      -7.30839248      15.02332082       5.86253213 
Mn      -4.17198836      13.46200781       8.24743527 
Mn      -8.35419528      16.21053472       7.38490259 
S      -5.21779510      12.27483109       6.72505315 
S      -4.17684268      15.56467070       7.58758528 
Mn      -1.04043856      14.00335769       9.97248842 
Mn      -5.22264548      16.75188461       9.10995574 
S      -2.08624530      12.81618097       8.45010629 
S      -7.30839248      16.10602058       9.31263843 
Mn      -4.17198836      14.54470757      11.69754157 
Mn      -8.35419528      17.29323449      10.83500888 
S      -5.21779510      13.35753085      10.17515944 
S      -4.17684268      16.64737046      11.03769157 
Mn      -4.17198836      18.95902270       6.52238213 
Mn      -8.35419528      21.70754961       5.65984944 
S      -8.34934490      23.81021075       5.00000000 
S     -10.43994228      21.06168558       5.86253213 
Mn      -7.30353817      19.50037258       8.24743527 
Mn     -11.48574508      22.24889949       7.38490259 
S      -8.34934490      18.31319586       6.72505315 
S      -7.30839248      21.60303547       7.58758528 
Mn      -4.17198836      20.04172246       9.97248842 
Mn      -8.35419528      22.79024938       9.10995574 
S      -5.21779510      18.85454574       8.45010629 
S     -10.43994228      22.14438535       9.31263843 
Mn      -7.30353817      20.58307234      11.69754157 
Mn     -11.48574508      23.33159926      10.83500888 
S      -8.34934490      19.39589562      10.17515944 
S      -7.30839248      22.68573523      11.03769157 
Mn       5.22266104      12.92065793       6.52238213 
Mn       1.04045412      15.66918484       5.65984944 
S       1.04530450      17.77184598       5.00000000 
S      -1.04529288      15.02332082       5.86253213 
Mn       2.09111124      13.46200781       8.24743527 
Mn      -2.09109568      16.21053472       7.38490259 
S       1.04530450      12.27483109       6.72505315 
S       2.08625692      15.56467070       7.58758528 
Mn       5.22266104      14.00335769       9.97248842 
Mn       1.04045412      16.75188461       9.10995574 
S       4.17685430      12.81618097       8.45010629 
S      -1.04529288      16.10602058       9.31263843 
Mn       2.09111124      14.54470757      11.69754157 
Mn      -2.09109568      17.29323449      10.83500888 
S       1.04530450      13.35753085      10.17515944 
S       2.08625692      16.64737046      11.03769157 
Mn       2.09111124      18.95902270       6.52238213 
Mn      -2.09109568      21.70754961       5.65984944 
S      -2.08624530      23.81021075       5.00000000 
S      -4.17684268      21.06168558       5.86253213 
Mn      -1.04043856      19.50037258       8.24743527 
Mn      -5.22264548      22.24889949       7.38490259 
S      -2.08624530      18.31319586       6.72505315 
S      -1.04529288      21.60303547       7.58758528 
Mn       2.09111124      20.04172246       9.97248842 
Mn      -2.09109568      22.79024938       9.10995574 
S       1.04530450      18.85454574       8.45010629 
S      -4.17684268      22.14438535       9.31263843 
Mn      -1.04043856      20.58307234      11.69754157 
Mn      -5.22264548      23.33159926      10.83500888 
S      -2.08624530      19.39589562      10.17515944 
S      -1.04529288      22.68573523      11.03769157 
Mn      17.74886025       0.84392839       6.52238213 
Mn      13.56665333       3.59245530       5.65984944 
S      13.57150371       5.69511644       5.00000000 
S      11.48090633       2.94659128       5.86253213 
Mn      14.61731045       1.38527827       8.24743527 
Mn      10.43510353       4.13380518       7.38490259 
S      13.57150371       0.19810155       6.72505315 
S      14.61245613       3.48794116       7.58758528 
Mn      17.74886025       1.92662815       9.97248842 
Mn      13.56665333       4.67515507       9.10995574 
S      16.70305351       0.73945143       8.45010629 
S      11.48090633       4.02929104       9.31263843 
Mn      14.61731045       2.46797803      11.69754157 
Mn      10.43510353       5.21650495      10.83500888 
S      13.57150371       1.28080131      10.17515944 
S      14.61245613       4.57064092      11.03769157 
Mn      14.61731045       6.88229316       6.52238213 
Mn      10.43510353       9.63082007       5.65984944 
S      10.43995391      11.73348121       5.00000000 
S       8.34935653       8.98495604       5.86253213 
Mn      11.48576064       7.42364304       8.24743527 
Mn       7.30355373      10.17216995       7.38490259 
S      10.43995391       6.23646632       6.72505315 
S      11.48090633       9.52630593       7.58758528 
Mn      14.61731045       7.96499292       9.97248842 
Mn      10.43510353      10.71351984       9.10995574 
S      13.57150371       6.77781620       8.45010629 
S       8.34935653      10.06765581       9.31263843 
Mn      11.48576064       8.50634280      11.69754157 
Mn       7.30355373      11.25486972      10.83500888 
S      10.43995391       7.31916608      10.17515944 
S      11.48090633      10.60900569      11.03769157 
Mn      24.01195985       0.84392839       6.52238213 
Mn      19.82975293       3.59245530       5.65984944 
S      19.83460331       5.69511644       5.00000000 
S      17.74400593       2.94659128       5.86253213 
Mn      20.88041005       1.38527827       8.24743527 
Mn      16.69820313       4.13380518       7.38490259 
S      19.83460331       0.19810155       6.72505315 
S      20.87555573       3.48794116       7.58758528 
Mn      24.01195985       1.92662815       9.97248842 
Mn      19.82975293       4.67515507       9.10995574 
S      22.96615311       0.73945143       8.45010629 
S      17.74400593       4.02929104       9.31263843 
Mn      20.88041005       2.46797803      11.69754157 
Mn      16.69820313       5.21650495      10.83500888 
S      19.83460331       1.28080131      10.17515944 
S      20.87555573       4.57064092      11.03769157 
Mn      20.88041005       6.88229316       6.52238213 
Mn      16.69820313       9.63082007       5.65984944 
S      16.70305351      11.73348121       5.00000000 
S      14.61245613       8.98495604       5.86253213 
Mn      17.74886025       7.42364304       8.24743527 
Mn      13.56665333      10.17216995       7.38490259 
S      16.70305351       6.23646632       6.72505315 
S      17.74400593       9.52630593       7.58758528 
Mn      20.88041005       7.96499292       9.97248842 
Mn      16.69820313      10.71351984       9.10995574 
S      19.83460331       6.77781620       8.45010629 
S      14.61245613      10.06765581       9.31263843 
Mn      17.74886025       8.50634280      11.69754157 
Mn      13.56665333      11.25486972      10.83500888 
S      16.70305351       7.31916608      10.17515944 
S      17.74400593      10.60900569      11.03769157 
Mn      11.48576064      12.92065793       6.52238213 
Mn       7.30355372      15.66918484       5.65984944 
S       7.30840410      17.77184598       5.00000000 
S       5.21780672      15.02332082       5.86253213 
Mn       8.35421084      13.46200781       8.24743527 
Mn       4.17200392      16.21053472       7.38490259 
S       7.30840410      12.27483109       6.72505315 
S       8.34935652      15.56467070       7.58758528 
Mn      11.48576064      14.00335769       9.97248842 
Mn       7.30355372      16.75188461       9.10995574 
S      10.43995390      12.81618097       8.45010629 
S       5.21780672      16.10602058       9.31263843 
Mn       8.35421084      14.54470757      11.69754157 
Mn       4.17200392      17.29323449      10.83500888 
S       7.30840410      13.35753085      10.17515944 
S       8.34935652      16.64737046      11.03769157 
Mn       8.35421084      18.95902270       6.52238213 
Mn       4.17200392      21.70754961       5.65984944 
S       4.17685430      23.81021075       5.00000000 
S       2.08625692      21.06168558       5.86253213 
Mn       5.22266103      19.50037258       8.24743527 
Mn       1.04045412      22.24889949       7.38490259 
S       4.17685430      18.31319586       6.72505315 
S       5.21780672      21.60303547       7.58758528 
Mn       8.35421084      20.04172246       9.97248842 
Mn       4.17200392      22.79024938       9.10995574 
S       7.30840410      18.85454574       8.45010629 
S       2.08625692      22.14438535       9.31263843 
Mn       5.22266103      20.58307234      11.69754157 
Mn       1.04045412      23.33159926      10.83500888 
S       4.17685430      19.39589562      10.17515944 
S       5.21780672      22.68573523      11.03769157 
Mn      17.74886024      12.92065793       6.52238213 
Mn      13.56665332      15.66918484       5.65984944 
S      13.57150370      17.77184598       5.00000000 
S      11.48090632      15.02332082       5.86253213 
Mn      14.61731044      13.46200781       8.24743527 
Mn      10.43510352      16.21053472       7.38490259 
S      13.57150370      12.27483109       6.72505315 
S      14.61245612      15.56467070       7.58758528 
Mn      17.74886024      14.00335769       9.97248842 
Mn      13.56665332      16.75188461       9.10995574 
S      16.70305350      12.81618097       8.45010629 
S      11.48090632      16.10602058       9.31263843 
Mn      14.61731044      14.54470757      11.69754157 
Mn      10.43510352      17.29323449      10.83500888 
S      13.57150370      13.35753085      10.17515944 
S      14.61245612      16.64737046      11.03769157 
Mn      14.61731044      18.95902270       6.52238213 
Mn      10.43510352      21.70754961       5.65984944 
S      10.43995390      23.81021075       5.00000000 
S       8.34935652      21.06168558       5.86253213 
Mn      11.48576064      19.50037258       8.24743527 
Mn       7.30355372      22.24889949       7.38490259 
S      10.43995390      18.31319586       6.72505315 
S      11.48090632      21.60303547       7.58758528 
Mn      14.61731044      20.04172246       9.97248842 
Mn      10.43510352      22.79024938       9.10995574 
S      13.57150370      18.85454574       8.45010629 
S       8.34935652      22.14438535       9.31263843 
Mn      11.48576064      20.58307234      11.69754157 
Mn       7.30355372      23.33159926      10.83500888 
S      10.43995390      19.39589562      10.17515944 
S      11.48090632      22.68573523      11.03769157 
