44
Lattice="11.383718758118835 0.0 0.0 -5.723544402559602 12.53148436263036 0.0 0.0 -0.0 15.031109345927543" Properties=species:S:1:pos:R:3 unit_cell=conventional pbc="T T F"
Cu      -1.34990183      11.67987038       7.13870829 
Cu       4.11661511       6.60369156       9.47226445 
Cu       3.81584056       2.10843542       5.00000000 
Cu      -1.37152769       9.12841140       8.41508899 
Cu      -4.72921750      11.83951517       7.57468798 
Cu       7.20373361       8.51298210       5.55884489 
Cu      -3.98961432       9.17352512       8.95888385 
Cu       7.70165942       0.09474474       6.89072711 
Cu       4.66584745       3.27715849       7.45642137 
Cu      -2.02329453       5.50253414       7.43517376 
Cu       1.30815764       5.98826226       6.61602036 
Cu       0.78861094       7.36033168       8.85200412 
Cu       6.53031671       2.43505108       5.80459988 
Cu       7.18215283       1.09832731       9.31458657 
Cu       1.09612833       1.07324975       5.36058409 
Cu       7.49597835       6.34465356       9.08695127 
Cu       6.64594051       5.04324981       6.69816103 
Cu      -0.85198099       7.75634198       6.17910523 
Cu       4.56404603       1.51193955       9.67052525 
Cu       1.28653178       3.43680328       7.89240106 
Cu       1.84433379       0.47675388      10.03110935 
Cu       3.82437036       8.77202010       5.94415807 
Cu      10.51357640       0.15013821       9.22650947 
Cu       1.95992448       9.61413952       7.59593558 
Cu       3.92624427       5.94314854       6.07222550 
Cu       9.86174028       1.48686199       5.71652278 
Cu       9.34223370       2.49044456       8.14038224 
Cu       4.67440820      10.07342385       8.33294832 
S       5.42738638       8.58503799       9.94164630 
S       5.66325725      10.17391333       6.18296647 
S       5.89296233       6.53163567       5.08946305 
S      -0.03095992       9.91770142       6.31615221 
S      -0.03241012       5.19897224       8.71495714 
S       5.63411173       1.12375814       7.55432543 
S       5.65709146       4.94276033       8.84814288 
S      -2.91952729       7.68889376       7.40168942 
S       8.52119711       3.64912169       6.31068478 
S      -2.89039762      11.20924453       8.84950823 
S       0.02606263       1.46143116       7.47678391 
S       2.79915160      11.46755197       8.72042456 
S      -2.66064911      12.46376245       5.25958588 
S       2.82702757       3.90742912       6.18160112 
S       2.85615724       7.42777990       7.62941993 
S       2.59727907       2.65291121       9.77152347 
