1024
Lattice="42.1727980716 0.0 0.0 7.93391128206 41.4197772684 0.0 0.0 0.0 17.2951393548" Properties=species:S:1:pos:R:3 unit_cell=conventional pbc="T T F"
V       5.62254900       4.64777532      11.82392889 
V       6.65870094       2.02203168       8.32968350 
V       8.51012892       1.80184426       6.43958836 
V       2.33443036       1.92971334       6.15376992 
V       4.42959118       0.54648489       7.96443209 
V       4.20443987       0.35893732       5.00000000 
V       8.62459636      10.24506327       6.07408716 
V       6.41518212       8.41890897       6.88981600 
V       0.41850959       0.34595315       7.22418260 
V       5.16085529       5.86209448       6.43514647 
V      11.99996794       8.32401289       8.32482669 
V       4.12381788       3.40887718       7.72903979 
V       9.45874583       7.81889592       6.91229766 
V       3.37067025       8.01919691       6.43958836 
V       3.23861945       6.15940373       8.32968350 
V       7.60602682       6.28738029       8.04375513 
V      11.68466508       6.54320912       6.07408716 
V       9.47546376       4.71679724       6.88981600 
V       1.37006005       4.24768869       7.96443209 
V       1.14350385       4.06184066       5.00000000 
V       7.67393737       6.34351728       5.33393263 
V      10.43292030      10.21971601       8.32482669 
V       6.72832794       3.96587722       6.43514647 
V      11.37888300       9.40614152       5.83952076 
S       5.42075134       7.00055602       8.51496559 
S       8.22441272       9.31695841       8.22430355 
S       4.60708433      10.00407261       6.62475283 
S       5.42608609       1.96688630       6.33405305 
S      10.69216837       2.64276945       6.62475283 
S       2.95256857       4.95917239       6.33405305 
S       7.89535545       4.00695544       8.51496559 
S      10.69784609       6.32477411       8.22430355 
V       2.20382231       1.82174863       8.80241743 
V       4.67522312       0.38242671      12.10985727 
V       6.52665110       0.16223929      10.21976213 
V       0.35095254       0.29010838       9.93394368 
V       4.42959118       9.26182424      11.74460585 
V       4.20443987       9.07427667       8.78017376 
V       6.64111854       8.60545830       9.85426093 
V       4.43170430       6.77930400      10.66998976 
V      10.96170911       9.06129250      11.00435636 
V       3.17737747       4.22248951      10.21532023 
V      10.01649012       6.68440793      12.10500045 
V       2.14034006       1.76927221      11.50921355 
V       7.47526801       6.17929096      10.69247142 
V       1.38719243       6.37959194      10.21976213 
V       1.25514163       4.51979876      12.10985727 
V       4.18730013       3.46135360       5.02224367 
V       9.70118726       4.90360416       9.85426093 
V       7.49198594       3.07719228      10.66998976 
V       9.92978174       2.60808373      11.74460585 
V       9.70322554       2.42223569       8.78017376 
V       5.69045955       4.70391231       9.11410639 
V       8.44944248       8.58011104      12.10500045 
V       4.74485012       2.32627225      10.21532023 
V       9.39540518       7.76653656       9.61969452 
S       3.43727352       5.36095105      12.29513935 
S       6.24093490       7.67735344      12.00447731 
S       2.62360651       8.36446764      10.40492659 
S       3.44260827       0.32728134      10.11422682 
S       8.70869055       1.00316448      10.40492659 
S       0.96909075       3.31956742      10.11422682 
S       5.91187763       2.36735047      12.29513935 
S       8.71436827       4.68516914      12.00447731 
V       6.17077795      13.81629792       5.02224367 
V       8.64217876      12.37697599       8.32968350 
V      10.49360674      12.15678858       6.43958836 
V       4.31790818      12.28465766       6.15376992 
V       6.41306900      10.90142920       7.96443209 
V       6.18791769      10.71388164       5.00000000 
V      10.60807418      20.60000759       6.07408716 
V       8.39865994      18.77385328       6.88981600 
V       2.40198741      10.70089747       7.22418260 
V       7.14433311      16.21703880       6.43514647 
V      13.98344576      18.67895721       8.32482669 
V       6.10729570      13.76382150       7.72903979 
V      11.44222365      18.17384024       6.91229766 
V       5.35414807      18.37414123       6.43958836 
V       5.22209727      16.51434805       8.32968350 
V       9.58950464      16.64232461       8.04375513 
V      13.66814290      16.89815344       6.07408716 
V      11.45894159      15.07174156       6.88981600 
V       3.35353787      14.60263301       7.96443209 
V       3.12698167      14.41678498       5.00000000 
V       9.65741519      16.69846159       5.33393263 
V      12.41639812      20.57466032       8.32482669 
V       8.71180576      14.32082154       6.43514647 
V      13.36236082      19.76108584       5.83952076 
S       7.40422916      17.35550034       8.51496559 
S      10.20789054      19.67190272       8.22430355 
S       6.59056215      20.35901693       6.62475283 
S       7.40956391      12.32183062       6.33405305 
S      12.67564619      12.99771376       6.62475283 
S       4.93604639      15.31411670       6.33405305 
S       9.87883327      14.36189976       8.51496559 
S      12.68132391      16.67971843       8.22430355 
V       4.18730013      12.17669295       8.80241743 
V       6.65870094      10.73737103      12.10985727 
V       8.51012892      10.51718361      10.21976213 
V       2.33443036      10.64505269       9.93394368 
V       6.41306900      19.61676855      11.74460585 
V       6.18791769      19.42922099       8.78017376 
V       8.62459636      18.96040262       9.85426093 
V       6.41518212      17.13424832      10.66998976 
V      12.94518693      19.41623682      11.00435636 
V       5.16085529      14.57743383      10.21532023 
V      11.99996794      17.03935224      12.10500045 
V       4.12381788      12.12421653      11.50921355 
V       9.45874583      16.53423527      10.69247142 
V       3.37067025      16.73453626      10.21976213 
V       3.23861945      14.87474308      12.10985727 
V       7.60602682      15.00271964      11.82392889 
V      11.68466508      15.25854847       9.85426093 
V       9.47546376      13.43213659      10.66998976 
V      11.91325956      12.96302804      11.74460585 
V      11.68670336      12.77718001       8.78017376 
V       7.67393737      15.05885663       9.11410639 
V      10.43292030      18.93505536      12.10500045 
V       6.72832794      12.68121657      10.21532023 
V      11.37888300      18.12148087       9.61969452 
S       5.42075134      15.71589537      12.29513935 
S       8.22441272      18.03229776      12.00447731 
S       4.60708433      18.71941196      10.40492659 
S       5.42608609      10.68222565      10.11422682 
S      10.69216837      11.35810880      10.40492659 
S       2.95256857      13.67451174      10.11422682 
S       7.89535545      12.72229479      12.29513935 
S      10.69784609      15.04011346      12.00447731 
V      14.73049965       3.46135360       5.02224367 
V      17.20190046       2.02203168       8.32968350 
V      19.05332844       1.80184426       6.43958836 
V      12.87762988       1.92971334       6.15376992 
V      14.97279070       0.54648489       7.96443209 
V      14.74763938       0.35893732       5.00000000 
V      19.16779588      10.24506327       6.07408716 
V      16.95838164       8.41890897       6.88981600 
V      10.96170911       0.34595315       7.22418260 
V      15.70405481       5.86209448       6.43514647 
V      22.54316746       8.32401289       8.32482669 
V      14.66701740       3.40887718       7.72903979 
V      20.00194535       7.81889592       6.91229766 
V      13.91386977       8.01919691       6.43958836 
V      13.78181897       6.15940373       8.32968350 
V      18.14922634       6.28738029       8.04375513 
V      22.22786460       6.54320912       6.07408716 
V      20.01866328       4.71679724       6.88981600 
V      11.91325956       4.24768869       7.96443209 
V      11.68670336       4.06184066       5.00000000 
V      18.21713688       6.34351728       5.33393263 
V      20.97611982      10.21971601       8.32482669 
V      17.27152746       3.96587722       6.43514647 
V      21.92208252       9.40614152       5.83952076 
S      15.96395085       7.00055602       8.51496559 
S      18.76761223       9.31695841       8.22430355 
S      15.15028385      10.00407261       6.62475283 
S      15.96928560       1.96688630       6.33405305 
S      21.23536789       2.64276945       6.62475283 
S      13.49576809       4.95917239       6.33405305 
S      18.43855497       4.00695544       8.51496559 
S      21.24104560       6.32477411       8.22430355 
V      12.74702183       1.82174863       8.80241743 
V      15.21842263       0.38242671      12.10985727 
V      17.06985062       0.16223929      10.21976213 
V      10.89415206       0.29010838       9.93394368 
V      14.97279070       9.26182424      11.74460585 
V      14.74763938       9.07427667       8.78017376 
V      17.18431806       8.60545830       9.85426093 
V      14.97490382       6.77930400      10.66998976 
V      21.50490863       9.06129250      11.00435636 
V      13.72057699       4.22248951      10.21532023 
V      20.55968964       6.68440793      12.10500045 
V      12.68353958       1.76927221      11.50921355 
V      18.01846753       6.17929096      10.69247142 
V      11.93039195       6.37959194      10.21976213 
V      11.79834115       4.51979876      12.10985727 
V      16.16574852       4.64777532      11.82392889 
V      20.24438678       4.90360416       9.85426093 
V      18.03518546       3.07719228      10.66998976 
V      20.47298126       2.60808373      11.74460585 
V      20.24642506       2.42223569       8.78017376 
V      16.23365906       4.70391231       9.11410639 
V      18.99264200       8.58011104      12.10500045 
V      15.28804964       2.32627225      10.21532023 
V      19.93860470       7.76653656       9.61969452 
S      13.98047303       5.36095105      12.29513935 
S      16.78413441       7.67735344      12.00447731 
S      13.16680602       8.36446764      10.40492659 
S      13.98580778       0.32728134      10.11422682 
S      19.25189007       1.00316448      10.40492659 
S      11.51229027       3.31956742      10.11422682 
S      16.45507715       2.36735047      12.29513935 
S      19.25756778       4.68516914      12.00447731 
V      16.71397747      13.81629792       5.02224367 
V      19.18537828      12.37697599       8.32968350 
V      21.03680626      12.15678858       6.43958836 
V      14.86110770      12.28465766       6.15376992 
V      16.95626852      10.90142920       7.96443209 
V      16.73111720      10.71388164       5.00000000 
V      21.15127370      20.60000759       6.07408716 
V      18.94185946      18.77385328       6.88981600 
V      12.94518693      10.70089747       7.22418260 
V      17.68753263      16.21703880       6.43514647 
V      24.52664528      18.67895721       8.32482669 
V      16.65049522      13.76382150       7.72903979 
V      21.98542317      18.17384024       6.91229766 
V      15.89734759      18.37414123       6.43958836 
V      15.76529679      16.51434805       8.32968350 
V      20.13270416      16.64232461       8.04375513 
V      24.21134242      16.89815344       6.07408716 
V      22.00214110      15.07174156       6.88981600 
V      13.89673738      14.60263301       7.96443209 
V      13.67018118      14.41678498       5.00000000 
V      20.20061470      16.69846159       5.33393263 
V      22.95959764      20.57466032       8.32482669 
V      19.25500528      14.32082154       6.43514647 
V      23.90556034      19.76108584       5.83952076 
S      17.94742867      17.35550034       8.51496559 
S      20.75109005      19.67190272       8.22430355 
S      17.13376167      20.35901693       6.62475283 
S      17.95276343      12.32183062       6.33405305 
S      23.21884571      12.99771376       6.62475283 
S      15.47924591      15.31411670       6.33405305 
S      20.42203279      14.36189976       8.51496559 
S      23.22452342      16.67971843       8.22430355 
V      14.73049965      12.17669295       8.80241743 
V      17.20190046      10.73737103      12.10985727 
V      19.05332844      10.51718361      10.21976213 
V      12.87762988      10.64505269       9.93394368 
V      16.95626852      19.61676855      11.74460585 
V      16.73111720      19.42922099       8.78017376 
V      19.16779588      18.96040262       9.85426093 
V      16.95838164      17.13424832      10.66998976 
V      23.48838645      19.41623682      11.00435636 
V      15.70405481      14.57743383      10.21532023 
V      22.54316746      17.03935224      12.10500045 
V      14.66701740      12.12421653      11.50921355 
V      20.00194535      16.53423527      10.69247142 
V      13.91386977      16.73453626      10.21976213 
V      13.78181897      14.87474308      12.10985727 
V      18.14922634      15.00271964      11.82392889 
V      22.22786460      15.25854847       9.85426093 
V      20.01866328      13.43213659      10.66998976 
V      22.45645908      12.96302804      11.74460585 
V      22.22990288      12.77718001       8.78017376 
V      18.21713688      15.05885663       9.11410639 
V      20.97611982      18.93505536      12.10500045 
V      17.27152746      12.68121657      10.21532023 
V      21.92208252      18.12148087       9.61969452 
S      15.96395085      15.71589537      12.29513935 
S      18.76761223      18.03229776      12.00447731 
S      15.15028385      18.71941196      10.40492659 
S      15.96928560      10.68222565      10.11422682 
S      21.23536789      11.35810880      10.40492659 
S      13.49576809      13.67451174      10.11422682 
S      18.43855497      12.72229479      12.29513935 
S      21.24104560      15.04011346      12.00447731 
V       8.15425577      24.17124223       5.02224367 
V      10.62565658      22.73192031       8.32968350 
V      12.47708456      22.51173289       6.43958836 
V       6.30138600      22.63960197       6.15376992 
V       8.39654682      21.25637352       7.96443209 
V       8.17139551      21.06882595       5.00000000 
V      12.59155200      30.95495190       6.07408716 
V      10.38213776      29.12879760       6.88981600 
V       4.38546523      21.05584178       7.22418260 
V       9.12781093      26.57198311       6.43514647 
V      15.96692358      29.03390152       8.32482669 
V       8.09077352      24.11876581       7.72903979 
V      13.42570147      28.52878455       6.91229766 
V       7.33762589      28.72908554       6.43958836 
V       7.20557509      26.86929236       8.32968350 
V      11.57298246      26.99726892       8.04375513 
V      15.65162072      27.25309775       6.07408716 
V      13.44241940      25.42668587       6.88981600 
V       5.33701569      24.95757732       7.96443209 
V       5.11045949      24.77172929       5.00000000 
V      11.64089301      27.05340591       5.33393263 
V      14.39987594      30.92960464       8.32482669 
V      10.69528358      24.67576585       6.43514647 
V      15.34583864      30.11603015       5.83952076 
S       9.38770698      27.71044465       8.51496559 
S      12.19136836      30.02684704       8.22430355 
S       8.57403997      30.71396124       6.62475283 
S       9.39304173      22.67677493       6.33405305 
S      14.65912401      23.35265808       6.62475283 
S       6.91952421      25.66906102       6.33405305 
S      11.86231109      24.71684407       8.51496559 
S      14.66480173      27.03466274       8.22430355 
V       6.17077795      22.53163726       8.80241743 
V       8.64217876      21.09231534      12.10985727 
V      10.49360674      20.87212792      10.21976213 
V       4.31790818      20.99999701       9.93394368 
V       8.39654682      29.97171287      11.74460585 
V       8.17139551      29.78416530       8.78017376 
V      10.60807418      29.31534693       9.85426093 
V       8.39865994      27.48919263      10.66998976 
V      14.92866475      29.77118113      11.00435636 
V       7.14433311      24.93237814      10.21532023 
V      13.98344576      27.39429656      12.10500045 
V       6.10729570      22.47916084      11.50921355 
V      11.44222365      26.88917959      10.69247142 
V       5.35414807      27.08948057      10.21976213 
V       5.22209727      25.22968739      12.10985727 
V       9.58950464      25.35766395      11.82392889 
V      13.66814290      25.61349279       9.85426093 
V      11.45894158      23.78708091      10.66998976 
V      13.89673738      23.31797236      11.74460585 
V      13.67018118      23.13212432       8.78017376 
V       9.65741519      25.41380094       9.11410639 
V      12.41639812      29.28999967      12.10500045 
V       8.71180576      23.03616088      10.21532023 
V      13.36236082      28.47642519       9.61969452 
S       7.40422916      26.07083968      12.29513935 
S      10.20789054      28.38724207      12.00447731 
S       6.59056215      29.07435627      10.40492659 
S       7.40956391      21.03716997      10.11422682 
S      12.67564619      21.71305311      10.40492659 
S       4.93604639      24.02945605      10.11422682 
S       9.87883327      23.07723910      12.29513935 
S      12.68132391      25.39505777      12.00447731 
V      10.13773359      34.52618655       5.02224367 
V      12.60913440      33.08686462       8.32968350 
V      14.46056238      32.86667721       6.43958836 
V       8.28486382      32.99454629       6.15376992 
V      10.38002464      31.61131783       7.96443209 
V      10.15487333      31.42377027       5.00000000 
V      14.57502982      41.30989622       6.07408716 
V      12.36561558      39.48374191       6.88981600 
V       6.36894305      31.41078610       7.22418260 
V      11.11128875      36.92692743       6.43514647 
V      17.95040140      39.38884584       8.32482669 
V      10.07425134      34.47371013       7.72903979 
V      15.40917929      38.88372887       6.91229766 
V       9.32110371      39.08402986       6.43958836 
V       9.18905291      37.22423668       8.32968350 
V      13.55646028      37.35221324       8.04375513 
V      17.63509854      37.60804207       6.07408716 
V      15.42589723      35.78163019       6.88981600 
V       7.32049351      35.31252164       7.96443209 
V       7.09393731      35.12667361       5.00000000 
V      13.62437083      37.40835022       5.33393263 
V      16.38335376      41.28454895       8.32482669 
V      12.67876140      35.03071017       6.43514647 
V      17.32931646      40.47097447       5.83952076 
S      11.37118480      38.06538897       8.51496559 
S      14.17484618      40.38179135       8.22430355 
S      10.55751779      41.06890556       6.62475283 
S      11.37651955      33.03171925       6.33405305 
S      16.64260183      33.70760239       6.62475283 
S       8.90300203      36.02400533       6.33405305 
S      13.84578891      35.07178839       8.51496559 
S      16.64827955      37.38960706       8.22430355 
V       8.15425577      32.88658158       8.80241743 
V      10.62565658      31.44725966      12.10985727 
V      12.47708456      31.22707224      10.21976213 
V       6.30138600      31.35494132       9.93394368 
V      10.38002464      40.32665718      11.74460585 
V      10.15487333      40.13910962       8.78017376 
V      12.59155200      39.67029125       9.85426093 
V      10.38213776      37.84413695      10.66998976 
V      16.91214257      40.12612545      11.00435636 
V       9.12781093      35.28732246      10.21532023 
V      15.96692358      37.74924087      12.10500045 
V       8.09077352      32.83410516      11.50921355 
V      13.42570147      37.24412390      10.69247142 
V       7.33762589      37.44442489      10.21976213 
V       7.20557509      35.58463171      12.10985727 
V      11.57298246      35.71260827      11.82392889 
V      15.65162072      35.96843710       9.85426093 
V      13.44241940      34.14202522      10.66998976 
V      15.88021520      33.67291667      11.74460585 
V      15.65365900      33.48706864       8.78017376 
V      11.64089301      35.76874526       9.11410639 
V      14.39987594      39.64494399      12.10500045 
V      10.69528358      33.39110520      10.21532023 
V      15.34583864      38.83136950       9.61969452 
S       9.38770698      36.42578400      12.29513935 
S      12.19136836      38.74218639      12.00447731 
S       8.57403997      39.42930059      10.40492659 
S       9.39304173      31.39211428      10.11422682 
S      14.65912401      32.06799743      10.40492659 
S       6.91952421      34.38440037      10.11422682 
S      11.86231109      33.43218342      12.29513935 
S      14.66480173      35.75000209      12.00447731 
V      18.69745529      24.17124223       5.02224367 
V      21.16885610      22.73192031       8.32968350 
V      23.02028408      22.51173289       6.43958836 
V      16.84458552      22.63960197       6.15376992 
V      18.93974634      21.25637352       7.96443209 
V      18.71459502      21.06882595       5.00000000 
V      23.13475152      30.95495190       6.07408716 
V      20.92533728      29.12879760       6.88981600 
V      14.92866475      21.05584178       7.22418260 
V      19.67101045      26.57198311       6.43514647 
V      26.51012310      29.03390152       8.32482669 
V      18.63397304      24.11876581       7.72903979 
V      23.96890099      28.52878455       6.91229766 
V      17.88082541      28.72908554       6.43958836 
V      17.74877461      26.86929236       8.32968350 
V      22.11618198      26.99726892       8.04375513 
V      26.19482024      27.25309775       6.07408716 
V      23.98561892      25.42668587       6.88981600 
V      15.88021520      24.95757732       7.96443209 
V      15.65365900      24.77172929       5.00000000 
V      22.18409252      27.05340591       5.33393263 
V      24.94307546      30.92960464       8.32482669 
V      21.23848310      24.67576585       6.43514647 
V      25.88903816      30.11603015       5.83952076 
S      19.93090649      27.71044465       8.51496559 
S      22.73456787      30.02684704       8.22430355 
S      19.11723949      30.71396124       6.62475283 
S      19.93624124      22.67677493       6.33405305 
S      25.20232353      23.35265808       6.62475283 
S      17.46272373      25.66906102       6.33405305 
S      22.40551061      24.71684407       8.51496559 
S      25.20800124      27.03466274       8.22430355 
V      16.71397747      22.53163726       8.80241743 
V      19.18537827      21.09231534      12.10985727 
V      21.03680626      20.87212792      10.21976213 
V      14.86110770      20.99999701       9.93394368 
V      18.93974634      29.97171287      11.74460585 
V      18.71459502      29.78416530       8.78017376 
V      21.15127370      29.31534693       9.85426093 
V      18.94185946      27.48919263      10.66998976 
V      25.47186427      29.77118113      11.00435636 
V      17.68753263      24.93237814      10.21532023 
V      24.52664528      27.39429656      12.10500045 
V      16.65049522      22.47916084      11.50921355 
V      21.98542317      26.88917959      10.69247142 
V      15.89734759      27.08948057      10.21976213 
V      15.76529679      25.22968739      12.10985727 
V      20.13270416      25.35766395      11.82392889 
V      24.21134242      25.61349279       9.85426093 
V      22.00214110      23.78708091      10.66998976 
V      24.43993690      23.31797236      11.74460585 
V      24.21338070      23.13212432       8.78017376 
V      20.20061470      25.41380094       9.11410639 
V      22.95959764      29.28999967      12.10500045 
V      19.25500528      23.03616088      10.21532023 
V      23.90556034      28.47642519       9.61969452 
S      17.94742867      26.07083968      12.29513935 
S      20.75109005      28.38724207      12.00447731 
S      17.13376166      29.07435627      10.40492659 
S      17.95276342      21.03716997      10.11422682 
S      23.21884571      21.71305311      10.40492659 
S      15.47924591      24.02945605      10.11422682 
S      20.42203279      23.07723910      12.29513935 
S      23.22452342      25.39505777      12.00447731 
V      20.68093311      34.52618655       5.02224367 
V      23.15233392      33.08686462       8.32968350 
V      25.00376190      32.86667721       6.43958836 
V      18.82806334      32.99454629       6.15376992 
V      20.92322416      31.61131783       7.96443209 
V      20.69807284      31.42377027       5.00000000 
V      25.11822934      41.30989622       6.07408716 
V      22.90881510      39.48374191       6.88981600 
V      16.91214257      31.41078610       7.22418260 
V      21.65448827      36.92692743       6.43514647 
V      28.49360092      39.38884584       8.32482669 
V      20.61745086      34.47371013       7.72903979 
V      25.95237881      38.88372887       6.91229766 
V      19.86430323      39.08402986       6.43958836 
V      19.73225243      37.22423668       8.32968350 
V      24.09965980      37.35221324       8.04375513 
V      28.17829806      37.60804207       6.07408716 
V      25.96909674      35.78163019       6.88981600 
V      17.86369302      35.31252164       7.96443209 
V      17.63713682      35.12667361       5.00000000 
V      24.16757034      37.40835022       5.33393263 
V      26.92655328      41.28454895       8.32482669 
V      23.22196092      35.03071017       6.43514647 
V      27.87251598      40.47097447       5.83952076 
S      21.91438431      38.06538897       8.51496559 
S      24.71804569      40.38179135       8.22430355 
S      21.10071731      41.06890556       6.62475283 
S      21.91971907      33.03171925       6.33405305 
S      27.18580135      33.70760239       6.62475283 
S      19.44620155      36.02400533       6.33405305 
S      24.38898843      35.07178839       8.51496559 
S      27.19147906      37.38960706       8.22430355 
V      18.69745529      32.88658158       8.80241743 
V      21.16885610      31.44725966      12.10985727 
V      23.02028408      31.22707224      10.21976213 
V      16.84458552      31.35494132       9.93394368 
V      20.92322416      40.32665718      11.74460585 
V      20.69807284      40.13910962       8.78017376 
V      23.13475152      39.67029125       9.85426093 
V      20.92533728      37.84413695      10.66998976 
V      27.45534209      40.12612545      11.00435636 
V      19.67101045      35.28732246      10.21532023 
V      26.51012310      37.74924087      12.10500045 
V      18.63397304      32.83410516      11.50921355 
V      23.96890099      37.24412390      10.69247142 
V      17.88082541      37.44442489      10.21976213 
V      17.74877461      35.58463171      12.10985727 
V      22.11618198      35.71260827      11.82392889 
V      26.19482024      35.96843710       9.85426093 
V      23.98561892      34.14202522      10.66998976 
V      26.42341472      33.67291667      11.74460585 
V      26.19685852      33.48706864       8.78017376 
V      22.18409252      35.76874526       9.11410639 
V      24.94307546      39.64494399      12.10500045 
V      21.23848310      33.39110520      10.21532023 
V      25.88903816      38.83136950       9.61969452 
S      19.93090649      36.42578400      12.29513935 
S      22.73456787      38.74218639      12.00447731 
S      19.11723949      39.42930059      10.40492659 
S      19.93624124      31.39211428      10.11422682 
S      25.20232353      32.06799743      10.40492659 
S      17.46272373      34.38440037      10.11422682 
S      22.40551061      33.43218342      12.29513935 
S      25.20800124      35.75000209      12.00447731 
V      25.27369917       3.46135360       5.02224367 
V      27.74509998       2.02203168       8.32968350 
V      29.59652796       1.80184426       6.43958836 
V      23.42082940       1.92971334       6.15376992 
V      25.51599022       0.54648489       7.96443209 
V      25.29083891       0.35893732       5.00000000 
V      29.71099540      10.24506327       6.07408716 
V      27.50158116       8.41890897       6.88981600 
V      21.50490863       0.34595315       7.22418260 
V      26.24725433       5.86209448       6.43514647 
V      33.08636698       8.32401289       8.32482669 
V      25.21021692       3.40887718       7.72903979 
V      30.54514487       7.81889592       6.91229766 
V      24.45706929       8.01919691       6.43958836 
V      24.32501849       6.15940373       8.32968350 
V      28.69242586       6.28738029       8.04375513 
V      32.77106412       6.54320912       6.07408716 
V      30.56186280       4.71679724       6.88981600 
V      22.45645909       4.24768869       7.96443209 
V      22.22990289       4.06184066       5.00000000 
V      28.76033641       6.34351728       5.33393263 
V      31.51931934      10.21971601       8.32482669 
V      27.81472698       3.96587722       6.43514647 
V      32.46528204       9.40614152       5.83952076 
S      26.50715038       7.00055602       8.51496559 
S      29.31081176       9.31695841       8.22430355 
S      25.69348337      10.00407261       6.62475283 
S      26.51248513       1.96688630       6.33405305 
S      31.77856741       2.64276945       6.62475283 
S      24.03896761       4.95917239       6.33405305 
S      28.98175449       4.00695544       8.51496559 
S      31.78424513       6.32477411       8.22430355 
V      23.29022135       1.82174863       8.80241743 
V      25.76162216       0.38242671      12.10985727 
V      27.61305014       0.16223929      10.21976213 
V      21.43735158       0.29010838       9.93394368 
V      25.51599022       9.26182424      11.74460585 
V      25.29083891       9.07427667       8.78017376 
V      27.72751758       8.60545830       9.85426093 
V      25.51810334       6.77930400      10.66998976 
V      32.04810815       9.06129250      11.00435636 
V      24.26377651       4.22248951      10.21532023 
V      31.10288916       6.68440793      12.10500045 
V      23.22673910       1.76927221      11.50921355 
V      28.56166705       6.17929096      10.69247142 
V      22.47359147       6.37959194      10.21976213 
V      22.34154067       4.51979876      12.10985727 
V      26.70894804       4.64777532      11.82392889 
V      30.78758630       4.90360416       9.85426093 
V      28.57838498       3.07719228      10.66998976 
V      31.01618078       2.60808373      11.74460585 
V      30.78962458       2.42223569       8.78017376 
V      26.77685859       4.70391231       9.11410639 
V      29.53584152       8.58011104      12.10500045 
V      25.83124916       2.32627225      10.21532023 
V      30.48180422       7.76653656       9.61969452 
S      24.52367256       5.36095105      12.29513935 
S      27.32733394       7.67735344      12.00447731 
S      23.71000555       8.36446764      10.40492659 
S      24.52900731       0.32728134      10.11422682 
S      29.79508959       1.00316448      10.40492659 
S      22.05548979       3.31956742      10.11422682 
S      26.99827667       2.36735047      12.29513935 
S      29.80076731       4.68516914      12.00447731 
V      27.25717699      13.81629792       5.02224367 
V      29.72857780      12.37697599       8.32968350 
V      31.58000578      12.15678858       6.43958836 
V      25.40430722      12.28465766       6.15376992 
V      27.49946804      10.90142920       7.96443209 
V      27.27431673      10.71388164       5.00000000 
V      31.69447322      20.60000759       6.07408716 
V      29.48505898      18.77385328       6.88981600 
V      23.48838645      10.70089747       7.22418260 
V      28.23073215      16.21703880       6.43514647 
V      35.06984480      18.67895721       8.32482669 
V      27.19369474      13.76382150       7.72903979 
V      32.52862269      18.17384024       6.91229766 
V      26.44054711      18.37414123       6.43958836 
V      26.30849631      16.51434805       8.32968350 
V      30.67590368      16.64232461       8.04375513 
V      34.75454194      16.89815344       6.07408716 
V      32.54534063      15.07174156       6.88981600 
V      24.43993691      14.60263301       7.96443209 
V      24.21338071      14.41678498       5.00000000 
V      30.74381423      16.69846159       5.33393263 
V      33.50279716      20.57466032       8.32482669 
V      29.79820480      14.32082154       6.43514647 
V      34.44875986      19.76108584       5.83952076 
S      28.49062820      17.35550034       8.51496559 
S      31.29428958      19.67190272       8.22430355 
S      27.67696119      20.35901693       6.62475283 
S      28.49596295      12.32183062       6.33405305 
S      33.76204523      12.99771376       6.62475283 
S      26.02244543      15.31411670       6.33405305 
S      30.96523231      14.36189976       8.51496559 
S      33.76772295      16.67971843       8.22430355 
V      25.27369917      12.17669295       8.80241743 
V      27.74509998      10.73737103      12.10985727 
V      29.59652796      10.51718361      10.21976213 
V      23.42082940      10.64505269       9.93394368 
V      27.49946804      19.61676855      11.74460585 
V      27.27431673      19.42922099       8.78017376 
V      29.71099540      18.96040262       9.85426093 
V      27.50158116      17.13424832      10.66998976 
V      34.03158597      19.41623682      11.00435636 
V      26.24725433      14.57743383      10.21532023 
V      33.08636698      17.03935224      12.10500045 
V      25.21021692      12.12421653      11.50921355 
V      30.54514487      16.53423527      10.69247142 
V      24.45706929      16.73453626      10.21976213 
V      24.32501849      14.87474308      12.10985727 
V      28.69242586      15.00271964      11.82392889 
V      32.77106412      15.25854847       9.85426093 
V      30.56186280      13.43213659      10.66998976 
V      32.99965860      12.96302804      11.74460585 
V      32.77310240      12.77718001       8.78017376 
V      28.76033641      15.05885663       9.11410639 
V      31.51931934      18.93505536      12.10500045 
V      27.81472698      12.68121657      10.21532023 
V      32.46528204      18.12148087       9.61969452 
S      26.50715038      15.71589537      12.29513935 
S      29.31081176      18.03229776      12.00447731 
S      25.69348337      18.71941196      10.40492659 
S      26.51248513      10.68222565      10.11422682 
S      31.77856741      11.35810880      10.40492659 
S      24.03896761      13.67451174      10.11422682 
S      28.98175449      12.72229479      12.29513935 
S      31.78424513      15.04011346      12.00447731 
V      35.81689869       3.46135360       5.02224367 
V      38.28829950       2.02203168       8.32968350 
V      40.13972748       1.80184426       6.43958836 
V      33.96402892       1.92971334       6.15376992 
V      36.05918974       0.54648489       7.96443209 
V      35.83403842       0.35893732       5.00000000 
V      40.25419492      10.24506327       6.07408716 
V      38.04478068       8.41890897       6.88981600 
V      32.04810815       0.34595315       7.22418260 
V      36.79045385       5.86209448       6.43514647 
V      43.62956650       8.32401289       8.32482669 
V      35.75341644       3.40887718       7.72903979 
V      41.08834439       7.81889592       6.91229766 
V      35.00026881       8.01919691       6.43958836 
V      34.86821801       6.15940373       8.32968350 
V      39.23562538       6.28738029       8.04375513 
V      43.31426364       6.54320912       6.07408716 
V      41.10506232       4.71679724       6.88981600 
V      32.99965860       4.24768869       7.96443209 
V      32.77310240       4.06184066       5.00000000 
V      39.30353592       6.34351728       5.33393263 
V      42.06251886      10.21971601       8.32482669 
V      38.35792650       3.96587722       6.43514647 
V      43.00848156       9.40614152       5.83952076 
S      37.05034989       7.00055602       8.51496559 
S      39.85401127       9.31695841       8.22430355 
S      36.23668289      10.00407261       6.62475283 
S      37.05568464       1.96688630       6.33405305 
S      42.32176693       2.64276945       6.62475283 
S      34.58216713       4.95917239       6.33405305 
S      39.52495401       4.00695544       8.51496559 
S      42.32744464       6.32477411       8.22430355 
V      33.83342087       1.82174863       8.80241743 
V      36.30482167       0.38242671      12.10985727 
V      38.15624966       0.16223929      10.21976213 
V      31.98055110       0.29010838       9.93394368 
V      36.05918974       9.26182424      11.74460585 
V      35.83403842       9.07427667       8.78017376 
V      38.27071710       8.60545830       9.85426093 
V      36.06130286       6.77930400      10.66998976 
V      42.59130767       9.06129250      11.00435636 
V      34.80697603       4.22248951      10.21532023 
V      41.64608868       6.68440793      12.10500045 
V      33.76993862       1.76927221      11.50921355 
V      39.10486657       6.17929096      10.69247142 
V      33.01679099       6.37959194      10.21976213 
V      32.88474019       4.51979876      12.10985727 
V      37.25214756       4.64777532      11.82392889 
V      41.33078582       4.90360416       9.85426093 
V      39.12158450       3.07719228      10.66998976 
V      41.55938030       2.60808373      11.74460585 
V      41.33282410       2.42223569       8.78017376 
V      37.32005810       4.70391231       9.11410639 
V      40.07904104       8.58011104      12.10500045 
V      36.37444868       2.32627225      10.21532023 
V      41.02500374       7.76653656       9.61969452 
S      35.06687207       5.36095105      12.29513935 
S      37.87053345       7.67735344      12.00447731 
S      34.25320506       8.36446764      10.40492659 
S      35.07220682       0.32728134      10.11422682 
S      40.33828911       1.00316448      10.40492659 
S      32.59868931       3.31956742      10.11422682 
S      37.54147619       2.36735047      12.29513935 
S      40.34396682       4.68516914      12.00447731 
V      37.80037651      13.81629792       5.02224367 
V      40.27177732      12.37697599       8.32968350 
V      42.12320530      12.15678858       6.43958836 
V      35.94750674      12.28465766       6.15376992 
V      38.04266756      10.90142920       7.96443209 
V      37.81751624      10.71388164       5.00000000 
V      42.23767274      20.60000759       6.07408716 
V      40.02825850      18.77385328       6.88981600 
V      34.03158597      10.70089747       7.22418260 
V      38.77393167      16.21703880       6.43514647 
V      45.61304432      18.67895721       8.32482669 
V      37.73689426      13.76382150       7.72903979 
V      43.07182221      18.17384024       6.91229766 
V      36.98374663      18.37414123       6.43958836 
V      36.85169583      16.51434805       8.32968350 
V      41.21910320      16.64232461       8.04375513 
V      45.29774146      16.89815344       6.07408716 
V      43.08854014      15.07174156       6.88981600 
V      34.98313642      14.60263301       7.96443209 
V      34.75658022      14.41678498       5.00000000 
V      41.28701374      16.69846159       5.33393263 
V      44.04599668      20.57466032       8.32482669 
V      40.34140432      14.32082154       6.43514647 
V      44.99195938      19.76108584       5.83952076 
S      39.03382771      17.35550034       8.51496559 
S      41.83748909      19.67190272       8.22430355 
S      38.22016071      20.35901693       6.62475283 
S      39.03916247      12.32183062       6.33405305 
S      44.30524475      12.99771376       6.62475283 
S      36.56564495      15.31411670       6.33405305 
S      41.50843183      14.36189976       8.51496559 
S      44.31092246      16.67971843       8.22430355 
V      35.81689869      12.17669295       8.80241743 
V      38.28829950      10.73737103      12.10985727 
V      40.13972748      10.51718361      10.21976213 
V      33.96402892      10.64505269       9.93394368 
V      38.04266756      19.61676855      11.74460585 
V      37.81751624      19.42922099       8.78017376 
V      40.25419492      18.96040262       9.85426093 
V      38.04478068      17.13424832      10.66998976 
V      44.57478549      19.41623682      11.00435636 
V      36.79045385      14.57743383      10.21532023 
V      43.62956650      17.03935224      12.10500045 
V      35.75341644      12.12421653      11.50921355 
V      41.08834439      16.53423527      10.69247142 
V      35.00026881      16.73453626      10.21976213 
V      34.86821801      14.87474308      12.10985727 
V      39.23562538      15.00271964      11.82392889 
V      43.31426364      15.25854847       9.85426093 
V      41.10506232      13.43213659      10.66998976 
V      43.54285812      12.96302804      11.74460585 
V      43.31630192      12.77718001       8.78017376 
V      39.30353592      15.05885663       9.11410639 
V      42.06251886      18.93505536      12.10500045 
V      38.35792650      12.68121657      10.21532023 
V      43.00848156      18.12148087       9.61969452 
S      37.05034989      15.71589537      12.29513935 
S      39.85401127      18.03229776      12.00447731 
S      36.23668289      18.71941196      10.40492659 
S      37.05568464      10.68222565      10.11422682 
S      42.32176693      11.35810880      10.40492659 
S      34.58216713      13.67451174      10.11422682 
S      39.52495401      12.72229479      12.29513935 
S      42.32744464      15.04011346      12.00447731 
V      29.24065481      24.17124223       5.02224367 
V      31.71205562      22.73192031       8.32968350 
V      33.56348360      22.51173289       6.43958836 
V      27.38778504      22.63960197       6.15376992 
V      29.48294586      21.25637352       7.96443209 
V      29.25779455      21.06882595       5.00000000 
V      33.67795104      30.95495190       6.07408716 
V      31.46853680      29.12879760       6.88981600 
V      25.47186427      21.05584178       7.22418260 
V      30.21420997      26.57198311       6.43514647 
V      37.05332262      29.03390152       8.32482669 
V      29.17717256      24.11876581       7.72903979 
V      34.51210051      28.52878455       6.91229766 
V      28.42402493      28.72908554       6.43958836 
V      28.29197413      26.86929236       8.32968350 
V      32.65938150      26.99726892       8.04375513 
V      36.73801976      27.25309775       6.07408716 
V      34.52881844      25.42668587       6.88981600 
V      26.42341473      24.95757732       7.96443209 
V      26.19685853      24.77172929       5.00000000 
V      32.72729205      27.05340591       5.33393263 
V      35.48627498      30.92960464       8.32482669 
V      31.78168262      24.67576585       6.43514647 
V      36.43223768      30.11603015       5.83952076 
S      30.47410602      27.71044465       8.51496559 
S      33.27776740      30.02684704       8.22430355 
S      29.66043901      30.71396124       6.62475283 
S      30.47944077      22.67677493       6.33405305 
S      35.74552305      23.35265808       6.62475283 
S      28.00592325      25.66906102       6.33405305 
S      32.94871013      24.71684407       8.51496559 
S      35.75120077      27.03466274       8.22430355 
V      27.25717699      22.53163726       8.80241743 
V      29.72857780      21.09231534      12.10985727 
V      31.58000578      20.87212792      10.21976213 
V      25.40430722      20.99999701       9.93394368 
V      29.48294586      29.97171287      11.74460585 
V      29.25779455      29.78416530       8.78017376 
V      31.69447322      29.31534693       9.85426093 
V      29.48505898      27.48919263      10.66998976 
V      36.01506379      29.77118113      11.00435636 
V      28.23073215      24.93237814      10.21532023 
V      35.06984480      27.39429656      12.10500045 
V      27.19369474      22.47916084      11.50921355 
V      32.52862269      26.88917959      10.69247142 
V      26.44054711      27.08948057      10.21976213 
V      26.30849631      25.22968739      12.10985727 
V      30.67590368      25.35766395      11.82392889 
V      34.75454194      25.61349279       9.85426093 
V      32.54534062      23.78708091      10.66998976 
V      34.98313642      23.31797236      11.74460585 
V      34.75658022      23.13212432       8.78017376 
V      30.74381423      25.41380094       9.11410639 
V      33.50279716      29.28999967      12.10500045 
V      29.79820480      23.03616088      10.21532023 
V      34.44875986      28.47642519       9.61969452 
S      28.49062820      26.07083968      12.29513935 
S      31.29428958      28.38724207      12.00447731 
S      27.67696119      29.07435627      10.40492659 
S      28.49596295      21.03716997      10.11422682 
S      33.76204523      21.71305311      10.40492659 
S      26.02244543      24.02945605      10.11422682 
S      30.96523231      23.07723910      12.29513935 
S      33.76772295      25.39505777      12.00447731 
V      31.22413263      34.52618655       5.02224367 
V      33.69553344      33.08686462       8.32968350 
V      35.54696142      32.86667721       6.43958836 
V      29.37126286      32.99454629       6.15376992 
V      31.46642368      31.61131783       7.96443209 
V      31.24127237      31.42377027       5.00000000 
V      35.66142886      41.30989622       6.07408716 
V      33.45201462      39.48374191       6.88981600 
V      27.45534209      31.41078610       7.22418260 
V      32.19768779      36.92692743       6.43514647 
V      39.03680044      39.38884584       8.32482669 
V      31.16065038      34.47371013       7.72903979 
V      36.49557833      38.88372887       6.91229766 
V      30.40750275      39.08402986       6.43958836 
V      30.27545195      37.22423668       8.32968350 
V      34.64285932      37.35221324       8.04375513 
V      38.72149758      37.60804207       6.07408716 
V      36.51229627      35.78163019       6.88981600 
V      28.40689255      35.31252164       7.96443209 
V      28.18033635      35.12667361       5.00000000 
V      34.71076987      37.40835022       5.33393263 
V      37.46975280      41.28454895       8.32482669 
V      33.76516044      35.03071017       6.43514647 
V      38.41571550      40.47097447       5.83952076 
S      32.45758384      38.06538897       8.51496559 
S      35.26124522      40.38179135       8.22430355 
S      31.64391683      41.06890556       6.62475283 
S      32.46291859      33.03171925       6.33405305 
S      37.72900087      33.70760239       6.62475283 
S      29.98940107      36.02400533       6.33405305 
S      34.93218795      35.07178839       8.51496559 
S      37.73467859      37.38960706       8.22430355 
V      29.24065481      32.88658158       8.80241743 
V      31.71205562      31.44725966      12.10985727 
V      33.56348360      31.22707224      10.21976213 
V      27.38778504      31.35494132       9.93394368 
V      31.46642368      40.32665718      11.74460585 
V      31.24127237      40.13910962       8.78017376 
V      33.67795104      39.67029125       9.85426093 
V      31.46853680      37.84413695      10.66998976 
V      37.99854161      40.12612545      11.00435636 
V      30.21420997      35.28732246      10.21532023 
V      37.05332262      37.74924087      12.10500045 
V      29.17717256      32.83410516      11.50921355 
V      34.51210051      37.24412390      10.69247142 
V      28.42402493      37.44442489      10.21976213 
V      28.29197413      35.58463171      12.10985727 
V      32.65938150      35.71260827      11.82392889 
V      36.73801976      35.96843710       9.85426093 
V      34.52881844      34.14202522      10.66998976 
V      36.96661424      33.67291667      11.74460585 
V      36.74005804      33.48706864       8.78017376 
V      32.72729205      35.76874526       9.11410639 
V      35.48627498      39.64494399      12.10500045 
V      31.78168262      33.39110520      10.21532023 
V      36.43223768      38.83136950       9.61969452 
S      30.47410602      36.42578400      12.29513935 
S      33.27776740      38.74218639      12.00447731 
S      29.66043901      39.42930059      10.40492659 
S      30.47944077      31.39211428      10.11422682 
S      35.74552305      32.06799743      10.40492659 
S      28.00592325      34.38440037      10.11422682 
S      32.94871013      33.43218342      12.29513935 
S      35.75120077      35.75000209      12.00447731 
V      39.78385433      24.17124223       5.02224367 
V      42.25525514      22.73192031       8.32968350 
V      44.10668312      22.51173289       6.43958836 
V      37.93098456      22.63960197       6.15376992 
V      40.02614538      21.25637352       7.96443209 
V      39.80099406      21.06882595       5.00000000 
V      44.22115056      30.95495190       6.07408716 
V      42.01173632      29.12879760       6.88981600 
V      36.01506379      21.05584178       7.22418260 
V      40.75740949      26.57198311       6.43514647 
V      47.59652214      29.03390152       8.32482669 
V      39.72037208      24.11876581       7.72903979 
V      45.05530003      28.52878455       6.91229766 
V      38.96722445      28.72908554       6.43958836 
V      38.83517365      26.86929236       8.32968350 
V      43.20258102      26.99726892       8.04375513 
V      47.28121928      27.25309775       6.07408716 
V      45.07201796      25.42668587       6.88981600 
V      36.96661424      24.95757732       7.96443209 
V      36.74005804      24.77172929       5.00000000 
V      43.27049156      27.05340591       5.33393263 
V      46.02947450      30.92960464       8.32482669 
V      42.32488214      24.67576585       6.43514647 
V      46.97543720      30.11603015       5.83952076 
S      41.01730553      27.71044465       8.51496559 
S      43.82096691      30.02684704       8.22430355 
S      40.20363853      30.71396124       6.62475283 
S      41.02264028      22.67677493       6.33405305 
S      46.28872257      23.35265808       6.62475283 
S      38.54912277      25.66906102       6.33405305 
S      43.49190965      24.71684407       8.51496559 
S      46.29440028      27.03466274       8.22430355 
V      37.80037651      22.53163726       8.80241743 
V      40.27177731      21.09231534      12.10985727 
V      42.12320530      20.87212792      10.21976213 
V      35.94750674      20.99999701       9.93394368 
V      40.02614538      29.97171287      11.74460585 
V      39.80099406      29.78416530       8.78017376 
V      42.23767274      29.31534693       9.85426093 
V      40.02825850      27.48919263      10.66998976 
V      46.55826331      29.77118113      11.00435636 
V      38.77393167      24.93237814      10.21532023 
V      45.61304432      27.39429656      12.10500045 
V      37.73689426      22.47916084      11.50921355 
V      43.07182221      26.88917959      10.69247142 
V      36.98374663      27.08948057      10.21976213 
V      36.85169583      25.22968739      12.10985727 
V      41.21910320      25.35766395      11.82392889 
V      45.29774146      25.61349279       9.85426093 
V      43.08854014      23.78708091      10.66998976 
V      45.52633594      23.31797236      11.74460585 
V      45.29977974      23.13212432       8.78017376 
V      41.28701374      25.41380094       9.11410639 
V      44.04599668      29.28999967      12.10500045 
V      40.34140432      23.03616088      10.21532023 
V      44.99195938      28.47642519       9.61969452 
S      39.03382771      26.07083968      12.29513935 
S      41.83748909      28.38724207      12.00447731 
S      38.22016070      29.07435627      10.40492659 
S      39.03916246      21.03716997      10.11422682 
S      44.30524475      21.71305311      10.40492659 
S      36.56564495      24.02945605      10.11422682 
S      41.50843183      23.07723910      12.29513935 
S      44.31092246      25.39505777      12.00447731 
V      41.76733215      34.52618655       5.02224367 
V      44.23873296      33.08686462       8.32968350 
V      46.09016094      32.86667721       6.43958836 
V      39.91446238      32.99454629       6.15376992 
V      42.00962320      31.61131783       7.96443209 
V      41.78447188      31.42377027       5.00000000 
V      46.20462838      41.30989622       6.07408716 
V      43.99521414      39.48374191       6.88981600 
V      37.99854161      31.41078610       7.22418260 
V      42.74088731      36.92692743       6.43514647 
V      49.57999996      39.38884584       8.32482669 
V      41.70384990      34.47371013       7.72903979 
V      47.03877785      38.88372887       6.91229766 
V      40.95070227      39.08402986       6.43958836 
V      40.81865147      37.22423668       8.32968350 
V      45.18605884      37.35221324       8.04375513 
V      49.26469710      37.60804207       6.07408716 
V      47.05549578      35.78163019       6.88981600 
V      38.95009206      35.31252164       7.96443209 
V      38.72353586      35.12667361       5.00000000 
V      45.25396938      37.40835022       5.33393263 
V      48.01295232      41.28454895       8.32482669 
V      44.30835996      35.03071017       6.43514647 
V      48.95891502      40.47097447       5.83952076 
S      43.00078335      38.06538897       8.51496559 
S      45.80444473      40.38179135       8.22430355 
S      42.18711635      41.06890556       6.62475283 
S      43.00611811      33.03171925       6.33405305 
S      48.27220039      33.70760239       6.62475283 
S      40.53260059      36.02400533       6.33405305 
S      45.47538747      35.07178839       8.51496559 
S      48.27787810      37.38960706       8.22430355 
V      39.78385433      32.88658158       8.80241743 
V      42.25525514      31.44725966      12.10985727 
V      44.10668312      31.22707224      10.21976213 
V      37.93098456      31.35494132       9.93394368 
V      42.00962320      40.32665718      11.74460585 
V      41.78447188      40.13910962       8.78017376 
V      44.22115056      39.67029125       9.85426093 
V      42.01173632      37.84413695      10.66998976 
V      48.54174113      40.12612545      11.00435636 
V      40.75740949      35.28732246      10.21532023 
V      47.59652214      37.74924087      12.10500045 
V      39.72037208      32.83410516      11.50921355 
V      45.05530003      37.24412390      10.69247142 
V      38.96722445      37.44442489      10.21976213 
V      38.83517365      35.58463171      12.10985727 
V      43.20258102      35.71260827      11.82392889 
V      47.28121928      35.96843710       9.85426093 
V      45.07201796      34.14202522      10.66998976 
V      47.50981376      33.67291667      11.74460585 
V      47.28325756      33.48706864       8.78017376 
V      43.27049156      35.76874526       9.11410639 
V      46.02947450      39.64494399      12.10500045 
V      42.32488214      33.39110520      10.21532023 
V      46.97543720      38.83136950       9.61969452 
S      41.01730553      36.42578400      12.29513935 
S      43.82096691      38.74218639      12.00447731 
S      40.20363853      39.42930059      10.40492659 
S      41.02264028      31.39211428      10.11422682 
S      46.28872257      32.06799743      10.40492659 
S      38.54912277      34.38440037      10.11422682 
S      43.49190965      33.43218342      12.29513935 
S      46.29440028      35.75000209      12.00447731 
