576
Lattice="36.196367358 0.0 0.0 1.556301633234e-15 25.4163344782 0.0 0.0 0.0 18.4669086636" Properties=species:S:1:pos:R:3 unit_cell=conventional pbc="T T F"
V       7.50931113       5.55982355      12.95739856 
V       6.59608902       0.79425613      10.61494248 
V       4.79206433       2.38279798       9.52468282 
V       8.22552035       2.38277591       6.80130582 
V       2.98441583       0.79425946       8.43347129 
V       5.88604824       0.79425667       7.72276225 
V       2.07142934       2.38278001       6.09071556 
V       0.26772654       0.79427193       5.00000000 
V       3.70130412       0.79425863      11.32621937 
V       7.50931113       2.38278174      12.95739856 
S       7.25338346       2.38275210       8.94194551 
S       0.84554890       0.79424507       7.45511608 
S       2.33056168       2.38275434      10.10710697 
S       8.73832396       0.79425794      11.59468989 
S       2.72941249       0.79427708      13.46690866 
S       5.37025545       2.38282126      11.97957326 
S       6.85500738       0.79429508       5.58198145 
S       4.21305780       2.38279590       7.07049044 
V       1.36202814       5.55981742      12.24776644 
V       6.59608902       3.97129794      10.61494248 
V       4.79206433       5.55983979       9.52468282 
V       8.22552035       5.55981772       6.80130582 
V       2.98441583       3.97130127       8.43347129 
V       5.88604824       3.97129848       7.72276225 
V       2.07142934       5.55982182       6.09071556 
V       0.26772654       3.97131374       5.00000000 
V       3.70130412       3.97130044      11.32621937 
V       1.36202814       2.38277561      12.24776644 
S       7.25338346       5.55979391       8.94194551 
S       0.84554890       3.97128688       7.45511608 
S       2.33056168       5.55979615      10.10710697 
S       8.73832396       3.97129975      11.59468989 
S       2.72941249       3.97131889      13.46690866 
S       5.37025545       5.55986307      11.97957326 
S       6.85500738       3.97133689       5.58198145 
S       4.21305780       5.55983771       7.07049044 
V       1.36202814       8.73685923      12.24776644 
V       6.59608902       7.14833975      10.61494248 
V       4.79206433       8.73688160       9.52468282 
V       8.22552035       8.73685953       6.80130582 
V       2.98441583       7.14834308       8.43347129 
V       5.88604824       7.14834029       7.72276225 
V       2.07142934       8.73686363       6.09071556 
V       0.26772654       7.14835555       5.00000000 
V       3.70130412       7.14834225      11.32621937 
V       7.50931113       8.73686536      12.95739856 
S       7.25338346       8.73683572       8.94194551 
S       0.84554890       7.14832869       7.45511608 
S       2.33056168       8.73683796      10.10710697 
S       8.73832396       7.14834156      11.59468989 
S       2.72941249       7.14836069      13.46690866 
S       5.37025545       8.73690488      11.97957326 
S       6.85500738       7.14837870       5.58198145 
S       4.21305780       8.73687952       7.07049044 
V       1.36202814      11.91390104      12.24776644 
V       6.59608902      10.32538156      10.61494248 
V       4.79206433      11.91392341       9.52468282 
V       8.22552035      11.91390134       6.80130582 
V       2.98441583      10.32538489       8.43347129 
V       5.88604824      10.32538210       7.72276225 
V       2.07142934      11.91390544       6.09071556 
V       0.26772654      10.32539736       5.00000000 
V       3.70130412      10.32538406      11.32621937 
V       7.50931113      11.91390717      12.95739856 
S       7.25338346      11.91387753       8.94194551 
S       0.84554890      10.32537050       7.45511608 
S       2.33056168      11.91387977      10.10710697 
S       8.73832396      10.32538337      11.59468989 
S       2.72941249      10.32540250      13.46690866 
S       5.37025545      11.91394669      11.97957326 
S       6.85500738      10.32542051       5.58198145 
S       4.21305780      11.91392133       7.07049044 
V      10.41111998       2.38277561      12.24776644 
V      15.64518086       0.79425613      10.61494248 
V      13.84115617       2.38279798       9.52468282 
V      17.27461219       2.38277591       6.80130582 
V      12.03350766       0.79425946       8.43347129 
V      14.93514008       0.79425667       7.72276225 
V      11.12052118       2.38278001       6.09071556 
V       9.31681838       0.79427193       5.00000000 
V      12.75039596       0.79425863      11.32621937 
V      16.55840297       2.38278174      12.95739856 
S      16.30247530       2.38275210       8.94194551 
S       9.89464074       0.79424507       7.45511608 
S      11.37965352       2.38275434      10.10710697 
S      17.78741580       0.79425794      11.59468989 
S      11.77850433       0.79427708      13.46690866 
S      14.41934729       2.38282126      11.97957326 
S      15.90409922       0.79429508       5.58198145 
S      13.26214964       2.38279590       7.07049044 
V      10.41111998       5.55981742      12.24776644 
V      15.64518086       3.97129794      10.61494248 
V      13.84115617       5.55983979       9.52468282 
V      17.27461219       5.55981772       6.80130582 
V      12.03350766       3.97130127       8.43347129 
V      14.93514008       3.97129848       7.72276225 
V      11.12052118       5.55982182       6.09071556 
V       9.31681838       3.97131374       5.00000000 
V      12.75039596       3.97130044      11.32621937 
V      16.55840297       5.55982355      12.95739856 
S      16.30247530       5.55979391       8.94194551 
S       9.89464074       3.97128688       7.45511608 
S      11.37965352       5.55979615      10.10710697 
S      17.78741580       3.97129975      11.59468989 
S      11.77850433       3.97131889      13.46690866 
S      14.41934729       5.55986307      11.97957326 
S      15.90409922       3.97133689       5.58198145 
S      13.26214964       5.55983771       7.07049044 
V      10.41111998       8.73685923      12.24776644 
V      15.64518086       7.14833975      10.61494248 
V      13.84115617       8.73688160       9.52468282 
V      17.27461219       8.73685953       6.80130582 
V      12.03350766       7.14834308       8.43347129 
V      14.93514008       7.14834029       7.72276225 
V      11.12052118       8.73686363       6.09071556 
V       9.31681838       7.14835555       5.00000000 
V      12.75039596       7.14834225      11.32621937 
V      16.55840297       8.73686536      12.95739856 
S      16.30247530       8.73683572       8.94194551 
S       9.89464074       7.14832869       7.45511608 
S      11.37965352       8.73683796      10.10710697 
S      17.78741580       7.14834156      11.59468989 
S      11.77850433       7.14836069      13.46690866 
S      14.41934729       8.73690488      11.97957326 
S      15.90409922       7.14837870       5.58198145 
S      13.26214964       8.73687952       7.07049044 
V      10.41111998      11.91390104      12.24776644 
V      15.64518086      10.32538156      10.61494248 
V      13.84115617      11.91392341       9.52468282 
V      17.27461219      11.91390134       6.80130582 
V      12.03350766      10.32538489       8.43347129 
V      14.93514008      10.32538210       7.72276225 
V      11.12052118      11.91390544       6.09071556 
V       9.31681838      10.32539736       5.00000000 
V      12.75039596      10.32538406      11.32621937 
V      16.55840297      11.91390717      12.95739856 
S      16.30247530      11.91387753       8.94194551 
S       9.89464074      10.32537050       7.45511608 
S      11.37965352      11.91387977      10.10710697 
S      17.78741580      10.32538337      11.59468989 
S      11.77850433      10.32540250      13.46690866 
S      14.41934729      11.91394669      11.97957326 
S      15.90409922      10.32542051       5.58198145 
S      13.26214964      11.91392133       7.07049044 
V       1.36202814      15.09094285      12.24776644 
V       6.59608902      13.50242337      10.61494248 
V       4.79206433      15.09096522       9.52468282 
V       8.22552035      15.09094315       6.80130582 
V       2.98441583      13.50242670       8.43347129 
V       5.88604824      13.50242391       7.72276225 
V       2.07142934      15.09094725       6.09071556 
V       0.26772654      13.50243917       5.00000000 
V       3.70130412      13.50242587      11.32621937 
V       7.50931113      15.09094898      12.95739856 
S       7.25338346      15.09091934       8.94194551 
S       0.84554890      13.50241231       7.45511608 
S       2.33056168      15.09092158      10.10710697 
S       8.73832396      13.50242518      11.59468989 
S       2.72941249      13.50244432      13.46690866 
S       5.37025545      15.09098850      11.97957326 
S       6.85500738      13.50246232       5.58198145 
S       4.21305780      15.09096314       7.07049044 
V       1.36202814      18.26798466      12.24776644 
V       6.59608902      16.67946518      10.61494248 
V       4.79206433      18.26800703       9.52468282 
V       8.22552035      18.26798496       6.80130582 
V       2.98441583      16.67946851       8.43347129 
V       5.88604824      16.67946572       7.72276225 
V       2.07142934      18.26798906       6.09071556 
V       0.26772654      16.67948098       5.00000000 
V       3.70130412      16.67946768      11.32621937 
V       7.50931113      18.26799079      12.95739856 
S       7.25338346      18.26796115       8.94194551 
S       0.84554890      16.67945412       7.45511608 
S       2.33056168      18.26796339      10.10710697 
S       8.73832396      16.67946699      11.59468989 
S       2.72941249      16.67948613      13.46690866 
S       5.37025545      18.26803031      11.97957326 
S       6.85500738      16.67950413       5.58198145 
S       4.21305780      18.26800495       7.07049044 
V       1.36202814      21.44502647      12.24776644 
V       6.59608902      19.85650699      10.61494248 
V       4.79206433      21.44504884       9.52468282 
V       8.22552035      21.44502677       6.80130582 
V       2.98441583      19.85651032       8.43347129 
V       5.88604824      19.85650753       7.72276225 
V       2.07142934      21.44503087       6.09071556 
V       0.26772654      19.85652279       5.00000000 
V       3.70130412      19.85650949      11.32621937 
V       7.50931113      21.44503260      12.95739856 
S       7.25338346      21.44500296       8.94194551 
S       0.84554890      19.85649593       7.45511608 
S       2.33056168      21.44500520      10.10710697 
S       8.73832396      19.85650880      11.59468989 
S       2.72941249      19.85652793      13.46690866 
S       5.37025545      21.44507212      11.97957326 
S       6.85500738      19.85654594       5.58198145 
S       4.21305780      21.44504676       7.07049044 
V       1.36202814      24.62206828      12.24776644 
V       6.59608902      23.03354880      10.61494248 
V       4.79206433      24.62209065       9.52468282 
V       8.22552035      24.62206858       6.80130582 
V       2.98441583      23.03355213       8.43347129 
V       5.88604824      23.03354934       7.72276225 
V       2.07142934      24.62207268       6.09071556 
V       0.26772654      23.03356460       5.00000000 
V       3.70130412      23.03355130      11.32621937 
V       7.50931113      24.62207441      12.95739856 
S       7.25338346      24.62204477       8.94194551 
S       0.84554890      23.03353774       7.45511608 
S       2.33056168      24.62204701      10.10710697 
S       8.73832396      23.03355061      11.59468989 
S       2.72941249      23.03356974      13.46690866 
S       5.37025545      24.62211393      11.97957326 
S       6.85500738      23.03358775       5.58198145 
S       4.21305780      24.62208857       7.07049044 
V      10.41111998      15.09094285      12.24776644 
V      15.64518086      13.50242337      10.61494248 
V      13.84115617      15.09096522       9.52468282 
V      17.27461219      15.09094315       6.80130582 
V      12.03350766      13.50242670       8.43347129 
V      14.93514008      13.50242391       7.72276225 
V      11.12052118      15.09094725       6.09071556 
V       9.31681838      13.50243917       5.00000000 
V      12.75039596      13.50242587      11.32621937 
V      16.55840297      15.09094898      12.95739856 
S      16.30247530      15.09091934       8.94194551 
S       9.89464074      13.50241231       7.45511608 
S      11.37965352      15.09092158      10.10710697 
S      17.78741580      13.50242518      11.59468989 
S      11.77850433      13.50244432      13.46690866 
S      14.41934729      15.09098850      11.97957326 
S      15.90409922      13.50246232       5.58198145 
S      13.26214964      15.09096314       7.07049044 
V      10.41111998      18.26798466      12.24776644 
V      15.64518086      16.67946518      10.61494248 
V      13.84115617      18.26800703       9.52468282 
V      17.27461219      18.26798496       6.80130582 
V      12.03350766      16.67946851       8.43347129 
V      14.93514008      16.67946572       7.72276225 
V      11.12052118      18.26798906       6.09071556 
V       9.31681838      16.67948098       5.00000000 
V      12.75039596      16.67946768      11.32621937 
V      16.55840297      18.26799079      12.95739856 
S      16.30247530      18.26796115       8.94194551 
S       9.89464074      16.67945412       7.45511608 
S      11.37965352      18.26796339      10.10710697 
S      17.78741580      16.67946699      11.59468989 
S      11.77850433      16.67948613      13.46690866 
S      14.41934729      18.26803031      11.97957326 
S      15.90409922      16.67950413       5.58198145 
S      13.26214964      18.26800495       7.07049044 
V      10.41111998      21.44502647      12.24776644 
V      15.64518086      19.85650699      10.61494248 
V      13.84115617      21.44504884       9.52468282 
V      17.27461219      21.44502677       6.80130582 
V      12.03350766      19.85651032       8.43347129 
V      14.93514008      19.85650753       7.72276225 
V      11.12052118      21.44503087       6.09071556 
V       9.31681838      19.85652279       5.00000000 
V      12.75039596      19.85650949      11.32621937 
V      16.55840297      21.44503260      12.95739856 
S      16.30247530      21.44500296       8.94194551 
S       9.89464074      19.85649593       7.45511608 
S      11.37965352      21.44500520      10.10710697 
S      17.78741580      19.85650880      11.59468989 
S      11.77850433      19.85652793      13.46690866 
S      14.41934729      21.44507212      11.97957326 
S      15.90409922      19.85654594       5.58198145 
S      13.26214964      21.44504676       7.07049044 
V      10.41111998      24.62206828      12.24776644 
V      15.64518086      23.03354880      10.61494248 
V      13.84115617      24.62209065       9.52468282 
V      17.27461219      24.62206858       6.80130582 
V      12.03350766      23.03355213       8.43347129 
V      14.93514008      23.03354934       7.72276225 
V      11.12052118      24.62207268       6.09071556 
V       9.31681838      23.03356460       5.00000000 
V      12.75039596      23.03355130      11.32621937 
V      16.55840297      24.62207441      12.95739856 
S      16.30247530      24.62204477       8.94194551 
S       9.89464074      23.03353774       7.45511608 
S      11.37965352      24.62204701      10.10710697 
S      17.78741580      23.03355061      11.59468989 
S      11.77850433      23.03356974      13.46690866 
S      14.41934729      24.62211393      11.97957326 
S      15.90409922      23.03358775       5.58198145 
S      13.26214964      24.62208857       7.07049044 
V      19.46021182       2.38277561      12.24776644 
V      24.69427270       0.79425613      10.61494248 
V      22.89024801       2.38279798       9.52468282 
V      26.32370403       2.38277591       6.80130582 
V      21.08259951       0.79425946       8.43347129 
V      23.98423192       0.79425667       7.72276225 
V      20.16961302       2.38278001       6.09071556 
V      18.36591022       0.79427193       5.00000000 
V      21.79948780       0.79425863      11.32621937 
V      25.60749481       2.38278174      12.95739856 
S      25.35156714       2.38275210       8.94194551 
S      18.94373258       0.79424507       7.45511608 
S      20.42874536       2.38275434      10.10710697 
S      26.83650764       0.79425794      11.59468989 
S      20.82759617       0.79427708      13.46690866 
S      23.46843913       2.38282126      11.97957326 
S      24.95319106       0.79429508       5.58198145 
S      22.31124148       2.38279590       7.07049044 
V      19.46021182       5.55981742      12.24776644 
V      24.69427270       3.97129794      10.61494248 
V      22.89024801       5.55983979       9.52468282 
V      26.32370403       5.55981772       6.80130582 
V      21.08259951       3.97130127       8.43347129 
V      23.98423192       3.97129848       7.72276225 
V      20.16961302       5.55982182       6.09071556 
V      18.36591022       3.97131374       5.00000000 
V      21.79948780       3.97130044      11.32621937 
V      25.60749481       5.55982355      12.95739856 
S      25.35156714       5.55979391       8.94194551 
S      18.94373258       3.97128688       7.45511608 
S      20.42874536       5.55979615      10.10710697 
S      26.83650764       3.97129975      11.59468989 
S      20.82759617       3.97131889      13.46690866 
S      23.46843913       5.55986307      11.97957326 
S      24.95319106       3.97133689       5.58198145 
S      22.31124148       5.55983771       7.07049044 
V      19.46021182       8.73685923      12.24776644 
V      24.69427270       7.14833975      10.61494248 
V      22.89024801       8.73688160       9.52468282 
V      26.32370403       8.73685953       6.80130582 
V      21.08259951       7.14834308       8.43347129 
V      23.98423192       7.14834029       7.72276225 
V      20.16961302       8.73686363       6.09071556 
V      18.36591022       7.14835555       5.00000000 
V      21.79948780       7.14834225      11.32621937 
V      25.60749481       8.73686536      12.95739856 
S      25.35156714       8.73683572       8.94194551 
S      18.94373258       7.14832869       7.45511608 
S      20.42874536       8.73683796      10.10710697 
S      26.83650764       7.14834156      11.59468989 
S      20.82759617       7.14836069      13.46690866 
S      23.46843913       8.73690488      11.97957326 
S      24.95319106       7.14837870       5.58198145 
S      22.31124148       8.73687952       7.07049044 
V      19.46021182      11.91390104      12.24776644 
V      24.69427270      10.32538156      10.61494248 
V      22.89024801      11.91392341       9.52468282 
V      26.32370403      11.91390134       6.80130582 
V      21.08259951      10.32538489       8.43347129 
V      23.98423192      10.32538210       7.72276225 
V      20.16961302      11.91390544       6.09071556 
V      18.36591022      10.32539736       5.00000000 
V      21.79948780      10.32538406      11.32621937 
V      25.60749481      11.91390717      12.95739856 
S      25.35156714      11.91387753       8.94194551 
S      18.94373258      10.32537050       7.45511608 
S      20.42874536      11.91387977      10.10710697 
S      26.83650764      10.32538337      11.59468989 
S      20.82759617      10.32540250      13.46690866 
S      23.46843913      11.91394669      11.97957326 
S      24.95319106      10.32542051       5.58198145 
S      22.31124148      11.91392133       7.07049044 
V      28.50930366       2.38277561      12.24776644 
V      33.74336454       0.79425613      10.61494248 
V      31.93933985       2.38279798       9.52468282 
V      35.37279587       2.38277591       6.80130582 
V      30.13169134       0.79425946       8.43347129 
V      33.03332376       0.79425667       7.72276225 
V      29.21870486       2.38278001       6.09071556 
V      27.41500206       0.79427193       5.00000000 
V      30.84857964       0.79425863      11.32621937 
V      34.65658665       2.38278174      12.95739856 
S      34.40065898       2.38275210       8.94194551 
S      27.99282442       0.79424507       7.45511608 
S      29.47783720       2.38275434      10.10710697 
S      35.88559948       0.79425794      11.59468989 
S      29.87668801       0.79427708      13.46690866 
S      32.51753097       2.38282126      11.97957326 
S      34.00228290       0.79429508       5.58198145 
S      31.36033332       2.38279590       7.07049044 
V      28.50930366       5.55981742      12.24776644 
V      33.74336454       3.97129794      10.61494248 
V      31.93933985       5.55983979       9.52468282 
V      35.37279587       5.55981772       6.80130582 
V      30.13169134       3.97130127       8.43347129 
V      33.03332376       3.97129848       7.72276225 
V      29.21870486       5.55982182       6.09071556 
V      27.41500206       3.97131374       5.00000000 
V      30.84857964       3.97130044      11.32621937 
V      34.65658665       5.55982355      12.95739856 
S      34.40065898       5.55979391       8.94194551 
S      27.99282442       3.97128688       7.45511608 
S      29.47783720       5.55979615      10.10710697 
S      35.88559948       3.97129975      11.59468989 
S      29.87668801       3.97131889      13.46690866 
S      32.51753097       5.55986307      11.97957326 
S      34.00228290       3.97133689       5.58198145 
S      31.36033332       5.55983771       7.07049044 
V      28.50930366       8.73685923      12.24776644 
V      33.74336454       7.14833975      10.61494248 
V      31.93933985       8.73688160       9.52468282 
V      35.37279587       8.73685953       6.80130582 
V      30.13169134       7.14834308       8.43347129 
V      33.03332376       7.14834029       7.72276225 
V      29.21870486       8.73686363       6.09071556 
V      27.41500206       7.14835555       5.00000000 
V      30.84857964       7.14834225      11.32621937 
V      34.65658665       8.73686536      12.95739856 
S      34.40065898       8.73683572       8.94194551 
S      27.99282442       7.14832869       7.45511608 
S      29.47783720       8.73683796      10.10710697 
S      35.88559948       7.14834156      11.59468989 
S      29.87668801       7.14836069      13.46690866 
S      32.51753097       8.73690488      11.97957326 
S      34.00228290       7.14837870       5.58198145 
S      31.36033332       8.73687952       7.07049044 
V      28.50930366      11.91390104      12.24776644 
V      33.74336454      10.32538156      10.61494248 
V      31.93933985      11.91392341       9.52468282 
V      35.37279587      11.91390134       6.80130582 
V      30.13169134      10.32538489       8.43347129 
V      33.03332376      10.32538210       7.72276225 
V      29.21870486      11.91390544       6.09071556 
V      27.41500206      10.32539736       5.00000000 
V      30.84857964      10.32538406      11.32621937 
V      34.65658665      11.91390717      12.95739856 
S      34.40065898      11.91387753       8.94194551 
S      27.99282442      10.32537050       7.45511608 
S      29.47783720      11.91387977      10.10710697 
S      35.88559948      10.32538337      11.59468989 
S      29.87668801      10.32540250      13.46690866 
S      32.51753097      11.91394669      11.97957326 
S      34.00228290      10.32542051       5.58198145 
S      31.36033332      11.91392133       7.07049044 
V      19.46021182      15.09094285      12.24776644 
V      24.69427270      13.50242337      10.61494248 
V      22.89024801      15.09096522       9.52468282 
V      26.32370403      15.09094315       6.80130582 
V      21.08259951      13.50242670       8.43347129 
V      23.98423192      13.50242391       7.72276225 
V      20.16961302      15.09094725       6.09071556 
V      18.36591022      13.50243917       5.00000000 
V      21.79948780      13.50242587      11.32621937 
V      25.60749481      15.09094898      12.95739856 
S      25.35156714      15.09091934       8.94194551 
S      18.94373258      13.50241231       7.45511608 
S      20.42874536      15.09092158      10.10710697 
S      26.83650764      13.50242518      11.59468989 
S      20.82759617      13.50244432      13.46690866 
S      23.46843913      15.09098850      11.97957326 
S      24.95319106      13.50246232       5.58198145 
S      22.31124148      15.09096314       7.07049044 
V      19.46021182      18.26798466      12.24776644 
V      24.69427270      16.67946518      10.61494248 
V      22.89024801      18.26800703       9.52468282 
V      26.32370403      18.26798496       6.80130582 
V      21.08259951      16.67946851       8.43347129 
V      23.98423192      16.67946572       7.72276225 
V      20.16961302      18.26798906       6.09071556 
V      18.36591022      16.67948098       5.00000000 
V      21.79948780      16.67946768      11.32621937 
V      25.60749481      18.26799079      12.95739856 
S      25.35156714      18.26796115       8.94194551 
S      18.94373258      16.67945412       7.45511608 
S      20.42874536      18.26796339      10.10710697 
S      26.83650764      16.67946699      11.59468989 
S      20.82759617      16.67948613      13.46690866 
S      23.46843913      18.26803031      11.97957326 
S      24.95319106      16.67950413       5.58198145 
S      22.31124148      18.26800495       7.07049044 
V      19.46021182      21.44502647      12.24776644 
V      24.69427270      19.85650699      10.61494248 
V      22.89024801      21.44504884       9.52468282 
V      26.32370403      21.44502677       6.80130582 
V      21.08259951      19.85651032       8.43347129 
V      23.98423192      19.85650753       7.72276225 
V      20.16961302      21.44503087       6.09071556 
V      18.36591022      19.85652279       5.00000000 
V      21.79948780      19.85650949      11.32621937 
V      25.60749481      21.44503260      12.95739856 
S      25.35156714      21.44500296       8.94194551 
S      18.94373258      19.85649593       7.45511608 
S      20.42874536      21.44500520      10.10710697 
S      26.83650764      19.85650880      11.59468989 
S      20.82759617      19.85652793      13.46690866 
S      23.46843913      21.44507212      11.97957326 
S      24.95319106      19.85654594       5.58198145 
S      22.31124148      21.44504676       7.07049044 
V      19.46021182      24.62206828      12.24776644 
V      24.69427270      23.03354880      10.61494248 
V      22.89024801      24.62209065       9.52468282 
V      26.32370403      24.62206858       6.80130582 
V      21.08259951      23.03355213       8.43347129 
V      23.98423192      23.03354934       7.72276225 
V      20.16961302      24.62207268       6.09071556 
V      18.36591022      23.03356460       5.00000000 
V      21.79948780      23.03355130      11.32621937 
V      25.60749481      24.62207441      12.95739856 
S      25.35156714      24.62204477       8.94194551 
S      18.94373258      23.03353774       7.45511608 
S      20.42874536      24.62204701      10.10710697 
S      26.83650764      23.03355061      11.59468989 
S      20.82759617      23.03356974      13.46690866 
S      23.46843913      24.62211393      11.97957326 
S      24.95319106      23.03358775       5.58198145 
S      22.31124148      24.62208857       7.07049044 
V      28.50930366      15.09094285      12.24776644 
V      33.74336454      13.50242337      10.61494248 
V      31.93933985      15.09096522       9.52468282 
V      35.37279587      15.09094315       6.80130582 
V      30.13169134      13.50242670       8.43347129 
V      33.03332376      13.50242391       7.72276225 
V      29.21870486      15.09094725       6.09071556 
V      27.41500206      13.50243917       5.00000000 
V      30.84857964      13.50242587      11.32621937 
V      34.65658665      15.09094898      12.95739856 
S      34.40065898      15.09091934       8.94194551 
S      27.99282442      13.50241231       7.45511608 
S      29.47783720      15.09092158      10.10710697 
S      35.88559948      13.50242518      11.59468989 
S      29.87668801      13.50244432      13.46690866 
S      32.51753097      15.09098850      11.97957326 
S      34.00228290      13.50246232       5.58198145 
S      31.36033332      15.09096314       7.07049044 
V      28.50930366      18.26798466      12.24776644 
V      33.74336454      16.67946518      10.61494248 
V      31.93933985      18.26800703       9.52468282 
V      35.37279587      18.26798496       6.80130582 
V      30.13169134      16.67946851       8.43347129 
V      33.03332376      16.67946572       7.72276225 
V      29.21870486      18.26798906       6.09071556 
V      27.41500206      16.67948098       5.00000000 
V      30.84857964      16.67946768      11.32621937 
V      34.65658665      18.26799079      12.95739856 
S      34.40065898      18.26796115       8.94194551 
S      27.99282442      16.67945412       7.45511608 
S      29.47783720      18.26796339      10.10710697 
S      35.88559948      16.67946699      11.59468989 
S      29.87668801      16.67948613      13.46690866 
S      32.51753097      18.26803031      11.97957326 
S      34.00228290      16.67950413       5.58198145 
S      31.36033332      18.26800495       7.07049044 
V      28.50930366      21.44502647      12.24776644 
V      33.74336454      19.85650699      10.61494248 
V      31.93933985      21.44504884       9.52468282 
V      35.37279587      21.44502677       6.80130582 
V      30.13169134      19.85651032       8.43347129 
V      33.03332376      19.85650753       7.72276225 
V      29.21870486      21.44503087       6.09071556 
V      27.41500206      19.85652279       5.00000000 
V      30.84857964      19.85650949      11.32621937 
V      34.65658665      21.44503260      12.95739856 
S      34.40065898      21.44500296       8.94194551 
S      27.99282442      19.85649593       7.45511608 
S      29.47783720      21.44500520      10.10710697 
S      35.88559948      19.85650880      11.59468989 
S      29.87668801      19.85652793      13.46690866 
S      32.51753097      21.44507212      11.97957326 
S      34.00228290      19.85654594       5.58198145 
S      31.36033332      21.44504676       7.07049044 
V      28.50930366      24.62206828      12.24776644 
V      33.74336454      23.03354880      10.61494248 
V      31.93933985      24.62209065       9.52468282 
V      35.37279587      24.62206858       6.80130582 
V      30.13169134      23.03355213       8.43347129 
V      33.03332376      23.03354934       7.72276225 
V      29.21870486      24.62207268       6.09071556 
V      27.41500206      23.03356460       5.00000000 
V      30.84857964      23.03355130      11.32621937 
V      34.65658665      24.62207441      12.95739856 
S      34.40065898      24.62204477       8.94194551 
S      27.99282442      23.03353774       7.45511608 
S      29.47783720      24.62204701      10.10710697 
S      35.88559948      23.03355061      11.59468989 
S      29.87668801      23.03356974      13.46690866 
S      32.51753097      24.62211393      11.97957326 
S      34.00228290      23.03358775       5.58198145 
S      31.36033332      24.62208857       7.07049044 
