64
Lattice="10.498963128 0.0 0.0 6.42876079454e-16 10.498963128 0.0 0.0 0.0 17.874222346" Properties=species:S:1:pos:R:3:Z:I:1 unit_cell=conventional pbc="T T F"
Sc      1.31237039       1.31237039       7.62474078       21 
Sc      3.93711117       3.93711117       7.62474078       21 
Sc      1.31237039       3.93711117       5.00000000       21 
Sc      3.93711117       1.31237039       5.00000000       21 
S      1.31237039       1.31237039       5.00000000       16 
S      3.93711117       3.93711117       5.00000000       16 
S      1.31237039       3.93711117       7.62474078       16 
S      3.93711117       1.31237039       7.62474078       16 
Sc      1.31237039       1.31237039      12.87422235       21 
Sc      3.93711117       3.93711117      12.87422235       21 
Sc      1.31237039       3.93711117      10.24948156       21 
Sc      3.93711117       1.31237039      10.24948156       21 
S      1.31237039       1.31237039      10.24948156       16 
S      3.93711117       3.93711117      10.24948156       16 
S      1.31237039       3.93711117      12.87422235       16 
S      3.93711117       1.31237039      12.87422235       16 
Sc      1.31237039       6.56185195       7.62474078       21 
Sc      3.93711117       9.18659274       7.62474078       21 
Sc      1.31237039       9.18659274       5.00000000       21 
Sc      3.93711117       6.56185195       5.00000000       21 
S      1.31237039       6.56185195       5.00000000       16 
S      3.93711117       9.18659274       5.00000000       16 
S      1.31237039       9.18659274       7.62474078       16 
S      3.93711117       6.56185195       7.62474078       16 
Sc      1.31237039       6.56185195      12.87422235       21 
Sc      3.93711117       9.18659274      12.87422235       21 
Sc      1.31237039       9.18659274      10.24948156       21 
Sc      3.93711117       6.56185195      10.24948156       21 
S      1.31237039       6.56185195      10.24948156       16 
S      3.93711117       9.18659274      10.24948156       16 
S      1.31237039       9.18659274      12.87422235       16 
S      3.93711117       6.56185195      12.87422235       16 
Sc      6.56185195       1.31237039       7.62474078       21 
Sc      9.18659274       3.93711117       7.62474078       21 
Sc      6.56185195       3.93711117       5.00000000       21 
Sc      9.18659274       1.31237039       5.00000000       21 
S      6.56185195       1.31237039       5.00000000       16 
S      9.18659274       3.93711117       5.00000000       16 
S      6.56185195       3.93711117       7.62474078       16 
S      9.18659274       1.31237039       7.62474078       16 
Sc      6.56185195       1.31237039      12.87422235       21 
Sc      9.18659274       3.93711117      12.87422235       21 
Sc      6.56185195       3.93711117      10.24948156       21 
Sc      9.18659274       1.31237039      10.24948156       21 
S      6.56185195       1.31237039      10.24948156       16 
S      9.18659274       3.93711117      10.24948156       16 
S      6.56185195       3.93711117      12.87422235       16 
S      9.18659274       1.31237039      12.87422235       16 
Sc      6.56185195       6.56185195       7.62474078       21 
Sc      9.18659274       9.18659274       7.62474078       21 
Sc      6.56185195       9.18659274       5.00000000       21 
Sc      9.18659274       6.56185195       5.00000000       21 
S      6.56185195       6.56185195       5.00000000       16 
S      9.18659274       9.18659274       5.00000000       16 
S      6.56185195       9.18659274       7.62474078       16 
S      9.18659274       6.56185195       7.62474078       16 
Sc      6.56185195       6.56185195      12.87422235       21 
Sc      9.18659274       9.18659274      12.87422235       21 
Sc      6.56185195       9.18659274      10.24948156       21 
Sc      9.18659274       6.56185195      10.24948156       21 
S      6.56185195       6.56185195      10.24948156       16 
S      9.18659274       9.18659274      10.24948156       16 
S      6.56185195       9.18659274      12.87422235       16 
S      9.18659274       6.56185195      12.87422235       16 
