64
Lattice="14.8477760465 0.0 0.0 0.0 10.498963128 0.0 0.0 0.0 15.5679160174" Properties=species:S:1:pos:R:3:Z:I:1 unit_cell=conventional pbc="T T F"
Sc      5.56791602       3.93711117       5.00000000       21 
Sc      3.71194401       1.31237039       6.85597201       21 
Sc      0.00000000       1.31237039       6.85597201       21 
Sc      1.85597201       3.93711117       5.00000000       21 
S      0.00000000       3.93711117       6.85597201       16 
S      1.85597201       1.31237039       5.00000000       16 
S      5.56791602       1.31237039       5.00000000       16 
S      3.71194401       3.93711117       6.85597201       16 
Sc      1.85597201       3.93711117       8.71194401       21 
Sc      7.42388802       1.31237039      10.56791602       21 
Sc      3.71194401       1.31237039      10.56791602       21 
Sc      5.56791602       3.93711117       8.71194401       21 
S      3.71194401       3.93711117      10.56791602       16 
S      5.56791602       1.31237039       8.71194401       16 
S      1.85597201       1.31237039       8.71194401       16 
S      0.00000000       3.93711117      10.56791602       16 
Sc      5.56791602       9.18659274       5.00000000       21 
Sc      3.71194401       6.56185195       6.85597201       21 
Sc      0.00000000       6.56185195       6.85597201       21 
Sc      1.85597201       9.18659274       5.00000000       21 
S      0.00000000       9.18659274       6.85597201       16 
S      1.85597201       6.56185195       5.00000000       16 
S      5.56791602       6.56185195       5.00000000       16 
S      3.71194401       9.18659274       6.85597201       16 
Sc      1.85597201       9.18659274       8.71194401       21 
Sc      7.42388802       6.56185195      10.56791602       21 
Sc      3.71194401       6.56185195      10.56791602       21 
Sc      5.56791602       9.18659274       8.71194401       21 
S      3.71194401       9.18659274      10.56791602       16 
S      5.56791602       6.56185195       8.71194401       16 
S      1.85597201       6.56185195       8.71194401       16 
S      0.00000000       9.18659274      10.56791602       16 
Sc     12.99180404       3.93711117       5.00000000       21 
Sc     11.13583203       1.31237039       6.85597201       21 
Sc      7.42388802       1.31237039       6.85597201       21 
Sc      9.27986003       3.93711117       5.00000000       21 
S      7.42388802       3.93711117       6.85597201       16 
S      9.27986003       1.31237039       5.00000000       16 
S     12.99180404       1.31237039       5.00000000       16 
S     11.13583203       3.93711117       6.85597201       16 
Sc      9.27986003       3.93711117       8.71194401       21 
Sc     14.84777605       1.31237039      10.56791602       21 
Sc     11.13583203       1.31237039      10.56791602       21 
Sc     12.99180404       3.93711117       8.71194401       21 
S     11.13583203       3.93711117      10.56791602       16 
S     12.99180404       1.31237039       8.71194401       16 
S      9.27986003       1.31237039       8.71194401       16 
S      7.42388802       3.93711117      10.56791602       16 
Sc     12.99180404       9.18659274       5.00000000       21 
Sc     11.13583203       6.56185195       6.85597201       21 
Sc      7.42388802       6.56185195       6.85597201       21 
Sc      9.27986003       9.18659274       5.00000000       21 
S      7.42388802       9.18659274       6.85597201       16 
S      9.27986003       6.56185195       5.00000000       16 
S     12.99180404       6.56185195       5.00000000       16 
S     11.13583203       9.18659274       6.85597201       16 
Sc      9.27986003       9.18659274       8.71194401       21 
Sc     14.84777605       6.56185195      10.56791602       21 
Sc     11.13583203       6.56185195      10.56791602       21 
Sc     12.99180404       9.18659274       8.71194401       21 
S     11.13583203       9.18659274      10.56791602       16 
S     12.99180404       6.56185195       8.71194401       16 
S      9.27986003       6.56185195       8.71194401       16 
S      7.42388802       9.18659274      10.56791602       16 
