144
Lattice="18.098183679 0.0 0.0 7.78150816617e-16 12.7081672391 0.0 0.0 0.0 18.4669086636" Properties=species:S:1:pos:R:3:Z:I:1 unit_cell=conventional pbc="T T F"
V      1.36202814       2.38277561      12.24776644       23 
V      6.59608902       0.79425613      10.61494248       23 
V      4.79206433       2.38279798       9.52468282       23 
V      8.22552035       2.38277591       6.80130582       23 
V      2.98441583       0.79425946       8.43347129       23 
V      5.88604824       0.79425667       7.72276225       23 
V      2.07142934       2.38278001       6.09071556       23 
V      0.26772654       0.79427193       5.00000000       23 
V      3.70130412       0.79425863      11.32621937       23 
V      7.50931113       2.38278174      12.95739856       23 
S      7.25338346       2.38275210       8.94194551       16 
S      0.84554890       0.79424507       7.45511608       16 
S      2.33056168       2.38275434      10.10710697       16 
S      8.73832396       0.79425794      11.59468989       16 
S      2.72941249       0.79427708      13.46690866       16 
S      5.37025545       2.38282126      11.97957326       16 
S      6.85500738       0.79429508       5.58198145       16 
S      4.21305780       2.38279590       7.07049044       16 
V      1.36202814       5.55981742      12.24776644       23 
V      6.59608902       3.97129794      10.61494248       23 
V      4.79206433       5.55983979       9.52468282       23 
V      8.22552035       5.55981772       6.80130582       23 
V      2.98441583       3.97130127       8.43347129       23 
V      5.88604824       3.97129848       7.72276225       23 
V      2.07142934       5.55982182       6.09071556       23 
V      0.26772654       3.97131374       5.00000000       23 
V      3.70130412       3.97130044      11.32621937       23 
V      7.50931113       5.55982355      12.95739856       23 
S      7.25338346       5.55979391       8.94194551       16 
S      0.84554890       3.97128688       7.45511608       16 
S      2.33056168       5.55979615      10.10710697       16 
S      8.73832396       3.97129975      11.59468989       16 
S      2.72941249       3.97131889      13.46690866       16 
S      5.37025545       5.55986307      11.97957326       16 
S      6.85500738       3.97133689       5.58198145       16 
S      4.21305780       5.55983771       7.07049044       16 
V      1.36202814       8.73685923      12.24776644       23 
V      6.59608902       7.14833975      10.61494248       23 
V      4.79206433       8.73688160       9.52468282       23 
V      8.22552035       8.73685953       6.80130582       23 
V      2.98441583       7.14834308       8.43347129       23 
V      5.88604824       7.14834029       7.72276225       23 
V      2.07142934       8.73686363       6.09071556       23 
V      0.26772654       7.14835555       5.00000000       23 
V      3.70130412       7.14834225      11.32621937       23 
V      7.50931113       8.73686536      12.95739856       23 
S      7.25338346       8.73683572       8.94194551       16 
S      0.84554890       7.14832869       7.45511608       16 
S      2.33056168       8.73683796      10.10710697       16 
S      8.73832396       7.14834156      11.59468989       16 
S      2.72941249       7.14836069      13.46690866       16 
S      5.37025545       8.73690488      11.97957326       16 
S      6.85500738       7.14837870       5.58198145       16 
S      4.21305780       8.73687952       7.07049044       16 
V      1.36202814      11.91390104      12.24776644       23 
V      6.59608902      10.32538156      10.61494248       23 
V      4.79206433      11.91392341       9.52468282       23 
V      8.22552035      11.91390134       6.80130582       23 
V      2.98441583      10.32538489       8.43347129       23 
V      5.88604824      10.32538210       7.72276225       23 
V      2.07142934      11.91390544       6.09071556       23 
V      0.26772654      10.32539736       5.00000000       23 
V      3.70130412      10.32538406      11.32621937       23 
V      7.50931113      11.91390717      12.95739856       23 
S      7.25338346      11.91387753       8.94194551       16 
S      0.84554890      10.32537050       7.45511608       16 
S      2.33056168      11.91387977      10.10710697       16 
S      8.73832396      10.32538337      11.59468989       16 
S      2.72941249      10.32540250      13.46690866       16 
S      5.37025545      11.91394669      11.97957326       16 
S      6.85500738      10.32542051       5.58198145       16 
S      4.21305780      11.91392133       7.07049044       16 
V     10.41111998       2.38277561      12.24776644       23 
V     15.64518086       0.79425613      10.61494248       23 
V     13.84115617       2.38279798       9.52468282       23 
V     17.27461219       2.38277591       6.80130582       23 
V     12.03350766       0.79425946       8.43347129       23 
V     14.93514008       0.79425667       7.72276225       23 
V     11.12052118       2.38278001       6.09071556       23 
V      9.31681838       0.79427193       5.00000000       23 
V     12.75039596       0.79425863      11.32621937       23 
V     16.55840297       2.38278174      12.95739856       23 
S     16.30247530       2.38275210       8.94194551       16 
S      9.89464074       0.79424507       7.45511608       16 
S     11.37965352       2.38275434      10.10710697       16 
S     17.78741580       0.79425794      11.59468989       16 
S     11.77850433       0.79427708      13.46690866       16 
S     14.41934729       2.38282126      11.97957326       16 
S     15.90409922       0.79429508       5.58198145       16 
S     13.26214964       2.38279590       7.07049044       16 
V     10.41111998       5.55981742      12.24776644       23 
V     15.64518086       3.97129794      10.61494248       23 
V     13.84115617       5.55983979       9.52468282       23 
V     17.27461219       5.55981772       6.80130582       23 
V     12.03350766       3.97130127       8.43347129       23 
V     14.93514008       3.97129848       7.72276225       23 
V     11.12052118       5.55982182       6.09071556       23 
V      9.31681838       3.97131374       5.00000000       23 
V     12.75039596       3.97130044      11.32621937       23 
V     16.55840297       5.55982355      12.95739856       23 
S     16.30247530       5.55979391       8.94194551       16 
S      9.89464074       3.97128688       7.45511608       16 
S     11.37965352       5.55979615      10.10710697       16 
S     17.78741580       3.97129975      11.59468989       16 
S     11.77850433       3.97131889      13.46690866       16 
S     14.41934729       5.55986307      11.97957326       16 
S     15.90409922       3.97133689       5.58198145       16 
S     13.26214964       5.55983771       7.07049044       16 
V     10.41111998       8.73685923      12.24776644       23 
V     15.64518086       7.14833975      10.61494248       23 
V     13.84115617       8.73688160       9.52468282       23 
V     17.27461219       8.73685953       6.80130582       23 
V     12.03350766       7.14834308       8.43347129       23 
V     14.93514008       7.14834029       7.72276225       23 
V     11.12052118       8.73686363       6.09071556       23 
V      9.31681838       7.14835555       5.00000000       23 
V     12.75039596       7.14834225      11.32621937       23 
V     16.55840297       8.73686536      12.95739856       23 
S     16.30247530       8.73683572       8.94194551       16 
S      9.89464074       7.14832869       7.45511608       16 
S     11.37965352       8.73683796      10.10710697       16 
S     17.78741580       7.14834156      11.59468989       16 
S     11.77850433       7.14836069      13.46690866       16 
S     14.41934729       8.73690488      11.97957326       16 
S     15.90409922       7.14837870       5.58198145       16 
S     13.26214964       8.73687952       7.07049044       16 
V     10.41111998      11.91390104      12.24776644       23 
V     15.64518086      10.32538156      10.61494248       23 
V     13.84115617      11.91392341       9.52468282       23 
V     17.27461219      11.91390134       6.80130582       23 
V     12.03350766      10.32538489       8.43347129       23 
V     14.93514008      10.32538210       7.72276225       23 
V     11.12052118      11.91390544       6.09071556       23 
V      9.31681838      10.32539736       5.00000000       23 
V     12.75039596      10.32538406      11.32621937       23 
V     16.55840297      11.91390717      12.95739856       23 
S     16.30247530      11.91387753       8.94194551       16 
S      9.89464074      10.32537050       7.45511608       16 
S     11.37965352      11.91387977      10.10710697       16 
S     17.78741580      10.32538337      11.59468989       16 
S     11.77850433      10.32540250      13.46690866       16 
S     14.41934729      11.91394669      11.97957326       16 
S     15.90409922      10.32542051       5.58198145       16 
S     13.26214964      11.91392133       7.07049044       16 
