128
Lattice="22.7683659772 0.0 0.0 0.0 12.9252720332 0.0 0.0 0.0 14.9294958347" Properties=species:S:1:pos:R:3:Z:I:1 unit_cell=conventional pbc="T T F"
Ti      0.47434191       2.42348851       5.00000000       22 
S     10.90984108       0.80782950       6.64316528       16 
Ti      9.01247915       2.42348851       6.64316528       22 
S      2.37170384       0.80782950       5.00000000       16 
Ti      3.32038765       2.42348851       6.64316528       22 
S      8.06379533       0.80782950       5.00000000       16 
Ti      6.16643340       2.42348851       5.00000000       22 
S      5.21774959       0.80782950       6.64316528       16 
Ti      6.16643340       2.42348851       8.28633056       22 
S      5.21774959       0.80782950       9.92949583       16 
Ti      3.32038765       2.42348851       9.92949583       22 
S      8.06379533       0.80782950       8.28633056       16 
Ti      9.01247915       2.42348851       9.92949583       22 
S      2.37170384       0.80782950       8.28633056       16 
Ti      0.47434191       2.42348851       8.28633056       22 
S     10.90984108       0.80782950       9.92949583       16 
Ti      0.47434191       5.65480651       5.00000000       22 
S     10.90984108       4.03914751       6.64316528       16 
Ti      9.01247915       5.65480651       6.64316528       22 
S      2.37170384       4.03914751       5.00000000       16 
Ti      3.32038765       5.65480651       6.64316528       22 
S      8.06379533       4.03914751       5.00000000       16 
Ti      6.16643340       5.65480651       5.00000000       22 
S      5.21774959       4.03914751       6.64316528       16 
Ti      6.16643340       5.65480651       8.28633056       22 
S      5.21774959       4.03914751       9.92949583       16 
Ti      3.32038765       5.65480651       9.92949583       22 
S      8.06379533       4.03914751       8.28633056       16 
Ti      9.01247915       5.65480651       9.92949583       22 
S      2.37170384       4.03914751       8.28633056       16 
Ti      0.47434191       5.65480651       8.28633056       22 
S     10.90984108       4.03914751       9.92949583       16 
Ti      0.47434191       8.88612452       5.00000000       22 
S     10.90984108       7.27046552       6.64316528       16 
Ti      9.01247915       8.88612452       6.64316528       22 
S      2.37170384       7.27046552       5.00000000       16 
Ti      3.32038765       8.88612452       6.64316528       22 
S      8.06379533       7.27046552       5.00000000       16 
Ti      6.16643340       8.88612452       5.00000000       22 
S      5.21774959       7.27046552       6.64316528       16 
Ti      6.16643340       8.88612452       8.28633056       22 
S      5.21774959       7.27046552       9.92949583       16 
Ti      3.32038765       8.88612452       9.92949583       22 
S      8.06379533       7.27046552       8.28633056       16 
Ti      9.01247915       8.88612452       9.92949583       22 
S      2.37170384       7.27046552       8.28633056       16 
Ti      0.47434191       8.88612452       8.28633056       22 
S     10.90984108       7.27046552       9.92949583       16 
Ti      0.47434191      12.11744253       5.00000000       22 
S     10.90984108      10.50178353       6.64316528       16 
Ti      9.01247915      12.11744253       6.64316528       22 
S      2.37170384      10.50178353       5.00000000       16 
Ti      3.32038765      12.11744253       6.64316528       22 
S      8.06379533      10.50178353       5.00000000       16 
Ti      6.16643340      12.11744253       5.00000000       22 
S      5.21774959      10.50178353       6.64316528       16 
Ti      6.16643340      12.11744253       8.28633056       22 
S      5.21774959      10.50178353       9.92949583       16 
Ti      3.32038765      12.11744253       9.92949583       22 
S      8.06379533      10.50178353       8.28633056       16 
Ti      9.01247915      12.11744253       9.92949583       22 
S      2.37170384      10.50178353       8.28633056       16 
Ti      0.47434191      12.11744253       8.28633056       22 
S     10.90984108      10.50178353       9.92949583       16 
Ti     11.85852490       2.42348851       5.00000000       22 
S     22.29402407       0.80782950       6.64316528       16 
Ti     20.39666214       2.42348851       6.64316528       22 
S     13.75588683       0.80782950       5.00000000       16 
Ti     14.70457064       2.42348851       6.64316528       22 
S     19.44797832       0.80782950       5.00000000       16 
Ti     17.55061639       2.42348851       5.00000000       22 
S     16.60193258       0.80782950       6.64316528       16 
Ti     17.55061639       2.42348851       8.28633056       22 
S     16.60193258       0.80782950       9.92949583       16 
Ti     14.70457064       2.42348851       9.92949583       22 
S     19.44797832       0.80782950       8.28633056       16 
Ti     20.39666214       2.42348851       9.92949583       22 
S     13.75588683       0.80782950       8.28633056       16 
Ti     11.85852490       2.42348851       8.28633056       22 
S     22.29402407       0.80782950       9.92949583       16 
Ti     11.85852490       5.65480651       5.00000000       22 
S     22.29402407       4.03914751       6.64316528       16 
Ti     20.39666214       5.65480651       6.64316528       22 
S     13.75588683       4.03914751       5.00000000       16 
Ti     14.70457064       5.65480651       6.64316528       22 
S     19.44797832       4.03914751       5.00000000       16 
Ti     17.55061639       5.65480651       5.00000000       22 
S     16.60193258       4.03914751       6.64316528       16 
Ti     17.55061639       5.65480651       8.28633056       22 
S     16.60193258       4.03914751       9.92949583       16 
Ti     14.70457064       5.65480651       9.92949583       22 
S     19.44797832       4.03914751       8.28633056       16 
Ti     20.39666214       5.65480651       9.92949583       22 
S     13.75588683       4.03914751       8.28633056       16 
Ti     11.85852490       5.65480651       8.28633056       22 
S     22.29402407       4.03914751       9.92949583       16 
Ti     11.85852490       8.88612452       5.00000000       22 
S     22.29402407       7.27046552       6.64316528       16 
Ti     20.39666214       8.88612452       6.64316528       22 
S     13.75588683       7.27046552       5.00000000       16 
Ti     14.70457064       8.88612452       6.64316528       22 
S     19.44797832       7.27046552       5.00000000       16 
Ti     17.55061639       8.88612452       5.00000000       22 
S     16.60193258       7.27046552       6.64316528       16 
Ti     17.55061639       8.88612452       8.28633056       22 
S     16.60193258       7.27046552       9.92949583       16 
Ti     14.70457064       8.88612452       9.92949583       22 
S     19.44797832       7.27046552       8.28633056       16 
Ti     20.39666214       8.88612452       9.92949583       22 
S     13.75588683       7.27046552       8.28633056       16 
Ti     11.85852490       8.88612452       8.28633056       22 
S     22.29402407       7.27046552       9.92949583       16 
Ti     11.85852490      12.11744253       5.00000000       22 
S     22.29402407      10.50178353       6.64316528       16 
Ti     20.39666214      12.11744253       6.64316528       22 
S     13.75588683      10.50178353       5.00000000       16 
Ti     14.70457064      12.11744253       6.64316528       22 
S     19.44797832      10.50178353       5.00000000       16 
Ti     17.55061639      12.11744253       5.00000000       22 
S     16.60193258      10.50178353       6.64316528       16 
Ti     17.55061639      12.11744253       8.28633056       22 
S     16.60193258      10.50178353       9.92949583       16 
Ti     14.70457064      12.11744253       9.92949583       22 
S     19.44797832      10.50178353       8.28633056       16 
Ti     20.39666214      12.11744253       9.92949583       22 
S     13.75588683      10.50178353       8.28633056       16 
Ti     11.85852490      12.11744253       8.28633056       22 
S     22.29402407      10.50178353       9.92949583       16 
