128
Lattice="18.4353506491 0.0 0.0 4.3754475006 17.9085904729 0.0 0.0 0.0 15.1263474922" Properties=species:S:1:pos:R:3:Z:I:1 unit_cell=conventional pbc="T T F"
Ti      2.20717352       8.36650312       5.73233536       22 
S      3.41772930       3.28629621       5.00000000       16 
Ti      9.15932837       6.58785960       7.19700607       22 
S      1.15220883       1.50765269       6.46467071       16 
Ti      8.06546649       2.11071198       7.19700607       22 
S      2.24607070       5.98480031       6.46467071       16 
Ti      1.11331164       3.88935550       5.73233536       22 
S      4.51159118       7.76344383       5.00000000       16 
Ti      4.55049071       6.58785960       7.19700607       22 
S      5.76104649       1.50765269       6.46467071       16 
Ti      6.81601118       8.36650312       5.73233536       22 
S      8.02656696       3.28629621       5.00000000       16 
Ti      5.72214930       3.88935550       5.73233536       22 
S      9.12042884       7.76344383       5.00000000       16 
Ti      3.45662883       2.11071198       7.19700607       22 
S      6.85490837       5.98480031       6.46467071       16 
Ti      6.89380790       4.80921608       8.66167678       22 
S     10.29208743       8.68330441       7.92934142       16 
Ti      4.62828743       3.03057256      10.12634749       22 
S      8.02656696       6.90466089       9.39401214       16 
Ti      5.72214930       7.50772018      10.12634749       22 
S      6.93270509       2.42751327       9.39401214       16 
Ti      5.79994602       0.33206846       8.66167678       22 
S      9.19822556       4.20615679       7.92934142       16 
Ti      9.23712509       3.03057256      10.12634749       22 
S      3.41772930       6.90466089       9.39401214       16 
Ti      2.28497024       4.80921608       8.66167678       22 
S      5.68324977       8.68330441       7.92934142       16 
Ti      1.19110836       0.33206846       8.66167678       22 
S      4.58938790       4.20615679       7.92934142       16 
Ti     10.33098697       7.50772018      10.12634749       22 
S      2.32386743       2.42751327       9.39401214       16 
Ti      4.39489727      17.32079836       5.73233536       22 
S      5.60545305      12.24059145       5.00000000       16 
Ti     11.34705212      15.54215484       7.19700607       22 
S      3.33993258      10.46194793       6.46467071       16 
Ti     10.25319025      11.06500722       7.19700607       22 
S      4.43379446      14.93909555       6.46467071       16 
Ti      3.30103539      12.84365074       5.73233536       22 
S      6.69931493      16.71773907       5.00000000       16 
Ti      6.73821446      15.54215484       7.19700607       22 
S      7.94877024      10.46194793       6.46467071       16 
Ti      9.00373493      17.32079836       5.73233536       22 
S     10.21429071      12.24059145       5.00000000       16 
Ti      7.90987305      12.84365074       5.73233536       22 
S     11.30815259      16.71773907       5.00000000       16 
Ti      5.64435258      11.06500722       7.19700607       22 
S      9.04263212      14.93909555       6.46467071       16 
Ti      9.08153165      13.76351132       8.66167678       22 
S     12.47981118      17.63759965       7.92934142       16 
Ti      6.81601118      11.98486780      10.12634749       22 
S     10.21429071      15.85895613       9.39401214       16 
Ti      7.90987305      16.46201541      10.12634749       22 
S      9.12042884      11.38180851       9.39401214       16 
Ti      7.98766977       9.28636370       8.66167678       22 
S     11.38594931      13.16045203       7.92934142       16 
Ti     11.42484884      11.98486780      10.12634749       22 
S      5.60545305      15.85895613       9.39401214       16 
Ti      4.47269399      13.76351132       8.66167678       22 
S      7.87097352      17.63759965       7.92934142       16 
Ti      3.37883211       9.28636370       8.66167678       22 
S      6.77711165      13.16045203       7.92934142       16 
Ti     12.51871072      16.46201541      10.12634749       22 
S      4.51159118      11.38180851       9.39401214       16 
Ti     11.42484884       8.36650312       5.73233536       22 
S     12.63540463       3.28629621       5.00000000       16 
Ti     18.37700369       6.58785960       7.19700607       22 
S     10.36988415       1.50765269       6.46467071       16 
Ti     17.28314182       2.11071198       7.19700607       22 
S     11.46374603       5.98480031       6.46467071       16 
Ti     10.33098697       3.88935550       5.73233536       22 
S     13.72926650       7.76344383       5.00000000       16 
Ti     13.76816603       6.58785960       7.19700607       22 
S     14.97872182       1.50765269       6.46467071       16 
Ti     16.03368650       8.36650312       5.73233536       22 
S     17.24424229       3.28629621       5.00000000       16 
Ti     14.93982463       3.88935550       5.73233536       22 
S     18.33810416       7.76344383       5.00000000       16 
Ti     12.67430416       2.11071198       7.19700607       22 
S     16.07258369       5.98480031       6.46467071       16 
Ti     16.11148322       4.80921608       8.66167678       22 
S     19.50976276       8.68330441       7.92934142       16 
Ti     13.84596275       3.03057256      10.12634749       22 
S     17.24424229       6.90466089       9.39401214       16 
Ti     14.93982463       7.50772018      10.12634749       22 
S     16.15038041       2.42751327       9.39401214       16 
Ti     15.01762135       0.33206846       8.66167678       22 
S     18.41590088       4.20615679       7.92934142       16 
Ti     18.45480042       3.03057256      10.12634749       22 
S     12.63540463       6.90466089       9.39401214       16 
Ti     11.50264556       4.80921608       8.66167678       22 
S     14.90092510       8.68330441       7.92934142       16 
Ti     10.40878369       0.33206846       8.66167678       22 
S     13.80706322       4.20615679       7.92934142       16 
Ti     19.54866229       7.50772018      10.12634749       22 
S     11.54154275       2.42751327       9.39401214       16 
Ti     13.61257259      17.32079836       5.73233536       22 
S     14.82312838      12.24059145       5.00000000       16 
Ti     20.56472744      15.54215484       7.19700607       22 
S     12.55760790      10.46194793       6.46467071       16 
Ti     19.47086557      11.06500722       7.19700607       22 
S     13.65146978      14.93909555       6.46467071       16 
Ti     12.51871072      12.84365074       5.73233536       22 
S     15.91699025      16.71773907       5.00000000       16 
Ti     15.95588978      15.54215484       7.19700607       22 
S     17.16644557      10.46194793       6.46467071       16 
Ti     18.22141025      17.32079836       5.73233536       22 
S     19.43196604      12.24059145       5.00000000       16 
Ti     17.12754838      12.84365074       5.73233536       22 
S     20.52582791      16.71773907       5.00000000       16 
Ti     14.86202791      11.06500722       7.19700607       22 
S     18.26030744      14.93909555       6.46467071       16 
Ti     18.29920697      13.76351132       8.66167678       22 
S     21.69748651      17.63759965       7.92934142       16 
Ti     16.03368650      11.98486780      10.12634749       22 
S     19.43196604      15.85895613       9.39401214       16 
Ti     17.12754838      16.46201541      10.12634749       22 
S     18.33810416      11.38180851       9.39401214       16 
Ti     17.20534510       9.28636370       8.66167678       22 
S     20.60362463      13.16045203       7.92934142       16 
Ti     20.64252417      11.98486780      10.12634749       22 
S     14.82312838      15.85895613       9.39401214       16 
Ti     13.69036931      13.76351132       8.66167678       22 
S     17.08864885      17.63759965       7.92934142       16 
Ti     12.59650744       9.28636370       8.66167678       22 
S     15.99478697      13.16045203       7.92934142       16 
Ti     21.73638604      16.46201541      10.12634749       22 
S     13.72926650      11.38180851       9.39401214       16 
