96
Lattice="11.3971211105 0.0 0.0 6.97872394375e-16 11.3971211105 0.0 0.0 0.0 20.7592023801" Properties=species:S:1:pos:R:3:Z:I:1 unit_cell=conventional pbc="T T F"
Ru      3.17726610       3.17872082       5.00000000       44 
Ru      3.17872082       0.32846032       7.84880578       44 
Ru      0.32846032       3.17726610       7.85026050       44 
Ru      0.32999800       0.32999800       5.00153769       44 
S      0.97322031       5.38665591       7.20991856       16 
S      5.38665591       2.53837888       5.64475999       16 
S      2.53837888       0.97322031      10.05819559       16 
S      3.81615397       3.81615397       8.48769365       16 
S      2.53754164       2.53754164       7.20908133       16 
S      3.81964649       5.38910214       5.64025798       16 
S      0.96871829       3.81964649      10.06064182       16 
S      5.38910214       0.96871829       8.49118617       16 
Ru      3.17726610       3.17872082      10.69856056       44 
Ru      3.17872082       0.32846032      13.54736634       44 
Ru      0.32846032       3.17726610      13.54882106       44 
Ru      0.32999800       0.32999800      10.70009824       44 
S      0.97322031       5.38665591      12.90847912       16 
S      5.38665591       2.53837888      11.34332055       16 
S      2.53837888       0.97322031      15.75675615       16 
S      3.81615397       3.81615397      14.18625421       16 
S      2.53754164       2.53754164      12.90764188       16 
S      3.81964649       5.38910214      11.33881853       16 
S      0.96871829       3.81964649      15.75920238       16 
S      5.38910214       0.96871829      14.18974673       16 
Ru      3.17726610       8.87728137       5.00000000       44 
Ru      3.17872082       6.02702087       7.84880578       44 
Ru      0.32846032       8.87582665       7.85026050       44 
Ru      0.32999800       6.02855856       5.00153769       44 
S      0.97322031      11.08521646       7.20991856       16 
S      5.38665591       8.23693943       5.64475999       16 
S      2.53837888       6.67178086      10.05819559       16 
S      3.81615397       9.51471453       8.48769365       16 
S      2.53754164       8.23610220       7.20908133       16 
S      3.81964649      11.08766270       5.64025798       16 
S      0.96871829       9.51820704      10.06064182       16 
S      5.38910214       6.66727885       8.49118617       16 
Ru      3.17726610       8.87728137      10.69856056       44 
Ru      3.17872082       6.02702087      13.54736634       44 
Ru      0.32846032       8.87582665      13.54882106       44 
Ru      0.32999800       6.02855856      10.70009824       44 
S      0.97322031      11.08521646      12.90847912       16 
S      5.38665591       8.23693943      11.34332055       16 
S      2.53837888       6.67178086      15.75675615       16 
S      3.81615397       9.51471453      14.18625421       16 
S      2.53754164       8.23610220      12.90764188       16 
S      3.81964649      11.08766270      11.33881853       16 
S      0.96871829       9.51820704      15.75920238       16 
S      5.38910214       6.66727885      14.18974673       16 
Ru      8.87582665       3.17872082       5.00000000       44 
Ru      8.87728137       0.32846032       7.84880578       44 
Ru      6.02702087       3.17726610       7.85026050       44 
Ru      6.02855856       0.32999800       5.00153769       44 
S      6.67178086       5.38665591       7.20991856       16 
S     11.08521646       2.53837888       5.64475999       16 
S      8.23693943       0.97322031      10.05819559       16 
S      9.51471453       3.81615397       8.48769365       16 
S      8.23610220       2.53754164       7.20908133       16 
S      9.51820704       5.38910214       5.64025798       16 
S      6.66727885       3.81964649      10.06064182       16 
S     11.08766270       0.96871829       8.49118617       16 
Ru      8.87582665       3.17872082      10.69856056       44 
Ru      8.87728137       0.32846032      13.54736634       44 
Ru      6.02702087       3.17726610      13.54882106       44 
Ru      6.02855856       0.32999800      10.70009824       44 
S      6.67178086       5.38665591      12.90847912       16 
S     11.08521646       2.53837888      11.34332055       16 
S      8.23693943       0.97322031      15.75675615       16 
S      9.51471453       3.81615397      14.18625421       16 
S      8.23610220       2.53754164      12.90764188       16 
S      9.51820704       5.38910214      11.33881853       16 
S      6.66727885       3.81964649      15.75920238       16 
S     11.08766270       0.96871829      14.18974673       16 
Ru      8.87582665       8.87728137       5.00000000       44 
Ru      8.87728137       6.02702087       7.84880578       44 
Ru      6.02702087       8.87582665       7.85026050       44 
Ru      6.02855856       6.02855856       5.00153769       44 
S      6.67178086      11.08521646       7.20991856       16 
S     11.08521646       8.23693943       5.64475999       16 
S      8.23693943       6.67178086      10.05819559       16 
S      9.51471453       9.51471453       8.48769365       16 
S      8.23610220       8.23610220       7.20908133       16 
S      9.51820704      11.08766270       5.64025798       16 
S      6.66727885       9.51820704      10.06064182       16 
S     11.08766270       6.66727885       8.49118617       16 
Ru      8.87582665       8.87728137      10.69856056       44 
Ru      8.87728137       6.02702087      13.54736634       44 
Ru      6.02702087       8.87582665      13.54882106       44 
Ru      6.02855856       6.02855856      10.70009824       44 
S      6.67178086      11.08521646      12.90847912       16 
S     11.08521646       8.23693943      11.34332055       16 
S      8.23693943       6.67178086      15.75675615       16 
S      9.51471453       9.51471453      14.18625421       16 
S      8.23610220       8.23610220      12.90764188       16 
S      9.51820704      11.08766270      11.33881853       16 
S      6.66727885       9.51820704      15.75920238       16 
S     11.08766270       6.66727885      14.18974673       16 
