96
Lattice="16.1179632465 0.0 0.0 -8.05898162326 13.9585656287 0.0 0.0 0.0 15.846321643" Properties=species:S:1:pos:R:3:Z:I:1 unit_cell=conventional pbc="T T F"
Ru      6.04457174       3.48864735       5.53956031       44 
Ru      4.02846217       0.00020646       5.53956031       44 
Ru      2.01543853       3.49042900       5.53956031       44 
Ru      4.02949081       6.97928281       5.54193168       44 
S      1.10673424       1.68827344       6.81770288       16 
S      4.93821138       5.17668613       6.81770288       16 
S      6.04352682       0.11432324       6.81770288       16 
S      4.02949081       2.32642760       5.00000000       16 
S      0.00000000       4.65285521       6.07544396       16 
S      6.04307096       2.20751347       7.55625617       16 
S      3.12568339       4.12969624       7.55625617       16 
S      2.91971808       0.64207311       7.55625617       16 
Ru      2.01508092       5.81507495       8.82962578       44 
Ru     -0.00102864       2.32663407       8.82962578       44 
Ru     -2.01405228       5.81685661       8.82962578       44 
Ru      4.02949081       2.32642760       8.83199715       44 
S      5.13622505       4.01470105      10.10776835       16 
S      4.93821138       0.52383092      10.10776835       16 
S      2.01403600       2.44075085      10.10776835       16 
S      0.00000000       4.65285521       8.29006547       16 
S      4.02949081       6.97928281       9.36550943       16 
S      2.01358015       4.53394108      10.84632164       16 
S     -0.90380742       6.45612384      10.84632164       16 
S     -1.10977274       2.96850071      10.84632164       16 
Ru      2.01508092      10.46793016       5.53956031       44 
Ru     -0.00102864       6.97948928       5.53956031       44 
Ru     -2.01405228      10.46971182       5.53956031       44 
Ru     -0.00000000      13.95856563       5.54193168       44 
S     -2.92275657       8.66755626       6.81770288       16 
S      0.90872057      12.15596894       6.81770288       16 
S      2.01403600       7.09360606       6.81770288       16 
S     -0.00000000       9.30571042       5.00000000       16 
S     -4.02949081      11.63213802       6.07544396       16 
S      2.01358015       9.18679629       7.55625617       16 
S     -0.90380742      11.10897905       7.55625617       16 
S     -1.10977274       7.62135592       7.55625617       16 
Ru     -2.01440989      12.79435777       8.82962578       44 
Ru     -4.03051945       9.30591688       8.82962578       44 
Ru     -6.04354310      12.79613942       8.82962578       44 
Ru     -0.00000000       9.30571042       8.83199715       44 
S      1.10673424      10.99398386      10.10776835       16 
S      0.90872057       7.50311373      10.10776835       16 
S     -2.01545481       9.42003366      10.10776835       16 
S     -4.02949081      11.63213802       8.29006547       16 
S     -0.00000000      13.95856563       9.36550943       16 
S     -2.01591066      11.51322389      10.84632164       16 
S     -4.93329823      13.43540665      10.84632164       16 
S     -5.13926355       9.94778352      10.84632164       16 
Ru     14.10355336       3.48864735       5.53956031       44 
Ru     12.08744379       0.00020646       5.53956031       44 
Ru     10.07442015       3.49042900       5.53956031       44 
Ru     12.08847243       6.97928281       5.54193168       44 
S      9.16571586       1.68827344       6.81770288       16 
S     12.99719300       5.17668613       6.81770288       16 
S     14.10250844       0.11432324       6.81770288       16 
S     12.08847243       2.32642760       5.00000000       16 
S      8.05898162       4.65285521       6.07544396       16 
S     14.10205259       2.20751347       7.55625617       16 
S     11.18466502       4.12969624       7.55625617       16 
S     10.97869970       0.64207311       7.55625617       16 
Ru     10.07406255       5.81507495       8.82962578       44 
Ru      8.05795298       2.32663407       8.82962578       44 
Ru      6.04492934       5.81685661       8.82962578       44 
Ru     12.08847243       2.32642760       8.83199715       44 
S     13.19520667       4.01470105      10.10776835       16 
S     12.99719300       0.52383092      10.10776835       16 
S     10.07301763       2.44075085      10.10776835       16 
S      8.05898162       4.65285521       8.29006547       16 
S     12.08847243       6.97928281       9.36550943       16 
S     10.07256178       4.53394108      10.84632164       16 
S      7.15517421       6.45612384      10.84632164       16 
S      6.94920889       2.96850071      10.84632164       16 
Ru     10.07406255      10.46793016       5.53956031       44 
Ru      8.05795298       6.97948928       5.53956031       44 
Ru      6.04492934      10.46971182       5.53956031       44 
Ru      8.05898162      13.95856563       5.54193168       44 
S      5.13622505       8.66755626       6.81770288       16 
S      8.96770219      12.15596894       6.81770288       16 
S     10.07301763       7.09360606       6.81770288       16 
S      8.05898162       9.30571042       5.00000000       16 
S      4.02949081      11.63213802       6.07544396       16 
S     10.07256178       9.18679629       7.55625617       16 
S      7.15517421      11.10897905       7.55625617       16 
S      6.94920889       7.62135592       7.55625617       16 
Ru      6.04457174      12.79435777       8.82962578       44 
Ru      4.02846217       9.30591688       8.82962578       44 
Ru      2.01543853      12.79613942       8.82962578       44 
Ru      8.05898162       9.30571042       8.83199715       44 
S      9.16571586      10.99398386      10.10776835       16 
S      8.96770219       7.50311373      10.10776835       16 
S      6.04352682       9.42003366      10.10776835       16 
S      4.02949081      11.63213802       8.29006547       16 
S      8.05898162      13.95856563       9.36550943       16 
S      6.04307096      11.51322389      10.84632164       16 
S      3.12568339      13.43540665      10.84632164       16 
S      2.91971808       9.94778352      10.84632164       16 
