128
Lattice="18.9996688048 0.0 0.0 5.60029286091e-16 9.14597231595 0.0 0.0 0.0 18.6388208668" Properties=species:S:1:pos:R:3:Z:I:1 unit_cell=conventional pbc="T T F"
V      3.28341791       1.73991081       7.85974187       23 
V      3.27905133       3.91806041      11.65108372       23 
V      2.32494038       1.63156016      12.60518883       23 
V      2.32851718       4.02808238       6.90484114       23 
V      1.78001417       0.53904021       9.75189702       23 
V      0.42834755       2.82643409       8.40178958       23 
V      0.42564486       2.82551892      11.10564770       23 
V      8.57472333       0.53989865       9.75465545       23 
V      1.30148227       1.73878416       5.87780623       23 
V      6.04812816       1.62482766       8.88482422       23 
V      9.05868316       3.91080005       5.87432892       23 
V      4.31236320       4.02378300       8.88868716       23 
V      8.03320518       4.02648918      12.60952914       23 
V      8.02886488       1.63156016       6.90126433       23 
V      7.07475976       3.91806041       7.85537529       23 
V      7.07839142       1.74150766      11.65471538       23 
V      6.52932374       2.82551892       5.00196882       23 
V      5.17833149       0.53989865      13.15104729       23 
V      5.17557306       0.53904021       6.35633813       23 
V      3.82546562       2.82643409       5.00467151       23 
V      6.05160015       4.02488675      10.62792411       23 
V      1.29800496       3.91080005      13.63500712       23 
V      4.30850026       1.62482766      10.62445211       23 
V      9.06249691       1.73776842      13.63882087       23 
S      7.92017724       2.82315896       9.75011176       16 
S      0.42979680       0.53630794      11.76086505       16 
S      0.42367604       0.53668300       7.74642667       16 
S      2.43435866       2.82281349       9.75586612       16 
S      3.17010271       0.53668300       5.00000000       16 
S      5.17954216       2.82281349       7.01068262       16 
S      5.17378780       2.82315896      12.49650120       16 
S      7.18454109       0.53630794       5.00612076       16 
V      3.28341791       6.31289697       7.85974187       23 
V      3.27905133       8.49104657      11.65108372       23 
V      2.32494038       6.20454631      12.60518883       23 
V      2.32851718       8.60106854       6.90484114       23 
V      1.78001417       5.11202637       9.75189702       23 
V      0.42834755       7.39942025       8.40178958       23 
V      0.42564486       7.39850508      11.10564770       23 
V      8.57472333       5.11288481       9.75465545       23 
V      1.30148227       6.31177032       5.87780623       23 
V      6.04812816       6.19781382       8.88482422       23 
V      9.05868316       8.48378620       5.87432892       23 
V      4.31236320       8.59676916       8.88868716       23 
V      8.03320518       8.59947534      12.60952914       23 
V      8.02886488       6.20454631       6.90126433       23 
V      7.07475976       8.49104657       7.85537529       23 
V      7.07839142       6.31449382      11.65471538       23 
V      6.52932374       7.39850508       5.00196882       23 
V      5.17833149       5.11288481      13.15104729       23 
V      5.17557306       5.11202637       6.35633813       23 
V      3.82546562       7.39942025       5.00467151       23 
V      6.05160015       8.59787291      10.62792411       23 
V      1.29800496       8.48378620      13.63500712       23 
V      4.30850026       6.19781382      10.62445211       23 
V      9.06249691       6.31075458      13.63882087       23 
S      7.92017724       7.39614512       9.75011176       16 
S      0.42979680       5.10929410      11.76086505       16 
S      0.42367604       5.10966915       7.74642667       16 
S      2.43435866       7.39579964       9.75586612       16 
S      3.17010271       5.10966915       5.00000000       16 
S      5.17954216       7.39579964       7.01068262       16 
S      5.17378780       7.39614512      12.49650120       16 
S      7.18454109       5.10929410       5.00612076       16 
V     12.78325231       1.73991081       7.85974187       23 
V     12.77888573       3.91806041      11.65108372       23 
V     11.82477478       1.63156016      12.60518883       23 
V     11.82835158       4.02808238       6.90484114       23 
V     11.27984857       0.53904021       9.75189702       23 
V      9.92818195       2.82643409       8.40178958       23 
V      9.92547927       2.82551892      11.10564770       23 
V     18.07455773       0.53989865       9.75465545       23 
V     10.80131667       1.73878416       5.87780623       23 
V     15.54796256       1.62482766       8.88482422       23 
V     18.55851756       3.91080005       5.87432892       23 
V     13.81219760       4.02378300       8.88868716       23 
V     17.53303958       4.02648918      12.60952914       23 
V     17.52869928       1.63156016       6.90126433       23 
V     16.57459416       3.91806041       7.85537529       23 
V     16.57822582       1.74150766      11.65471538       23 
V     16.02915814       2.82551892       5.00196882       23 
V     14.67816590       0.53989865      13.15104729       23 
V     14.67540746       0.53904021       6.35633813       23 
V     13.32530003       2.82643409       5.00467151       23 
V     15.55143455       4.02488675      10.62792411       23 
V     10.79783937       3.91080005      13.63500712       23 
V     13.80833467       1.62482766      10.62445211       23 
V     18.56233131       1.73776842      13.63882087       23 
S     17.42001165       2.82315896       9.75011176       16 
S      9.92963120       0.53630794      11.76086505       16 
S      9.92351044       0.53668300       7.74642667       16 
S     11.93419306       2.82281349       9.75586612       16 
S     12.66993711       0.53668300       5.00000000       16 
S     14.67937656       2.82281349       7.01068262       16 
S     14.67362220       2.82315896      12.49650120       16 
S     16.68437549       0.53630794       5.00612076       16 
V     12.78325231       6.31289697       7.85974187       23 
V     12.77888573       8.49104657      11.65108372       23 
V     11.82477478       6.20454631      12.60518883       23 
V     11.82835158       8.60106854       6.90484114       23 
V     11.27984857       5.11202637       9.75189702       23 
V      9.92818195       7.39942025       8.40178958       23 
V      9.92547927       7.39850508      11.10564770       23 
V     18.07455773       5.11288481       9.75465545       23 
V     10.80131667       6.31177032       5.87780623       23 
V     15.54796256       6.19781382       8.88482422       23 
V     18.55851756       8.48378620       5.87432892       23 
V     13.81219760       8.59676916       8.88868716       23 
V     17.53303958       8.59947534      12.60952914       23 
V     17.52869928       6.20454631       6.90126433       23 
V     16.57459416       8.49104657       7.85537529       23 
V     16.57822582       6.31449382      11.65471538       23 
V     16.02915814       7.39850508       5.00196882       23 
V     14.67816590       5.11288481      13.15104729       23 
V     14.67540746       5.11202637       6.35633813       23 
V     13.32530003       7.39942025       5.00467151       23 
V     15.55143455       8.59787291      10.62792411       23 
V     10.79783937       8.48378620      13.63500712       23 
V     13.80833467       6.19781382      10.62445211       23 
V     18.56233131       6.31075458      13.63882087       23 
S     17.42001165       7.39614512       9.75011176       16 
S      9.92963120       5.10929410      11.76086505       16 
S      9.92351044       5.10966915       7.74642667       16 
S     11.93419306       7.39579964       9.75586612       16 
S     12.66993711       5.10966915       5.00000000       16 
S     14.67937656       7.39579964       7.01068262       16 
S     14.67362220       7.39614512      12.49650120       16 
S     16.68437549       5.10929410       5.00612076       16 
