256
Lattice="20.997926256 0.0 0.0 1.285752158908e-15 20.997926256 0.0 0.0 0.0 17.874222346" Properties=species:S:1:pos:R:3 unit_cell=conventional pbc="T T F"
Sc       3.93711117       3.93711117      12.87422235 
Sc       3.93711117       3.93711117       7.62474078 
Sc       1.31237039       3.93711117       5.00000000 
Sc       3.93711117       1.31237039       5.00000000 
S       1.31237039       1.31237039       5.00000000 
S       3.93711117       3.93711117       5.00000000 
S       1.31237039       3.93711117       7.62474078 
S       3.93711117       1.31237039       7.62474078 
Sc       1.31237039       1.31237039      12.87422235 
Sc       1.31237039       1.31237039       7.62474078 
Sc       1.31237039       3.93711117      10.24948156 
Sc       3.93711117       1.31237039      10.24948156 
S       1.31237039       1.31237039      10.24948156 
S       3.93711117       3.93711117      10.24948156 
S       1.31237039       3.93711117      12.87422235 
S       3.93711117       1.31237039      12.87422235 
Sc       1.31237039       6.56185195       7.62474078 
Sc       3.93711117       9.18659274       7.62474078 
Sc       1.31237039       9.18659274       5.00000000 
Sc       3.93711117       6.56185195       5.00000000 
S       1.31237039       6.56185195       5.00000000 
S       3.93711117       9.18659274       5.00000000 
S       1.31237039       9.18659274       7.62474078 
S       3.93711117       6.56185195       7.62474078 
Sc       1.31237039       6.56185195      12.87422235 
Sc       3.93711117       9.18659274      12.87422235 
Sc       1.31237039       9.18659274      10.24948156 
Sc       3.93711117       6.56185195      10.24948156 
S       1.31237039       6.56185195      10.24948156 
S       3.93711117       9.18659274      10.24948156 
S       1.31237039       9.18659274      12.87422235 
S       3.93711117       6.56185195      12.87422235 
Sc       6.56185195       1.31237039       7.62474078 
Sc       9.18659274       3.93711117       7.62474078 
Sc       6.56185195       3.93711117       5.00000000 
Sc       9.18659274       1.31237039       5.00000000 
S       6.56185195       1.31237039       5.00000000 
S       9.18659274       3.93711117       5.00000000 
S       6.56185195       3.93711117       7.62474078 
S       9.18659274       1.31237039       7.62474078 
Sc       6.56185195       1.31237039      12.87422235 
Sc       9.18659274       3.93711117      12.87422235 
Sc       6.56185195       3.93711117      10.24948156 
Sc       9.18659274       1.31237039      10.24948156 
S       6.56185195       1.31237039      10.24948156 
S       9.18659274       3.93711117      10.24948156 
S       6.56185195       3.93711117      12.87422235 
S       9.18659274       1.31237039      12.87422235 
Sc       6.56185195       6.56185195       7.62474078 
Sc       9.18659274       9.18659274       7.62474078 
Sc       6.56185195       9.18659274       5.00000000 
Sc       9.18659274       6.56185195       5.00000000 
S       6.56185195       6.56185195       5.00000000 
S       9.18659274       9.18659274       5.00000000 
S       6.56185195       9.18659274       7.62474078 
S       9.18659274       6.56185195       7.62474078 
Sc       6.56185195       6.56185195      12.87422235 
Sc       9.18659274       9.18659274      12.87422235 
Sc       6.56185195       9.18659274      10.24948156 
Sc       9.18659274       6.56185195      10.24948156 
S       6.56185195       6.56185195      10.24948156 
S       9.18659274       9.18659274      10.24948156 
S       6.56185195       9.18659274      12.87422235 
S       9.18659274       6.56185195      12.87422235 
Sc       1.31237039      11.81133352       7.62474078 
Sc       3.93711117      14.43607430       7.62474078 
Sc       1.31237039      14.43607430       5.00000000 
Sc       3.93711117      11.81133352       5.00000000 
S       1.31237039      11.81133352       5.00000000 
S       3.93711117      14.43607430       5.00000000 
S       1.31237039      14.43607430       7.62474078 
S       3.93711117      11.81133352       7.62474078 
Sc       1.31237039      11.81133352      12.87422235 
Sc       3.93711117      14.43607430      12.87422235 
Sc       1.31237039      14.43607430      10.24948156 
Sc       3.93711117      11.81133352      10.24948156 
S       1.31237039      11.81133352      10.24948156 
S       3.93711117      14.43607430      10.24948156 
S       1.31237039      14.43607430      12.87422235 
S       3.93711117      11.81133352      12.87422235 
Sc       1.31237039      17.06081508       7.62474078 
Sc       3.93711117      19.68555587       7.62474078 
Sc       1.31237039      19.68555587       5.00000000 
Sc       3.93711117      17.06081508       5.00000000 
S       1.31237039      17.06081508       5.00000000 
S       3.93711117      19.68555587       5.00000000 
S       1.31237039      19.68555587       7.62474078 
S       3.93711117      17.06081508       7.62474078 
Sc       1.31237039      17.06081508      12.87422235 
Sc       3.93711117      19.68555587      12.87422235 
Sc       1.31237039      19.68555587      10.24948156 
Sc       3.93711117      17.06081508      10.24948156 
S       1.31237039      17.06081508      10.24948156 
S       3.93711117      19.68555587      10.24948156 
S       1.31237039      19.68555587      12.87422235 
S       3.93711117      17.06081508      12.87422235 
Sc       6.56185195      11.81133352       7.62474078 
Sc       9.18659274      14.43607430       7.62474078 
Sc       6.56185195      14.43607430       5.00000000 
Sc       9.18659274      11.81133352       5.00000000 
S       6.56185195      11.81133352       5.00000000 
S       9.18659274      14.43607430       5.00000000 
S       6.56185195      14.43607430       7.62474078 
S       9.18659274      11.81133352       7.62474078 
Sc       6.56185195      11.81133352      12.87422235 
Sc       9.18659274      14.43607430      12.87422235 
Sc       6.56185195      14.43607430      10.24948156 
Sc       9.18659274      11.81133352      10.24948156 
S       6.56185195      11.81133352      10.24948156 
S       9.18659274      14.43607430      10.24948156 
S       6.56185195      14.43607430      12.87422235 
S       9.18659274      11.81133352      12.87422235 
Sc       6.56185195      17.06081508       7.62474078 
Sc       9.18659274      19.68555587       7.62474078 
Sc       6.56185195      19.68555587       5.00000000 
Sc       9.18659274      17.06081508       5.00000000 
S       6.56185195      17.06081508       5.00000000 
S       9.18659274      19.68555587       5.00000000 
S       6.56185195      19.68555587       7.62474078 
S       9.18659274      17.06081508       7.62474078 
Sc       6.56185195      17.06081508      12.87422235 
Sc       9.18659274      19.68555587      12.87422235 
Sc       6.56185195      19.68555587      10.24948156 
Sc       9.18659274      17.06081508      10.24948156 
S       6.56185195      17.06081508      10.24948156 
S       9.18659274      19.68555587      10.24948156 
S       6.56185195      19.68555587      12.87422235 
S       9.18659274      17.06081508      12.87422235 
Sc      11.81133352       1.31237039       7.62474078 
Sc      14.43607430       3.93711117       7.62474078 
Sc      11.81133352       3.93711117       5.00000000 
Sc      14.43607430       1.31237039       5.00000000 
S      11.81133352       1.31237039       5.00000000 
S      14.43607430       3.93711117       5.00000000 
S      11.81133352       3.93711117       7.62474078 
S      14.43607430       1.31237039       7.62474078 
Sc      11.81133352       1.31237039      12.87422235 
Sc      14.43607430       3.93711117      12.87422235 
Sc      11.81133352       3.93711117      10.24948156 
Sc      14.43607430       1.31237039      10.24948156 
S      11.81133352       1.31237039      10.24948156 
S      14.43607430       3.93711117      10.24948156 
S      11.81133352       3.93711117      12.87422235 
S      14.43607430       1.31237039      12.87422235 
Sc      11.81133352       6.56185195       7.62474078 
Sc      14.43607430       9.18659274       7.62474078 
Sc      11.81133352       9.18659274       5.00000000 
Sc      14.43607430       6.56185195       5.00000000 
S      11.81133352       6.56185195       5.00000000 
S      14.43607430       9.18659274       5.00000000 
S      11.81133352       9.18659274       7.62474078 
S      14.43607430       6.56185195       7.62474078 
Sc      11.81133352       6.56185195      12.87422235 
Sc      14.43607430       9.18659274      12.87422235 
Sc      11.81133352       9.18659274      10.24948156 
Sc      14.43607430       6.56185195      10.24948156 
S      11.81133352       6.56185195      10.24948156 
S      14.43607430       9.18659274      10.24948156 
S      11.81133352       9.18659274      12.87422235 
S      14.43607430       6.56185195      12.87422235 
Sc      17.06081508       1.31237039       7.62474078 
Sc      19.68555587       3.93711117       7.62474078 
Sc      17.06081508       3.93711117       5.00000000 
Sc      19.68555587       1.31237039       5.00000000 
S      17.06081508       1.31237039       5.00000000 
S      19.68555587       3.93711117       5.00000000 
S      17.06081508       3.93711117       7.62474078 
S      19.68555587       1.31237039       7.62474078 
Sc      17.06081508       1.31237039      12.87422235 
Sc      19.68555587       3.93711117      12.87422235 
Sc      17.06081508       3.93711117      10.24948156 
Sc      19.68555587       1.31237039      10.24948156 
S      17.06081508       1.31237039      10.24948156 
S      19.68555587       3.93711117      10.24948156 
S      17.06081508       3.93711117      12.87422235 
S      19.68555587       1.31237039      12.87422235 
Sc      17.06081508       6.56185195       7.62474078 
Sc      19.68555587       9.18659274       7.62474078 
Sc      17.06081508       9.18659274       5.00000000 
Sc      19.68555587       6.56185195       5.00000000 
S      17.06081508       6.56185195       5.00000000 
S      19.68555587       9.18659274       5.00000000 
S      17.06081508       9.18659274       7.62474078 
S      19.68555587       6.56185195       7.62474078 
Sc      17.06081508       6.56185195      12.87422235 
Sc      19.68555587       9.18659274      12.87422235 
Sc      17.06081508       9.18659274      10.24948156 
Sc      19.68555587       6.56185195      10.24948156 
S      17.06081508       6.56185195      10.24948156 
S      19.68555587       9.18659274      10.24948156 
S      17.06081508       9.18659274      12.87422235 
S      19.68555587       6.56185195      12.87422235 
Sc      11.81133352      11.81133352       7.62474078 
Sc      14.43607430      14.43607430       7.62474078 
Sc      11.81133352      14.43607430       5.00000000 
Sc      14.43607430      11.81133352       5.00000000 
S      11.81133352      11.81133352       5.00000000 
S      14.43607430      14.43607430       5.00000000 
S      11.81133352      14.43607430       7.62474078 
S      14.43607430      11.81133352       7.62474078 
Sc      11.81133352      11.81133352      12.87422235 
Sc      14.43607430      14.43607430      12.87422235 
Sc      11.81133352      14.43607430      10.24948156 
Sc      14.43607430      11.81133352      10.24948156 
S      11.81133352      11.81133352      10.24948156 
S      14.43607430      14.43607430      10.24948156 
S      11.81133352      14.43607430      12.87422235 
S      14.43607430      11.81133352      12.87422235 
Sc      11.81133352      17.06081508       7.62474078 
Sc      14.43607430      19.68555587       7.62474078 
Sc      11.81133352      19.68555587       5.00000000 
Sc      14.43607430      17.06081508       5.00000000 
S      11.81133352      17.06081508       5.00000000 
S      14.43607430      19.68555587       5.00000000 
S      11.81133352      19.68555587       7.62474078 
S      14.43607430      17.06081508       7.62474078 
Sc      11.81133352      17.06081508      12.87422235 
Sc      14.43607430      19.68555587      12.87422235 
Sc      11.81133352      19.68555587      10.24948156 
Sc      14.43607430      17.06081508      10.24948156 
S      11.81133352      17.06081508      10.24948156 
S      14.43607430      19.68555587      10.24948156 
S      11.81133352      19.68555587      12.87422235 
S      14.43607430      17.06081508      12.87422235 
Sc      17.06081508      11.81133352       7.62474078 
Sc      19.68555587      14.43607430       7.62474078 
Sc      17.06081508      14.43607430       5.00000000 
Sc      19.68555587      11.81133352       5.00000000 
S      17.06081508      11.81133352       5.00000000 
S      19.68555587      14.43607430       5.00000000 
S      17.06081508      14.43607430       7.62474078 
S      19.68555587      11.81133352       7.62474078 
Sc      17.06081508      11.81133352      12.87422235 
Sc      19.68555587      14.43607430      12.87422235 
Sc      17.06081508      14.43607430      10.24948156 
Sc      19.68555587      11.81133352      10.24948156 
S      17.06081508      11.81133352      10.24948156 
S      19.68555587      14.43607430      10.24948156 
S      17.06081508      14.43607430      12.87422235 
S      19.68555587      11.81133352      12.87422235 
Sc      17.06081508      17.06081508       7.62474078 
Sc      19.68555587      19.68555587       7.62474078 
Sc      17.06081508      19.68555587       5.00000000 
Sc      19.68555587      17.06081508       5.00000000 
S      17.06081508      17.06081508       5.00000000 
S      19.68555587      19.68555587       5.00000000 
S      17.06081508      19.68555587       7.62474078 
S      19.68555587      17.06081508       7.62474078 
Sc      17.06081508      17.06081508      12.87422235 
Sc      19.68555587      19.68555587      12.87422235 
Sc      17.06081508      19.68555587      10.24948156 
Sc      19.68555587      17.06081508      10.24948156 
S      17.06081508      17.06081508      10.24948156 
S      19.68555587      19.68555587      10.24948156 
S      17.06081508      19.68555587      12.87422235 
S      19.68555587      17.06081508      12.87422235 
