256
Lattice="29.695552093 0.0 0.0 0.0 20.997926256 0.0 0.0 0.0 15.5679160174" Properties=species:S:1:pos:R:3 unit_cell=conventional pbc="T T F"
Sc       3.71194401       1.31237039      10.56791602 
Sc       3.71194401       1.31237039       6.85597201 
Sc       0.00000000       1.31237039       6.85597201 
Sc       1.85597201       3.93711117       5.00000000 
S       0.00000000       3.93711117       6.85597201 
S       1.85597201       1.31237039       5.00000000 
S       5.56791602       1.31237039       5.00000000 
S       3.71194401       3.93711117       6.85597201 
Sc       1.85597201       3.93711117       8.71194401 
Sc       7.42388802       1.31237039      10.56791602 
Sc       5.56791602       3.93711117       5.00000000 
Sc       5.56791602       3.93711117       8.71194401 
S       3.71194401       3.93711117      10.56791602 
S       5.56791602       1.31237039       8.71194401 
S       1.85597201       1.31237039       8.71194401 
S       0.00000000       3.93711117      10.56791602 
Sc       5.56791602       9.18659274       5.00000000 
Sc       3.71194401       6.56185195       6.85597201 
Sc       0.00000000       6.56185195       6.85597201 
Sc       1.85597201       9.18659274       5.00000000 
S       0.00000000       9.18659274       6.85597201 
S       1.85597201       6.56185195       5.00000000 
S       5.56791602       6.56185195       5.00000000 
S       3.71194401       9.18659274       6.85597201 
Sc       1.85597201       9.18659274       8.71194401 
Sc       7.42388802       6.56185195      10.56791602 
Sc       3.71194401       6.56185195      10.56791602 
Sc       5.56791602       9.18659274       8.71194401 
S       3.71194401       9.18659274      10.56791602 
S       5.56791602       6.56185195       8.71194401 
S       1.85597201       6.56185195       8.71194401 
S       0.00000000       9.18659274      10.56791602 
Sc      12.99180404       3.93711117       5.00000000 
Sc      11.13583203       1.31237039       6.85597201 
Sc       7.42388802       1.31237039       6.85597201 
Sc       9.27986003       3.93711117       5.00000000 
S       7.42388802       3.93711117       6.85597201 
S       9.27986003       1.31237039       5.00000000 
S      12.99180404       1.31237039       5.00000000 
S      11.13583203       3.93711117       6.85597201 
Sc       9.27986003       3.93711117       8.71194401 
Sc      14.84777605       1.31237039      10.56791602 
Sc      11.13583203       1.31237039      10.56791602 
Sc      12.99180404       3.93711117       8.71194401 
S      11.13583203       3.93711117      10.56791602 
S      12.99180404       1.31237039       8.71194401 
S       9.27986003       1.31237039       8.71194401 
S       7.42388802       3.93711117      10.56791602 
Sc      12.99180404       9.18659274       5.00000000 
Sc      11.13583203       6.56185195       6.85597201 
Sc       7.42388802       6.56185195       6.85597201 
Sc       9.27986003       9.18659274       5.00000000 
S       7.42388802       9.18659274       6.85597201 
S       9.27986003       6.56185195       5.00000000 
S      12.99180404       6.56185195       5.00000000 
S      11.13583203       9.18659274       6.85597201 
Sc       9.27986003       9.18659274       8.71194401 
Sc      14.84777605       6.56185195      10.56791602 
Sc      11.13583203       6.56185195      10.56791602 
Sc      12.99180404       9.18659274       8.71194401 
S      11.13583203       9.18659274      10.56791602 
S      12.99180404       6.56185195       8.71194401 
S       9.27986003       6.56185195       8.71194401 
S       7.42388802       9.18659274      10.56791602 
Sc       5.56791602      14.43607430       5.00000000 
Sc       3.71194401      11.81133352       6.85597201 
Sc       0.00000000      11.81133352       6.85597201 
Sc       1.85597201      14.43607430       5.00000000 
S       0.00000000      14.43607430       6.85597201 
S       1.85597201      11.81133352       5.00000000 
S       5.56791602      11.81133352       5.00000000 
S       3.71194401      14.43607430       6.85597201 
Sc       1.85597201      14.43607430       8.71194401 
Sc       7.42388802      11.81133352      10.56791602 
Sc       3.71194401      11.81133352      10.56791602 
Sc       5.56791602      14.43607430       8.71194401 
S       3.71194401      14.43607430      10.56791602 
S       5.56791602      11.81133352       8.71194401 
S       1.85597201      11.81133352       8.71194401 
S       0.00000000      14.43607430      10.56791602 
Sc       5.56791602      19.68555587       5.00000000 
Sc       3.71194401      17.06081508       6.85597201 
Sc       0.00000000      17.06081508       6.85597201 
Sc       1.85597201      19.68555587       5.00000000 
S       0.00000000      19.68555587       6.85597201 
S       1.85597201      17.06081508       5.00000000 
S       5.56791602      17.06081508       5.00000000 
S       3.71194401      19.68555587       6.85597201 
Sc       1.85597201      19.68555587       8.71194401 
Sc       7.42388802      17.06081508      10.56791602 
Sc       3.71194401      17.06081508      10.56791602 
Sc       5.56791602      19.68555587       8.71194401 
S       3.71194401      19.68555587      10.56791602 
S       5.56791602      17.06081508       8.71194401 
S       1.85597201      17.06081508       8.71194401 
S       0.00000000      19.68555587      10.56791602 
Sc      12.99180404      14.43607430       5.00000000 
Sc      11.13583203      11.81133352       6.85597201 
Sc       7.42388802      11.81133352       6.85597201 
Sc       9.27986003      14.43607430       5.00000000 
S       7.42388802      14.43607430       6.85597201 
S       9.27986003      11.81133352       5.00000000 
S      12.99180404      11.81133352       5.00000000 
S      11.13583203      14.43607430       6.85597201 
Sc       9.27986003      14.43607430       8.71194401 
Sc      14.84777605      11.81133352      10.56791602 
Sc      11.13583203      11.81133352      10.56791602 
Sc      12.99180404      14.43607430       8.71194401 
S      11.13583203      14.43607430      10.56791602 
S      12.99180404      11.81133352       8.71194401 
S       9.27986003      11.81133352       8.71194401 
S       7.42388802      14.43607430      10.56791602 
Sc      12.99180404      19.68555587       5.00000000 
Sc      11.13583203      17.06081508       6.85597201 
Sc       7.42388802      17.06081508       6.85597201 
Sc       9.27986003      19.68555587       5.00000000 
S       7.42388802      19.68555587       6.85597201 
S       9.27986003      17.06081508       5.00000000 
S      12.99180404      17.06081508       5.00000000 
S      11.13583203      19.68555587       6.85597201 
Sc       9.27986003      19.68555587       8.71194401 
Sc      14.84777605      17.06081508      10.56791602 
Sc      11.13583203      17.06081508      10.56791602 
Sc      12.99180404      19.68555587       8.71194401 
S      11.13583203      19.68555587      10.56791602 
S      12.99180404      17.06081508       8.71194401 
S       9.27986003      17.06081508       8.71194401 
S       7.42388802      19.68555587      10.56791602 
Sc      20.41569207       3.93711117       5.00000000 
Sc      18.55972006       1.31237039       6.85597201 
Sc      14.84777605       1.31237039       6.85597201 
Sc      16.70374806       3.93711117       5.00000000 
S      14.84777605       3.93711117       6.85597201 
S      16.70374806       1.31237039       5.00000000 
S      20.41569207       1.31237039       5.00000000 
S      18.55972006       3.93711117       6.85597201 
Sc      16.70374806       3.93711117       8.71194401 
Sc      22.27166407       1.31237039      10.56791602 
Sc      18.55972006       1.31237039      10.56791602 
Sc      20.41569207       3.93711117       8.71194401 
S      18.55972006       3.93711117      10.56791602 
S      20.41569207       1.31237039       8.71194401 
S      16.70374806       1.31237039       8.71194401 
S      14.84777605       3.93711117      10.56791602 
Sc      20.41569207       9.18659274       5.00000000 
Sc      18.55972006       6.56185195       6.85597201 
Sc      14.84777605       6.56185195       6.85597201 
Sc      16.70374806       9.18659274       5.00000000 
S      14.84777605       9.18659274       6.85597201 
S      16.70374806       6.56185195       5.00000000 
S      20.41569207       6.56185195       5.00000000 
S      18.55972006       9.18659274       6.85597201 
Sc      16.70374806       9.18659274       8.71194401 
Sc      22.27166407       6.56185195      10.56791602 
Sc      18.55972006       6.56185195      10.56791602 
Sc      20.41569207       9.18659274       8.71194401 
S      18.55972006       9.18659274      10.56791602 
S      20.41569207       6.56185195       8.71194401 
S      16.70374806       6.56185195       8.71194401 
S      14.84777605       9.18659274      10.56791602 
Sc      27.83958009       3.93711117       5.00000000 
Sc      25.98360808       1.31237039       6.85597201 
Sc      22.27166407       1.31237039       6.85597201 
Sc      24.12763608       3.93711117       5.00000000 
S      22.27166407       3.93711117       6.85597201 
S      24.12763608       1.31237039       5.00000000 
S      27.83958009       1.31237039       5.00000000 
S      25.98360808       3.93711117       6.85597201 
Sc      24.12763608       3.93711117       8.71194401 
Sc      29.69555210       1.31237039      10.56791602 
Sc      25.98360808       1.31237039      10.56791602 
Sc      27.83958009       3.93711117       8.71194401 
S      25.98360808       3.93711117      10.56791602 
S      27.83958009       1.31237039       8.71194401 
S      24.12763608       1.31237039       8.71194401 
S      22.27166407       3.93711117      10.56791602 
Sc      27.83958009       9.18659274       5.00000000 
Sc      25.98360808       6.56185195       6.85597201 
Sc      22.27166407       6.56185195       6.85597201 
Sc      24.12763608       9.18659274       5.00000000 
S      22.27166407       9.18659274       6.85597201 
S      24.12763608       6.56185195       5.00000000 
S      27.83958009       6.56185195       5.00000000 
S      25.98360808       9.18659274       6.85597201 
Sc      24.12763608       9.18659274       8.71194401 
Sc      29.69555210       6.56185195      10.56791602 
Sc      25.98360808       6.56185195      10.56791602 
Sc      27.83958009       9.18659274       8.71194401 
S      25.98360808       9.18659274      10.56791602 
S      27.83958009       6.56185195       8.71194401 
S      24.12763608       6.56185195       8.71194401 
S      22.27166407       9.18659274      10.56791602 
Sc      20.41569207      14.43607430       5.00000000 
Sc      18.55972006      11.81133352       6.85597201 
Sc      14.84777605      11.81133352       6.85597201 
Sc      16.70374806      14.43607430       5.00000000 
S      14.84777605      14.43607430       6.85597201 
S      16.70374806      11.81133352       5.00000000 
S      20.41569207      11.81133352       5.00000000 
S      18.55972006      14.43607430       6.85597201 
Sc      16.70374806      14.43607430       8.71194401 
Sc      22.27166407      11.81133352      10.56791602 
Sc      18.55972006      11.81133352      10.56791602 
Sc      20.41569207      14.43607430       8.71194401 
S      18.55972006      14.43607430      10.56791602 
S      20.41569207      11.81133352       8.71194401 
S      16.70374806      11.81133352       8.71194401 
S      14.84777605      14.43607430      10.56791602 
Sc      20.41569207      19.68555587       5.00000000 
Sc      18.55972006      17.06081508       6.85597201 
Sc      14.84777605      17.06081508       6.85597201 
Sc      16.70374806      19.68555587       5.00000000 
S      14.84777605      19.68555587       6.85597201 
S      16.70374806      17.06081508       5.00000000 
S      20.41569207      17.06081508       5.00000000 
S      18.55972006      19.68555587       6.85597201 
Sc      16.70374806      19.68555587       8.71194401 
Sc      22.27166407      17.06081508      10.56791602 
Sc      18.55972006      17.06081508      10.56791602 
Sc      20.41569207      19.68555587       8.71194401 
S      18.55972006      19.68555587      10.56791602 
S      20.41569207      17.06081508       8.71194401 
S      16.70374806      17.06081508       8.71194401 
S      14.84777605      19.68555587      10.56791602 
Sc      27.83958009      14.43607430       5.00000000 
Sc      25.98360808      11.81133352       6.85597201 
Sc      22.27166407      11.81133352       6.85597201 
Sc      24.12763608      14.43607430       5.00000000 
S      22.27166407      14.43607430       6.85597201 
S      24.12763608      11.81133352       5.00000000 
S      27.83958009      11.81133352       5.00000000 
S      25.98360808      14.43607430       6.85597201 
Sc      24.12763608      14.43607430       8.71194401 
Sc      29.69555210      11.81133352      10.56791602 
Sc      25.98360808      11.81133352      10.56791602 
Sc      27.83958009      14.43607430       8.71194401 
S      25.98360808      14.43607430      10.56791602 
S      27.83958009      11.81133352       8.71194401 
S      24.12763608      11.81133352       8.71194401 
S      22.27166407      14.43607430      10.56791602 
Sc      27.83958009      19.68555587       5.00000000 
Sc      25.98360808      17.06081508       6.85597201 
Sc      22.27166407      17.06081508       6.85597201 
Sc      24.12763608      19.68555587       5.00000000 
S      22.27166407      19.68555587       6.85597201 
S      24.12763608      17.06081508       5.00000000 
S      27.83958009      17.06081508       5.00000000 
S      25.98360808      19.68555587       6.85597201 
Sc      24.12763608      19.68555587       8.71194401 
Sc      29.69555210      17.06081508      10.56791602 
Sc      25.98360808      17.06081508      10.56791602 
Sc      27.83958009      19.68555587       8.71194401 
S      25.98360808      19.68555587      10.56791602 
S      27.83958009      17.06081508       8.71194401 
S      24.12763608      17.06081508       8.71194401 
S      22.27166407      19.68555587      10.56791602 
