256
Lattice="29.695552093 0.0 0.0 -14.84777604648 25.7171024918 0.0 0.0 -0.0 14.5461843911" Properties=species:S:1:pos:R:3 unit_cell=conventional pbc="T T F"
Sc       0.00000000       2.14309187       5.00000000 
Sc       3.71194401       2.14309187       5.00000000 
Sc       1.85597201       5.35772969       5.00000000 
Sc      -1.85597201       5.35772969       5.00000000 
S       0.00000000       0.00000000       6.51539480 
S      -1.85597201       3.21463781       6.51539480 
S       1.85597201       3.21463781       6.51539480 
S       3.71194401       0.00000000       6.51539480 
Sc       1.85597201       1.07154594       8.03078959 
Sc       0.00000000       4.28618375       8.03078959 
Sc       3.71194401       4.28618375       8.03078959 
Sc       5.56791602       1.07154594       8.03078959 
S       3.71194401       2.14309187       9.54618439 
S       1.85597201       5.35772969       9.54618439 
S      -1.85597201       5.35772969       9.54618439 
S       0.00000000       2.14309187       9.54618439 
Sc      -1.85597201      11.78700531       5.00000000 
Sc       0.00000000       8.57236750       5.00000000 
Sc      -3.71194401       8.57236750       5.00000000 
Sc      -5.56791602      11.78700531       5.00000000 
S      -3.71194401       6.42927562       6.51539480 
S      -5.56791602       9.64391343       6.51539480 
S      -1.85597201       9.64391343       6.51539480 
S       0.00000000       6.42927562       6.51539480 
Sc      -1.85597201       7.50082156       8.03078959 
Sc      -3.71194401      10.71545937       8.03078959 
Sc       0.00000000      10.71545937       8.03078959 
Sc       1.85597201       7.50082156       8.03078959 
S       0.00000000       8.57236750       9.54618439 
S      -1.85597201      11.78700531       9.54618439 
S      -5.56791602      11.78700531       9.54618439 
S      -3.71194401       8.57236750       9.54618439 
Sc       9.27986003       5.35772969       5.00000000 
Sc      11.13583203       2.14309187       5.00000000 
Sc       7.42388802       2.14309187       5.00000000 
Sc       5.56791602       5.35772969       5.00000000 
S       7.42388802       0.00000000       6.51539480 
S       5.56791602       3.21463781       6.51539480 
S       9.27986003       3.21463781       6.51539480 
S      11.13583203       0.00000000       6.51539480 
Sc       9.27986003       1.07154594       8.03078959 
Sc       7.42388802       4.28618375       8.03078959 
Sc      11.13583203       4.28618375       8.03078959 
Sc      12.99180404       1.07154594       8.03078959 
S      11.13583203       2.14309187       9.54618439 
S       9.27986003       5.35772969       9.54618439 
S       5.56791602       5.35772969       9.54618439 
S       7.42388802       2.14309187       9.54618439 
Sc       5.56791602      11.78700531       5.00000000 
Sc       7.42388802       8.57236750       5.00000000 
Sc       3.71194401       8.57236750       5.00000000 
Sc       1.85597201      11.78700531       5.00000000 
S       3.71194401       6.42927562       6.51539480 
S       1.85597201       9.64391343       6.51539480 
S       5.56791602       9.64391343       6.51539480 
S       7.42388802       6.42927562       6.51539480 
Sc       5.56791602       7.50082156       8.03078959 
Sc       3.71194401      10.71545937       8.03078959 
Sc       7.42388802      10.71545937       8.03078959 
Sc       9.27986003       7.50082156       8.03078959 
S       7.42388802       8.57236750       9.54618439 
S       5.56791602      11.78700531       9.54618439 
S       1.85597201      11.78700531       9.54618439 
S       3.71194401       8.57236750       9.54618439 
Sc      -5.56791601      18.21628094       5.00000000 
Sc      -3.71194401      15.00164312       5.00000000 
Sc      -7.42388802      15.00164312       5.00000000 
Sc      -9.27986003      18.21628094       5.00000000 
S      -7.42388802      12.85855125       6.51539480 
S      -9.27986003      16.07318906       6.51539480 
S      -5.56791601      16.07318906       6.51539480 
S      -3.71194401      12.85855125       6.51539480 
Sc      -5.56791601      13.93009719       8.03078959 
Sc      -7.42388802      17.14473500       8.03078959 
Sc      -3.71194401      17.14473500       8.03078959 
Sc      -1.85597200      13.93009719       8.03078959 
S      -3.71194401      15.00164312       9.54618439 
S      -5.56791601      18.21628094       9.54618439 
S      -9.27986003      18.21628094       9.54618439 
S      -7.42388802      15.00164312       9.54618439 
Sc      -9.27986003      24.64555656       5.00000000 
Sc      -7.42388802      21.43091875       5.00000000 
Sc     -11.13583203      21.43091875       5.00000000 
Sc     -12.99180404      24.64555656       5.00000000 
S     -11.13583203      19.28782687       6.51539480 
S     -12.99180404      22.50246468       6.51539480 
S      -9.27986003      22.50246468       6.51539480 
S      -7.42388802      19.28782687       6.51539480 
Sc      -9.27986003      20.35937281       8.03078959 
Sc     -11.13583203      23.57401062       8.03078959 
Sc      -7.42388802      23.57401062       8.03078959 
Sc      -5.56791601      20.35937281       8.03078959 
S      -7.42388802      21.43091875       9.54618439 
S      -9.27986003      24.64555656       9.54618439 
S     -12.99180404      24.64555656       9.54618439 
S     -11.13583203      21.43091875       9.54618439 
Sc       1.85597201      18.21628094       5.00000000 
Sc       3.71194401      15.00164312       5.00000000 
Sc      -0.00000000      15.00164312       5.00000000 
Sc      -1.85597200      18.21628094       5.00000000 
S      -0.00000000      12.85855125       6.51539480 
S      -1.85597200      16.07318906       6.51539480 
S       1.85597201      16.07318906       6.51539480 
S       3.71194401      12.85855125       6.51539480 
Sc       1.85597201      13.93009719       8.03078959 
Sc      -0.00000000      17.14473500       8.03078959 
Sc       3.71194401      17.14473500       8.03078959 
Sc       5.56791602      13.93009719       8.03078959 
S       3.71194401      15.00164312       9.54618439 
S       1.85597201      18.21628094       9.54618439 
S      -1.85597200      18.21628094       9.54618439 
S      -0.00000000      15.00164312       9.54618439 
Sc      -1.85597200      24.64555656       5.00000000 
Sc      -0.00000000      21.43091875       5.00000000 
Sc      -3.71194401      21.43091875       5.00000000 
Sc      -5.56791601      24.64555656       5.00000000 
S      -3.71194401      19.28782687       6.51539480 
S      -5.56791601      22.50246468       6.51539480 
S      -1.85597200      22.50246468       6.51539480 
S      -0.00000000      19.28782687       6.51539480 
Sc      -1.85597200      20.35937281       8.03078959 
Sc      -3.71194401      23.57401062       8.03078959 
Sc      -0.00000000      23.57401062       8.03078959 
Sc       1.85597201      20.35937281       8.03078959 
S      -0.00000000      21.43091875       9.54618439 
S      -1.85597200      24.64555656       9.54618439 
S      -5.56791601      24.64555656       9.54618439 
S      -3.71194401      21.43091875       9.54618439 
Sc      16.70374806       5.35772969       5.00000000 
Sc      18.55972006       2.14309187       5.00000000 
Sc      14.84777605       2.14309187       5.00000000 
Sc      12.99180404       5.35772969       5.00000000 
S      14.84777605       0.00000000       6.51539480 
S      12.99180404       3.21463781       6.51539480 
S      16.70374806       3.21463781       6.51539480 
S      18.55972006       0.00000000       6.51539480 
Sc      16.70374806       1.07154594       8.03078959 
Sc      14.84777605       4.28618375       8.03078959 
Sc      18.55972006       4.28618375       8.03078959 
Sc      20.41569207       1.07154594       8.03078959 
S      18.55972006       2.14309187       9.54618439 
S      16.70374806       5.35772969       9.54618439 
S      12.99180404       5.35772969       9.54618439 
S      14.84777605       2.14309187       9.54618439 
Sc      12.99180404      11.78700531       5.00000000 
Sc      14.84777605       8.57236750       5.00000000 
Sc      11.13583204       8.57236750       5.00000000 
Sc       9.27986003      11.78700531       5.00000000 
S      11.13583204       6.42927562       6.51539480 
S       9.27986003       9.64391343       6.51539480 
S      12.99180404       9.64391343       6.51539480 
S      14.84777605       6.42927562       6.51539480 
Sc      12.99180404       7.50082156       8.03078959 
Sc      11.13583204      10.71545937       8.03078959 
Sc      14.84777605      10.71545937       8.03078959 
Sc      16.70374806       7.50082156       8.03078959 
S      14.84777605       8.57236750       9.54618439 
S      12.99180404      11.78700531       9.54618439 
S       9.27986003      11.78700531       9.54618439 
S      11.13583204       8.57236750       9.54618439 
Sc      24.12763608       5.35772969       5.00000000 
Sc      25.98360808       2.14309187       5.00000000 
Sc      22.27166407       2.14309187       5.00000000 
Sc      20.41569207       5.35772969       5.00000000 
S      22.27166407       0.00000000       6.51539480 
S      20.41569207       3.21463781       6.51539480 
S      24.12763608       3.21463781       6.51539480 
S      25.98360808       0.00000000       6.51539480 
Sc      24.12763608       1.07154594       8.03078959 
Sc      22.27166407       4.28618375       8.03078959 
Sc      25.98360808       4.28618375       8.03078959 
Sc      27.83958009       1.07154594       8.03078959 
S      25.98360808       2.14309187       9.54618439 
S      24.12763608       5.35772969       9.54618439 
S      20.41569207       5.35772969       9.54618439 
S      22.27166407       2.14309187       9.54618439 
Sc      20.41569207      11.78700531       5.00000000 
Sc      22.27166407       8.57236750       5.00000000 
Sc      18.55972006       8.57236750       5.00000000 
Sc      16.70374806      11.78700531       5.00000000 
S      18.55972006       6.42927562       6.51539480 
S      16.70374806       9.64391343       6.51539480 
S      20.41569207       9.64391343       6.51539480 
S      22.27166407       6.42927562       6.51539480 
Sc      20.41569207       7.50082156       8.03078959 
Sc      18.55972006      10.71545937       8.03078959 
Sc      22.27166407      10.71545937       8.03078959 
Sc      24.12763608       7.50082156       8.03078959 
S      22.27166407       8.57236750       9.54618439 
S      20.41569207      11.78700531       9.54618439 
S      16.70374806      11.78700531       9.54618439 
S      18.55972006       8.57236750       9.54618439 
Sc       9.27986003      18.21628094       5.00000000 
Sc      11.13583203      15.00164312       5.00000000 
Sc       7.42388802      15.00164312       5.00000000 
Sc       5.56791601      18.21628094       5.00000000 
S       7.42388802      12.85855125       6.51539480 
S       5.56791601      16.07318906       6.51539480 
S       9.27986003      16.07318906       6.51539480 
S      11.13583203      12.85855125       6.51539480 
Sc       9.27986003      13.93009719       8.03078959 
Sc       7.42388802      17.14473500       8.03078959 
Sc      11.13583203      17.14473500       8.03078959 
Sc      12.99180404      13.93009719       8.03078959 
S      11.13583203      15.00164312       9.54618439 
S       9.27986003      18.21628094       9.54618439 
S       5.56791601      18.21628094       9.54618439 
S       7.42388802      15.00164312       9.54618439 
Sc       5.56791601      24.64555656       5.00000000 
Sc       7.42388802      21.43091875       5.00000000 
Sc       3.71194401      21.43091875       5.00000000 
Sc       1.85597200      24.64555656       5.00000000 
S       3.71194401      19.28782687       6.51539480 
S       1.85597200      22.50246468       6.51539480 
S       5.56791601      22.50246468       6.51539480 
S       7.42388802      19.28782687       6.51539480 
Sc       5.56791601      20.35937281       8.03078959 
Sc       3.71194401      23.57401062       8.03078959 
Sc       7.42388802      23.57401062       8.03078959 
Sc       9.27986003      20.35937281       8.03078959 
S       7.42388802      21.43091875       9.54618439 
S       5.56791601      24.64555656       9.54618439 
S       1.85597200      24.64555656       9.54618439 
S       3.71194401      21.43091875       9.54618439 
Sc      16.70374805      18.21628094       5.00000000 
Sc      18.55972005      15.00164312       5.00000000 
Sc      14.84777604      15.00164312       5.00000000 
Sc      12.99180404      18.21628094       5.00000000 
S      14.84777604      12.85855125       6.51539480 
S      12.99180404      16.07318906       6.51539480 
S      16.70374805      16.07318906       6.51539480 
S      18.55972005      12.85855125       6.51539480 
Sc      16.70374805      13.93009719       8.03078959 
Sc      14.84777604      17.14473500       8.03078959 
Sc      18.55972005      17.14473500       8.03078959 
Sc      20.41569206      13.93009719       8.03078959 
S      18.55972005      15.00164312       9.54618439 
S      16.70374805      18.21628094       9.54618439 
S      12.99180404      18.21628094       9.54618439 
S      14.84777604      15.00164312       9.54618439 
Sc      12.99180404      24.64555656       5.00000000 
Sc      14.84777604      21.43091875       5.00000000 
Sc      11.13583203      21.43091875       5.00000000 
Sc       9.27986003      24.64555656       5.00000000 
S      11.13583203      19.28782687       6.51539480 
S       9.27986003      22.50246468       6.51539480 
S      12.99180404      22.50246468       6.51539480 
S      14.84777604      19.28782687       6.51539480 
Sc      12.99180404      20.35937281       8.03078959 
Sc      11.13583203      23.57401062       8.03078959 
Sc      14.84777604      23.57401062       8.03078959 
Sc      16.70374805      20.35937281       8.03078959 
S      14.84777604      21.43091875       9.54618439 
S      12.99180404      24.64555656       9.54618439 
S       9.27986003      24.64555656       9.54618439 
S      11.13583203      21.43091875       9.54618439 
