448
Lattice="26.5619226832 0.0 0.0 13.28096133354 23.0032998216 0.0 0.0 0.0 20.1666241219" Properties=species:S:1:pos:R:3:magmoms:R:1 unit_cell=conventional pbc="T T F"
Co       5.81165453       3.35535023      15.16662412       0.00306723 
S       5.81071054       5.15055193       6.39832336       0.00356145 
S       7.36579089       2.45675320       6.39843778       0.00354752 
S       5.81055653       3.35481380       8.93805341       0.00355571 
S       4.25505118       0.41865935       9.02349390       0.00354630 
S       9.13052547       5.27142391       6.48387894       0.00355448 
S       4.25488153       2.45664488       6.39820654       0.00306769 
S       2.48989079       3.47568625       9.02360835       0.00356020 
Co       4.15029984       4.31311939       7.71096630      -0.00154920 
Co       5.81042088       3.35464806       5.00000000      -0.00112099 
Co       5.81042088       1.43770540       7.71096630      -0.00120127 
Co       7.47054135       4.31311906       7.71096607       0.01164689 
Co       2.48895687       1.43700994       5.67724158       0.74221071 
Co       2.49141420       1.43840858       9.74469436       0.74212130 
S       4.04572102       2.33571025      14.44565559       0.00306723 
S       5.81071054       1.31666863      11.82025313       0.00356145 
S       4.04555055       4.37369486      11.82036755       0.00354752 
S       9.13079687       5.27175546      14.35998318       0.00355571 
S       7.57529151       2.33560100      14.44542367       0.00354630 
S       2.49004480       1.43754061      11.90580870       0.00355448 
S       7.57512186       4.37358653      11.82013630       0.00306769 
S       5.81013112       5.39262791      14.44553811       0.00356020 
Co       4.15029983       0.47923609      13.13289607      -0.00154920 
Co       9.13066121       5.27158971      10.42192977      -0.00112099 
Co       2.49018054       3.35464706      13.13289607      -0.00120127 
Co       0.83006067       0.47923576      13.13289584       0.01164689 
Co       5.80919720       3.35395160      11.09917135       0.74221071 
S       0.72548068       0.41876859       9.02372583       0.74212130 
S       4.04572102       6.16959355       9.02372583       0.00306723 
S       9.13095087      10.90137688       6.39832336       0.00356145 
S      10.68603122       8.20757816       6.39843778       0.00354752 
S       9.13079687       9.10563876       8.93805341       0.00355571 
S       7.57529152       6.16948430       9.02349390       0.00354630 
S      12.45076580      11.02224886       6.48387894       0.00355448 
S       7.57512187       8.20746983       6.39820654       0.00306769 
S       5.81013112       9.22651121       9.02360835       0.00356020 
Co       7.47054017      10.06394434       7.71096630      -0.00154920 
Co       9.13066121       9.10547301       5.00000000      -0.00112099 
Co       9.13066121       7.18853036       7.71096630      -0.00120127 
Co      10.79078168      10.06394402       7.71096607       0.01164689 
Co       5.80919720       7.18783490       5.67724158       0.74221071 
Co       5.81165454       7.18923354       9.74469436       0.74212130 
S       7.36596135       8.08653520      14.44565559       0.00306723 
S       9.13095087       7.06749358      11.82025313       0.00356145 
S       7.36579088      10.12451981      11.82036755       0.00354752 
S      12.45103720      11.02258041      14.35998318       0.00355571 
S      10.89553185       8.08642596      14.44542367       0.00354630 
S       5.81028513       7.18836556      11.90580870       0.00355448 
S      10.89536220      10.12441149      11.82013630       0.00306769 
S       9.13037145      11.14345286      14.44553811       0.00356020 
Co       7.47054017       6.23006104      13.13289607      -0.00154920 
Co      12.45090154      11.02241467      10.42192977      -0.00112099 
Co       5.81042087       9.10547201      13.13289607      -0.00120127 
Co       4.15030101       6.23006072      13.13289584       0.01164689 
Co       9.12943753       9.10477656      11.09917135       0.74221071 
Co       9.13189487       9.10617519      15.16662412       0.74212130 
S       7.36596136       0.41876859       9.02372583       0.00306723 
S      12.45119121       5.15055193       6.39832336       0.00356145 
S      14.00627156       2.45675320       6.39843778       0.00354752 
S      12.45103721       3.35481380       8.93805341       0.00355571 
S      10.89553185       0.41865935       9.02349390       0.00354630 
S      15.77100614       5.27142391       6.48387894       0.00355448 
S      10.89536220       2.45664488       6.39820654       0.00306769 
S       9.13037146       3.47568625       9.02360835       0.00356020 
Co      10.79078051       4.31311939       7.71096630      -0.00154920 
Co      12.45090155       3.35464806       5.00000000      -0.00112099 
Co      12.45090155       1.43770540       7.71096630      -0.00120127 
Co      14.11102202       4.31311906       7.71096607       0.01164689 
Co       9.12943754       1.43700994       5.67724158       0.74221071 
Co       9.13189487       1.43840858       9.74469436       0.74212130 
S      10.68620169       2.33571025      14.44565559       0.00306723 
S      12.45119121       1.31666863      11.82025313       0.00356145 
S      10.68603122       4.37369486      11.82036755       0.00354752 
S      15.77127754       5.27175546      14.35998318       0.00355571 
S      14.21577218       2.33560100      14.44542367       0.00354630 
S       9.13052547       1.43754061      11.90580870       0.00355448 
S      14.21560253       4.37358653      11.82013630       0.00306769 
S      12.45061179       5.39262791      14.44553811       0.00356020 
Co      10.79078051       0.47923609      13.13289607      -0.00154920 
Co      15.77114188       5.27158971      10.42192977      -0.00112099 
Co       9.13066121       3.35464706      13.13289607      -0.00120127 
Co       7.47054134       0.47923576      13.13289584       0.01164689 
Co      12.44967787       3.35395160      11.09917135       0.74221071 
Co      12.45213520       3.35535023      15.16662412       0.74212130 
S      10.68620169       6.16959355       9.02372583       0.00306723 
S      15.77143154      10.90137688       6.39832336       0.00356145 
S      17.32651190       8.20757816       6.39843778       0.00354752 
S      15.77127754       9.10563876       8.93805341       0.00355571 
S      14.21577219       6.16948430       9.02349390       0.00354630 
S      19.09124647      11.02224886       6.48387894       0.00355448 
S      14.21560254       8.20746983       6.39820654       0.00306769 
S      12.45061179       9.22651121       9.02360835       0.00356020 
Co      14.11102084      10.06394434       7.71096630      -0.00154920 
Co      15.77114188       9.10547301       5.00000000      -0.00112099 
Co      15.77114188       7.18853036       7.71096630      -0.00120127 
Co      17.43126235      10.06394402       7.71096607       0.01164689 
Co      12.44967787       7.18783490       5.67724158       0.74221071 
Co      12.45213521       7.18923354       9.74469436       0.74212130 
S      14.00644202       8.08653520      14.44565559       0.00306723 
S      15.77143154       7.06749358      11.82025313       0.00356145 
S      14.00627156      10.12451981      11.82036755       0.00354752 
S      19.09151787      11.02258041      14.35998318       0.00355571 
S      17.53601252       8.08642596      14.44542367       0.00354630 
S      12.45076580       7.18836556      11.90580870       0.00355448 
S      17.53584287      10.12441149      11.82013630       0.00306769 
S      15.77085212      11.14345286      14.44553811       0.00356020 
Co      14.11102084       6.23006104      13.13289607      -0.00154920 
Co      19.09138221      11.02241467      10.42192977      -0.00112099 
Co      12.45090154       9.10547201      13.13289607      -0.00120127 
Co      10.79078168       6.23006072      13.13289584       0.01164689 
Co      15.76991820       9.10477656      11.09917135       0.74221071 
Co      15.77237554       9.10617519      15.16662412       0.74212130 
S       7.36596135      11.92041850       9.02372583       0.00306723 
S      12.45119121      16.65220184       6.39832336       0.00356145 
S      14.00627156      13.95840311       6.39843778       0.00354752 
S      12.45103720      14.85646371       8.93805341       0.00355571 
S      10.89553185      11.92030926       9.02349390       0.00354630 
S      15.77100614      16.77307382       6.48387894       0.00355448 
S      10.89536220      13.95829479       6.39820654       0.00306769 
S       9.13037146      14.97733616       9.02360835       0.00356020 
Co      10.79078051      15.81476930       7.71096630      -0.00154920 
Co      12.45090155      14.85629797       5.00000000      -0.00112099 
Co      12.45090155      12.93935531       7.71096630      -0.00120127 
Co      14.11102202      15.81476897       7.71096607       0.01164689 
Co       9.12943754      12.93865985       5.67724158       0.74221071 
Co       9.13189487      12.94005849       9.74469436       0.74212130 
S      10.68620169      13.83736016      14.44565559       0.00306723 
S      12.45119121      12.81831854      11.82025313       0.00356145 
S      10.68603122      15.87534477      11.82036755       0.00354752 
S      15.77127754      16.77340537      14.35998318       0.00355571 
S      14.21577218      13.83725091      14.44542367       0.00354630 
S       9.13052547      12.93919052      11.90580870       0.00355448 
S      14.21560253      15.87523644      11.82013630       0.00306769 
S      12.45061179      16.89427782      14.44553811       0.00356020 
Co      10.79078050      11.98088600      13.13289607      -0.00154920 
Co      15.77114188      16.77323962      10.42192977      -0.00112099 
Co       9.13066121      14.85629697      13.13289607      -0.00120127 
Co       7.47054134      11.98088567      13.13289584       0.01164689 
Co      12.44967787      14.85560151      11.09917135       0.74221071 
Co      12.45213520      14.85700014      15.16662412       0.74212130 
S      10.68620169      17.67124346       9.02372583       0.00306723 
S      15.77143154      22.40302679       6.39832336       0.00356145 
S      17.32651189      19.70922807       6.39843778       0.00354752 
S      15.77127754      20.60728867       8.93805341       0.00355571 
S      14.21577219      17.67113421       9.02349390       0.00354630 
S      19.09124647      22.52389877       6.48387894       0.00355448 
S      14.21560254      19.70911974       6.39820654       0.00306769 
S      12.45061179      20.72816112       9.02360835       0.00356020 
Co      14.11102084      21.56559425       7.71096630      -0.00154920 
Co      15.77114188      20.60712292       5.00000000      -0.00112099 
Co      15.77114188      18.69018027       7.71096630      -0.00120127 
Co      17.43126235      21.56559393       7.71096607       0.01164689 
Co      12.44967787      18.68948481       5.67724158       0.74221071 
Co      12.45213521      18.69088345       9.74469436       0.74212130 
S      14.00644202      19.58818511      14.44565559       0.00306723 
S      15.77143154      18.56914349      11.82025313       0.00356145 
S      14.00627155      21.62616972      11.82036755       0.00354752 
S      19.09151787      22.52423032      14.35998318       0.00355571 
S      17.53601252      19.58807587      14.44542367       0.00354630 
S      12.45076580      18.69001547      11.90580870       0.00355448 
S      17.53584287      21.62606140      11.82013630       0.00306769 
S      15.77085212      22.64510277      14.44553811       0.00356020 
Co      14.11102084      17.73171095      13.13289607      -0.00154920 
Co      19.09138221      22.52406458      10.42192977      -0.00112099 
Co      12.45090154      20.60712192      13.13289607      -0.00120127 
Co      10.79078168      17.73171063      13.13289584       0.01164689 
Co      15.76991820      20.60642647      11.09917135       0.74221071 
Co      15.77237554      20.60782510      15.16662412       0.74212130 
S      14.00644203      11.92041850       9.02372583       0.00306723 
S      19.09167188      16.65220184       6.39832336       0.00356145 
S      20.64675223      13.95840311       6.39843778       0.00354752 
S      19.09151788      14.85646371       8.93805341       0.00355571 
S      17.53601252      11.92030926       9.02349390       0.00354630 
S      22.41148681      16.77307382       6.48387894       0.00355448 
S      17.53584287      13.95829479       6.39820654       0.00306769 
S      15.77085213      14.97733616       9.02360835       0.00356020 
Co      17.43126118      15.81476930       7.71096630      -0.00154920 
Co      19.09138222      14.85629797       5.00000000      -0.00112099 
Co      19.09138222      12.93935531       7.71096630      -0.00120127 
Co      20.75150269      15.81476897       7.71096607       0.01164689 
Co      15.76991821      12.93865985       5.67724158       0.74221071 
Co      15.77237554      12.94005849       9.74469436       0.74212130 
S      17.32668236      13.83736016      14.44565559       0.00306723 
S      19.09167188      12.81831854      11.82025313       0.00356145 
S      17.32651189      15.87534477      11.82036755       0.00354752 
S      22.41175821      16.77340537      14.35998318       0.00355571 
S      20.85625285      13.83725091      14.44542367       0.00354630 
S      15.77100614      12.93919052      11.90580870       0.00355448 
S      20.85608320      15.87523644      11.82013630       0.00306769 
S      19.09109246      16.89427782      14.44553811       0.00356020 
Co      17.43126118      11.98088600      13.13289607      -0.00154920 
Co      22.41162255      16.77323962      10.42192977      -0.00112099 
Co      15.77114188      14.85629697      13.13289607      -0.00120127 
Co      14.11102201      11.98088567      13.13289584       0.01164689 
Co      19.09015854      14.85560151      11.09917135       0.74221071 
Co      19.09261587      14.85700014      15.16662412       0.74212130 
S      17.32668236      17.67124346       9.02372583       0.00306723 
S      22.41191221      22.40302679       6.39832336       0.00356145 
S      23.96699257      19.70922807       6.39843778       0.00354752 
S      22.41175821      20.60728867       8.93805341       0.00355571 
S      20.85625286      17.67113421       9.02349390       0.00354630 
S      25.73172714      22.52389877       6.48387894       0.00355448 
S      20.85608321      19.70911974       6.39820654       0.00306769 
S      19.09109246      20.72816112       9.02360835       0.00356020 
Co      20.75150151      21.56559425       7.71096630      -0.00154920 
Co      22.41162255      20.60712292       5.00000000      -0.00112099 
Co      22.41162255      18.69018027       7.71096630      -0.00120127 
Co      24.07174302      21.56559393       7.71096607       0.01164689 
Co      19.09015854      18.68948481       5.67724158       0.74221071 
Co      19.09261588      18.69088345       9.74469436       0.74212130 
S      20.64692269      19.58818511      14.44565559       0.00306723 
S      22.41191221      18.56914349      11.82025313       0.00356145 
S      20.64675223      21.62616972      11.82036755       0.00354752 
S      25.73199854      22.52423032      14.35998318       0.00355571 
S      24.17649319      19.58807587      14.44542367       0.00354630 
S      19.09124647      18.69001547      11.90580870       0.00355448 
S      24.17632354      21.62606140      11.82013630       0.00306769 
S      22.41133279      22.64510277      14.44553811       0.00356020 
Co      20.75150151      17.73171095      13.13289607      -0.00154920 
Co      25.73186288      22.52406458      10.42192977      -0.00112099 
Co      19.09138221      20.60712192      13.13289607      -0.00120127 
Co      17.43126235      17.73171063      13.13289584       0.01164689 
Co      22.41039887      20.60642647      11.09917135       0.74221071 
Co      22.41285621      20.60782510      15.16662412       0.74212130 
S      14.00644202       0.41876859       9.02372583       0.00306723 
S      19.09167188       5.15055193       6.39832336       0.00356145 
S      20.64675223       2.45675320       6.39843778       0.00354752 
S      19.09151787       3.35481380       8.93805341       0.00355571 
S      17.53601252       0.41865935       9.02349390       0.00354630 
S      22.41148681       5.27142391       6.48387894       0.00355448 
S      17.53584287       2.45664488       6.39820654       0.00306769 
S      15.77085213       3.47568625       9.02360835       0.00356020 
Co      17.43126118       4.31311939       7.71096630      -0.00154920 
Co      19.09138222       3.35464806       5.00000000      -0.00112099 
Co      19.09138222       1.43770540       7.71096630      -0.00120127 
Co      20.75150269       4.31311906       7.71096607       0.01164689 
Co      15.76991821       1.43700994       5.67724158       0.74221071 
Co      15.77237554       1.43840858       9.74469436       0.74212130 
S      17.32668236       2.33571025      14.44565559       0.00306723 
S      19.09167188       1.31666863      11.82025313       0.00356145 
S      17.32651189       4.37369486      11.82036755       0.00354752 
S      22.41175821       5.27175546      14.35998318       0.00355571 
S      20.85625285       2.33560100      14.44542367       0.00354630 
S      15.77100614       1.43754061      11.90580870       0.00355448 
S      20.85608320       4.37358653      11.82013630       0.00306769 
S      19.09109246       5.39262791      14.44553811       0.00356020 
Co      17.43126117       0.47923609      13.13289607      -0.00154920 
Co      22.41162255       5.27158971      10.42192977      -0.00112099 
Co      15.77114188       3.35464706      13.13289607      -0.00120127 
Co      14.11102201       0.47923576      13.13289584       0.01164689 
Co      19.09015854       3.35395160      11.09917135       0.74221071 
Co      19.09261587       3.35535023      15.16662412       0.74212130 
S      17.32668236       6.16959355       9.02372583       0.00306723 
S      22.41191221      10.90137688       6.39832336       0.00356145 
S      23.96699256       8.20757816       6.39843778       0.00354752 
S      22.41175821       9.10563876       8.93805341       0.00355571 
S      20.85625286       6.16948430       9.02349390       0.00354630 
S      25.73172714      11.02224886       6.48387894       0.00355448 
S      20.85608321       8.20746983       6.39820654       0.00306769 
S      19.09109246       9.22651121       9.02360835       0.00356020 
Co      20.75150151      10.06394434       7.71096630      -0.00154920 
Co      22.41162255       9.10547301       5.00000000      -0.00112099 
Co      22.41162255       7.18853036       7.71096630      -0.00120127 
Co      24.07174302      10.06394402       7.71096607       0.01164689 
Co      19.09015854       7.18783490       5.67724158       0.74221071 
Co      19.09261588       7.18923354       9.74469436       0.74212130 
S      20.64692269       8.08653520      14.44565559       0.00306723 
S      22.41191221       7.06749358      11.82025313       0.00356145 
S      20.64675222      10.12451981      11.82036755       0.00354752 
S      25.73199854      11.02258041      14.35998318       0.00355571 
S      24.17649319       8.08642596      14.44542367       0.00354630 
S      19.09124647       7.18836556      11.90580870       0.00355448 
S      24.17632354      10.12441149      11.82013630       0.00306769 
S      22.41133279      11.14345286      14.44553811       0.00356020 
Co      20.75150151       6.23006104      13.13289607      -0.00154920 
Co      25.73186288      11.02241467      10.42192977      -0.00112099 
Co      19.09138221       9.10547201      13.13289607      -0.00120127 
Co      17.43126235       6.23006072      13.13289584       0.01164689 
Co      22.41039887       9.10477656      11.09917135       0.74221071 
Co      22.41285621       9.10617519      15.16662412       0.74212130 
S      20.64692270       0.41876859       9.02372583       0.00306723 
S      25.73215255       5.15055193       6.39832336       0.00356145 
S      27.28723290       2.45675320       6.39843778       0.00354752 
S      25.73199855       3.35481380       8.93805341       0.00355571 
S      24.17649319       0.41865935       9.02349390       0.00354630 
S      29.05196748       5.27142391       6.48387894       0.00355448 
S      24.17632354       2.45664488       6.39820654       0.00306769 
S      22.41133280       3.47568625       9.02360835       0.00356020 
Co      24.07174185       4.31311939       7.71096630      -0.00154920 
Co      25.73186289       3.35464806       5.00000000      -0.00112099 
Co      25.73186289       1.43770540       7.71096630      -0.00120127 
Co      27.39198336       4.31311906       7.71096607       0.01164689 
Co      22.41039888       1.43700994       5.67724158       0.74221071 
Co      22.41285621       1.43840858       9.74469436       0.74212130 
S      23.96716303       2.33571025      14.44565559       0.00306723 
S      25.73215255       1.31666863      11.82025313       0.00356145 
S      23.96699256       4.37369486      11.82036755       0.00354752 
S      29.05223888       5.27175546      14.35998318       0.00355571 
S      27.49673352       2.33560100      14.44542367       0.00354630 
S      22.41148681       1.43754061      11.90580870       0.00355448 
S      27.49656387       4.37358653      11.82013630       0.00306769 
S      25.73157313       5.39262791      14.44553811       0.00356020 
Co      24.07174185       0.47923609      13.13289607      -0.00154920 
Co      29.05210322       5.27158971      10.42192977      -0.00112099 
Co      22.41162255       3.35464706      13.13289607      -0.00120127 
Co      20.75150268       0.47923576      13.13289584       0.01164689 
Co      25.73063921       3.35395160      11.09917135       0.74221071 
Co      25.73309654       3.35535023      15.16662412       0.74212130 
S      23.96716303       6.16959355       9.02372583       0.00306723 
S      29.05239288      10.90137688       6.39832336       0.00356145 
S      30.60747324       8.20757816       6.39843778       0.00354752 
S      29.05223888       9.10563876       8.93805341       0.00355571 
S      27.49673353       6.16948430       9.02349390       0.00354630 
S      32.37220781      11.02224886       6.48387894       0.00355448 
S      27.49656388       8.20746983       6.39820654       0.00306769 
S      25.73157313       9.22651121       9.02360835       0.00356020 
Co      27.39198218      10.06394434       7.71096630      -0.00154920 
Co      29.05210322       9.10547301       5.00000000      -0.00112099 
Co      29.05210322       7.18853036       7.71096630      -0.00120127 
Co      30.71222369      10.06394402       7.71096607       0.01164689 
Co      25.73063921       7.18783490       5.67724158       0.74221071 
Co      25.73309655       7.18923354       9.74469436       0.74212130 
S      27.28740336       8.08653520      14.44565559       0.00306723 
S      29.05239288       7.06749358      11.82025313       0.00356145 
S      27.28723290      10.12451981      11.82036755       0.00354752 
S      32.37247921      11.02258041      14.35998318       0.00355571 
S      30.81697386       8.08642596      14.44542367       0.00354630 
S      25.73172714       7.18836556      11.90580870       0.00355448 
S      30.81680421      10.12441149      11.82013630       0.00306769 
S      29.05181346      11.14345286      14.44553811       0.00356020 
Co      27.39198218       6.23006104      13.13289607      -0.00154920 
Co      32.37234355      11.02241467      10.42192977      -0.00112099 
Co      25.73186288       9.10547201      13.13289607      -0.00120127 
Co      24.07174302       6.23006072      13.13289584       0.01164689 
Co      29.05087954       9.10477656      11.09917135       0.74221071 
Co      29.05333688       9.10617519      15.16662412       0.74212130 
S      20.64692269      11.92041850       9.02372583       0.00306723 
S      25.73215255      16.65220184       6.39832336       0.00356145 
S      27.28723290      13.95840311       6.39843778       0.00354752 
S      25.73199854      14.85646371       8.93805341       0.00355571 
S      24.17649319      11.92030926       9.02349390       0.00354630 
S      29.05196748      16.77307382       6.48387894       0.00355448 
S      24.17632354      13.95829479       6.39820654       0.00306769 
S      22.41133280      14.97733616       9.02360835       0.00356020 
Co      24.07174185      15.81476930       7.71096630      -0.00154920 
Co      25.73186289      14.85629797       5.00000000      -0.00112099 
Co      25.73186289      12.93935531       7.71096630      -0.00120127 
Co      27.39198336      15.81476897       7.71096607       0.01164689 
Co      22.41039888      12.93865985       5.67724158       0.74221071 
Co      22.41285621      12.94005849       9.74469436       0.74212130 
S      23.96716303      13.83736016      14.44565559       0.00306723 
S      25.73215255      12.81831854      11.82025313       0.00356145 
S      23.96699256      15.87534477      11.82036755       0.00354752 
S      29.05223888      16.77340537      14.35998318       0.00355571 
S      27.49673352      13.83725091      14.44542367       0.00354630 
S      22.41148681      12.93919052      11.90580870       0.00355448 
S      27.49656387      15.87523644      11.82013630       0.00306769 
S      25.73157313      16.89427782      14.44553811       0.00356020 
Co      24.07174184      11.98088600      13.13289607      -0.00154920 
Co      29.05210322      16.77323962      10.42192977      -0.00112099 
Co      22.41162255      14.85629697      13.13289607      -0.00120127 
Co      20.75150268      11.98088567      13.13289584       0.01164689 
Co      25.73063921      14.85560151      11.09917135       0.74221071 
Co      25.73309654      14.85700014      15.16662412       0.74212130 
S      23.96716303      17.67124346       9.02372583       0.00306723 
S      29.05239288      22.40302679       6.39832336       0.00356145 
S      30.60747323      19.70922807       6.39843778       0.00354752 
S      29.05223888      20.60728867       8.93805341       0.00355571 
S      27.49673353      17.67113421       9.02349390       0.00354630 
S      32.37220781      22.52389877       6.48387894       0.00355448 
S      27.49656388      19.70911974       6.39820654       0.00306769 
S      25.73157313      20.72816112       9.02360835       0.00356020 
Co      27.39198218      21.56559425       7.71096630      -0.00154920 
Co      29.05210322      20.60712292       5.00000000      -0.00112099 
Co      29.05210322      18.69018027       7.71096630      -0.00120127 
Co      30.71222369      21.56559393       7.71096607       0.01164689 
Co      25.73063921      18.68948481       5.67724158       0.74221071 
Co      25.73309655      18.69088345       9.74469436       0.74212130 
S      27.28740336      19.58818511      14.44565559       0.00306723 
S      29.05239288      18.56914349      11.82025313       0.00356145 
S      27.28723289      21.62616972      11.82036755       0.00354752 
S      32.37247921      22.52423032      14.35998318       0.00355571 
S      30.81697386      19.58807587      14.44542367       0.00354630 
S      25.73172714      18.69001547      11.90580870       0.00355448 
S      30.81680421      21.62606140      11.82013630       0.00306769 
S      29.05181346      22.64510277      14.44553811       0.00356020 
Co      27.39198218      17.73171095      13.13289607      -0.00154920 
Co      32.37234355      22.52406458      10.42192977      -0.00112099 
Co      25.73186288      20.60712192      13.13289607      -0.00120127 
Co      24.07174302      17.73171063      13.13289584       0.01164689 
Co      29.05087954      20.60642647      11.09917135       0.74221071 
Co      29.05333688      20.60782510      15.16662412       0.74212130 
S      27.28740337      11.92041850       9.02372583       0.00306723 
S      32.37263322      16.65220184       6.39832336       0.00356145 
S      33.92771357      13.95840311       6.39843778       0.00354752 
S      32.37247922      14.85646371       8.93805341       0.00355571 
S      30.81697386      11.92030926       9.02349390       0.00354630 
S      35.69244815      16.77307382       6.48387894       0.00355448 
S      30.81680421      13.95829479       6.39820654       0.00306769 
S      29.05181347      14.97733616       9.02360835       0.00356020 
Co      30.71222252      15.81476930       7.71096630      -0.00154920 
Co      32.37234356      14.85629797       5.00000000      -0.00112099 
Co      32.37234356      12.93935531       7.71096630      -0.00120127 
Co      34.03246403      15.81476897       7.71096607       0.01164689 
Co      29.05087955      12.93865985       5.67724158       0.74221071 
Co      29.05333688      12.94005849       9.74469436       0.74212130 
S      30.60764370      13.83736016      14.44565559       0.00306723 
S      32.37263322      12.81831854      11.82025313       0.00356145 
S      30.60747323      15.87534477      11.82036755       0.00354752 
S      35.69271955      16.77340537      14.35998318       0.00355571 
S      34.13721419      13.83725091      14.44542367       0.00354630 
S      29.05196748      12.93919052      11.90580870       0.00355448 
S      34.13704454      15.87523644      11.82013630       0.00306769 
S      32.37205380      16.89427782      14.44553811       0.00356020 
Co      30.71222252      11.98088600      13.13289607      -0.00154920 
Co      35.69258389      16.77323962      10.42192977      -0.00112099 
Co      29.05210322      14.85629697      13.13289607      -0.00120127 
Co      27.39198335      11.98088567      13.13289584       0.01164689 
Co      32.37111988      14.85560151      11.09917135       0.74221071 
Co      32.37357721      14.85700014      15.16662412       0.74212130 
S      30.60764370      17.67124346       9.02372583       0.00306723 
S      35.69287355      22.40302679       6.39832336       0.00356145 
S      37.24795391      19.70922807       6.39843778       0.00354752 
S      35.69271955      20.60728867       8.93805341       0.00355571 
S      34.13721420      17.67113421       9.02349390       0.00354630 
S      39.01268848      22.52389877       6.48387894       0.00355448 
S      34.13704455      19.70911974       6.39820654       0.00306769 
S      32.37205380      20.72816112       9.02360835       0.00356020 
Co      34.03246285      21.56559425       7.71096630      -0.00154920 
Co      35.69258389      20.60712292       5.00000000      -0.00112099 
Co      35.69258389      18.69018027       7.71096630      -0.00120127 
Co      37.35270436      21.56559393       7.71096607       0.01164689 
Co      32.37111988      18.68948481       5.67724158       0.74221071 
Co      32.37357722      18.69088345       9.74469436       0.74212130 
S      33.92788403      19.58818511      14.44565559       0.00306723 
S      35.69287355      18.56914349      11.82025313       0.00356145 
S      33.92771357      21.62616972      11.82036755       0.00354752 
S      39.01295988      22.52423032      14.35998318       0.00355571 
S      37.45745453      19.58807587      14.44542367       0.00354630 
S      32.37220781      18.69001547      11.90580870       0.00355448 
S      37.45728488      21.62606140      11.82013630       0.00306769 
S      35.69229413      22.64510277      14.44553811       0.00356020 
Co      34.03246285      17.73171095      13.13289607      -0.00154920 
Co      39.01282422      22.52406458      10.42192977      -0.00112099 
Co      32.37234355      20.60712192      13.13289607      -0.00120127 
Co      30.71222369      17.73171063      13.13289584       0.01164689 
Co      35.69136021      20.60642647      11.09917135       0.74221071 
Co      35.69381755      20.60782510      15.16662412       0.74212130 
