544
Lattice="27.9227045602 0.0 0.0 13.96135408944 24.181769284 0.0 0.0 0.0 19.957052609" Properties=species:S:1:pos:R:3 unit_cell=conventional pbc="T T F"
Co       3.49034184       4.00566778       5.00000000 
Co       1.76650204       1.01989032       5.00000000 
Co       1.72383606       0.99525725       9.25735496 
Co      10.47101113       6.04544035       6.44233699 
Co       5.25683304       0.99525725       9.25735496 
Co       6.98067638       4.03029494       7.12867748 
Co       3.49033478       4.05492210       9.25735496 
Co       3.49034164       2.01514953       7.81501797 
Co       5.21418120       1.01989032       5.00000000 
S       6.98067627       2.10658680       5.76841044 
S       6.98067650       5.95400308       8.48894452 
S       5.31469624       4.99214897       5.76841044 
S       8.64665653       3.06844092       8.48894452 
S       5.31469604       3.06844092       8.48894452 
S       8.64665673       4.99214897       5.76841044 
S       6.98067605       0.00000009       8.55360189 
S       3.49033819       2.01514747       5.70375307 
Co       6.98067974       4.03029710      13.51471562 
Co       5.25684014       3.03503788      10.69969765 
Co       5.21417416       3.01040481      14.95705261 
Co       3.49033457       2.01514559      12.14203464 
Co       1.76649500       3.01040481      14.95705261 
Co       6.98067596       0.00000018      12.82837513 
Co       3.49033436       0.02462735      14.95705261 
Co       6.98067995       6.02081534      10.69969765 
Co       8.70451930       3.03503788      10.69969765 
S       3.49033823       4.12173437      11.46810809 
S       6.98067608       1.92370832      14.18864217 
S       5.31469582       0.96185421      11.46810809 
S       5.15631849       5.08358848      14.18864217 
S       8.80503414       5.08358848      14.18864217 
S       1.66598017       0.96185421      11.46810809 
S       3.49033801       2.01514766      14.25329954 
S       6.98067629       4.03029503      11.40345072 
Co       6.98068016       8.06059185       7.81501797 
Co       5.25684056       7.06533264       5.00000000 
Co       5.21417458       7.04069957       9.25735496 
Co      13.96134965      12.09088267       6.44233699 
Co       8.74717156       7.04069957       9.25735496 
Co      10.47101490      10.07573726       7.12867748 
Co       6.98067330      10.10036443       9.25735496 
Co       6.98068037      10.05111010       5.00000000 
Co       8.70451972       7.06533264       5.00000000 
S      10.47101479       8.15202912       5.76841044 
S      10.47101502      11.99944540       8.48894452 
S       8.80503476      11.03759129       5.76841044 
S      12.13699505       9.11388324       8.48894452 
S       8.80503456       9.11388324       8.48894452 
S      12.13699525      11.03759129       5.76841044 
S      10.47101457       6.04544241       8.55360189 
S       6.98067671       8.06058979       5.70375307 
Co      10.47101826      10.07573942      13.51471562 
Co       8.74717867       9.08048020      10.69969765 
Co       8.70451268       9.05584713      14.95705261 
Co       6.98067309       8.06058792      12.14203464 
Co       5.25683352       9.05584713      14.95705261 
Co      10.47101448       6.04544251      12.82837513 
Co       6.98067288       6.07006967      14.95705261 
Co      10.47101847      12.06625766      10.69969765 
Co      12.19485782       9.08048020      10.69969765 
S       6.98067675      10.16717669      11.46810809 
S      10.47101460       7.96915064      14.18864217 
S       8.80503434       7.00729653      11.46810809 
S       8.64665701      11.12903080      14.18864217 
S      12.29537266      11.12903080      14.18864217 
S       5.15631869       7.00729653      11.46810809 
S       6.98067653       8.06058998      14.25329954 
S      10.47101481      10.07573736      11.40345072 
Co      10.47101778       2.01514953       7.81501797 
Co       8.74717818       1.01989032       5.00000000 
Co       8.70451220       0.99525725       9.25735496 
Co      17.45168727       6.04544035       6.44233699 
Co      12.23750918       0.99525725       9.25735496 
Co      13.96135252       4.03029494       7.12867748 
Co      10.47101092       4.05492210       9.25735496 
Co      10.47101798       4.00566778       5.00000000 
Co      12.19485734       1.01989032       5.00000000 
S      13.96135241       2.10658680       5.76841044 
S      13.96135264       5.95400308       8.48894452 
S      12.29537238       4.99214897       5.76841044 
S      15.62733267       3.06844092       8.48894452 
S      12.29537218       3.06844092       8.48894452 
S      15.62733287       4.99214897       5.76841044 
S      13.96135219       0.00000009       8.55360189 
S      10.47101433       2.01514747       5.70375307 
Co      13.96135588       4.03029710      13.51471562 
Co      12.23751628       3.03503788      10.69969765 
Co      12.19485030       3.01040481      14.95705261 
Co      10.47101071       2.01514559      12.14203464 
Co       8.74717114       3.01040481      14.95705261 
Co      13.96135210       0.00000018      12.82837513 
Co      10.47101050       0.02462735      14.95705261 
Co      13.96135609       6.02081534      10.69969765 
Co      15.68519544       3.03503788      10.69969765 
S      10.47101437       4.12173437      11.46810809 
S      13.96135222       1.92370832      14.18864217 
S      12.29537196       0.96185421      11.46810809 
S      12.13699463       5.08358848      14.18864217 
S      15.78571028       5.08358848      14.18864217 
S       8.64665631       0.96185421      11.46810809 
S      10.47101415       2.01514766      14.25329954 
S      13.96135243       4.03029503      11.40345072 
Co      13.96135630       8.06059185       7.81501797 
Co      12.23751670       7.06533264       5.00000000 
Co      12.19485072       7.04069957       9.25735496 
Co      20.94202579      12.09088267       6.44233699 
Co      15.72784770       7.04069957       9.25735496 
Co      17.45169104      10.07573726       7.12867748 
Co      13.96134944      10.10036443       9.25735496 
Co      13.96135651      10.05111010       5.00000000 
Co      15.68519586       7.06533264       5.00000000 
S      17.45169093       8.15202912       5.76841044 
S      17.45169116      11.99944540       8.48894452 
S      15.78571090      11.03759129       5.76841044 
S      19.11767119       9.11388324       8.48894452 
S      15.78571070       9.11388324       8.48894452 
S      19.11767139      11.03759129       5.76841044 
S      17.45169071       6.04544241       8.55360189 
S      13.96135285       8.06058979       5.70375307 
Co      17.45169440      10.07573942      13.51471562 
Co      15.72785481       9.08048020      10.69969765 
Co      15.68518882       9.05584713      14.95705261 
Co      13.96134923       8.06058792      12.14203464 
Co      12.23750966       9.05584713      14.95705261 
Co      17.45169062       6.04544251      12.82837513 
Co      13.96134902       6.07006967      14.95705261 
Co      17.45169461      12.06625766      10.69969765 
Co      19.17553396       9.08048020      10.69969765 
S      13.96135289      10.16717669      11.46810809 
S      17.45169074       7.96915064      14.18864217 
S      15.78571048       7.00729653      11.46810809 
S      15.62733315      11.12903080      14.18864217 
S      19.27604880      11.12903080      14.18864217 
S      12.13699483       7.00729653      11.46810809 
S      13.96135267       8.06058998      14.25329954 
S      17.45169095      10.07573736      11.40345072 
Co      10.47101868      14.10603417       7.81501797 
Co       8.74717908      13.11077496       5.00000000 
Co       8.70451310      13.08614189       9.25735496 
Co      17.45168817      18.13632499       6.44233699 
Co      12.23751008      13.08614189       9.25735496 
Co      13.96135342      16.12117958       7.12867748 
Co      10.47101182      16.14580674       9.25735496 
Co      10.47101888      16.09655242       5.00000000 
Co      12.19485824      13.11077496       5.00000000 
S      13.96135331      14.19747144       5.76841044 
S      13.96135354      18.04488772       8.48894452 
S      12.29537328      17.08303361       5.76841044 
S      15.62733357      15.15932556       8.48894452 
S      12.29537308      15.15932556       8.48894452 
S      15.62733377      17.08303361       5.76841044 
S      13.96135309      12.09088473       8.55360189 
S      10.47101523      14.10603211       5.70375307 
Co      13.96135678      16.12118174      13.51471562 
Co      12.23751718      15.12592252      10.69969765 
Co      12.19485120      15.10128945      14.95705261 
Co      10.47101161      14.10603023      12.14203464 
Co       8.74717204      15.10128945      14.95705261 
Co      13.96135300      12.09088482      12.82837513 
Co      10.47101140      12.11551199      14.95705261 
Co      13.96135699      18.11169998      10.69969765 
Co      15.68519634      15.12592252      10.69969765 
S      10.47101527      16.21261901      11.46810809 
S      13.96135312      14.01459296      14.18864217 
S      12.29537286      13.05273885      11.46810809 
S      12.13699553      17.17447312      14.18864217 
S      15.78571118      17.17447312      14.18864217 
S       8.64665721      13.05273885      11.46810809 
S      10.47101505      14.10603230      14.25329954 
S      13.96135333      16.12117967      11.40345072 
Co      13.96135720      20.15147649       7.81501797 
Co      12.23751760      19.15621728       5.00000000 
Co      12.19485162      19.13158421       9.25735496 
Co      20.94202669      24.18176731       6.44233699 
Co      15.72784860      19.13158421       9.25735496 
Co      17.45169194      22.16662190       7.12867748 
Co      13.96135034      22.19124907       9.25735496 
Co      13.96135741      22.14199474       5.00000000 
Co      15.68519676      19.15621728       5.00000000 
S      17.45169183      20.24291376       5.76841044 
S      17.45169206      24.09033004       8.48894452 
S      15.78571180      23.12847593       5.76841044 
S      19.11767209      21.20476788       8.48894452 
S      15.78571160      21.20476788       8.48894452 
S      19.11767229      23.12847593       5.76841044 
S      17.45169161      18.13632705       8.55360189 
S      13.96135375      20.15147443       5.70375307 
Co      17.45169530      22.16662406      13.51471562 
Co      15.72785571      21.17136484      10.69969765 
Co      15.68518972      21.14673177      14.95705261 
Co      13.96135013      20.15147256      12.14203464 
Co      12.23751056      21.14673177      14.95705261 
Co      17.45169152      18.13632715      12.82837513 
Co      13.96134992      18.16095431      14.95705261 
Co      17.45169551      24.15714230      10.69969765 
Co      19.17553486      21.17136484      10.69969765 
S      13.96135379      22.25806133      11.46810809 
S      17.45169164      20.06003528      14.18864217 
S      15.78571138      19.09818117      11.46810809 
S      15.62733405      23.21991544      14.18864217 
S      19.27604970      23.21991544      14.18864217 
S      12.13699573      19.09818117      11.46810809 
S      13.96135357      20.15147462      14.25329954 
S      17.45169185      22.16662200      11.40345072 
Co      17.45169482      14.10603417       7.81501797 
Co      15.72785522      13.11077496       5.00000000 
Co      15.68518924      13.08614189       9.25735496 
Co      24.43236431      18.13632499       6.44233699 
Co      19.21818622      13.08614189       9.25735496 
Co      20.94202956      16.12117958       7.12867748 
Co      17.45168796      16.14580674       9.25735496 
Co      17.45169502      16.09655242       5.00000000 
Co      19.17553438      13.11077496       5.00000000 
S      20.94202945      14.19747144       5.76841044 
S      20.94202968      18.04488772       8.48894452 
S      19.27604942      17.08303361       5.76841044 
S      22.60800971      15.15932556       8.48894452 
S      19.27604922      15.15932556       8.48894452 
S      22.60800991      17.08303361       5.76841044 
S      20.94202923      12.09088473       8.55360189 
S      17.45169137      14.10603211       5.70375307 
Co      20.94203292      16.12118174      13.51471562 
Co      19.21819332      15.12592252      10.69969765 
Co      19.17552734      15.10128945      14.95705261 
Co      17.45168775      14.10603023      12.14203464 
Co      15.72784818      15.10128945      14.95705261 
Co      20.94202914      12.09088482      12.82837513 
Co      17.45168754      12.11551199      14.95705261 
Co      20.94203313      18.11169998      10.69969765 
Co      22.66587248      15.12592252      10.69969765 
S      17.45169141      16.21261901      11.46810809 
S      20.94202926      14.01459296      14.18864217 
S      19.27604900      13.05273885      11.46810809 
S      19.11767167      17.17447312      14.18864217 
S      22.76638732      17.17447312      14.18864217 
S      15.62733335      13.05273885      11.46810809 
S      17.45169119      14.10603230      14.25329954 
S      20.94202947      16.12117967      11.40345072 
Co      20.94203334      20.15147649       7.81501797 
Co      19.21819374      19.15621728       5.00000000 
Co      19.17552776      19.13158421       9.25735496 
Co      27.92270283      24.18176731       6.44233699 
Co      22.70852474      19.13158421       9.25735496 
Co      24.43236808      22.16662190       7.12867748 
Co      20.94202648      22.19124907       9.25735496 
Co      20.94203355      22.14199474       5.00000000 
Co      22.66587290      19.15621728       5.00000000 
S      24.43236797      20.24291376       5.76841044 
S      24.43236820      24.09033004       8.48894452 
S      22.76638794      23.12847593       5.76841044 
S      26.09834823      21.20476788       8.48894452 
S      22.76638774      21.20476788       8.48894452 
S      26.09834843      23.12847593       5.76841044 
S      24.43236775      18.13632705       8.55360189 
S      20.94202989      20.15147443       5.70375307 
Co      24.43237144      22.16662406      13.51471562 
Co      22.70853185      21.17136484      10.69969765 
Co      22.66586586      21.14673177      14.95705261 
Co      20.94202627      20.15147256      12.14203464 
Co      19.21818670      21.14673177      14.95705261 
Co      24.43236766      18.13632715      12.82837513 
Co      20.94202606      18.16095431      14.95705261 
Co      24.43237165      24.15714230      10.69969765 
Co      26.15621100      21.17136484      10.69969765 
S      20.94202993      22.25806133      11.46810809 
S      24.43236778      20.06003528      14.18864217 
S      22.76638752      19.09818117      11.46810809 
S      22.60801019      23.21991544      14.18864217 
S      26.25672584      23.21991544      14.18864217 
S      19.11767187      19.09818117      11.46810809 
S      20.94202971      20.15147462      14.25329954 
S      24.43236799      22.16662200      11.40345072 
Co      17.45169392       2.01514953       7.81501797 
Co      15.72785432       1.01989032       5.00000000 
Co      15.68518834       0.99525725       9.25735496 
Co      24.43236341       6.04544035       6.44233699 
Co      19.21818532       0.99525725       9.25735496 
Co      20.94202866       4.03029494       7.12867748 
Co      17.45168706       4.05492210       9.25735496 
Co      17.45169412       4.00566778       5.00000000 
Co      19.17553348       1.01989032       5.00000000 
S      20.94202855       2.10658680       5.76841044 
S      20.94202878       5.95400308       8.48894452 
S      19.27604852       4.99214897       5.76841044 
S      22.60800881       3.06844092       8.48894452 
S      19.27604832       3.06844092       8.48894452 
S      22.60800901       4.99214897       5.76841044 
S      20.94202833       0.00000009       8.55360189 
S      17.45169047       2.01514747       5.70375307 
Co      20.94203202       4.03029710      13.51471562 
Co      19.21819242       3.03503788      10.69969765 
Co      19.17552644       3.01040481      14.95705261 
Co      17.45168685       2.01514559      12.14203464 
Co      15.72784728       3.01040481      14.95705261 
Co      20.94202824       0.00000018      12.82837513 
Co      17.45168664       0.02462735      14.95705261 
Co      20.94203223       6.02081534      10.69969765 
Co      22.66587158       3.03503788      10.69969765 
S      17.45169051       4.12173437      11.46810809 
S      20.94202836       1.92370832      14.18864217 
S      19.27604810       0.96185421      11.46810809 
S      19.11767077       5.08358848      14.18864217 
S      22.76638642       5.08358848      14.18864217 
S      15.62733245       0.96185421      11.46810809 
S      17.45169029       2.01514766      14.25329954 
S      20.94202857       4.03029503      11.40345072 
Co      20.94203244       8.06059185       7.81501797 
Co      19.21819284       7.06533264       5.00000000 
Co      19.17552686       7.04069957       9.25735496 
Co      27.92270193      12.09088267       6.44233699 
Co      22.70852384       7.04069957       9.25735496 
Co      24.43236718      10.07573726       7.12867748 
Co      20.94202558      10.10036443       9.25735496 
Co      20.94203265      10.05111010       5.00000000 
Co      22.66587200       7.06533264       5.00000000 
S      24.43236707       8.15202912       5.76841044 
S      24.43236730      11.99944540       8.48894452 
S      22.76638704      11.03759129       5.76841044 
S      26.09834733       9.11388324       8.48894452 
S      22.76638684       9.11388324       8.48894452 
S      26.09834753      11.03759129       5.76841044 
S      24.43236685       6.04544241       8.55360189 
S      20.94202899       8.06058979       5.70375307 
Co      24.43237054      10.07573942      13.51471562 
Co      22.70853095       9.08048020      10.69969765 
Co      22.66586496       9.05584713      14.95705261 
Co      20.94202537       8.06058792      12.14203464 
Co      19.21818580       9.05584713      14.95705261 
Co      24.43236676       6.04544251      12.82837513 
Co      20.94202516       6.07006967      14.95705261 
Co      24.43237075      12.06625766      10.69969765 
Co      26.15621010       9.08048020      10.69969765 
S      20.94202903      10.16717669      11.46810809 
S      24.43236688       7.96915064      14.18864217 
S      22.76638662       7.00729653      11.46810809 
S      22.60800929      11.12903080      14.18864217 
S      26.25672494      11.12903080      14.18864217 
S      19.11767097       7.00729653      11.46810809 
S      20.94202881       8.06058998      14.25329954 
S      24.43236709      10.07573736      11.40345072 
Co      24.43237006       2.01514953       7.81501797 
Co      22.70853046       1.01989032       5.00000000 
Co      22.66586448       0.99525725       9.25735496 
Co      31.41303955       6.04544035       6.44233699 
Co      26.19886146       0.99525725       9.25735496 
Co      27.92270480       4.03029494       7.12867748 
Co      24.43236320       4.05492210       9.25735496 
Co      24.43237026       4.00566778       5.00000000 
Co      26.15620962       1.01989032       5.00000000 
S      27.92270469       2.10658680       5.76841044 
S      27.92270492       5.95400308       8.48894452 
S      26.25672466       4.99214897       5.76841044 
S      29.58868495       3.06844092       8.48894452 
S      26.25672446       3.06844092       8.48894452 
S      29.58868515       4.99214897       5.76841044 
S      27.92270447       0.00000009       8.55360189 
S      24.43236661       2.01514747       5.70375307 
Co      27.92270816       4.03029710      13.51471562 
Co      26.19886856       3.03503788      10.69969765 
Co      26.15620258       3.01040481      14.95705261 
Co      24.43236299       2.01514559      12.14203464 
Co      22.70852342       3.01040481      14.95705261 
Co      27.92270438       0.00000018      12.82837513 
Co      24.43236278       0.02462735      14.95705261 
Co      27.92270837       6.02081534      10.69969765 
Co      29.64654772       3.03503788      10.69969765 
S      24.43236665       4.12173437      11.46810809 
S      27.92270450       1.92370832      14.18864217 
S      26.25672424       0.96185421      11.46810809 
S      26.09834691       5.08358848      14.18864217 
S      29.74706256       5.08358848      14.18864217 
S      22.60800859       0.96185421      11.46810809 
S      24.43236643       2.01514766      14.25329954 
S      27.92270471       4.03029503      11.40345072 
Co      27.92270858       8.06059185       7.81501797 
Co      26.19886898       7.06533264       5.00000000 
Co      26.15620300       7.04069957       9.25735496 
Co      34.90337807      12.09088267       6.44233699 
Co      29.68919998       7.04069957       9.25735496 
Co      31.41304332      10.07573726       7.12867748 
Co      27.92270172      10.10036443       9.25735496 
Co      27.92270879      10.05111010       5.00000000 
Co      29.64654814       7.06533264       5.00000000 
S      31.41304321       8.15202912       5.76841044 
S      31.41304344      11.99944540       8.48894452 
S      29.74706318      11.03759129       5.76841044 
S      33.07902347       9.11388324       8.48894452 
S      29.74706298       9.11388324       8.48894452 
S      33.07902367      11.03759129       5.76841044 
S      31.41304299       6.04544241       8.55360189 
S      27.92270513       8.06058979       5.70375307 
Co      31.41304668      10.07573942      13.51471562 
Co      29.68920709       9.08048020      10.69969765 
Co      29.64654110       9.05584713      14.95705261 
Co      27.92270151       8.06058792      12.14203464 
Co      26.19886194       9.05584713      14.95705261 
Co      31.41304290       6.04544251      12.82837513 
Co      27.92270130       6.07006967      14.95705261 
Co      31.41304689      12.06625766      10.69969765 
Co      33.13688624       9.08048020      10.69969765 
S      27.92270517      10.16717669      11.46810809 
S      31.41304302       7.96915064      14.18864217 
S      29.74706276       7.00729653      11.46810809 
S      29.58868543      11.12903080      14.18864217 
S      33.23740108      11.12903080      14.18864217 
S      26.09834711       7.00729653      11.46810809 
S      27.92270495       8.06058998      14.25329954 
S      31.41304323      10.07573736      11.40345072 
Co      24.43237096      14.10603417       7.81501797 
Co      22.70853136      13.11077496       5.00000000 
Co      22.66586538      13.08614189       9.25735496 
Co      31.41304045      18.13632499       6.44233699 
Co      26.19886236      13.08614189       9.25735496 
Co      27.92270570      16.12117958       7.12867748 
Co      24.43236410      16.14580674       9.25735496 
Co      24.43237116      16.09655242       5.00000000 
Co      26.15621052      13.11077496       5.00000000 
S      27.92270559      14.19747144       5.76841044 
S      27.92270582      18.04488772       8.48894452 
S      26.25672556      17.08303361       5.76841044 
S      29.58868585      15.15932556       8.48894452 
S      26.25672536      15.15932556       8.48894452 
S      29.58868605      17.08303361       5.76841044 
S      27.92270537      12.09088473       8.55360189 
S      24.43236751      14.10603211       5.70375307 
Co      27.92270906      16.12118174      13.51471562 
Co      26.19886946      15.12592252      10.69969765 
Co      26.15620348      15.10128945      14.95705261 
Co      24.43236389      14.10603023      12.14203464 
Co      22.70852432      15.10128945      14.95705261 
Co      27.92270528      12.09088482      12.82837513 
Co      24.43236368      12.11551199      14.95705261 
Co      27.92270927      18.11169998      10.69969765 
Co      29.64654862      15.12592252      10.69969765 
S      24.43236755      16.21261901      11.46810809 
S      27.92270540      14.01459296      14.18864217 
S      26.25672514      13.05273885      11.46810809 
S      26.09834781      17.17447312      14.18864217 
S      29.74706346      17.17447312      14.18864217 
S      22.60800949      13.05273885      11.46810809 
S      24.43236733      14.10603230      14.25329954 
S      27.92270561      16.12117967      11.40345072 
Co      27.92270948      20.15147649       7.81501797 
Co      26.19886988      19.15621728       5.00000000 
Co      26.15620390      19.13158421       9.25735496 
Co      34.90337897      24.18176731       6.44233699 
Co      29.68920088      19.13158421       9.25735496 
Co      31.41304422      22.16662190       7.12867748 
Co      27.92270262      22.19124907       9.25735496 
Co      27.92270969      22.14199474       5.00000000 
Co      29.64654904      19.15621728       5.00000000 
S      31.41304411      20.24291376       5.76841044 
S      31.41304434      24.09033004       8.48894452 
S      29.74706408      23.12847593       5.76841044 
S      33.07902437      21.20476788       8.48894452 
S      29.74706388      21.20476788       8.48894452 
S      33.07902457      23.12847593       5.76841044 
S      31.41304389      18.13632705       8.55360189 
S      27.92270603      20.15147443       5.70375307 
Co      31.41304758      22.16662406      13.51471562 
Co      29.68920799      21.17136484      10.69969765 
Co      29.64654200      21.14673177      14.95705261 
Co      27.92270241      20.15147256      12.14203464 
Co      26.19886284      21.14673177      14.95705261 
Co      31.41304380      18.13632715      12.82837513 
Co      27.92270220      18.16095431      14.95705261 
Co      31.41304779      24.15714230      10.69969765 
Co      33.13688714      21.17136484      10.69969765 
S      27.92270607      22.25806133      11.46810809 
S      31.41304392      20.06003528      14.18864217 
S      29.74706366      19.09818117      11.46810809 
S      29.58868633      23.21991544      14.18864217 
S      33.23740198      23.21991544      14.18864217 
S      26.09834801      19.09818117      11.46810809 
S      27.92270585      20.15147462      14.25329954 
S      31.41304413      22.16662200      11.40345072 
Co      31.41304710      14.10603417       7.81501797 
Co      29.68920750      13.11077496       5.00000000 
Co      29.64654152      13.08614189       9.25735496 
Co      38.39371659      18.13632499       6.44233699 
Co      33.17953850      13.08614189       9.25735496 
Co      34.90338184      16.12117958       7.12867748 
Co      31.41304024      16.14580674       9.25735496 
Co      31.41304730      16.09655242       5.00000000 
Co      33.13688666      13.11077496       5.00000000 
S      34.90338173      14.19747144       5.76841044 
S      34.90338196      18.04488772       8.48894452 
S      33.23740170      17.08303361       5.76841044 
S      36.56936199      15.15932556       8.48894452 
S      33.23740150      15.15932556       8.48894452 
S      36.56936219      17.08303361       5.76841044 
S      34.90338151      12.09088473       8.55360189 
S      31.41304365      14.10603211       5.70375307 
Co      34.90338520      16.12118174      13.51471562 
Co      33.17954560      15.12592252      10.69969765 
Co      33.13687962      15.10128945      14.95705261 
Co      31.41304003      14.10603023      12.14203464 
Co      29.68920046      15.10128945      14.95705261 
Co      34.90338142      12.09088482      12.82837513 
Co      31.41303982      12.11551199      14.95705261 
Co      34.90338541      18.11169998      10.69969765 
Co      36.62722476      15.12592252      10.69969765 
S      31.41304369      16.21261901      11.46810809 
S      34.90338154      14.01459296      14.18864217 
S      33.23740128      13.05273885      11.46810809 
S      33.07902395      17.17447312      14.18864217 
S      36.72773960      17.17447312      14.18864217 
S      29.58868563      13.05273885      11.46810809 
S      31.41304347      14.10603230      14.25329954 
S      34.90338175      16.12117967      11.40345072 
Co      34.90338562      20.15147649       7.81501797 
Co      33.17954602      19.15621728       5.00000000 
Co      33.13688004      19.13158421       9.25735496 
Co      41.88405511      24.18176731       6.44233699 
Co      36.66987702      19.13158421       9.25735496 
Co      38.39372036      22.16662190       7.12867748 
Co      34.90337876      22.19124907       9.25735496 
Co      34.90338583      22.14199474       5.00000000 
Co      36.62722518      19.15621728       5.00000000 
S      38.39372025      20.24291376       5.76841044 
S      38.39372048      24.09033004       8.48894452 
S      36.72774022      23.12847593       5.76841044 
S      40.05970051      21.20476788       8.48894452 
S      36.72774002      21.20476788       8.48894452 
S      40.05970071      23.12847593       5.76841044 
S      38.39372003      18.13632705       8.55360189 
S      34.90338217      20.15147443       5.70375307 
Co      38.39372372      22.16662406      13.51471562 
Co      36.66988413      21.17136484      10.69969765 
Co      36.62721814      21.14673177      14.95705261 
Co      34.90337855      20.15147256      12.14203464 
Co      33.17953898      21.14673177      14.95705261 
Co      38.39371994      18.13632715      12.82837513 
Co      34.90337834      18.16095431      14.95705261 
Co      38.39372393      24.15714230      10.69969765 
Co      40.11756328      21.17136484      10.69969765 
S      34.90338221      22.25806133      11.46810809 
S      38.39372006      20.06003528      14.18864217 
S      36.72773980      19.09818117      11.46810809 
S      36.56936247      23.21991544      14.18864217 
S      40.21807812      23.21991544      14.18864217 
S      33.07902415      19.09818117      11.46810809 
S      34.90338199      20.15147462      14.25329954 
S      38.39372027      22.16662200      11.40345072 
