448
Lattice="26.5220467644 0.0 0.0 13.26102336214 22.9687662698 0.0 0.0 0.0 20.1520453272" Properties=species:S:1:pos:R:3 unit_cell=conventional pbc="T T F"
Co       4.97288377       2.87109578       5.00000000 
S       4.97291082       2.87123135       8.93565048 
S       4.97291143       4.66756213       6.39491530 
S       6.52871345       1.97281120       6.39509345 
S       8.28811195       2.98869329       9.01887482 
S       6.73230993       5.68344422       9.01869668 
S       3.41952432       1.97420508       6.39607365 
S       8.28811256       4.78502407       6.47813965 
Co       4.97288377       0.95703193       7.70689506 
Co       3.31525584       3.82812771       7.70689506 
S       9.84149906       5.68205035       9.01771648 
Co       6.63051169       3.82812771       7.70689506 
Co       1.65471944       0.95535525       5.67553492 
Co       1.66053641       0.95870860       9.73825520 
S       3.21098737       1.85392263      14.43150661 
S       8.28816667       4.78529521      14.34944061 
S       4.97291143       0.83943442      11.80870543 
S       3.21345760       3.88687506      11.80888357 
S       4.97285611       4.90275714      14.43266495 
S       6.73230993       1.85531651      14.43248681 
S       6.73478016       3.88826893      11.80986377 
S       1.65760087       0.95689636      11.89192977 
Co       1.65762792       2.87109578      13.12068519 
Co       6.63051169       5.74219157      13.12068519 
Co       8.28813961       4.78515964      10.41379013 
Co       3.31525584       5.74219157      13.12068519 
Co       4.96997528       2.86941911      11.08932505 
Co       4.97579225       2.87277245      15.15204533 
S      13.15675490      11.42424191       9.01771648 
S       8.28816666       8.61342292       8.93565048 
S       8.28816727      10.40975370       6.39491530 
S       9.84396929       7.71500277       6.39509345 
S      11.60336779       8.73088486       9.01887482 
S      10.04756577      11.42563579       9.01869668 
S       6.73478016       7.71639664       6.39607365 
S      11.60336840      10.52721564       6.47813965 
Co       8.28813961       6.69922349       7.70689506 
Co       6.63051168       9.57031928       7.70689506 
Co       8.28813961       8.61328735       5.00000000 
Co       9.94576753       9.57031928       7.70689506 
Co       4.96997528       6.69754682       5.67553492 
Co       4.97579225       6.70090017       9.73825520 
S       6.52624322       7.59611420      14.43150661 
S      11.60342251      10.52748678      14.34944061 
S       8.28816727       6.58162599      11.80870543 
S       6.52871344       9.62906662      11.80888357 
S       8.28811195      10.64494871      14.43266495 
S      10.04756577       7.59750807      14.43248681 
S      10.05003600       9.63046050      11.80986377 
S       4.97285671       6.69908792      11.89192977 
Co       4.97288376       8.61328735      13.12068519 
Co       9.94576753      11.48438313      13.12068519 
Co      11.60339545      10.52735121      10.41379013 
Co       6.63051168      11.48438313      13.12068519 
Co       8.28523112       8.61161068      11.08932505 
Co       8.29104810       8.61496402      15.15204533 
S      16.47201075       5.68205035       9.01771648 
S      11.60342251       2.87123135       8.93565048 
S      11.60342312       4.66756213       6.39491530 
S      13.15922514       1.97281120       6.39509345 
S      14.91862364       2.98869329       9.01887482 
S      13.36282162       5.68344422       9.01869668 
S      10.05003601       1.97420508       6.39607365 
S      14.91862425       4.78502407       6.47813965 
Co      11.60339546       0.95703193       7.70689506 
Co       9.94576753       3.82812771       7.70689506 
Co      11.60339546       2.87109578       5.00000000 
Co      13.26102338       3.82812771       7.70689506 
Co       8.28523113       0.95535525       5.67553492 
Co       8.29104810       0.95870860       9.73825520 
S       9.84149907       1.85392263      14.43150661 
S      14.91867836       4.78529521      14.34944061 
S      11.60342312       0.83943442      11.80870543 
S       9.84396929       3.88687506      11.80888357 
S      11.60336780       4.90275714      14.43266495 
S      13.36282162       1.85531651      14.43248681 
S      13.36529185       3.88826893      11.80986377 
S       8.28811256       0.95689636      11.89192977 
Co       8.28813961       2.87109578      13.12068519 
Co      13.26102338       5.74219157      13.12068519 
Co      14.91865130       4.78515964      10.41379013 
Co       9.94576753       5.74219157      13.12068519 
Co      11.60048697       2.86941911      11.08932505 
Co      11.60630395       2.87277245      15.15204533 
S      19.78726659      11.42424191       9.01771648 
S      14.91867835       8.61342292       8.93565048 
S      14.91867896      10.40975370       6.39491530 
S      16.47448098       7.71500277       6.39509345 
S      18.23387948       8.73088486       9.01887482 
S      16.67807746      11.42563579       9.01869668 
S      13.36529185       7.71639664       6.39607365 
S      18.23388009      10.52721564       6.47813965 
Co      14.91865130       6.69922349       7.70689506 
Co      13.26102337       9.57031928       7.70689506 
Co      14.91865130       8.61328735       5.00000000 
Co      16.57627922       9.57031928       7.70689506 
Co      11.60048697       6.69754682       5.67553492 
Co      11.60630394       6.70090017       9.73825520 
S      13.15675491       7.59611420      14.43150661 
S      18.23393420      10.52748678      14.34944061 
S      14.91867896       6.58162599      11.80870543 
S      13.15922514       9.62906662      11.80888357 
S      14.91862364      10.64494871      14.43266495 
S      16.67807746       7.59750807      14.43248681 
S      16.68054769       9.63046050      11.80986377 
S      11.60336840       6.69908792      11.89192977 
Co      11.60339545       8.61328735      13.12068519 
Co      16.57627922      11.48438313      13.12068519 
Co      18.23390714      10.52735121      10.41379013 
Co      13.26102337      11.48438313      13.12068519 
Co      14.91574281       8.61161068      11.08932505 
Co      14.92155979       8.61496402      15.15204533 
S      16.47201074      17.16643348       9.01771648 
S      11.60342250      14.35561448       8.93565048 
S      11.60342311      16.15194526       6.39491530 
S      13.15922513      13.45719433       6.39509345 
S      14.91862363      14.47307642       9.01887482 
S      13.36282161      17.16782735       9.01869668 
S      10.05003600      13.45858821       6.39607365 
S      14.91862424      16.26940720       6.47813965 
Co      11.60339545      12.44141506       7.70689506 
Co       9.94576752      15.31251084       7.70689506 
Co      11.60339545      14.35547891       5.00000000 
Co      13.26102337      15.31251084       7.70689506 
Co       8.28523112      12.43973838       5.67553492 
Co       8.29104809      12.44309173       9.73825520 
S       9.84149905      13.33830576      14.43150661 
S      14.91867835      16.26967834      14.34944061 
S      11.60342311      12.32381755      11.80870543 
S       9.84396928      15.37125819      11.80888357 
S      11.60336779      16.38714027      14.43266495 
S      13.36282161      13.33969964      14.43248681 
S      13.36529184      15.37265206      11.80986377 
S       8.28811255      12.44127949      11.89192977 
Co       8.28813960      14.35547891      13.12068519 
Co      13.26102337      17.22657470      13.12068519 
Co      14.91865129      16.26954277      10.41379013 
Co       9.94576752      17.22657470      13.12068519 
Co      11.60048696      14.35380224      11.08932505 
Co      11.60630393      14.35715558      15.15204533 
S      19.78726658      22.90862504       9.01771648 
S      14.91867834      20.09780605       8.93565048 
S      14.91867895      21.89413683       6.39491530 
S      16.47448097      19.19938590       6.39509345 
S      18.23387947      20.21526799       9.01887482 
S      16.67807745      22.91001892       9.01869668 
S      13.36529184      19.20077977       6.39607365 
S      18.23388008      22.01159877       6.47813965 
Co      14.91865129      18.18360662       7.70689506 
Co      13.26102336      21.05470241       7.70689506 
Co      14.91865129      20.09767048       5.00000000 
Co      16.57627921      21.05470241       7.70689506 
Co      11.60048696      18.18192995       5.67553492 
Co      11.60630393      18.18528330       9.73825520 
S      13.15675490      19.08049733      14.43150661 
S      18.23393419      22.01186991      14.34944061 
S      14.91867895      18.06600912      11.80870543 
S      13.15922512      21.11344975      11.80888357 
S      14.91862363      22.12933184      14.43266495 
S      16.67807745      19.08189120      14.43248681 
S      16.68054768      21.11484363      11.80986377 
S      11.60336839      18.18347105      11.89192977 
Co      11.60339544      20.09767048      13.12068519 
Co      16.57627921      22.96876626      13.12068519 
Co      18.23390713      22.01173434      10.41379013 
Co      13.26102336      22.96876626      13.12068519 
Co      14.91574280      20.09599381      11.08932505 
Co      14.92155978      20.09934715      15.15204533 
S      23.10252243      17.16643348       9.01771648 
S      18.23393419      14.35561448       8.93565048 
S      18.23393480      16.15194526       6.39491530 
S      19.78973682      13.45719433       6.39509345 
S      21.54913532      14.47307642       9.01887482 
S      19.99333330      17.16782735       9.01869668 
S      16.68054769      13.45858821       6.39607365 
S      21.54913593      16.26940720       6.47813965 
Co      18.23390714      12.44141506       7.70689506 
Co      16.57627921      15.31251084       7.70689506 
Co      18.23390714      14.35547891       5.00000000 
Co      19.89153506      15.31251084       7.70689506 
Co      14.91574281      12.43973838       5.67553492 
Co      14.92155978      12.44309173       9.73825520 
S      16.47201075      13.33830576      14.43150661 
S      21.54919004      16.26967834      14.34944061 
S      18.23393480      12.32381755      11.80870543 
S      16.47448097      15.37125819      11.80888357 
S      18.23387948      16.38714027      14.43266495 
S      19.99333330      13.33969964      14.43248681 
S      19.99580353      15.37265206      11.80986377 
S      14.91862424      12.44127949      11.89192977 
Co      14.91865129      14.35547891      13.12068519 
Co      19.89153506      17.22657470      13.12068519 
Co      21.54916298      16.26954277      10.41379013 
Co      16.57627921      17.22657470      13.12068519 
Co      18.23099865      14.35380224      11.08932505 
Co      18.23681563      14.35715558      15.15204533 
S      26.41777827      22.90862504       9.01771648 
S      21.54919003      20.09780605       8.93565048 
S      21.54919064      21.89413683       6.39491530 
S      23.10499266      19.19938590       6.39509345 
S      24.86439116      20.21526799       9.01887482 
S      23.30858914      22.91001892       9.01869668 
S      19.99580353      19.20077977       6.39607365 
S      24.86439177      22.01159877       6.47813965 
Co      21.54916298      18.18360662       7.70689506 
Co      19.89153505      21.05470241       7.70689506 
Co      21.54916298      20.09767048       5.00000000 
Co      23.20679090      21.05470241       7.70689506 
Co      18.23099865      18.18192995       5.67553492 
Co      18.23681562      18.18528330       9.73825520 
S      19.78726659      19.08049733      14.43150661 
S      24.86444588      22.01186991      14.34944061 
S      21.54919064      18.06600912      11.80870543 
S      19.78973682      21.11344975      11.80888357 
S      21.54913532      22.12933184      14.43266495 
S      23.30858914      19.08189120      14.43248681 
S      23.31105937      21.11484363      11.80986377 
S      18.23388008      18.18347105      11.89192977 
Co      18.23390713      20.09767048      13.12068519 
Co      23.20679090      22.96876626      13.12068519 
Co      24.86441882      22.01173434      10.41379013 
Co      19.89153505      22.96876626      13.12068519 
Co      21.54625449      20.09599381      11.08932505 
Co      21.55207147      20.09934715      15.15204533 
S      23.10252244       5.68205035       9.01771648 
S      18.23393420       2.87123135       8.93565048 
S      18.23393481       4.66756213       6.39491530 
S      19.78973683       1.97281120       6.39509345 
S      21.54913533       2.98869329       9.01887482 
S      19.99333331       5.68344422       9.01869668 
S      16.68054770       1.97420508       6.39607365 
S      21.54913594       4.78502407       6.47813965 
Co      18.23390715       0.95703193       7.70689506 
Co      16.57627922       3.82812771       7.70689506 
Co      18.23390715       2.87109578       5.00000000 
Co      19.89153507       3.82812771       7.70689506 
Co      14.91574282       0.95535525       5.67553492 
Co      14.92155979       0.95870860       9.73825520 
S      16.47201075       1.85392263      14.43150661 
S      21.54919005       4.78529521      14.34944061 
S      18.23393481       0.83943442      11.80870543 
S      16.47448098       3.88687506      11.80888357 
S      18.23387949       4.90275714      14.43266495 
S      19.99333331       1.85531651      14.43248681 
S      19.99580354       3.88826893      11.80986377 
S      14.91862425       0.95689636      11.89192977 
Co      14.91865130       2.87109578      13.12068519 
Co      19.89153507       5.74219157      13.12068519 
Co      21.54916299       4.78515964      10.41379013 
Co      16.57627922       5.74219157      13.12068519 
Co      18.23099866       2.86941911      11.08932505 
Co      18.23681563       2.87277245      15.15204533 
S      26.41777828      11.42424191       9.01771648 
S      21.54919004       8.61342292       8.93565048 
S      21.54919065      10.40975370       6.39491530 
S      23.10499267       7.71500277       6.39509345 
S      24.86439117       8.73088486       9.01887482 
S      23.30858915      11.42563579       9.01869668 
S      19.99580354       7.71639664       6.39607365 
S      24.86439178      10.52721564       6.47813965 
Co      21.54916299       6.69922349       7.70689506 
Co      19.89153506       9.57031928       7.70689506 
Co      21.54916299       8.61328735       5.00000000 
Co      23.20679091       9.57031928       7.70689506 
Co      18.23099866       6.69754682       5.67553492 
Co      18.23681563       6.70090017       9.73825520 
S      19.78726660       7.59611420      14.43150661 
S      24.86444589      10.52748678      14.34944061 
S      21.54919065       6.58162599      11.80870543 
S      19.78973682       9.62906662      11.80888357 
S      21.54913533      10.64494871      14.43266495 
S      23.30858915       7.59750807      14.43248681 
S      23.31105938       9.63046050      11.80986377 
S      18.23388009       6.69908792      11.89192977 
Co      18.23390714       8.61328735      13.12068519 
Co      23.20679091      11.48438313      13.12068519 
Co      24.86441883      10.52735121      10.41379013 
Co      19.89153506      11.48438313      13.12068519 
Co      21.54625450       8.61161068      11.08932505 
Co      21.55207148       8.61496402      15.15204533 
S      29.73303413       5.68205035       9.01771648 
S      24.86444589       2.87123135       8.93565048 
S      24.86444650       4.66756213       6.39491530 
S      26.42024852       1.97281120       6.39509345 
S      28.17964702       2.98869329       9.01887482 
S      26.62384500       5.68344422       9.01869668 
S      23.31105939       1.97420508       6.39607365 
S      28.17964763       4.78502407       6.47813965 
Co      24.86441884       0.95703193       7.70689506 
Co      23.20679091       3.82812771       7.70689506 
Co      24.86441884       2.87109578       5.00000000 
Co      26.52204676       3.82812771       7.70689506 
Co      21.54625451       0.95535525       5.67553492 
Co      21.55207148       0.95870860       9.73825520 
S      23.10252245       1.85392263      14.43150661 
S      28.17970174       4.78529521      14.34944061 
S      24.86444650       0.83943442      11.80870543 
S      23.10499267       3.88687506      11.80888357 
S      24.86439118       4.90275714      14.43266495 
S      26.62384500       1.85531651      14.43248681 
S      26.62631523       3.88826893      11.80986377 
S      21.54913594       0.95689636      11.89192977 
Co      21.54916299       2.87109578      13.12068519 
Co      26.52204676       5.74219157      13.12068519 
Co      28.17967468       4.78515964      10.41379013 
Co      23.20679091       5.74219157      13.12068519 
Co      24.86151035       2.86941911      11.08932505 
Co      24.86732733       2.87277245      15.15204533 
S      33.04828997      11.42424191       9.01771648 
S      28.17970173       8.61342292       8.93565048 
S      28.17970234      10.40975370       6.39491530 
S      29.73550436       7.71500277       6.39509345 
S      31.49490286       8.73088486       9.01887482 
S      29.93910084      11.42563579       9.01869668 
S      26.62631523       7.71639664       6.39607365 
S      31.49490347      10.52721564       6.47813965 
Co      28.17967468       6.69922349       7.70689506 
Co      26.52204675       9.57031928       7.70689506 
Co      28.17967468       8.61328735       5.00000000 
Co      29.83730260       9.57031928       7.70689506 
Co      24.86151035       6.69754682       5.67553492 
Co      24.86732732       6.70090017       9.73825520 
S      26.41777829       7.59611420      14.43150661 
S      31.49495758      10.52748678      14.34944061 
S      28.17970234       6.58162599      11.80870543 
S      26.42024852       9.62906662      11.80888357 
S      28.17964702      10.64494871      14.43266495 
S      29.93910084       7.59750807      14.43248681 
S      29.94157107       9.63046050      11.80986377 
S      24.86439178       6.69908792      11.89192977 
Co      24.86441883       8.61328735      13.12068519 
Co      29.83730260      11.48438313      13.12068519 
Co      31.49493052      10.52735121      10.41379013 
Co      26.52204675      11.48438313      13.12068519 
Co      28.17676619       8.61161068      11.08932505 
Co      28.18258317       8.61496402      15.15204533 
S      29.73303412      17.16643348       9.01771648 
S      24.86444588      14.35561448       8.93565048 
S      24.86444649      16.15194526       6.39491530 
S      26.42024851      13.45719433       6.39509345 
S      28.17964701      14.47307642       9.01887482 
S      26.62384499      17.16782735       9.01869668 
S      23.31105938      13.45858821       6.39607365 
S      28.17964762      16.26940720       6.47813965 
Co      24.86441883      12.44141506       7.70689506 
Co      23.20679090      15.31251084       7.70689506 
Co      24.86441883      14.35547891       5.00000000 
Co      26.52204675      15.31251084       7.70689506 
Co      21.54625450      12.43973838       5.67553492 
Co      21.55207147      12.44309173       9.73825520 
S      23.10252243      13.33830576      14.43150661 
S      28.17970173      16.26967834      14.34944061 
S      24.86444649      12.32381755      11.80870543 
S      23.10499266      15.37125819      11.80888357 
S      24.86439117      16.38714027      14.43266495 
S      26.62384499      13.33969964      14.43248681 
S      26.62631522      15.37265206      11.80986377 
S      21.54913593      12.44127949      11.89192977 
Co      21.54916298      14.35547891      13.12068519 
Co      26.52204675      17.22657470      13.12068519 
Co      28.17967467      16.26954277      10.41379013 
Co      23.20679090      17.22657470      13.12068519 
Co      24.86151034      14.35380224      11.08932505 
Co      24.86732731      14.35715558      15.15204533 
S      33.04828996      22.90862504       9.01771648 
S      28.17970172      20.09780605       8.93565048 
S      28.17970233      21.89413683       6.39491530 
S      29.73550435      19.19938590       6.39509345 
S      31.49490285      20.21526799       9.01887482 
S      29.93910083      22.91001892       9.01869668 
S      26.62631522      19.20077977       6.39607365 
S      31.49490346      22.01159877       6.47813965 
Co      28.17967467      18.18360662       7.70689506 
Co      26.52204674      21.05470241       7.70689506 
Co      28.17967467      20.09767048       5.00000000 
Co      29.83730259      21.05470241       7.70689506 
Co      24.86151034      18.18192995       5.67553492 
Co      24.86732731      18.18528330       9.73825520 
S      26.41777828      19.08049733      14.43150661 
S      31.49495757      22.01186991      14.34944061 
S      28.17970233      18.06600912      11.80870543 
S      26.42024850      21.11344975      11.80888357 
S      28.17964701      22.12933184      14.43266495 
S      29.93910083      19.08189120      14.43248681 
S      29.94157106      21.11484363      11.80986377 
S      24.86439177      18.18347105      11.89192977 
Co      24.86441882      20.09767048      13.12068519 
Co      29.83730259      22.96876626      13.12068519 
Co      31.49493051      22.01173434      10.41379013 
Co      26.52204674      22.96876626      13.12068519 
Co      28.17676618      20.09599381      11.08932505 
Co      28.18258316      20.09934715      15.15204533 
S      36.36354581      17.16643348       9.01771648 
S      31.49495757      14.35561448       8.93565048 
S      31.49495818      16.15194526       6.39491530 
S      33.05076020      13.45719433       6.39509345 
S      34.81015870      14.47307642       9.01887482 
S      33.25435668      17.16782735       9.01869668 
S      29.94157107      13.45858821       6.39607365 
S      34.81015931      16.26940720       6.47813965 
Co      31.49493052      12.44141506       7.70689506 
Co      29.83730259      15.31251084       7.70689506 
Co      31.49493052      14.35547891       5.00000000 
Co      33.15255844      15.31251084       7.70689506 
Co      28.17676619      12.43973838       5.67553492 
Co      28.18258316      12.44309173       9.73825520 
S      29.73303413      13.33830576      14.43150661 
S      34.81021342      16.26967834      14.34944061 
S      31.49495818      12.32381755      11.80870543 
S      29.73550435      15.37125819      11.80888357 
S      31.49490286      16.38714027      14.43266495 
S      33.25435668      13.33969964      14.43248681 
S      33.25682691      15.37265206      11.80986377 
S      28.17964762      12.44127949      11.89192977 
Co      28.17967467      14.35547891      13.12068519 
Co      33.15255844      17.22657470      13.12068519 
Co      34.81018636      16.26954277      10.41379013 
Co      29.83730259      17.22657470      13.12068519 
Co      31.49202203      14.35380224      11.08932505 
Co      31.49783901      14.35715558      15.15204533 
S      39.67880165      22.90862504       9.01771648 
S      34.81021341      20.09780605       8.93565048 
S      34.81021402      21.89413683       6.39491530 
S      36.36601604      19.19938590       6.39509345 
S      38.12541454      20.21526799       9.01887482 
S      36.56961252      22.91001892       9.01869668 
S      33.25682691      19.20077977       6.39607365 
S      38.12541515      22.01159877       6.47813965 
Co      34.81018636      18.18360662       7.70689506 
Co      33.15255843      21.05470241       7.70689506 
Co      34.81018636      20.09767048       5.00000000 
Co      36.46781428      21.05470241       7.70689506 
Co      31.49202203      18.18192995       5.67553492 
Co      31.49783900      18.18528330       9.73825520 
S      33.04828997      19.08049733      14.43150661 
S      38.12546926      22.01186991      14.34944061 
S      34.81021402      18.06600912      11.80870543 
S      33.05076020      21.11344975      11.80888357 
S      34.81015870      22.12933184      14.43266495 
S      36.56961252      19.08189120      14.43248681 
S      36.57208275      21.11484363      11.80986377 
S      31.49490346      18.18347105      11.89192977 
Co      31.49493051      20.09767048      13.12068519 
Co      36.46781428      22.96876626      13.12068519 
Co      38.12544220      22.01173434      10.41379013 
Co      33.15255843      22.96876626      13.12068519 
Co      34.80727787      20.09599381      11.08932505 
Co      34.81309485      20.09934715      15.15204533 
