448
Lattice="26.5220467644 0.0 0.0 13.26102337016 22.9687662746 0.0 0.0 0.0 19.6018271171" Properties=species:S:1:pos:R:3 unit_cell=conventional pbc="T T F"
Co       6.63051169       5.74219157       5.00000000 
S       1.75941300       1.01591752       6.31196949 
S       3.31535886       3.71057371       6.31185671 
S       4.87102200       1.01574260       6.31190535 
S       3.31515283       0.11755400       9.10193341 
S       1.75948969       2.81238511       9.10188477 
S       3.31522473       5.74211539       9.18803699 
S       4.87109869       2.81221019       9.10182063 
S       6.63054280       3.82820389       6.22575313 
Co       1.65762792       2.87109578       5.00000000 
Co       4.97288377       2.87109578       5.00000000 
Co       3.31525584       1.91406386       7.70689506 
Co       6.63051215       0.00000280       7.02660986 
Co       6.63051123       3.82812491       8.38718027 
S       3.31528696       1.91414003      11.63954326 
S       8.38992469       4.84404523      11.72575962 
S       6.63061470       1.79650985      11.72564684 
S       4.87102200       4.84387031      11.72569548 
S       3.31515283       3.94568171      14.51572354 
S       5.07474553       0.89832125      14.51567490 
S       6.63048057       3.82805154      14.60182712 
S       1.55584284       0.89814633      14.51561076 
Co       3.31525584       3.82812771      10.41379012 
Co       4.97288377       0.95703193      10.41379012 
Co       1.65762792       0.95703193      10.41379012 
Co       9.94576753       5.74219157      13.12068519 
Co       6.63051214       3.82813052      12.44039998 
Co       3.31525539       1.91406105      13.80097039 
S       9.94579865       9.57039545       6.22575313 
S       5.07466884       6.75810909       6.31196949 
S       6.63061470       9.45276528       6.31185671 
S       8.18627785       6.75793417       6.31190535 
S       6.63040868       5.85974557       9.10193341 
S       5.07474553       8.55457668       9.10188477 
S       6.63048057      11.48430696       9.18803699 
S       8.18635453       8.55440176       9.10182063 
Co       9.94576753      11.48438314       5.00000000 
Co       4.97288376       8.61328735       5.00000000 
Co       8.28813961       8.61328735       5.00000000 
Co       6.63051169       7.65625542       7.70689506 
Co       9.94576799       5.74219437       7.02660986 
Co       9.94576708       9.57031647       8.38718027 
S       6.63054280       7.65633160      11.63954326 
S      11.70518053      10.58623680      11.72575962 
S       9.94587054       7.53870142      11.72564684 
S       8.18627784      10.58606188      11.72569548 
S       6.63040867       9.68787328      14.51572354 
S       8.39000137       6.64051282      14.51567490 
S       9.94573641       9.57024310      14.60182712 
S       4.87109869       6.64033790      14.51561076 
Co       6.63051169       9.57031928      10.41379012 
Co       8.28813961       6.69922350      10.41379012 
Co       4.97288376       6.69922350      10.41379012 
Co      13.26102337      11.48438314      13.12068519 
Co       9.94576799       9.57032208      12.44039998 
Co       6.63051123       7.65625262      13.80097039 
S      13.26105450       3.82820389       6.22575313 
S       8.38992469       1.01591752       6.31196949 
S       9.94587055       3.71057371       6.31185671 
S      11.50153369       1.01574260       6.31190535 
S       9.94566452       0.11755400       9.10193341 
S       8.39000138       2.81238511       9.10188477 
S       9.94573642       5.74211539       9.18803699 
S      11.50161038       2.81221019       9.10182063 
Co      13.26102338       5.74219157       5.00000000 
Co       8.28813961       2.87109578       5.00000000 
Co      11.60339546       2.87109578       5.00000000 
Co       9.94576754       1.91406386       7.70689506 
Co      13.26102384       0.00000280       7.02660986 
Co      13.26102292       3.82812491       8.38718027 
S       9.94579865       1.91414003      11.63954326 
S      15.02043638       4.84404523      11.72575962 
S      13.26112639       1.79650985      11.72564684 
S      11.50153369       4.84387031      11.72569548 
S       9.94566452       3.94568171      14.51572354 
S      11.70525722       0.89832125      14.51567490 
S      13.26099226       3.82805154      14.60182712 
S       8.18635454       0.89814633      14.51561076 
Co       9.94576753       3.82812771      10.41379012 
Co      11.60339546       0.95703193      10.41379012 
Co       8.28813961       0.95703193      10.41379012 
Co      16.57627922       5.74219157      13.12068519 
Co      13.26102383       3.82813052      12.44039998 
Co       9.94576708       1.91406105      13.80097039 
S      16.57631034       9.57039545       6.22575313 
S      11.70518053       6.75810909       6.31196949 
S      13.26112639       9.45276528       6.31185671 
S      14.81678954       6.75793417       6.31190535 
S      13.26092037       5.85974557       9.10193341 
S      11.70525722       8.55457668       9.10188477 
S      13.26099226      11.48430696       9.18803699 
S      14.81686622       8.55440176       9.10182063 
Co      16.57627922      11.48438314       5.00000000 
Co      11.60339545       8.61328735       5.00000000 
Co      14.91865130       8.61328735       5.00000000 
Co      13.26102338       7.65625542       7.70689506 
Co      16.57627968       5.74219437       7.02660986 
Co      16.57627877       9.57031647       8.38718027 
S      13.26105449       7.65633160      11.63954326 
S      18.33569222      10.58623680      11.72575962 
S      16.57638223       7.53870142      11.72564684 
S      14.81678953      10.58606188      11.72569548 
S      13.26092036       9.68787328      14.51572354 
S      15.02051306       6.64051282      14.51567490 
S      16.57624811       9.57024310      14.60182712 
S      11.50161038       6.64033790      14.51561076 
Co      13.26102338       9.57031928      10.41379012 
Co      14.91865130       6.69922350      10.41379012 
Co      11.60339545       6.69922350      10.41379012 
Co      19.89153507      11.48438314      13.12068519 
Co      16.57627968       9.57032208      12.44039998 
Co      13.26102292       7.65625262      13.80097039 
S      13.26105449      15.31258703       6.22575313 
S       8.38992469      12.50030066       6.31196949 
S       9.94587055      15.19495685       6.31185671 
S      11.50153369      12.50012574       6.31190535 
S       9.94566452      11.60193714       9.10193341 
S       8.39000138      14.29676825       9.10188477 
S       9.94573642      17.22649853       9.18803699 
S      11.50161038      14.29659333       9.10182063 
Co      13.26102338      17.22657471       5.00000000 
Co       8.28813961      14.35547892       5.00000000 
Co      11.60339546      14.35547892       5.00000000 
Co       9.94576753      13.39844700       7.70689506 
Co      13.26102384      11.48438594       7.02660986 
Co      13.26102292      15.31250805       8.38718027 
S       9.94579865      13.39852317      11.63954326 
S      15.02043638      16.32842837      11.72575962 
S      13.26112639      13.28089299      11.72564684 
S      11.50153369      16.32825345      11.72569548 
S       9.94566452      15.43006485      14.51572354 
S      11.70525722      12.38270439      14.51567490 
S      13.26099226      15.31243468      14.60182712 
S       8.18635453      12.38252947      14.51561076 
Co       9.94576753      15.31251085      10.41379012 
Co      11.60339546      12.44141507      10.41379012 
Co       8.28813961      12.44141507      10.41379012 
Co      16.57627922      17.22657471      13.12068519 
Co      13.26102383      15.31251366      12.44039998 
Co       9.94576708      13.39844419      13.80097039 
S      16.57631034      21.05477859       6.22575313 
S      11.70518053      18.24249223       6.31196949 
S      13.26112639      20.93714842       6.31185671 
S      14.81678954      18.24231731       6.31190535 
S      13.26092037      17.34412871       9.10193341 
S      11.70525722      20.03895982       9.10188477 
S      13.26099226      22.96869010       9.18803699 
S      14.81686622      20.03878490       9.10182063 
Co      16.57627922      22.96876628       5.00000000 
Co      11.60339545      20.09767049       5.00000000 
Co      14.91865130      20.09767049       5.00000000 
Co      13.26102338      19.14063856       7.70689506 
Co      16.57627968      17.22657751       7.02660986 
Co      16.57627877      21.05469961       8.38718027 
S      13.26105449      19.14071474      11.63954326 
S      18.33569222      22.07061994      11.72575962 
S      16.57638223      19.02308456      11.72564684 
S      14.81678953      22.07044502      11.72569548 
S      13.26092036      21.17225642      14.51572354 
S      15.02051306      18.12489596      14.51567490 
S      16.57624810      21.05462624      14.60182712 
S      11.50161038      18.12472104      14.51561076 
Co      13.26102338      21.05470242      10.41379012 
Co      14.91865130      18.18360664      10.41379012 
Co      11.60339545      18.18360664      10.41379012 
Co      19.89153506      22.96876628      13.12068519 
Co      16.57627968      21.05470522      12.44039998 
Co      13.26102292      19.14063576      13.80097039 
S      19.89156619      15.31258703       6.22575313 
S      15.02043638      12.50030066       6.31196949 
S      16.57638224      15.19495685       6.31185671 
S      18.13204538      12.50012574       6.31190535 
S      16.57617621      11.60193714       9.10193341 
S      15.02051307      14.29676825       9.10188477 
S      16.57624811      17.22649853       9.18803699 
S      18.13212207      14.29659333       9.10182063 
Co      19.89153507      17.22657471       5.00000000 
Co      14.91865130      14.35547892       5.00000000 
Co      18.23390715      14.35547892       5.00000000 
Co      16.57627923      13.39844700       7.70689506 
Co      19.89153553      11.48438594       7.02660986 
Co      19.89153461      15.31250805       8.38718027 
S      16.57631034      13.39852317      11.63954326 
S      21.65094807      16.32842837      11.72575962 
S      19.89163808      13.28089299      11.72564684 
S      18.13204538      16.32825345      11.72569548 
S      16.57617621      15.43006485      14.51572354 
S      18.33576891      12.38270439      14.51567490 
S      19.89150395      15.31243468      14.60182712 
S      14.81686623      12.38252947      14.51561076 
Co      16.57627922      15.31251085      10.41379012 
Co      18.23390715      12.44141507      10.41379012 
Co      14.91865130      12.44141507      10.41379012 
Co      23.20679091      17.22657471      13.12068519 
Co      19.89153552      15.31251366      12.44039998 
Co      16.57627877      13.39844419      13.80097039 
S      23.20682203      21.05477859       6.22575313 
S      18.33569222      18.24249223       6.31196949 
S      19.89163808      20.93714842       6.31185671 
S      21.44730123      18.24231731       6.31190535 
S      19.89143206      17.34412871       9.10193341 
S      18.33576891      20.03895982       9.10188477 
S      19.89150395      22.96869010       9.18803699 
S      21.44737791      20.03878490       9.10182063 
Co      23.20679091      22.96876628       5.00000000 
Co      18.23390714      20.09767049       5.00000000 
Co      21.54916299      20.09767049       5.00000000 
Co      19.89153507      19.14063856       7.70689506 
Co      23.20679137      17.22657751       7.02660986 
Co      23.20679046      21.05469961       8.38718027 
S      19.89156618      19.14071474      11.63954326 
S      24.96620391      22.07061994      11.72575962 
S      23.20689392      19.02308456      11.72564684 
S      21.44730122      22.07044502      11.72569548 
S      19.89143205      21.17225642      14.51572354 
S      21.65102475      18.12489596      14.51567490 
S      23.20675980      21.05462624      14.60182712 
S      18.13212207      18.12472104      14.51561076 
Co      19.89153507      21.05470242      10.41379012 
Co      21.54916299      18.18360664      10.41379012 
Co      18.23390714      18.18360664      10.41379012 
Co      26.52204676      22.96876628      13.12068519 
Co      23.20679137      21.05470522      12.44039998 
Co      19.89153461      19.14063576      13.80097039 
S      19.89156618       3.82820389       6.22575313 
S      15.02043638       1.01591752       6.31196949 
S      16.57638224       3.71057371       6.31185671 
S      18.13204538       1.01574260       6.31190535 
S      16.57617621       0.11755400       9.10193341 
S      15.02051307       2.81238511       9.10188477 
S      16.57624811       5.74211539       9.18803699 
S      18.13212207       2.81221019       9.10182063 
Co      19.89153507       5.74219157       5.00000000 
Co      14.91865130       2.87109578       5.00000000 
Co      18.23390715       2.87109578       5.00000000 
Co      16.57627922       1.91406386       7.70689506 
Co      19.89153553       0.00000280       7.02660986 
Co      19.89153461       3.82812491       8.38718027 
S      16.57631034       1.91414003      11.63954326 
S      21.65094807       4.84404523      11.72575962 
S      19.89163808       1.79650985      11.72564684 
S      18.13204538       4.84387031      11.72569548 
S      16.57617621       3.94568171      14.51572354 
S      18.33576891       0.89832125      14.51567490 
S      19.89150395       3.82805154      14.60182712 
S      14.81686622       0.89814633      14.51561076 
Co      16.57627922       3.82812771      10.41379012 
Co      18.23390715       0.95703193      10.41379012 
Co      14.91865130       0.95703193      10.41379012 
Co      23.20679091       5.74219157      13.12068519 
Co      19.89153552       3.82813052      12.44039998 
Co      16.57627877       1.91406105      13.80097039 
S      23.20682203       9.57039545       6.22575313 
S      18.33569222       6.75810909       6.31196949 
S      19.89163808       9.45276528       6.31185671 
S      21.44730123       6.75793417       6.31190535 
S      19.89143206       5.85974557       9.10193341 
S      18.33576891       8.55457668       9.10188477 
S      19.89150395      11.48430696       9.18803699 
S      21.44737791       8.55440176       9.10182063 
Co      23.20679091      11.48438314       5.00000000 
Co      18.23390714       8.61328735       5.00000000 
Co      21.54916299       8.61328735       5.00000000 
Co      19.89153507       7.65625542       7.70689506 
Co      23.20679137       5.74219437       7.02660986 
Co      23.20679046       9.57031647       8.38718027 
S      19.89156618       7.65633160      11.63954326 
S      24.96620391      10.58623680      11.72575962 
S      23.20689392       7.53870142      11.72564684 
S      21.44730122      10.58606188      11.72569548 
S      19.89143205       9.68787328      14.51572354 
S      21.65102475       6.64051282      14.51567490 
S      23.20675979       9.57024310      14.60182712 
S      18.13212207       6.64033790      14.51561076 
Co      19.89153507       9.57031928      10.41379012 
Co      21.54916299       6.69922350      10.41379012 
Co      18.23390714       6.69922350      10.41379012 
Co      26.52204675      11.48438314      13.12068519 
Co      23.20679137       9.57032208      12.44039998 
Co      19.89153461       7.65625262      13.80097039 
S      26.52207788       3.82820389       6.22575313 
S      21.65094807       1.01591752       6.31196949 
S      23.20689393       3.71057371       6.31185671 
S      24.76255707       1.01574260       6.31190535 
S      23.20668790       0.11755400       9.10193341 
S      21.65102476       2.81238511       9.10188477 
S      23.20675980       5.74211539       9.18803699 
S      24.76263376       2.81221019       9.10182063 
Co      26.52204676       5.74219157       5.00000000 
Co      21.54916299       2.87109578       5.00000000 
Co      24.86441884       2.87109578       5.00000000 
Co      23.20679092       1.91406386       7.70689506 
Co      26.52204722       0.00000280       7.02660986 
Co      26.52204630       3.82812491       8.38718027 
S      23.20682203       1.91414003      11.63954326 
S      28.28145976       4.84404523      11.72575962 
S      26.52214977       1.79650985      11.72564684 
S      24.76255707       4.84387031      11.72569548 
S      23.20668790       3.94568171      14.51572354 
S      24.96628060       0.89832125      14.51567490 
S      26.52201564       3.82805154      14.60182712 
S      21.44737792       0.89814633      14.51561076 
Co      23.20679091       3.82812771      10.41379012 
Co      24.86441884       0.95703193      10.41379012 
Co      21.54916299       0.95703193      10.41379012 
Co      29.83730260       5.74219157      13.12068519 
Co      26.52204721       3.82813052      12.44039998 
Co      23.20679046       1.91406105      13.80097039 
S      29.83733372       9.57039545       6.22575313 
S      24.96620391       6.75810909       6.31196949 
S      26.52214977       9.45276528       6.31185671 
S      28.07781292       6.75793417       6.31190535 
S      26.52194375       5.85974557       9.10193341 
S      24.96628060       8.55457668       9.10188477 
S      26.52201564      11.48430696       9.18803699 
S      28.07788960       8.55440176       9.10182063 
Co      29.83730260      11.48438314       5.00000000 
Co      24.86441883       8.61328735       5.00000000 
Co      28.17967468       8.61328735       5.00000000 
Co      26.52204676       7.65625542       7.70689506 
Co      29.83730306       5.74219437       7.02660986 
Co      29.83730215       9.57031647       8.38718027 
S      26.52207787       7.65633160      11.63954326 
S      31.59671560      10.58623680      11.72575962 
S      29.83740561       7.53870142      11.72564684 
S      28.07781291      10.58606188      11.72569548 
S      26.52194374       9.68787328      14.51572354 
S      28.28153644       6.64051282      14.51567490 
S      29.83727149       9.57024310      14.60182712 
S      24.76263376       6.64033790      14.51561076 
Co      26.52204676       9.57031928      10.41379012 
Co      28.17967468       6.69922350      10.41379012 
Co      24.86441883       6.69922350      10.41379012 
Co      33.15255845      11.48438314      13.12068519 
Co      29.83730306       9.57032208      12.44039998 
Co      26.52204630       7.65625262      13.80097039 
S      26.52207787      15.31258703       6.22575313 
S      21.65094807      12.50030066       6.31196949 
S      23.20689393      15.19495685       6.31185671 
S      24.76255707      12.50012574       6.31190535 
S      23.20668790      11.60193714       9.10193341 
S      21.65102476      14.29676825       9.10188477 
S      23.20675980      17.22649853       9.18803699 
S      24.76263376      14.29659333       9.10182063 
Co      26.52204676      17.22657471       5.00000000 
Co      21.54916299      14.35547892       5.00000000 
Co      24.86441884      14.35547892       5.00000000 
Co      23.20679091      13.39844700       7.70689506 
Co      26.52204722      11.48438594       7.02660986 
Co      26.52204630      15.31250805       8.38718027 
S      23.20682203      13.39852317      11.63954326 
S      28.28145976      16.32842837      11.72575962 
S      26.52214977      13.28089299      11.72564684 
S      24.76255707      16.32825345      11.72569548 
S      23.20668790      15.43006485      14.51572354 
S      24.96628060      12.38270439      14.51567490 
S      26.52201564      15.31243468      14.60182712 
S      21.44737791      12.38252947      14.51561076 
Co      23.20679091      15.31251085      10.41379012 
Co      24.86441884      12.44141507      10.41379012 
Co      21.54916299      12.44141507      10.41379012 
Co      29.83730260      17.22657471      13.12068519 
Co      26.52204721      15.31251366      12.44039998 
Co      23.20679046      13.39844419      13.80097039 
S      29.83733372      21.05477859       6.22575313 
S      24.96620391      18.24249223       6.31196949 
S      26.52214977      20.93714842       6.31185671 
S      28.07781292      18.24231731       6.31190535 
S      26.52194375      17.34412871       9.10193341 
S      24.96628060      20.03895982       9.10188477 
S      26.52201564      22.96869010       9.18803699 
S      28.07788960      20.03878490       9.10182063 
Co      29.83730260      22.96876628       5.00000000 
Co      24.86441883      20.09767049       5.00000000 
Co      28.17967468      20.09767049       5.00000000 
Co      26.52204676      19.14063856       7.70689506 
Co      29.83730306      17.22657751       7.02660986 
Co      29.83730215      21.05469961       8.38718027 
S      26.52207787      19.14071474      11.63954326 
S      31.59671560      22.07061994      11.72575962 
S      29.83740561      19.02308456      11.72564684 
S      28.07781291      22.07044502      11.72569548 
S      26.52194374      21.17225642      14.51572354 
S      28.28153644      18.12489596      14.51567490 
S      29.83727148      21.05462624      14.60182712 
S      24.76263376      18.12472104      14.51561076 
Co      26.52204676      21.05470242      10.41379012 
Co      28.17967468      18.18360664      10.41379012 
Co      24.86441883      18.18360664      10.41379012 
Co      33.15255844      22.96876628      13.12068519 
Co      29.83730306      21.05470522      12.44039998 
Co      26.52204630      19.14063576      13.80097039 
S      33.15258957      15.31258703       6.22575313 
S      28.28145976      12.50030066       6.31196949 
S      29.83740562      15.19495685       6.31185671 
S      31.39306876      12.50012574       6.31190535 
S      29.83719959      11.60193714       9.10193341 
S      28.28153645      14.29676825       9.10188477 
S      29.83727149      17.22649853       9.18803699 
S      31.39314545      14.29659333       9.10182063 
Co      33.15255845      17.22657471       5.00000000 
Co      28.17967468      14.35547892       5.00000000 
Co      31.49493053      14.35547892       5.00000000 
Co      29.83730261      13.39844700       7.70689506 
Co      33.15255891      11.48438594       7.02660986 
Co      33.15255799      15.31250805       8.38718027 
S      29.83733372      13.39852317      11.63954326 
S      34.91197145      16.32842837      11.72575962 
S      33.15266146      13.28089299      11.72564684 
S      31.39306876      16.32825345      11.72569548 
S      29.83719959      15.43006485      14.51572354 
S      31.59679229      12.38270439      14.51567490 
S      33.15252733      15.31243468      14.60182712 
S      28.07788961      12.38252947      14.51561076 
Co      29.83730260      15.31251085      10.41379012 
Co      31.49493053      12.44141507      10.41379012 
Co      28.17967468      12.44141507      10.41379012 
Co      36.46781429      17.22657471      13.12068519 
Co      33.15255890      15.31251366      12.44039998 
Co      29.83730215      13.39844419      13.80097039 
S      36.46784541      21.05477859       6.22575313 
S      31.59671560      18.24249223       6.31196949 
S      33.15266146      20.93714842       6.31185671 
S      34.70832461      18.24231731       6.31190535 
S      33.15245544      17.34412871       9.10193341 
S      31.59679229      20.03895982       9.10188477 
S      33.15252733      22.96869010       9.18803699 
S      34.70840129      20.03878490       9.10182063 
Co      36.46781429      22.96876628       5.00000000 
Co      31.49493052      20.09767049       5.00000000 
Co      34.81018637      20.09767049       5.00000000 
Co      33.15255845      19.14063856       7.70689506 
Co      36.46781475      17.22657751       7.02660986 
Co      36.46781384      21.05469961       8.38718027 
S      33.15258956      19.14071474      11.63954326 
S      38.22722729      22.07061994      11.72575962 
S      36.46791730      19.02308456      11.72564684 
S      34.70832460      22.07044502      11.72569548 
S      33.15245543      21.17225642      14.51572354 
S      34.91204813      18.12489596      14.51567490 
S      36.46778318      21.05462624      14.60182712 
S      31.39314545      18.12472104      14.51561076 
Co      33.15255845      21.05470242      10.41379012 
Co      34.81018637      18.18360664      10.41379012 
Co      31.49493052      18.18360664      10.41379012 
Co      39.78307014      22.96876628      13.12068519 
Co      36.46781475      21.05470522      12.44039998 
Co      33.15255799      19.14063576      13.80097039 
