704
Lattice="32.287513321 0.0 0.0 2.73446755688e-15 44.6572441748 0.0 0.0 0.0 18.0216289577" Properties=species:S:1:pos:R:3 unit_cell=conventional pbc="T T F"
Cu       3.84142469       0.78337036      11.66544494 
Cu       2.01796691       7.32138293      12.86455691 
Cu       6.05391113       9.29491864       8.37954464 
Cu       6.05392689       4.59194104       9.13994746 
Cu       0.70323603       1.79490797       7.11456275 
Cu       6.05391142       3.84292811       5.15707205 
Cu       0.19452490       4.79873955       7.65189218 
Cu       6.05392084       1.73911470       9.17061045 
Cu       7.36864230       9.36940307      10.90706620 
Cu       4.73922410       7.37716322       6.89359180 
Cu       2.01795144       6.57237000       8.88168150 
Cu       4.23044065       6.36557074      10.36971786 
Cu       4.73921180       9.36938384      10.90708498 
Cu       6.05389446       0.99018908       5.12644986 
Cu       7.87736455      10.38094297       6.35617278 
Cu       7.36861424       7.37715177       6.89356561 
Cu       6.05389752       7.45159058      12.39308345 
Cu       3.84143768       4.79874030       7.65191110 
Cu       0.19451378       0.78336808      11.66545618 
Cu       2.01795749       9.42519634       8.85101851 
Cu       2.01796720       1.86939241       9.64208432 
Cu       0.70326409       3.78715927      11.12806335 
Cu       3.33266653       1.79492720       7.11454398 
Cu       3.33265423       3.78714782      11.12803715 
Cu       7.87735343       6.36557150      10.36973677 
Cu       2.01798387      10.17412197      12.89517909 
Cu       4.23045364      10.38094068       6.35618402 
Cu       2.01798081       3.71272046       5.62854551 
S       2.01797205       5.76939171       6.69638501 
S       8.07024567       2.64667752       5.00001038 
S       6.05390628       5.39491934      11.32524394 
S       4.03758920       2.93542960       9.01350203 
S       4.03428913       8.22888145       9.00812693 
S       6.05390510       0.16802619      10.95814954 
S       0.00163266       8.51763353      13.02161857 
S       6.05391054       5.41412489       6.94461008 
S       4.03429130       8.51762980      13.02162896 
S       8.07025088       2.93543708       9.01351697 
S       2.01797323      10.99628485       7.06347942 
S       4.03758703       2.64668125       5.00000000 
S       6.05391686       0.18725148       7.31174875 
S       0.00162745       8.22887397       9.00811198 
S       2.01796779       5.75018615      11.07701888 
S       2.01796147      10.97705956      10.70988020 
Cu       6.05392084      12.90342574       9.17061045 
Cu       2.01796691      18.48569398      12.86455691 
Cu       6.05391113      20.45922968       8.37954464 
Cu       6.05392689      15.75625208       9.13994746 
Cu       0.70323603      12.95921902       7.11456275 
Cu       6.05391142      15.00723915       5.15707205 
Cu       0.19452490      15.96305059       7.65189218 
Cu       3.84142469      11.94768141      11.66544494 
Cu       7.36864230      20.53371411      10.90706620 
Cu       4.73922410      18.54147426       6.89359180 
Cu       2.01795144      17.73668105       8.88168150 
Cu       4.23044065      17.52988178      10.36971786 
Cu       4.73921180      20.53369488      10.90708498 
Cu       6.05389446      12.15450012       5.12644986 
Cu       7.87736455      21.54525401       6.35617278 
Cu       7.36861424      18.54146282       6.89356561 
Cu       6.05389752      18.61590162      12.39308345 
Cu       3.84143768      15.96305135       7.65191110 
Cu       0.19451378      11.94767912      11.66545618 
Cu       2.01795749      20.58950739       8.85101851 
Cu       2.01796720      13.03370345       9.64208432 
Cu       0.70326409      14.95147032      11.12806335 
Cu       3.33266653      12.95923825       7.11454398 
Cu       3.33265423      14.95145887      11.12803715 
Cu       7.87735343      17.52988254      10.36973677 
Cu       2.01798387      21.33843301      12.89517909 
Cu       4.23045364      21.54525173       6.35618402 
Cu       2.01798081      14.87703151       5.62854551 
S       2.01797205      16.93370275       6.69638501 
S       8.07024567      13.81098856       5.00001038 
S       6.05390628      16.55923038      11.32524394 
S       4.03758920      14.09974064       9.01350203 
S       4.03428913      19.39319249       9.00812693 
S       6.05390510      11.33233724      10.95814954 
S       0.00163266      19.68194457      13.02161857 
S       6.05391054      16.57843594       6.94461008 
S       4.03429130      19.68194084      13.02162896 
S       8.07025088      14.09974812       9.01351697 
S       2.01797323      22.16059589       7.06347942 
S       4.03758703      13.81099229       5.00000000 
S       6.05391686      11.35156253       7.31174875 
S       0.00162745      19.39318501       9.00811198 
S       2.01796779      16.91449719      11.07701888 
S       2.01796147      22.14137060      10.70988020 
Cu      14.12579917       1.73911470       9.17061045 
Cu      10.08984524       7.32138293      12.86455691 
Cu      14.12578946       9.29491864       8.37954464 
Cu      14.12580522       4.59194104       9.13994746 
Cu       8.77511436       1.79490797       7.11456275 
Cu      14.12578975       3.84292811       5.15707205 
Cu       8.26640323       4.79873955       7.65189218 
Cu      11.91330302       0.78337036      11.66544494 
Cu      15.44052063       9.36940307      10.90706620 
Cu      12.81110243       7.37716322       6.89359180 
Cu      10.08982977       6.57237000       8.88168150 
Cu      12.30231898       6.36557074      10.36971786 
Cu      12.81109013       9.36938384      10.90708498 
Cu      14.12577279       0.99018908       5.12644986 
Cu      15.94924288      10.38094297       6.35617278 
Cu      15.44049257       7.37715177       6.89356561 
Cu      14.12577585       7.45159058      12.39308345 
Cu      11.91331601       4.79874030       7.65191110 
Cu       8.26639211       0.78336808      11.66545618 
Cu      10.08983582       9.42519634       8.85101851 
Cu      10.08984553       1.86939241       9.64208432 
Cu       8.77514242       3.78715927      11.12806335 
Cu      11.40454486       1.79492720       7.11454398 
Cu      11.40453256       3.78714782      11.12803715 
Cu      15.94923176       6.36557150      10.36973677 
Cu      10.08986220      10.17412197      12.89517909 
Cu      12.30233197      10.38094068       6.35618402 
Cu      10.08985914       3.71272046       5.62854551 
S      10.08985038       5.76939171       6.69638501 
S      16.14212400       2.64667752       5.00001038 
S      14.12578461       5.39491934      11.32524394 
S      12.10946753       2.93542960       9.01350203 
S      12.10616747       8.22888145       9.00812693 
S      14.12578343       0.16802619      10.95814954 
S       8.07351099       8.51763353      13.02161857 
S      14.12578887       5.41412489       6.94461008 
S      12.10616963       8.51762980      13.02162896 
S      16.14212921       2.93543708       9.01351697 
S      10.08985156      10.99628485       7.06347942 
S      12.10946536       2.64668125       5.00000000 
S      14.12579519       0.18725148       7.31174875 
S       8.07350578       8.22887397       9.00811198 
S      10.08984612       5.75018615      11.07701888 
S      10.08983980      10.97705956      10.70988020 
Cu      14.12579917      12.90342574       9.17061045 
Cu      10.08984524      18.48569398      12.86455691 
Cu      14.12578946      20.45922968       8.37954464 
Cu      14.12580522      15.75625208       9.13994746 
Cu       8.77511436      12.95921902       7.11456275 
Cu      14.12578975      15.00723915       5.15707205 
Cu       8.26640323      15.96305059       7.65189218 
Cu      11.91330302      11.94768141      11.66544494 
Cu      15.44052063      20.53371411      10.90706620 
Cu      12.81110243      18.54147426       6.89359180 
Cu      10.08982977      17.73668105       8.88168150 
Cu      12.30231898      17.52988178      10.36971786 
Cu      12.81109013      20.53369488      10.90708498 
Cu      14.12577279      12.15450012       5.12644986 
Cu      15.94924288      21.54525401       6.35617278 
Cu      15.44049257      18.54146282       6.89356561 
Cu      14.12577585      18.61590162      12.39308345 
Cu      11.91331601      15.96305135       7.65191110 
Cu       8.26639211      11.94767912      11.66545618 
Cu      10.08983582      20.58950739       8.85101851 
Cu      10.08984553      13.03370345       9.64208432 
Cu       8.77514242      14.95147032      11.12806335 
Cu      11.40454486      12.95923825       7.11454398 
Cu      11.40453256      14.95145887      11.12803715 
Cu      15.94923176      17.52988254      10.36973677 
Cu      10.08986220      21.33843301      12.89517909 
Cu      12.30233197      21.54525173       6.35618402 
Cu      10.08985914      14.87703151       5.62854551 
S      10.08985038      16.93370275       6.69638501 
S      16.14212400      13.81098856       5.00001038 
S      14.12578461      16.55923038      11.32524394 
S      12.10946753      14.09974064       9.01350203 
S      12.10616747      19.39319249       9.00812693 
S      14.12578343      11.33233724      10.95814954 
S       8.07351099      19.68194457      13.02161857 
S      14.12578887      16.57843594       6.94461008 
S      12.10616963      19.68194084      13.02162896 
S      16.14212921      14.09974812       9.01351697 
S      10.08985156      22.16059589       7.06347942 
S      12.10946536      13.81099229       5.00000000 
S      14.12579519      11.35156253       7.31174875 
S       8.07350578      19.39318501       9.00811198 
S      10.08984612      16.91449719      11.07701888 
S      10.08983980      22.14137060      10.70988020 
Cu       6.05392084      24.06773679       9.17061045 
Cu       2.01796691      29.65000502      12.86455691 
Cu       6.05391113      31.62354073       8.37954464 
Cu       6.05392689      26.92056313       9.13994746 
Cu       0.70323603      24.12353006       7.11456275 
Cu       6.05391142      26.17155020       5.15707205 
Cu       0.19452490      27.12736164       7.65189218 
Cu       3.84142469      23.11199245      11.66544494 
Cu       7.36864230      31.69802516      10.90706620 
Cu       4.73922410      29.70578531       6.89359180 
Cu       2.01795144      28.90099209       8.88168150 
Cu       4.23044065      28.69419283      10.36971786 
Cu       4.73921180      31.69800593      10.90708498 
Cu       6.05389446      23.31881117       5.12644986 
Cu       7.87736455      32.70956506       6.35617278 
Cu       7.36861424      29.70577386       6.89356561 
Cu       6.05389752      29.78021267      12.39308345 
Cu       3.84143768      27.12736239       7.65191110 
Cu       0.19451378      23.11199017      11.66545618 
Cu       2.01795749      31.75381843       8.85101851 
Cu       2.01796720      24.19801450       9.64208432 
Cu       0.70326409      26.11578136      11.12806335 
Cu       3.33266653      24.12354929       7.11454398 
Cu       3.33265423      26.11576991      11.12803715 
Cu       7.87735343      28.69419359      10.36973677 
Cu       2.01798387      32.50274406      12.89517909 
Cu       4.23045364      32.70956277       6.35618402 
Cu       2.01798081      26.04134255       5.62854551 
S       2.01797205      28.09801380       6.69638501 
S       8.07024567      24.97529961       5.00001038 
S       6.05390628      27.72354143      11.32524394 
S       4.03758920      25.26405169       9.01350203 
S       4.03428913      30.55750354       9.00812693 
S       6.05390510      22.49664828      10.95814954 
S       0.00163266      30.84625562      13.02161857 
S       6.05391054      27.74274698       6.94461008 
S       4.03429130      30.84625189      13.02162896 
S       8.07025088      25.26405917       9.01351697 
S       2.01797323      33.32490694       7.06347942 
S       4.03758703      24.97530334       5.00000000 
S       6.05391686      22.51587357       7.31174875 
S       0.00162745      30.55749606       9.00811198 
S       2.01796779      28.07880824      11.07701888 
S       2.01796147      33.30568165      10.70988020 
Cu       6.05392084      35.23204783       9.17061045 
Cu       2.01796691      40.81431607      12.86455691 
Cu       6.05391113      42.78785177       8.37954464 
Cu       6.05392689      38.08487417       9.13994746 
Cu       0.70323603      35.28784111       7.11456275 
Cu       6.05391142      37.33586124       5.15707205 
Cu       0.19452490      38.29167268       7.65189218 
Cu       3.84142469      34.27630350      11.66544494 
Cu       7.36864230      42.86233620      10.90706620 
Cu       4.73922410      40.87009635       6.89359180 
Cu       2.01795144      40.06530314       8.88168150 
Cu       4.23044065      39.85850387      10.36971786 
Cu       4.73921180      42.86231697      10.90708498 
Cu       6.05389446      34.48312221       5.12644986 
Cu       7.87736455      43.87387610       6.35617278 
Cu       7.36861424      40.87008491       6.89356561 
Cu       6.05389752      40.94452371      12.39308345 
Cu       3.84143768      38.29167344       7.65191110 
Cu       0.19451378      34.27630121      11.66545618 
Cu       2.01795749      42.91812948       8.85101851 
Cu       2.01796720      35.36232554       9.64208432 
Cu       0.70326409      37.28009241      11.12806335 
Cu       3.33266653      35.28786034       7.11454398 
Cu       3.33265423      37.28008096      11.12803715 
Cu       7.87735343      39.85850463      10.36973677 
Cu       2.01798387      43.66705510      12.89517909 
Cu       4.23045364      43.87387382       6.35618402 
Cu       2.01798081      37.20565360       5.62854551 
S       2.01797205      39.26232484       6.69638501 
S       8.07024567      36.13961065       5.00001038 
S       6.05390628      38.88785247      11.32524394 
S       4.03758920      36.42836273       9.01350203 
S       4.03428913      41.72181458       9.00812693 
S       6.05390510      33.66095933      10.95814954 
S       0.00163266      42.01056666      13.02161857 
S       6.05391054      38.90705803       6.94461008 
S       4.03429130      42.01056293      13.02162896 
S       8.07025088      36.42837021       9.01351697 
S       2.01797323      44.48921798       7.06347942 
S       4.03758703      36.13961438       5.00000000 
S       6.05391686      33.68018462       7.31174875 
S       0.00162745      41.72180710       9.00811198 
S       2.01796779      39.24311928      11.07701888 
S       2.01796147      44.46999269      10.70988020 
Cu      14.12579917      24.06773679       9.17061045 
Cu      10.08984524      29.65000502      12.86455691 
Cu      14.12578946      31.62354073       8.37954464 
Cu      14.12580522      26.92056313       9.13994746 
Cu       8.77511436      24.12353006       7.11456275 
Cu      14.12578975      26.17155020       5.15707205 
Cu       8.26640323      27.12736164       7.65189218 
Cu      11.91330302      23.11199245      11.66544494 
Cu      15.44052063      31.69802516      10.90706620 
Cu      12.81110243      29.70578531       6.89359180 
Cu      10.08982977      28.90099209       8.88168150 
Cu      12.30231898      28.69419283      10.36971786 
Cu      12.81109013      31.69800593      10.90708498 
Cu      14.12577279      23.31881117       5.12644986 
Cu      15.94924288      32.70956506       6.35617278 
Cu      15.44049257      29.70577386       6.89356561 
Cu      14.12577585      29.78021267      12.39308345 
Cu      11.91331601      27.12736239       7.65191110 
Cu       8.26639211      23.11199017      11.66545618 
Cu      10.08983582      31.75381843       8.85101851 
Cu      10.08984553      24.19801450       9.64208432 
Cu       8.77514242      26.11578136      11.12806335 
Cu      11.40454486      24.12354929       7.11454398 
Cu      11.40453256      26.11576991      11.12803715 
Cu      15.94923176      28.69419359      10.36973677 
Cu      10.08986220      32.50274406      12.89517909 
Cu      12.30233197      32.70956277       6.35618402 
Cu      10.08985914      26.04134255       5.62854551 
S      10.08985038      28.09801380       6.69638501 
S      16.14212400      24.97529961       5.00001038 
S      14.12578461      27.72354143      11.32524394 
S      12.10946753      25.26405169       9.01350203 
S      12.10616747      30.55750354       9.00812693 
S      14.12578343      22.49664828      10.95814954 
S       8.07351099      30.84625562      13.02161857 
S      14.12578887      27.74274698       6.94461008 
S      12.10616963      30.84625189      13.02162896 
S      16.14212921      25.26405917       9.01351697 
S      10.08985156      33.32490694       7.06347942 
S      12.10946536      24.97530334       5.00000000 
S      14.12579519      22.51587357       7.31174875 
S       8.07350578      30.55749606       9.00811198 
S      10.08984612      28.07880824      11.07701888 
S      10.08983980      33.30568165      10.70988020 
Cu      14.12579917      35.23204783       9.17061045 
Cu      10.08984524      40.81431607      12.86455691 
Cu      14.12578946      42.78785177       8.37954464 
Cu      14.12580522      38.08487417       9.13994746 
Cu       8.77511436      35.28784111       7.11456275 
Cu      14.12578975      37.33586124       5.15707205 
Cu       8.26640323      38.29167268       7.65189218 
Cu      11.91330302      34.27630350      11.66544494 
Cu      15.44052063      42.86233620      10.90706620 
Cu      12.81110243      40.87009635       6.89359180 
Cu      10.08982977      40.06530314       8.88168150 
Cu      12.30231898      39.85850387      10.36971786 
Cu      12.81109013      42.86231697      10.90708498 
Cu      14.12577279      34.48312221       5.12644986 
Cu      15.94924288      43.87387610       6.35617278 
Cu      15.44049257      40.87008491       6.89356561 
Cu      14.12577585      40.94452371      12.39308345 
Cu      11.91331601      38.29167344       7.65191110 
Cu       8.26639211      34.27630121      11.66545618 
Cu      10.08983582      42.91812948       8.85101851 
Cu      10.08984553      35.36232554       9.64208432 
Cu       8.77514242      37.28009241      11.12806335 
Cu      11.40454486      35.28786034       7.11454398 
Cu      11.40453256      37.28008096      11.12803715 
Cu      15.94923176      39.85850463      10.36973677 
Cu      10.08986220      43.66705510      12.89517909 
Cu      12.30233197      43.87387382       6.35618402 
Cu      10.08985914      37.20565360       5.62854551 
S      10.08985038      39.26232484       6.69638501 
S      16.14212400      36.13961065       5.00001038 
S      14.12578461      38.88785247      11.32524394 
S      12.10946753      36.42836273       9.01350203 
S      12.10616747      41.72181458       9.00812693 
S      14.12578343      33.66095933      10.95814954 
S       8.07351099      42.01056666      13.02161857 
S      14.12578887      38.90705803       6.94461008 
S      12.10616963      42.01056293      13.02162896 
S      16.14212921      36.42837021       9.01351697 
S      10.08985156      44.48921798       7.06347942 
S      12.10946536      36.13961438       5.00000000 
S      14.12579519      33.68018462       7.31174875 
S       8.07350578      41.72180710       9.00811198 
S      10.08984612      39.24311928      11.07701888 
S      10.08983980      44.46999269      10.70988020 
Cu      22.19767750       1.73911470       9.17061045 
Cu      18.16172357       7.32138293      12.86455691 
Cu      22.19766779       9.29491864       8.37954464 
Cu      22.19768355       4.59194104       9.13994746 
Cu      16.84699269       1.79490797       7.11456275 
Cu      22.19766808       3.84292811       5.15707205 
Cu      16.33828156       4.79873955       7.65189218 
Cu      19.98518135       0.78337036      11.66544494 
Cu      23.51239896       9.36940307      10.90706620 
Cu      20.88298076       7.37716322       6.89359180 
Cu      18.16170810       6.57237000       8.88168150 
Cu      20.37419731       6.36557074      10.36971786 
Cu      20.88296846       9.36938384      10.90708498 
Cu      22.19765112       0.99018908       5.12644986 
Cu      24.02112121      10.38094297       6.35617278 
Cu      23.51237090       7.37715177       6.89356561 
Cu      22.19765418       7.45159058      12.39308345 
Cu      19.98519434       4.79874030       7.65191110 
Cu      16.33827044       0.78336808      11.66545618 
Cu      18.16171415       9.42519634       8.85101851 
Cu      18.16172386       1.86939241       9.64208432 
Cu      16.84702075       3.78715927      11.12806335 
Cu      19.47642319       1.79492720       7.11454398 
Cu      19.47641089       3.78714782      11.12803715 
Cu      24.02111009       6.36557150      10.36973677 
Cu      18.16174053      10.17412197      12.89517909 
Cu      20.37421030      10.38094068       6.35618402 
Cu      18.16173747       3.71272046       5.62854551 
S      18.16172871       5.76939171       6.69638501 
S      24.21400233       2.64667752       5.00001038 
S      22.19766294       5.39491934      11.32524394 
S      20.18134586       2.93542960       9.01350203 
S      20.17804579       8.22888145       9.00812693 
S      22.19766176       0.16802619      10.95814954 
S      16.14538932       8.51763353      13.02161857 
S      22.19766720       5.41412489       6.94461008 
S      20.17804796       8.51762980      13.02162896 
S      24.21400754       2.93543708       9.01351697 
S      18.16172989      10.99628485       7.06347942 
S      20.18134369       2.64668125       5.00000000 
S      22.19767352       0.18725148       7.31174875 
S      16.14538411       8.22887397       9.00811198 
S      18.16172445       5.75018615      11.07701888 
S      18.16171813      10.97705956      10.70988020 
Cu      22.19767750      12.90342574       9.17061045 
Cu      18.16172357      18.48569398      12.86455691 
Cu      22.19766779      20.45922968       8.37954464 
Cu      22.19768355      15.75625208       9.13994746 
Cu      16.84699269      12.95921902       7.11456275 
Cu      22.19766808      15.00723915       5.15707205 
Cu      16.33828156      15.96305059       7.65189218 
Cu      19.98518135      11.94768141      11.66544494 
Cu      23.51239896      20.53371411      10.90706620 
Cu      20.88298076      18.54147426       6.89359180 
Cu      18.16170810      17.73668105       8.88168150 
Cu      20.37419731      17.52988178      10.36971786 
Cu      20.88296846      20.53369488      10.90708498 
Cu      22.19765112      12.15450012       5.12644986 
Cu      24.02112121      21.54525401       6.35617278 
Cu      23.51237090      18.54146282       6.89356561 
Cu      22.19765418      18.61590162      12.39308345 
Cu      19.98519434      15.96305135       7.65191110 
Cu      16.33827044      11.94767912      11.66545618 
Cu      18.16171415      20.58950739       8.85101851 
Cu      18.16172386      13.03370345       9.64208432 
Cu      16.84702075      14.95147032      11.12806335 
Cu      19.47642319      12.95923825       7.11454398 
Cu      19.47641089      14.95145887      11.12803715 
Cu      24.02111009      17.52988254      10.36973677 
Cu      18.16174053      21.33843301      12.89517909 
Cu      20.37421030      21.54525173       6.35618402 
Cu      18.16173747      14.87703151       5.62854551 
S      18.16172871      16.93370275       6.69638501 
S      24.21400233      13.81098856       5.00001038 
S      22.19766294      16.55923038      11.32524394 
S      20.18134586      14.09974064       9.01350203 
S      20.17804579      19.39319249       9.00812693 
S      22.19766176      11.33233724      10.95814954 
S      16.14538932      19.68194457      13.02161857 
S      22.19766720      16.57843594       6.94461008 
S      20.17804796      19.68194084      13.02162896 
S      24.21400754      14.09974812       9.01351697 
S      18.16172989      22.16059589       7.06347942 
S      20.18134369      13.81099229       5.00000000 
S      22.19767352      11.35156253       7.31174875 
S      16.14538411      19.39318501       9.00811198 
S      18.16172445      16.91449719      11.07701888 
S      18.16171813      22.14137060      10.70988020 
Cu      30.26955583       1.73911470       9.17061045 
Cu      26.23360190       7.32138293      12.86455691 
Cu      30.26954612       9.29491864       8.37954464 
Cu      30.26956188       4.59194104       9.13994746 
Cu      24.91887102       1.79490797       7.11456275 
Cu      30.26954641       3.84292811       5.15707205 
Cu      24.41015989       4.79873955       7.65189218 
Cu      28.05705968       0.78337036      11.66544494 
Cu      31.58427729       9.36940307      10.90706620 
Cu      28.95485909       7.37716322       6.89359180 
Cu      26.23358643       6.57237000       8.88168150 
Cu      28.44607564       6.36557074      10.36971786 
Cu      28.95484679       9.36938384      10.90708498 
Cu      30.26952945       0.99018908       5.12644986 
Cu      32.09299954      10.38094297       6.35617278 
Cu      31.58424923       7.37715177       6.89356561 
Cu      30.26953251       7.45159058      12.39308345 
Cu      28.05707267       4.79874030       7.65191110 
Cu      24.41014877       0.78336808      11.66545618 
Cu      26.23359248       9.42519634       8.85101851 
Cu      26.23360219       1.86939241       9.64208432 
Cu      24.91889908       3.78715927      11.12806335 
Cu      27.54830152       1.79492720       7.11454398 
Cu      27.54828922       3.78714782      11.12803715 
Cu      32.09298842       6.36557150      10.36973677 
Cu      26.23361886      10.17412197      12.89517909 
Cu      28.44608863      10.38094068       6.35618402 
Cu      26.23361580       3.71272046       5.62854551 
S      26.23360704       5.76939171       6.69638501 
S      32.28588066       2.64667752       5.00001038 
S      30.26954127       5.39491934      11.32524394 
S      28.25322419       2.93542960       9.01350203 
S      28.24992413       8.22888145       9.00812693 
S      30.26954009       0.16802619      10.95814954 
S      24.21726765       8.51763353      13.02161857 
S      30.26954553       5.41412489       6.94461008 
S      28.24992629       8.51762980      13.02162896 
S      32.28588587       2.93543708       9.01351697 
S      26.23360822      10.99628485       7.06347942 
S      28.25322202       2.64668125       5.00000000 
S      30.26955185       0.18725148       7.31174875 
S      24.21726244       8.22887397       9.00811198 
S      26.23360278       5.75018615      11.07701888 
S      26.23359646      10.97705956      10.70988020 
Cu      30.26955583      12.90342574       9.17061045 
Cu      26.23360190      18.48569398      12.86455691 
Cu      30.26954612      20.45922968       8.37954464 
Cu      30.26956188      15.75625208       9.13994746 
Cu      24.91887102      12.95921902       7.11456275 
Cu      30.26954641      15.00723915       5.15707205 
Cu      24.41015989      15.96305059       7.65189218 
Cu      28.05705968      11.94768141      11.66544494 
Cu      31.58427729      20.53371411      10.90706620 
Cu      28.95485909      18.54147426       6.89359180 
Cu      26.23358643      17.73668105       8.88168150 
Cu      28.44607564      17.52988178      10.36971786 
Cu      28.95484679      20.53369488      10.90708498 
Cu      30.26952945      12.15450012       5.12644986 
Cu      32.09299954      21.54525401       6.35617278 
Cu      31.58424923      18.54146282       6.89356561 
Cu      30.26953251      18.61590162      12.39308345 
Cu      28.05707267      15.96305135       7.65191110 
Cu      24.41014877      11.94767912      11.66545618 
Cu      26.23359248      20.58950739       8.85101851 
Cu      26.23360219      13.03370345       9.64208432 
Cu      24.91889908      14.95147032      11.12806335 
Cu      27.54830152      12.95923825       7.11454398 
Cu      27.54828922      14.95145887      11.12803715 
Cu      32.09298842      17.52988254      10.36973677 
Cu      26.23361886      21.33843301      12.89517909 
Cu      28.44608863      21.54525173       6.35618402 
Cu      26.23361580      14.87703151       5.62854551 
S      26.23360704      16.93370275       6.69638501 
S      32.28588066      13.81098856       5.00001038 
S      30.26954127      16.55923038      11.32524394 
S      28.25322419      14.09974064       9.01350203 
S      28.24992413      19.39319249       9.00812693 
S      30.26954009      11.33233724      10.95814954 
S      24.21726765      19.68194457      13.02161857 
S      30.26954553      16.57843594       6.94461008 
S      28.24992629      19.68194084      13.02162896 
S      32.28588587      14.09974812       9.01351697 
S      26.23360822      22.16059589       7.06347942 
S      28.25322202      13.81099229       5.00000000 
S      30.26955185      11.35156253       7.31174875 
S      24.21726244      19.39318501       9.00811198 
S      26.23360278      16.91449719      11.07701888 
S      26.23359646      22.14137060      10.70988020 
Cu      22.19767750      24.06773679       9.17061045 
Cu      18.16172357      29.65000502      12.86455691 
Cu      22.19766779      31.62354073       8.37954464 
Cu      22.19768355      26.92056313       9.13994746 
Cu      16.84699269      24.12353006       7.11456275 
Cu      22.19766808      26.17155020       5.15707205 
Cu      16.33828156      27.12736164       7.65189218 
Cu      19.98518135      23.11199245      11.66544494 
Cu      23.51239896      31.69802516      10.90706620 
Cu      20.88298076      29.70578531       6.89359180 
Cu      18.16170810      28.90099209       8.88168150 
Cu      20.37419731      28.69419283      10.36971786 
Cu      20.88296846      31.69800593      10.90708498 
Cu      22.19765112      23.31881117       5.12644986 
Cu      24.02112121      32.70956506       6.35617278 
Cu      23.51237090      29.70577386       6.89356561 
Cu      22.19765418      29.78021267      12.39308345 
Cu      19.98519434      27.12736239       7.65191110 
Cu      16.33827044      23.11199017      11.66545618 
Cu      18.16171415      31.75381843       8.85101851 
Cu      18.16172386      24.19801450       9.64208432 
Cu      16.84702075      26.11578136      11.12806335 
Cu      19.47642319      24.12354929       7.11454398 
Cu      19.47641089      26.11576991      11.12803715 
Cu      24.02111009      28.69419359      10.36973677 
Cu      18.16174053      32.50274406      12.89517909 
Cu      20.37421030      32.70956277       6.35618402 
Cu      18.16173747      26.04134255       5.62854551 
S      18.16172871      28.09801380       6.69638501 
S      24.21400233      24.97529961       5.00001038 
S      22.19766294      27.72354143      11.32524394 
S      20.18134586      25.26405169       9.01350203 
S      20.17804579      30.55750354       9.00812693 
S      22.19766176      22.49664828      10.95814954 
S      16.14538932      30.84625562      13.02161857 
S      22.19766720      27.74274698       6.94461008 
S      20.17804796      30.84625189      13.02162896 
S      24.21400754      25.26405917       9.01351697 
S      18.16172989      33.32490694       7.06347942 
S      20.18134369      24.97530334       5.00000000 
S      22.19767352      22.51587357       7.31174875 
S      16.14538411      30.55749606       9.00811198 
S      18.16172445      28.07880824      11.07701888 
S      18.16171813      33.30568165      10.70988020 
Cu      22.19767750      35.23204783       9.17061045 
Cu      18.16172357      40.81431607      12.86455691 
Cu      22.19766779      42.78785177       8.37954464 
Cu      22.19768355      38.08487417       9.13994746 
Cu      16.84699269      35.28784111       7.11456275 
Cu      22.19766808      37.33586124       5.15707205 
Cu      16.33828156      38.29167268       7.65189218 
Cu      19.98518135      34.27630350      11.66544494 
Cu      23.51239896      42.86233620      10.90706620 
Cu      20.88298076      40.87009635       6.89359180 
Cu      18.16170810      40.06530314       8.88168150 
Cu      20.37419731      39.85850387      10.36971786 
Cu      20.88296846      42.86231697      10.90708498 
Cu      22.19765112      34.48312221       5.12644986 
Cu      24.02112121      43.87387610       6.35617278 
Cu      23.51237090      40.87008491       6.89356561 
Cu      22.19765418      40.94452371      12.39308345 
Cu      19.98519434      38.29167344       7.65191110 
Cu      16.33827044      34.27630121      11.66545618 
Cu      18.16171415      42.91812948       8.85101851 
Cu      18.16172386      35.36232554       9.64208432 
Cu      16.84702075      37.28009241      11.12806335 
Cu      19.47642319      35.28786034       7.11454398 
Cu      19.47641089      37.28008096      11.12803715 
Cu      24.02111009      39.85850463      10.36973677 
Cu      18.16174053      43.66705510      12.89517909 
Cu      20.37421030      43.87387382       6.35618402 
Cu      18.16173747      37.20565360       5.62854551 
S      18.16172871      39.26232484       6.69638501 
S      24.21400233      36.13961065       5.00001038 
S      22.19766294      38.88785247      11.32524394 
S      20.18134586      36.42836273       9.01350203 
S      20.17804579      41.72181458       9.00812693 
S      22.19766176      33.66095933      10.95814954 
S      16.14538932      42.01056666      13.02161857 
S      22.19766720      38.90705803       6.94461008 
S      20.17804796      42.01056293      13.02162896 
S      24.21400754      36.42837021       9.01351697 
S      18.16172989      44.48921798       7.06347942 
S      20.18134369      36.13961438       5.00000000 
S      22.19767352      33.68018462       7.31174875 
S      16.14538411      41.72180710       9.00811198 
S      18.16172445      39.24311928      11.07701888 
S      18.16171813      44.46999269      10.70988020 
Cu      30.26955583      24.06773679       9.17061045 
Cu      26.23360190      29.65000502      12.86455691 
Cu      30.26954612      31.62354073       8.37954464 
Cu      30.26956188      26.92056313       9.13994746 
Cu      24.91887102      24.12353006       7.11456275 
Cu      30.26954641      26.17155020       5.15707205 
Cu      24.41015989      27.12736164       7.65189218 
Cu      28.05705968      23.11199245      11.66544494 
Cu      31.58427729      31.69802516      10.90706620 
Cu      28.95485909      29.70578531       6.89359180 
Cu      26.23358643      28.90099209       8.88168150 
Cu      28.44607564      28.69419283      10.36971786 
Cu      28.95484679      31.69800593      10.90708498 
Cu      30.26952945      23.31881117       5.12644986 
Cu      32.09299954      32.70956506       6.35617278 
Cu      31.58424923      29.70577386       6.89356561 
Cu      30.26953251      29.78021267      12.39308345 
Cu      28.05707267      27.12736239       7.65191110 
Cu      24.41014877      23.11199017      11.66545618 
Cu      26.23359248      31.75381843       8.85101851 
Cu      26.23360219      24.19801450       9.64208432 
Cu      24.91889908      26.11578136      11.12806335 
Cu      27.54830152      24.12354929       7.11454398 
Cu      27.54828922      26.11576991      11.12803715 
Cu      32.09298842      28.69419359      10.36973677 
Cu      26.23361886      32.50274406      12.89517909 
Cu      28.44608863      32.70956277       6.35618402 
Cu      26.23361580      26.04134255       5.62854551 
S      26.23360704      28.09801380       6.69638501 
S      32.28588066      24.97529961       5.00001038 
S      30.26954127      27.72354143      11.32524394 
S      28.25322419      25.26405169       9.01350203 
S      28.24992413      30.55750354       9.00812693 
S      30.26954009      22.49664828      10.95814954 
S      24.21726765      30.84625562      13.02161857 
S      30.26954553      27.74274698       6.94461008 
S      28.24992629      30.84625189      13.02162896 
S      32.28588587      25.26405917       9.01351697 
S      26.23360822      33.32490694       7.06347942 
S      28.25322202      24.97530334       5.00000000 
S      30.26955185      22.51587357       7.31174875 
S      24.21726244      30.55749606       9.00811198 
S      26.23360278      28.07880824      11.07701888 
S      26.23359646      33.30568165      10.70988020 
Cu      30.26955583      35.23204783       9.17061045 
Cu      26.23360190      40.81431607      12.86455691 
Cu      30.26954612      42.78785177       8.37954464 
Cu      30.26956188      38.08487417       9.13994746 
Cu      24.91887102      35.28784111       7.11456275 
Cu      30.26954641      37.33586124       5.15707205 
Cu      24.41015989      38.29167268       7.65189218 
Cu      28.05705968      34.27630350      11.66544494 
Cu      31.58427729      42.86233620      10.90706620 
Cu      28.95485909      40.87009635       6.89359180 
Cu      26.23358643      40.06530314       8.88168150 
Cu      28.44607564      39.85850387      10.36971786 
Cu      28.95484679      42.86231697      10.90708498 
Cu      30.26952945      34.48312221       5.12644986 
Cu      32.09299954      43.87387610       6.35617278 
Cu      31.58424923      40.87008491       6.89356561 
Cu      30.26953251      40.94452371      12.39308345 
Cu      28.05707267      38.29167344       7.65191110 
Cu      24.41014877      34.27630121      11.66545618 
Cu      26.23359248      42.91812948       8.85101851 
Cu      26.23360219      35.36232554       9.64208432 
Cu      24.91889908      37.28009241      11.12806335 
Cu      27.54830152      35.28786034       7.11454398 
Cu      27.54828922      37.28008096      11.12803715 
Cu      32.09298842      39.85850463      10.36973677 
Cu      26.23361886      43.66705510      12.89517909 
Cu      28.44608863      43.87387382       6.35618402 
Cu      26.23361580      37.20565360       5.62854551 
S      26.23360704      39.26232484       6.69638501 
S      32.28588066      36.13961065       5.00001038 
S      30.26954127      38.88785247      11.32524394 
S      28.25322419      36.42836273       9.01350203 
S      28.24992413      41.72181458       9.00812693 
S      30.26954009      33.66095933      10.95814954 
S      24.21726765      42.01056666      13.02161857 
S      30.26954553      38.90705803       6.94461008 
S      28.24992629      42.01056293      13.02162896 
S      32.28588587      36.42837021       9.01351697 
S      26.23360822      44.48921798       7.06347942 
S      28.25322202      36.13961438       5.00000000 
S      30.26955185      33.68018462       7.31174875 
S      24.21726244      41.72180710       9.00811198 
S      26.23360278      39.24311928      11.07701888 
S      26.23359646      44.46999269      10.70988020 
