256
Lattice="25.0523984138 0.0 0.0 0.0 23.0453400148 0.0 0.0 0.0 15.424003363" Properties=species:S:1:pos:R:3 unit_cell=conventional pbc="T T F"
Mn       1.04045412       3.19781569      10.42400336 
Mn       4.17200392       3.19781569       5.00000000 
S       4.17685430       5.40158182       5.00000000 
S       2.08625692       2.52089574       5.00000000 
Mn       5.22266104       0.31712778       6.80800112 
Mn       1.04045412       3.19781569       6.80800112 
S       1.04530450       5.40158182       6.80800112 
S       5.21780672       2.52089574       6.80800112 
Mn       2.09111124       0.31712778       8.61600224 
Mn       4.17200392       3.19781569       8.61600224 
S       4.17685430       5.40158182       8.61600224 
S       2.08625692       2.52089574       8.61600224 
Mn       5.22266104       0.31712778      10.42400336 
Mn       2.09111124       0.31712778       5.00000000 
S       1.04530450       5.40158182      10.42400336 
S       5.21780672       2.52089574      10.42400336 
Mn       2.09111124       6.07846279       5.00000000 
Mn       4.17200392       8.95915070       5.00000000 
S       4.17685430      11.16291682       5.00000000 
S       2.08625692       8.28223075       5.00000000 
Mn       5.22266104       6.07846279       6.80800112 
Mn       1.04045412       8.95915070       6.80800112 
S       1.04530450      11.16291682       6.80800112 
S       5.21780672       8.28223075       6.80800112 
Mn       2.09111124       6.07846279       8.61600224 
Mn       4.17200392       8.95915070       8.61600224 
S       4.17685430      11.16291682       8.61600224 
S       2.08625692       8.28223075       8.61600224 
Mn       5.22266104       6.07846279      10.42400336 
Mn       1.04045412       8.95915070      10.42400336 
S       1.04530450      11.16291682      10.42400336 
S       5.21780672       8.28223075      10.42400336 
Mn       8.35421084       0.31712778       5.00000000 
Mn      10.43510352       3.19781569       5.00000000 
S      10.43995390       5.40158182       5.00000000 
S       8.34935652       2.52089574       5.00000000 
Mn      11.48576064       0.31712778       6.80800112 
Mn       7.30355372       3.19781569       6.80800112 
S       7.30840410       5.40158182       6.80800112 
S      11.48090633       2.52089574       6.80800112 
Mn       8.35421084       0.31712778       8.61600224 
Mn      10.43510352       3.19781569       8.61600224 
S      10.43995390       5.40158182       8.61600224 
S       8.34935652       2.52089574       8.61600224 
Mn      11.48576064       0.31712778      10.42400336 
Mn       7.30355372       3.19781569      10.42400336 
S       7.30840410       5.40158182      10.42400336 
S      11.48090633       2.52089574      10.42400336 
Mn       8.35421084       6.07846279       5.00000000 
Mn      10.43510352       8.95915070       5.00000000 
S      10.43995390      11.16291682       5.00000000 
S       8.34935652       8.28223075       5.00000000 
Mn      11.48576064       6.07846279       6.80800112 
Mn       7.30355372       8.95915070       6.80800112 
S       7.30840410      11.16291682       6.80800112 
S      11.48090633       8.28223075       6.80800112 
Mn       8.35421084       6.07846279       8.61600224 
Mn      10.43510352       8.95915070       8.61600224 
S      10.43995390      11.16291682       8.61600224 
S       8.34935652       8.28223075       8.61600224 
Mn      11.48576064       6.07846279      10.42400336 
Mn       7.30355372       8.95915070      10.42400336 
S       7.30840410      11.16291682      10.42400336 
S      11.48090633       8.28223075      10.42400336 
Mn       2.09111124      11.83979779       5.00000000 
Mn       4.17200392      14.72048570       5.00000000 
S       4.17685430      16.92425183       5.00000000 
S       2.08625692      14.04356575       5.00000000 
Mn       5.22266104      11.83979779       6.80800112 
Mn       1.04045412      14.72048570       6.80800112 
S       1.04530450      16.92425183       6.80800112 
S       5.21780672      14.04356575       6.80800112 
Mn       2.09111124      11.83979779       8.61600224 
Mn       4.17200392      14.72048570       8.61600224 
S       4.17685430      16.92425183       8.61600224 
S       2.08625692      14.04356575       8.61600224 
Mn       5.22266104      11.83979779      10.42400336 
Mn       1.04045412      14.72048570      10.42400336 
S       1.04530450      16.92425183      10.42400336 
S       5.21780672      14.04356575      10.42400336 
Mn       2.09111124      17.60113280       5.00000000 
Mn       4.17200392      20.48182071       5.00000000 
S       4.17685430      22.68558683       5.00000000 
S       2.08625692      19.80490076       5.00000000 
Mn       5.22266104      17.60113280       6.80800112 
Mn       1.04045412      20.48182071       6.80800112 
S       1.04530450      22.68558683       6.80800112 
S       5.21780672      19.80490076       6.80800112 
Mn       2.09111124      17.60113280       8.61600224 
Mn       4.17200392      20.48182071       8.61600224 
S       4.17685430      22.68558683       8.61600224 
S       2.08625692      19.80490076       8.61600224 
Mn       5.22266104      17.60113280      10.42400336 
Mn       1.04045412      20.48182071      10.42400336 
S       1.04530450      22.68558683      10.42400336 
S       5.21780672      19.80490076      10.42400336 
Mn       8.35421084      11.83979779       5.00000000 
Mn      10.43510352      14.72048570       5.00000000 
S      10.43995390      16.92425183       5.00000000 
S       8.34935652      14.04356575       5.00000000 
Mn      11.48576064      11.83979779       6.80800112 
Mn       7.30355372      14.72048570       6.80800112 
S       7.30840410      16.92425183       6.80800112 
S      11.48090633      14.04356575       6.80800112 
Mn       8.35421084      11.83979779       8.61600224 
Mn      10.43510352      14.72048570       8.61600224 
S      10.43995390      16.92425183       8.61600224 
S       8.34935652      14.04356575       8.61600224 
Mn      11.48576064      11.83979779      10.42400336 
Mn       7.30355372      14.72048570      10.42400336 
S       7.30840410      16.92425183      10.42400336 
S      11.48090633      14.04356575      10.42400336 
Mn       8.35421084      17.60113280       5.00000000 
Mn      10.43510352      20.48182071       5.00000000 
S      10.43995390      22.68558683       5.00000000 
S       8.34935652      19.80490076       5.00000000 
Mn      11.48576064      17.60113280       6.80800112 
Mn       7.30355372      20.48182071       6.80800112 
S       7.30840410      22.68558683       6.80800112 
S      11.48090633      19.80490076       6.80800112 
Mn       8.35421084      17.60113280       8.61600224 
Mn      10.43510352      20.48182071       8.61600224 
S      10.43995390      22.68558683       8.61600224 
S       8.34935652      19.80490076       8.61600224 
Mn      11.48576064      17.60113280      10.42400336 
Mn       7.30355372      20.48182071      10.42400336 
S       7.30840410      22.68558683      10.42400336 
S      11.48090633      19.80490076      10.42400336 
Mn      14.61731045       0.31712778       5.00000000 
Mn      16.69820313       3.19781569       5.00000000 
S      16.70305351       5.40158182       5.00000000 
S      14.61245613       2.52089574       5.00000000 
Mn      17.74886025       0.31712778       6.80800112 
Mn      13.56665333       3.19781569       6.80800112 
S      13.57150371       5.40158182       6.80800112 
S      17.74400593       2.52089574       6.80800112 
Mn      14.61731045       0.31712778       8.61600224 
Mn      16.69820313       3.19781569       8.61600224 
S      16.70305351       5.40158182       8.61600224 
S      14.61245613       2.52089574       8.61600224 
Mn      17.74886025       0.31712778      10.42400336 
Mn      13.56665333       3.19781569      10.42400336 
S      13.57150371       5.40158182      10.42400336 
S      17.74400593       2.52089574      10.42400336 
Mn      14.61731045       6.07846279       5.00000000 
Mn      16.69820313       8.95915070       5.00000000 
S      16.70305351      11.16291682       5.00000000 
S      14.61245613       8.28223075       5.00000000 
Mn      17.74886025       6.07846279       6.80800112 
Mn      13.56665333       8.95915070       6.80800112 
S      13.57150371      11.16291682       6.80800112 
S      17.74400593       8.28223075       6.80800112 
Mn      14.61731045       6.07846279       8.61600224 
Mn      16.69820313       8.95915070       8.61600224 
S      16.70305351      11.16291682       8.61600224 
S      14.61245613       8.28223075       8.61600224 
Mn      17.74886025       6.07846279      10.42400336 
Mn      13.56665333       8.95915070      10.42400336 
S      13.57150371      11.16291682      10.42400336 
S      17.74400593       8.28223075      10.42400336 
Mn      20.88041005       0.31712778       5.00000000 
Mn      22.96130273       3.19781569       5.00000000 
S      22.96615311       5.40158182       5.00000000 
S      20.87555573       2.52089574       5.00000000 
Mn      24.01195985       0.31712778       6.80800112 
Mn      19.82975293       3.19781569       6.80800112 
S      19.83460331       5.40158182       6.80800112 
S      24.00710554       2.52089574       6.80800112 
Mn      20.88041005       0.31712778       8.61600224 
Mn      22.96130273       3.19781569       8.61600224 
S      22.96615311       5.40158182       8.61600224 
S      20.87555573       2.52089574       8.61600224 
Mn      24.01195985       0.31712778      10.42400336 
Mn      19.82975293       3.19781569      10.42400336 
S      19.83460331       5.40158182      10.42400336 
S      24.00710554       2.52089574      10.42400336 
Mn      20.88041005       6.07846279       5.00000000 
Mn      22.96130273       8.95915070       5.00000000 
S      22.96615311      11.16291682       5.00000000 
S      20.87555573       8.28223075       5.00000000 
Mn      24.01195985       6.07846279       6.80800112 
Mn      19.82975293       8.95915070       6.80800112 
S      19.83460331      11.16291682       6.80800112 
S      24.00710554       8.28223075       6.80800112 
Mn      20.88041005       6.07846279       8.61600224 
Mn      22.96130273       8.95915070       8.61600224 
S      22.96615311      11.16291682       8.61600224 
S      20.87555573       8.28223075       8.61600224 
Mn      24.01195985       6.07846279      10.42400336 
Mn      19.82975293       8.95915070      10.42400336 
S      19.83460331      11.16291682      10.42400336 
S      24.00710554       8.28223075      10.42400336 
Mn      14.61731045      11.83979779       5.00000000 
Mn      16.69820313      14.72048570       5.00000000 
S      16.70305351      16.92425183       5.00000000 
S      14.61245613      14.04356575       5.00000000 
Mn      17.74886025      11.83979779       6.80800112 
Mn      13.56665333      14.72048570       6.80800112 
S      13.57150371      16.92425183       6.80800112 
S      17.74400593      14.04356575       6.80800112 
Mn      14.61731045      11.83979779       8.61600224 
Mn      16.69820313      14.72048570       8.61600224 
S      16.70305351      16.92425183       8.61600224 
S      14.61245613      14.04356575       8.61600224 
Mn      17.74886025      11.83979779      10.42400336 
Mn      13.56665333      14.72048570      10.42400336 
S      13.57150371      16.92425183      10.42400336 
S      17.74400593      14.04356575      10.42400336 
Mn      14.61731045      17.60113280       5.00000000 
Mn      16.69820313      20.48182071       5.00000000 
S      16.70305351      22.68558683       5.00000000 
S      14.61245613      19.80490076       5.00000000 
Mn      17.74886025      17.60113280       6.80800112 
Mn      13.56665333      20.48182071       6.80800112 
S      13.57150371      22.68558683       6.80800112 
S      17.74400593      19.80490076       6.80800112 
Mn      14.61731045      17.60113280       8.61600224 
Mn      16.69820313      20.48182071       8.61600224 
S      16.70305351      22.68558683       8.61600224 
S      14.61245613      19.80490076       8.61600224 
Mn      17.74886025      17.60113280      10.42400336 
Mn      13.56665333      20.48182071      10.42400336 
S      13.57150371      22.68558683      10.42400336 
S      17.74400593      19.80490076      10.42400336 
Mn      20.88041005      11.83979779       5.00000000 
Mn      22.96130273      14.72048570       5.00000000 
S      22.96615311      16.92425183       5.00000000 
S      20.87555573      14.04356575       5.00000000 
Mn      24.01195985      11.83979779       6.80800112 
Mn      19.82975293      14.72048570       6.80800112 
S      19.83460331      16.92425183       6.80800112 
S      24.00710554      14.04356575       6.80800112 
Mn      20.88041005      11.83979779       8.61600224 
Mn      22.96130273      14.72048570       8.61600224 
S      22.96615311      16.92425183       8.61600224 
S      20.87555573      14.04356575       8.61600224 
Mn      24.01195985      11.83979779      10.42400336 
Mn      19.82975293      14.72048570      10.42400336 
S      19.83460331      16.92425183      10.42400336 
S      24.00710554      14.04356575      10.42400336 
Mn      20.88041005      17.60113280       5.00000000 
Mn      22.96130273      20.48182071       5.00000000 
S      22.96615311      22.68558683       5.00000000 
S      20.87555573      19.80490076       5.00000000 
Mn      24.01195985      17.60113280       6.80800112 
Mn      19.82975293      20.48182071       6.80800112 
S      19.83460331      22.68558683       6.80800112 
S      24.00710554      19.80490076       6.80800112 
Mn      20.88041005      17.60113280       8.61600224 
Mn      22.96130273      20.48182071       8.61600224 
S      22.96615311      22.68558683       8.61600224 
S      20.87555573      19.80490076       8.61600224 
Mn      24.01195985      17.60113280      10.42400336 
Mn      19.82975293      20.48182071      10.42400336 
S      19.83460331      22.68558683      10.42400336 
S      24.00710554      19.80490076      10.42400336 
