256
Lattice="28.5147126668 0.0 0.0 0.0 20.1629466902 0.0 0.0 0.0 15.346508625" Properties=species:S:1:pos:R:3 unit_cell=conventional pbc="T T F"
Mn       3.56433908       3.15046042      10.34650863 
Mn       0.00000000       3.15046042       6.78216954 
Mn       3.56433908       3.15046042       6.78216954 
Mn       5.34650863       0.63009208       5.00000000 
S       0.00000000       4.41064459       5.00000000 
S       5.34650863       1.89027625       6.78216954 
S       1.78216954       1.89027625       6.78216954 
S       3.56433908       4.41064459       5.00000000 
Mn       5.34650863       0.63009208       8.56433908 
Mn       1.78216954       0.63009208       5.00000000 
Mn       0.00000000       3.15046042      10.34650863 
Mn       1.78216954       0.63009208       8.56433908 
S       3.56433908       4.41064459       8.56433908 
S       1.78216954       1.89027625      10.34650863 
S       5.34650863       1.89027625      10.34650863 
S       0.00000000       4.41064459       8.56433908 
Mn       1.78216954       5.67082876       5.00000000 
Mn       0.00000000       8.19119709       6.78216954 
Mn       3.56433908       8.19119709       6.78216954 
Mn       5.34650863       5.67082876       5.00000000 
S       0.00000000       9.45138126       5.00000000 
S       5.34650863       6.93101292       6.78216954 
S       1.78216954       6.93101292       6.78216954 
S       3.56433908       9.45138126       5.00000000 
Mn       5.34650863       5.67082876       8.56433908 
Mn       3.56433908       8.19119709      10.34650863 
Mn       0.00000000       8.19119709      10.34650863 
Mn       1.78216954       5.67082876       8.56433908 
S       3.56433908       9.45138126       8.56433908 
S       1.78216954       6.93101292      10.34650863 
S       5.34650863       6.93101292      10.34650863 
S       0.00000000       9.45138126       8.56433908 
Mn       8.91084771       0.63009208       5.00000000 
Mn       7.12867817       3.15046042       6.78216954 
Mn      10.69301725       3.15046042       6.78216954 
Mn      12.47518679       0.63009208       5.00000000 
S       7.12867817       4.41064459       5.00000000 
S      12.47518679       1.89027625       6.78216954 
S       8.91084771       1.89027625       6.78216954 
S      10.69301725       4.41064459       5.00000000 
Mn      12.47518679       0.63009208       8.56433908 
Mn      10.69301725       3.15046042      10.34650863 
Mn       7.12867817       3.15046042      10.34650863 
Mn       8.91084771       0.63009208       8.56433908 
S      10.69301725       4.41064459       8.56433908 
S       8.91084771       1.89027625      10.34650863 
S      12.47518679       1.89027625      10.34650863 
S       7.12867817       4.41064459       8.56433908 
Mn       8.91084771       5.67082876       5.00000000 
Mn       7.12867817       8.19119709       6.78216954 
Mn      10.69301725       8.19119709       6.78216954 
Mn      12.47518679       5.67082876       5.00000000 
S       7.12867817       9.45138126       5.00000000 
S      12.47518679       6.93101292       6.78216954 
S       8.91084771       6.93101292       6.78216954 
S      10.69301725       9.45138126       5.00000000 
Mn      12.47518679       5.67082876       8.56433908 
Mn      10.69301725       8.19119709      10.34650863 
Mn       7.12867817       8.19119709      10.34650863 
Mn       8.91084771       5.67082876       8.56433908 
S      10.69301725       9.45138126       8.56433908 
S       8.91084771       6.93101292      10.34650863 
S      12.47518679       6.93101292      10.34650863 
S       7.12867817       9.45138126       8.56433908 
Mn       1.78216954      10.71156543       5.00000000 
Mn       0.00000000      13.23193377       6.78216954 
Mn       3.56433908      13.23193377       6.78216954 
Mn       5.34650863      10.71156543       5.00000000 
S       0.00000000      14.49211794       5.00000000 
S       5.34650863      11.97174960       6.78216954 
S       1.78216954      11.97174960       6.78216954 
S       3.56433908      14.49211794       5.00000000 
Mn       5.34650863      10.71156543       8.56433908 
Mn       3.56433908      13.23193377      10.34650863 
Mn       0.00000000      13.23193377      10.34650863 
Mn       1.78216954      10.71156543       8.56433908 
S       3.56433908      14.49211794       8.56433908 
S       1.78216954      11.97174960      10.34650863 
S       5.34650863      11.97174960      10.34650863 
S       0.00000000      14.49211794       8.56433908 
Mn       1.78216954      15.75230211       5.00000000 
Mn       0.00000000      18.27267044       6.78216954 
Mn       3.56433908      18.27267044       6.78216954 
Mn       5.34650863      15.75230211       5.00000000 
S       0.00000000      19.53285461       5.00000000 
S       5.34650863      17.01248627       6.78216954 
S       1.78216954      17.01248627       6.78216954 
S       3.56433908      19.53285461       5.00000000 
Mn       5.34650863      15.75230211       8.56433908 
Mn       3.56433908      18.27267044      10.34650863 
Mn       0.00000000      18.27267044      10.34650863 
Mn       1.78216954      15.75230211       8.56433908 
S       3.56433908      19.53285461       8.56433908 
S       1.78216954      17.01248627      10.34650863 
S       5.34650863      17.01248627      10.34650863 
S       0.00000000      19.53285461       8.56433908 
Mn       8.91084771      10.71156543       5.00000000 
Mn       7.12867817      13.23193377       6.78216954 
Mn      10.69301725      13.23193377       6.78216954 
Mn      12.47518679      10.71156543       5.00000000 
S       7.12867817      14.49211794       5.00000000 
S      12.47518679      11.97174960       6.78216954 
S       8.91084771      11.97174960       6.78216954 
S      10.69301725      14.49211794       5.00000000 
Mn      12.47518679      10.71156543       8.56433908 
Mn      10.69301725      13.23193377      10.34650863 
Mn       7.12867817      13.23193377      10.34650863 
Mn       8.91084771      10.71156543       8.56433908 
S      10.69301725      14.49211794       8.56433908 
S       8.91084771      11.97174960      10.34650863 
S      12.47518679      11.97174960      10.34650863 
S       7.12867817      14.49211794       8.56433908 
Mn       8.91084771      15.75230211       5.00000000 
Mn       7.12867817      18.27267044       6.78216954 
Mn      10.69301725      18.27267044       6.78216954 
Mn      12.47518679      15.75230211       5.00000000 
S       7.12867817      19.53285461       5.00000000 
S      12.47518679      17.01248627       6.78216954 
S       8.91084771      17.01248627       6.78216954 
S      10.69301725      19.53285461       5.00000000 
Mn      12.47518679      15.75230211       8.56433908 
Mn      10.69301725      18.27267044      10.34650863 
Mn       7.12867817      18.27267044      10.34650863 
Mn       8.91084771      15.75230211       8.56433908 
S      10.69301725      19.53285461       8.56433908 
S       8.91084771      17.01248627      10.34650863 
S      12.47518679      17.01248627      10.34650863 
S       7.12867817      19.53285461       8.56433908 
Mn      16.03952587       0.63009208       5.00000000 
Mn      14.25735633       3.15046042       6.78216954 
Mn      17.82169541       3.15046042       6.78216954 
Mn      19.60386496       0.63009208       5.00000000 
S      14.25735633       4.41064459       5.00000000 
S      19.60386496       1.89027625       6.78216954 
S      16.03952587       1.89027625       6.78216954 
S      17.82169541       4.41064459       5.00000000 
Mn      19.60386496       0.63009208       8.56433908 
Mn      17.82169541       3.15046042      10.34650863 
Mn      14.25735633       3.15046042      10.34650863 
Mn      16.03952587       0.63009208       8.56433908 
S      17.82169541       4.41064459       8.56433908 
S      16.03952587       1.89027625      10.34650863 
S      19.60386496       1.89027625      10.34650863 
S      14.25735633       4.41064459       8.56433908 
Mn      16.03952587       5.67082876       5.00000000 
Mn      14.25735633       8.19119709       6.78216954 
Mn      17.82169541       8.19119709       6.78216954 
Mn      19.60386496       5.67082876       5.00000000 
S      14.25735633       9.45138126       5.00000000 
S      19.60386496       6.93101292       6.78216954 
S      16.03952587       6.93101292       6.78216954 
S      17.82169541       9.45138126       5.00000000 
Mn      19.60386496       5.67082876       8.56433908 
Mn      17.82169541       8.19119709      10.34650863 
Mn      14.25735633       8.19119709      10.34650863 
Mn      16.03952587       5.67082876       8.56433908 
S      17.82169541       9.45138126       8.56433908 
S      16.03952587       6.93101292      10.34650863 
S      19.60386496       6.93101292      10.34650863 
S      14.25735633       9.45138126       8.56433908 
Mn      23.16820404       0.63009208       5.00000000 
Mn      21.38603450       3.15046042       6.78216954 
Mn      24.95037358       3.15046042       6.78216954 
Mn      26.73254312       0.63009208       5.00000000 
S      21.38603450       4.41064459       5.00000000 
S      26.73254312       1.89027625       6.78216954 
S      23.16820404       1.89027625       6.78216954 
S      24.95037358       4.41064459       5.00000000 
Mn      26.73254312       0.63009208       8.56433908 
Mn      24.95037358       3.15046042      10.34650863 
Mn      21.38603450       3.15046042      10.34650863 
Mn      23.16820404       0.63009208       8.56433908 
S      24.95037358       4.41064459       8.56433908 
S      23.16820404       1.89027625      10.34650863 
S      26.73254312       1.89027625      10.34650863 
S      21.38603450       4.41064459       8.56433908 
Mn      23.16820404       5.67082876       5.00000000 
Mn      21.38603450       8.19119709       6.78216954 
Mn      24.95037358       8.19119709       6.78216954 
Mn      26.73254312       5.67082876       5.00000000 
S      21.38603450       9.45138126       5.00000000 
S      26.73254312       6.93101292       6.78216954 
S      23.16820404       6.93101292       6.78216954 
S      24.95037358       9.45138126       5.00000000 
Mn      26.73254312       5.67082876       8.56433908 
Mn      24.95037358       8.19119709      10.34650863 
Mn      21.38603450       8.19119709      10.34650863 
Mn      23.16820404       5.67082876       8.56433908 
S      24.95037358       9.45138126       8.56433908 
S      23.16820404       6.93101292      10.34650863 
S      26.73254312       6.93101292      10.34650863 
S      21.38603450       9.45138126       8.56433908 
Mn      16.03952587      10.71156543       5.00000000 
Mn      14.25735633      13.23193377       6.78216954 
Mn      17.82169541      13.23193377       6.78216954 
Mn      19.60386496      10.71156543       5.00000000 
S      14.25735633      14.49211794       5.00000000 
S      19.60386496      11.97174960       6.78216954 
S      16.03952587      11.97174960       6.78216954 
S      17.82169541      14.49211794       5.00000000 
Mn      19.60386496      10.71156543       8.56433908 
Mn      17.82169541      13.23193377      10.34650863 
Mn      14.25735633      13.23193377      10.34650863 
Mn      16.03952587      10.71156543       8.56433908 
S      17.82169541      14.49211794       8.56433908 
S      16.03952587      11.97174960      10.34650863 
S      19.60386496      11.97174960      10.34650863 
S      14.25735633      14.49211794       8.56433908 
Mn      16.03952587      15.75230211       5.00000000 
Mn      14.25735633      18.27267044       6.78216954 
Mn      17.82169541      18.27267044       6.78216954 
Mn      19.60386496      15.75230211       5.00000000 
S      14.25735633      19.53285461       5.00000000 
S      19.60386496      17.01248627       6.78216954 
S      16.03952587      17.01248627       6.78216954 
S      17.82169541      19.53285461       5.00000000 
Mn      19.60386496      15.75230211       8.56433908 
Mn      17.82169541      18.27267044      10.34650863 
Mn      14.25735633      18.27267044      10.34650863 
Mn      16.03952587      15.75230211       8.56433908 
S      17.82169541      19.53285461       8.56433908 
S      16.03952587      17.01248627      10.34650863 
S      19.60386496      17.01248627      10.34650863 
S      14.25735633      19.53285461       8.56433908 
Mn      23.16820404      10.71156543       5.00000000 
Mn      21.38603450      13.23193377       6.78216954 
Mn      24.95037358      13.23193377       6.78216954 
Mn      26.73254312      10.71156543       5.00000000 
S      21.38603450      14.49211794       5.00000000 
S      26.73254312      11.97174960       6.78216954 
S      23.16820404      11.97174960       6.78216954 
S      24.95037358      14.49211794       5.00000000 
Mn      26.73254312      10.71156543       8.56433908 
Mn      24.95037358      13.23193377      10.34650863 
Mn      21.38603450      13.23193377      10.34650863 
Mn      23.16820404      10.71156543       8.56433908 
S      24.95037358      14.49211794       8.56433908 
S      23.16820404      11.97174960      10.34650863 
S      26.73254312      11.97174960      10.34650863 
S      21.38603450      14.49211794       8.56433908 
Mn      23.16820404      15.75230211       5.00000000 
Mn      21.38603450      18.27267044       6.78216954 
Mn      24.95037358      18.27267044       6.78216954 
Mn      26.73254312      15.75230211       5.00000000 
S      21.38603450      19.53285461       5.00000000 
S      26.73254312      17.01248627       6.78216954 
S      23.16820404      17.01248627       6.78216954 
S      24.95037358      19.53285461       5.00000000 
Mn      26.73254312      15.75230211       8.56433908 
Mn      24.95037358      18.27267044      10.34650863 
Mn      21.38603450      18.27267044      10.34650863 
Mn      23.16820404      15.75230211       8.56433908 
S      24.95037358      19.53285461       8.56433908 
S      23.16820404      17.01248627      10.34650863 
S      26.73254312      17.01248627      10.34650863 
S      21.38603450      19.53285461       8.56433908 
