256
Lattice="18.98099267426 0.0 0.0 1.162250596158e-15 18.98099267426 0.0 0.0 0.0 17.1178722528" Properties=species:S:1:pos:R:3 unit_cell=conventional pbc="T T F"
Mn       1.18631204       3.55893613      12.11787225 
Mn       3.55893613       3.55893613       5.00000000 
Mn       1.18631204       3.55893613       7.37262408 
Mn       3.55893613       1.18631204       7.37262408 
S       1.18631204       1.18631204       7.37262408 
S       3.55893613       3.55893613       7.37262408 
S       1.18631204       3.55893613       5.00000000 
S       3.55893613       1.18631204       5.00000000 
Mn       1.18631204       1.18631204       9.74524817 
Mn       3.55893613       3.55893613       9.74524817 
Mn       1.18631204       1.18631204       5.00000000 
Mn       3.55893613       1.18631204      12.11787225 
S       1.18631204       1.18631204      12.11787225 
S       3.55893613       3.55893613      12.11787225 
S       1.18631204       3.55893613       9.74524817 
S       3.55893613       1.18631204       9.74524817 
Mn       1.18631204       5.93156021       5.00000000 
Mn       3.55893613       8.30418429       5.00000000 
Mn       1.18631204       8.30418429       7.37262408 
Mn       3.55893613       5.93156021       7.37262408 
S       1.18631204       5.93156021       7.37262408 
S       3.55893613       8.30418429       7.37262408 
S       1.18631204       8.30418429       5.00000000 
S       3.55893613       5.93156021       5.00000000 
Mn       1.18631204       5.93156021       9.74524817 
Mn       3.55893613       8.30418429       9.74524817 
Mn       1.18631204       8.30418429      12.11787225 
Mn       3.55893613       5.93156021      12.11787225 
S       1.18631204       5.93156021      12.11787225 
S       3.55893613       8.30418429      12.11787225 
S       1.18631204       8.30418429       9.74524817 
S       3.55893613       5.93156021       9.74524817 
Mn       5.93156021       1.18631204       5.00000000 
Mn       8.30418429       3.55893613       5.00000000 
Mn       5.93156021       3.55893613       7.37262408 
Mn       8.30418429       1.18631204       7.37262408 
S       5.93156021       1.18631204       7.37262408 
S       8.30418429       3.55893613       7.37262408 
S       5.93156021       3.55893613       5.00000000 
S       8.30418429       1.18631204       5.00000000 
Mn       5.93156021       1.18631204       9.74524817 
Mn       8.30418429       3.55893613       9.74524817 
Mn       5.93156021       3.55893613      12.11787225 
Mn       8.30418429       1.18631204      12.11787225 
S       5.93156021       1.18631204      12.11787225 
S       8.30418429       3.55893613      12.11787225 
S       5.93156021       3.55893613       9.74524817 
S       8.30418429       1.18631204       9.74524817 
Mn       5.93156021       5.93156021       5.00000000 
Mn       8.30418429       8.30418429       5.00000000 
Mn       5.93156021       8.30418429       7.37262408 
Mn       8.30418429       5.93156021       7.37262408 
S       5.93156021       5.93156021       7.37262408 
S       8.30418429       8.30418429       7.37262408 
S       5.93156021       8.30418429       5.00000000 
S       8.30418429       5.93156021       5.00000000 
Mn       5.93156021       5.93156021       9.74524817 
Mn       8.30418429       8.30418429       9.74524817 
Mn       5.93156021       8.30418429      12.11787225 
Mn       8.30418429       5.93156021      12.11787225 
S       5.93156021       5.93156021      12.11787225 
S       8.30418429       8.30418429      12.11787225 
S       5.93156021       8.30418429       9.74524817 
S       8.30418429       5.93156021       9.74524817 
Mn       1.18631204      10.67680838       5.00000000 
Mn       3.55893613      13.04943247       5.00000000 
Mn       1.18631204      13.04943247       7.37262408 
Mn       3.55893613      10.67680838       7.37262408 
S       1.18631204      10.67680838       7.37262408 
S       3.55893613      13.04943247       7.37262408 
S       1.18631204      13.04943247       5.00000000 
S       3.55893613      10.67680838       5.00000000 
Mn       1.18631204      10.67680838       9.74524817 
Mn       3.55893613      13.04943247       9.74524817 
Mn       1.18631204      13.04943247      12.11787225 
Mn       3.55893613      10.67680838      12.11787225 
S       1.18631204      10.67680838      12.11787225 
S       3.55893613      13.04943247      12.11787225 
S       1.18631204      13.04943247       9.74524817 
S       3.55893613      10.67680838       9.74524817 
Mn       1.18631204      15.42205655       5.00000000 
Mn       3.55893613      17.79468063       5.00000000 
Mn       1.18631204      17.79468063       7.37262408 
Mn       3.55893613      15.42205655       7.37262408 
S       1.18631204      15.42205655       7.37262408 
S       3.55893613      17.79468063       7.37262408 
S       1.18631204      17.79468063       5.00000000 
S       3.55893613      15.42205655       5.00000000 
Mn       1.18631204      15.42205655       9.74524817 
Mn       3.55893613      17.79468063       9.74524817 
Mn       1.18631204      17.79468063      12.11787225 
Mn       3.55893613      15.42205655      12.11787225 
S       1.18631204      15.42205655      12.11787225 
S       3.55893613      17.79468063      12.11787225 
S       1.18631204      17.79468063       9.74524817 
S       3.55893613      15.42205655       9.74524817 
Mn       5.93156021      10.67680838       5.00000000 
Mn       8.30418429      13.04943247       5.00000000 
Mn       5.93156021      13.04943247       7.37262408 
Mn       8.30418429      10.67680838       7.37262408 
S       5.93156021      10.67680838       7.37262408 
S       8.30418429      13.04943247       7.37262408 
S       5.93156021      13.04943247       5.00000000 
S       8.30418429      10.67680838       5.00000000 
Mn       5.93156021      10.67680838       9.74524817 
Mn       8.30418429      13.04943247       9.74524817 
Mn       5.93156021      13.04943247      12.11787225 
Mn       8.30418429      10.67680838      12.11787225 
S       5.93156021      10.67680838      12.11787225 
S       8.30418429      13.04943247      12.11787225 
S       5.93156021      13.04943247       9.74524817 
S       8.30418429      10.67680838       9.74524817 
Mn       5.93156021      15.42205655       5.00000000 
Mn       8.30418429      17.79468063       5.00000000 
Mn       5.93156021      17.79468063       7.37262408 
Mn       8.30418429      15.42205655       7.37262408 
S       5.93156021      15.42205655       7.37262408 
S       8.30418429      17.79468063       7.37262408 
S       5.93156021      17.79468063       5.00000000 
S       8.30418429      15.42205655       5.00000000 
Mn       5.93156021      15.42205655       9.74524817 
Mn       8.30418429      17.79468063       9.74524817 
Mn       5.93156021      17.79468063      12.11787225 
Mn       8.30418429      15.42205655      12.11787225 
S       5.93156021      15.42205655      12.11787225 
S       8.30418429      17.79468063      12.11787225 
S       5.93156021      17.79468063       9.74524817 
S       8.30418429      15.42205655       9.74524817 
Mn      10.67680838       1.18631204       5.00000000 
Mn      13.04943247       3.55893613       5.00000000 
Mn      10.67680838       3.55893613       7.37262408 
Mn      13.04943247       1.18631204       7.37262408 
S      10.67680838       1.18631204       7.37262408 
S      13.04943247       3.55893613       7.37262408 
S      10.67680838       3.55893613       5.00000000 
S      13.04943247       1.18631204       5.00000000 
Mn      10.67680838       1.18631204       9.74524817 
Mn      13.04943247       3.55893613       9.74524817 
Mn      10.67680838       3.55893613      12.11787225 
Mn      13.04943247       1.18631204      12.11787225 
S      10.67680838       1.18631204      12.11787225 
S      13.04943247       3.55893613      12.11787225 
S      10.67680838       3.55893613       9.74524817 
S      13.04943247       1.18631204       9.74524817 
Mn      10.67680838       5.93156021       5.00000000 
Mn      13.04943247       8.30418429       5.00000000 
Mn      10.67680838       8.30418429       7.37262408 
Mn      13.04943247       5.93156021       7.37262408 
S      10.67680838       5.93156021       7.37262408 
S      13.04943247       8.30418429       7.37262408 
S      10.67680838       8.30418429       5.00000000 
S      13.04943247       5.93156021       5.00000000 
Mn      10.67680838       5.93156021       9.74524817 
Mn      13.04943247       8.30418429       9.74524817 
Mn      10.67680838       8.30418429      12.11787225 
Mn      13.04943247       5.93156021      12.11787225 
S      10.67680838       5.93156021      12.11787225 
S      13.04943247       8.30418429      12.11787225 
S      10.67680838       8.30418429       9.74524817 
S      13.04943247       5.93156021       9.74524817 
Mn      15.42205655       1.18631204       5.00000000 
Mn      17.79468063       3.55893613       5.00000000 
Mn      15.42205655       3.55893613       7.37262408 
Mn      17.79468063       1.18631204       7.37262408 
S      15.42205655       1.18631204       7.37262408 
S      17.79468063       3.55893613       7.37262408 
S      15.42205655       3.55893613       5.00000000 
S      17.79468063       1.18631204       5.00000000 
Mn      15.42205655       1.18631204       9.74524817 
Mn      17.79468063       3.55893613       9.74524817 
Mn      15.42205655       3.55893613      12.11787225 
Mn      17.79468063       1.18631204      12.11787225 
S      15.42205655       1.18631204      12.11787225 
S      17.79468063       3.55893613      12.11787225 
S      15.42205655       3.55893613       9.74524817 
S      17.79468063       1.18631204       9.74524817 
Mn      15.42205655       5.93156021       5.00000000 
Mn      17.79468063       8.30418429       5.00000000 
Mn      15.42205655       8.30418429       7.37262408 
Mn      17.79468063       5.93156021       7.37262408 
S      15.42205655       5.93156021       7.37262408 
S      17.79468063       8.30418429       7.37262408 
S      15.42205655       8.30418429       5.00000000 
S      17.79468063       5.93156021       5.00000000 
Mn      15.42205655       5.93156021       9.74524817 
Mn      17.79468063       8.30418429       9.74524817 
Mn      15.42205655       8.30418429      12.11787225 
Mn      17.79468063       5.93156021      12.11787225 
S      15.42205655       5.93156021      12.11787225 
S      17.79468063       8.30418429      12.11787225 
S      15.42205655       8.30418429       9.74524817 
S      17.79468063       5.93156021       9.74524817 
Mn      10.67680838      10.67680838       5.00000000 
Mn      13.04943247      13.04943247       5.00000000 
Mn      10.67680838      13.04943247       7.37262408 
Mn      13.04943247      10.67680838       7.37262408 
S      10.67680838      10.67680838       7.37262408 
S      13.04943247      13.04943247       7.37262408 
S      10.67680838      13.04943247       5.00000000 
S      13.04943247      10.67680838       5.00000000 
Mn      10.67680838      10.67680838       9.74524817 
Mn      13.04943247      13.04943247       9.74524817 
Mn      10.67680838      13.04943247      12.11787225 
Mn      13.04943247      10.67680838      12.11787225 
S      10.67680838      10.67680838      12.11787225 
S      13.04943247      13.04943247      12.11787225 
S      10.67680838      13.04943247       9.74524817 
S      13.04943247      10.67680838       9.74524817 
Mn      10.67680838      15.42205655       5.00000000 
Mn      13.04943247      17.79468063       5.00000000 
Mn      10.67680838      17.79468063       7.37262408 
Mn      13.04943247      15.42205655       7.37262408 
S      10.67680838      15.42205655       7.37262408 
S      13.04943247      17.79468063       7.37262408 
S      10.67680838      17.79468063       5.00000000 
S      13.04943247      15.42205655       5.00000000 
Mn      10.67680838      15.42205655       9.74524817 
Mn      13.04943247      17.79468063       9.74524817 
Mn      10.67680838      17.79468063      12.11787225 
Mn      13.04943247      15.42205655      12.11787225 
S      10.67680838      15.42205655      12.11787225 
S      13.04943247      17.79468063      12.11787225 
S      10.67680838      17.79468063       9.74524817 
S      13.04943247      15.42205655       9.74524817 
Mn      15.42205655      10.67680838       5.00000000 
Mn      17.79468063      13.04943247       5.00000000 
Mn      15.42205655      13.04943247       7.37262408 
Mn      17.79468063      10.67680838       7.37262408 
S      15.42205655      10.67680838       7.37262408 
S      17.79468063      13.04943247       7.37262408 
S      15.42205655      13.04943247       5.00000000 
S      17.79468063      10.67680838       5.00000000 
Mn      15.42205655      10.67680838       9.74524817 
Mn      17.79468063      13.04943247       9.74524817 
Mn      15.42205655      13.04943247      12.11787225 
Mn      17.79468063      10.67680838      12.11787225 
S      15.42205655      10.67680838      12.11787225 
S      17.79468063      13.04943247      12.11787225 
S      15.42205655      13.04943247       9.74524817 
S      17.79468063      10.67680838       9.74524817 
Mn      15.42205655      15.42205655       5.00000000 
Mn      17.79468063      17.79468063       5.00000000 
Mn      15.42205655      17.79468063       7.37262408 
Mn      17.79468063      15.42205655       7.37262408 
S      15.42205655      15.42205655       7.37262408 
S      17.79468063      17.79468063       7.37262408 
S      15.42205655      17.79468063       5.00000000 
S      17.79468063      15.42205655       5.00000000 
Mn      15.42205655      15.42205655       9.74524817 
Mn      17.79468063      17.79468063       9.74524817 
Mn      15.42205655      17.79468063      12.11787225 
Mn      17.79468063      15.42205655      12.11787225 
S      15.42205655      15.42205655      12.11787225 
S      17.79468063      17.79468063      12.11787225 
S      15.42205655      17.79468063       9.74524817 
S      17.79468063      15.42205655       9.74524817 
