176
Lattice="22.7674375162 0.0 0.0 -11.4470888051 25.0629687253 0.0 0.0 -0.0 15.0311093459" Properties=species:S:1:pos:R:3:Z:I:1 unit_cell=conventional pbc="T T F"
Cu     -1.34990183      11.67987038       7.13870829       29 
Cu      4.11661511       6.60369156       9.47226445       29 
Cu      3.81584056       2.10843542       5.00000000       29 
Cu     -1.37152769       9.12841140       8.41508899       29 
Cu     -4.72921750      11.83951517       7.57468798       29 
Cu      7.20373361       8.51298210       5.55884489       29 
Cu     -3.98961432       9.17352512       8.95888385       29 
Cu      7.70165942       0.09474474       6.89072711       29 
Cu      4.66584745       3.27715849       7.45642137       29 
Cu     -2.02329453       5.50253414       7.43517376       29 
Cu      1.30815764       5.98826226       6.61602036       29 
Cu      0.78861094       7.36033168       8.85200412       29 
Cu      6.53031671       2.43505108       5.80459988       29 
Cu      7.18215283       1.09832731       9.31458657       29 
Cu      1.09612833       1.07324975       5.36058409       29 
Cu      7.49597835       6.34465356       9.08695127       29 
Cu      6.64594051       5.04324981       6.69816103       29 
Cu     -0.85198099       7.75634198       6.17910523       29 
Cu      4.56404603       1.51193955       9.67052525       29 
Cu      1.28653178       3.43680328       7.89240106       29 
Cu      1.84433379       0.47675388      10.03110935       29 
Cu      3.82437036       8.77202010       5.94415807       29 
Cu     10.51357640       0.15013821       9.22650947       29 
Cu      1.95992448       9.61413952       7.59593558       29 
Cu      3.92624427       5.94314854       6.07222550       29 
Cu      9.86174028       1.48686199       5.71652278       29 
Cu      9.34223370       2.49044456       8.14038224       29 
Cu      4.67440820      10.07342385       8.33294832       29 
S      5.42738638       8.58503799       9.94164630       16 
S      5.66325725      10.17391333       6.18296647       16 
S      5.89296233       6.53163567       5.08946305       16 
S     -0.03095992       9.91770142       6.31615221       16 
S     -0.03241012       5.19897224       8.71495714       16 
S      5.63411173       1.12375814       7.55432543       16 
S      5.65709146       4.94276033       8.84814288       16 
S     -2.91952729       7.68889376       7.40168942       16 
S      8.52119711       3.64912169       6.31068478       16 
S     -2.89039762      11.20924453       8.84950823       16 
S      0.02606263       1.46143116       7.47678391       16 
S      2.79915160      11.46755197       8.72042456       16 
S     -2.66064911      12.46376245       5.25958588       16 
S      2.82702757       3.90742912       6.18160112       16 
S      2.85615724       7.42777990       7.62941993       16 
S      2.59727907       2.65291121       9.77152347       16 
Cu     -7.07344623      24.21135475       7.13870829       29 
Cu     -1.60692930      19.13517592       9.47226445       29 
Cu     -1.90770384      14.63991978       5.00000000       29 
Cu     -7.09507209      21.65989576       8.41508899       29 
Cu    -10.45276190      24.37099954       7.57468798       29 
Cu      1.48018920      21.04446646       5.55884489       29 
Cu     -9.71315872      21.70500948       8.95888385       29 
Cu      1.97811502      12.62622910       6.89072711       29 
Cu     -1.05769695      15.80864285       7.45642137       29 
Cu     -7.74683893      18.03401850       7.43517376       29 
Cu     -4.41538676      18.51974663       6.61602036       29 
Cu     -4.93493346      19.89181604       8.85200412       29 
Cu      0.80677231      14.96653545       5.80459988       29 
Cu      1.45860843      13.62981167       9.31458657       29 
Cu     -4.62741608      13.60473411       5.36058409       29 
Cu      1.77243395      18.87613792       9.08695127       29 
Cu      0.92239611      17.57473417       6.69816103       29 
Cu     -6.57552539      20.28782635       6.17910523       29 
Cu     -1.15949837      14.04342391       9.67052525       29 
Cu     -4.43701262      15.96828764       7.89240106       29 
Cu     -3.87921061      13.00823824      10.03110935       29 
Cu     -1.89917404      21.30350446       5.94415807       29 
Cu      4.79003200      12.68162258       9.22650947       29 
Cu     -3.76361992      22.14562388       7.59593558       29 
Cu     -1.79730013      18.47463290       6.07222550       29 
Cu      4.13819588      14.01834635       5.71652278       29 
Cu      3.61868929      15.02192892       8.14038224       29 
Cu     -1.04913620      22.60490821       8.33294832       29 
S     -0.29615802      21.11652235       9.94164630       16 
S     -0.06028715      22.70539769       6.18296647       16 
S      0.16941793      19.06312003       5.08946305       16 
S     -5.75450433      22.44918578       6.31615221       16 
S     -5.75595453      17.73045660       8.71495714       16 
S     -0.08943268      13.65524250       7.55432543       16 
S     -0.06645295      17.47424469       8.84814288       16 
S     -8.64307169      20.22037812       7.40168942       16 
S      2.79765270      16.18060606       6.31068478       16 
S     -8.61394202      23.74072890       8.84950823       16 
S     -5.69748177      13.99291552       7.47678391       16 
S     -2.92439280      23.99903633       8.72042456       16 
S     -8.38419352      24.99524681       5.25958588       16 
S     -2.89651683      16.43891349       6.18160112       16 
S     -2.86738716      19.95926426       7.62941993       16 
S     -3.12626534      15.18439557       9.77152347       16 
Cu     10.03381693      11.67987038       7.13870829       29 
Cu     15.50033386       6.60369156       9.47226445       29 
Cu     15.19955932       2.10843542       5.00000000       29 
Cu     10.01219107       9.12841140       8.41508899       29 
Cu      6.65450126      11.83951517       7.57468798       29 
Cu     18.58745236       8.51298210       5.55884489       29 
Cu      7.39410444       9.17352512       8.95888385       29 
Cu     19.08537818       0.09474474       6.89072711       29 
Cu     16.04956621       3.27715849       7.45642137       29 
Cu      9.36042423       5.50253414       7.43517376       29 
Cu     12.69187640       5.98826226       6.61602036       29 
Cu     12.17232970       7.36033168       8.85200412       29 
Cu     17.91403547       2.43505108       5.80459988       29 
Cu     18.56587159       1.09832731       9.31458657       29 
Cu     12.47984708       1.07324975       5.36058409       29 
Cu     18.87969711       6.34465356       9.08695127       29 
Cu     18.02965927       5.04324981       6.69816103       29 
Cu     10.53173777       7.75634198       6.17910523       29 
Cu     15.94776479       1.51193955       9.67052525       29 
Cu     12.67025054       3.43680328       7.89240106       29 
Cu     13.22805255       0.47675388      10.03110935       29 
Cu     15.20808912       8.77202010       5.94415807       29 
Cu     21.89729516       0.15013821       9.22650947       29 
Cu     13.34364324       9.61413952       7.59593558       29 
Cu     15.30996303       5.94314854       6.07222550       29 
Cu     21.24545904       1.48686199       5.71652278       29 
Cu     20.72595245       2.49044456       8.14038224       29 
Cu     16.05812696      10.07342385       8.33294832       29 
S     16.81110514       8.58503799       9.94164630       16 
S     17.04697601      10.17391333       6.18296647       16 
S     17.27668109       6.53163567       5.08946305       16 
S     11.35275883       9.91770142       6.31615221       16 
S     11.35130863       5.19897224       8.71495714       16 
S     17.01783049       1.12375814       7.55432543       16 
S     17.04081022       4.94276033       8.84814288       16 
S      8.46419147       7.68889376       7.40168942       16 
S     19.90491587       3.64912169       6.31068478       16 
S      8.49332114      11.20924453       8.84950823       16 
S     11.40978139       1.46143116       7.47678391       16 
S     14.18287036      11.46755197       8.72042456       16 
S      8.72306964      12.46376245       5.25958588       16 
S     14.21074633       3.90742912       6.18160112       16 
S     14.23987600       7.42777990       7.62941993       16 
S     13.98099782       2.65291121       9.77152347       16 
Cu      4.31027253      24.21135475       7.13870829       29 
Cu      9.77678946      19.13517592       9.47226445       29 
Cu      9.47601492      14.63991978       5.00000000       29 
Cu      4.28864667      21.65989576       8.41508899       29 
Cu      0.93095686      24.37099954       7.57468798       29 
Cu     12.86390796      21.04446646       5.55884489       29 
Cu      1.67056004      21.70500948       8.95888385       29 
Cu     13.36183377      12.62622910       6.89072711       29 
Cu     10.32602180      15.80864285       7.45642137       29 
Cu      3.63687983      18.03401850       7.43517376       29 
Cu      6.96833199      18.51974663       6.61602036       29 
Cu      6.44878529      19.89181604       8.85200412       29 
Cu     12.19049107      14.96653545       5.80459988       29 
Cu     12.84232719      13.62981167       9.31458657       29 
Cu      6.75630268      13.60473411       5.36058409       29 
Cu     13.15615271      18.87613792       9.08695127       29 
Cu     12.30611486      17.57473417       6.69816103       29 
Cu      4.80819337      20.28782635       6.17910523       29 
Cu     10.22422039      14.04342391       9.67052525       29 
Cu      6.94670613      15.96828764       7.89240106       29 
Cu      7.50450815      13.00823824      10.03110935       29 
Cu      9.48454471      21.30350446       5.94415807       29 
Cu     16.17375075      12.68162258       9.22650947       29 
Cu      7.62009883      22.14562388       7.59593558       29 
Cu      9.58641862      18.47463290       6.07222550       29 
Cu     15.52191464      14.01834635       5.71652278       29 
Cu     15.00240805      15.02192892       8.14038224       29 
Cu     10.33458256      22.60490821       8.33294832       29 
S     11.08756074      21.11652235       9.94164630       16 
S     11.32343161      22.70539769       6.18296647       16 
S     11.55313668      19.06312003       5.08946305       16 
S      5.62921443      22.44918578       6.31615221       16 
S      5.62776423      17.73045660       8.71495714       16 
S     11.29428608      13.65524250       7.55432543       16 
S     11.31726581      17.47424469       8.84814288       16 
S      2.74064707      20.22037812       7.40168942       16 
S     14.18137146      16.18060606       6.31068478       16 
S      2.76977673      23.74072890       8.84950823       16 
S      5.68623698      13.99291552       7.47678391       16 
S      8.45932596      23.99903633       8.72042456       16 
S      2.99952524      24.99524681       5.25958588       16 
S      8.48720193      16.43891349       6.18160112       16 
S      8.51633160      19.95926426       7.62941993       16 
S      8.25745342      15.18439557       9.77152347       16 
