112
Lattice="13.2809613416 0.0 0.0 6.64048066476 11.5016499166 0.0 0.0 0.0 19.6165130549" Properties=species:S:1:pos:R:3:Z:I:1:magmoms:R:1 unit_cell=conventional pbc="T T F"
S      6.64050848       3.83395513       6.22734857       16       0.00306723 
S      1.76497996       1.01913502       6.31294150       16       0.00356145 
S      3.32033880       3.71277296       6.31282853       16       0.00354752 
S      4.87543075       1.01896463       6.31287337       16       0.00355571 
S      3.32014185       0.12111081       9.10910201       16       0.00354630 
S      1.76505032       2.81491846       9.10905716       16       0.00355448 
S      3.32021253       5.75075313       9.19458329       16       0.00306769 
S      4.87550032       2.81474805       9.10898903       16       0.00356020 
Co      6.64048067       5.75082396       5.00000000       27      -0.00154920 
Co      8.30059997       2.87541298       5.00000000       27      -0.00112099 
Co      4.98036137       2.87541298       5.00000000       27      -0.00120127 
Co      3.32024033       1.91694165       7.71096561       27       0.01164689 
Co      9.96071428       5.75081881       7.03172967       27       0.74221071 
Co      6.64048739       3.83388951       8.39021299       27       0.74212130 
S      3.32026814       1.91701348      11.64927833       16       0.00306723 
S      8.40546063       4.85301832      11.73487126       16       0.00356145 
S      6.64057914       1.79583131      11.73475829       16       0.00354752 
S      4.87543075       4.85284793      11.73480313       16       0.00355571 
S      3.32014184       3.95499411      14.53103177       16       0.00354630 
S      5.08529066       0.89797680      14.53098692       16       0.00355448 
S      6.64045286       3.83381148      14.61651305       16       0.00306769 
S      1.55525999       0.89780640      14.53091880       16       0.00356020 
Co      3.32024033       3.83388230      10.42192976       27      -0.00154920 
Co      4.98035963       0.95847133      10.42192976       27      -0.00112099 
Co      1.66012104       0.95847133      10.42192977       27      -0.00120127 
Co      9.96072100       5.75082496      13.13289537       27       0.01164689 
Co      6.64047395       3.83387716      12.45365944       27       0.74221071 
Co      3.32024706       1.91694785      13.81214276       27       0.74212130 
S      9.96074881       9.58478009       6.22734857       16       0.00306723 
S      5.08522029       6.76995998       6.31294150       16       0.00356145 
S      6.64057913       9.46359792       6.31282853       16       0.00354752 
S      8.19567108       6.76978959       6.31287337       16       0.00355571 
S      6.64038218       5.87193577       9.10910201       16       0.00354630 
S      5.08529065       8.56574342       9.10905716       16       0.00355448 
S      6.64045286      11.50157809       9.19458329       16       0.00306769 
S      8.19574065       8.56557301       9.10898903       16       0.00356020 
Co      9.96072100      11.50164891       5.00000000       27      -0.00154920 
Co     11.62084030       8.62623794       5.00000000       27      -0.00112099 
Co      8.30060170       8.62623794       5.00000000       27      -0.00120127 
Co      6.64048066       7.66776661       7.71096561       27       0.01164689 
Co     13.28095462      11.50164377       7.03172967       27       0.74221071 
Co      9.96072773       9.58471447       8.39021299       27       0.74212130 
S      6.64050847       7.66783844      11.64927833       16       0.00306723 
S     11.72570096      10.60384328      11.73487126       16       0.00356145 
S      9.96081947       7.54665626      11.73475829       16       0.00354752 
S      8.19567108      10.60367289      11.73480313       16       0.00355571 
S      6.64038218       9.70581907      14.53103177       16       0.00354630 
S      8.40553099       6.64880176      14.53098692       16       0.00355448 
S      9.96069320       9.58463644      14.61651305       16       0.00306769 
S      4.87550032       6.64863135      14.53091880       16       0.00356020 
Co      6.64048066       9.58470726      10.42192976       27      -0.00154920 
Co      8.30059996       6.70929629      10.42192976       27      -0.00112099 
Co      4.98036137       6.70929629      10.42192977       27      -0.00120127 
Co     13.28096133      11.50164991      13.13289537       27       0.01164689 
Co      9.96071428       9.58470212      12.45365944       27       0.74221071 
Co      6.64048739       7.66777281      13.81214276       27       0.74212130 
S     13.28098915       3.83395513       6.22734857       16       0.00306723 
S      8.40546063       1.01913502       6.31294150       16       0.00356145 
S      9.96081947       3.71277296       6.31282853       16       0.00354752 
S     11.51591142       1.01896463       6.31287337       16       0.00355571 
S      9.96062252       0.12111081       9.10910201       16       0.00354630 
S      8.40553099       2.81491846       9.10905716       16       0.00355448 
S      9.96069320       5.75075313       9.19458329       16       0.00306769 
S     11.51598099       2.81474805       9.10898903       16       0.00356020 
Co     13.28096134       5.75082396       5.00000000       27      -0.00154920 
Co     14.94108064       2.87541298       5.00000000       27      -0.00112099 
Co     11.62084204       2.87541298       5.00000000       27      -0.00120127 
Co      9.96072100       1.91694165       7.71096561       27       0.01164689 
Co     16.60119495       5.75081881       7.03172967       27       0.74221071 
Co     13.28096806       3.83388951       8.39021299       27       0.74212130 
S      9.96074881       1.91701348      11.64927833       16       0.00306723 
S     15.04594130       4.85301832      11.73487126       16       0.00356145 
S     13.28105981       1.79583131      11.73475829       16       0.00354752 
S     11.51591142       4.85284793      11.73480313       16       0.00355571 
S      9.96062252       3.95499411      14.53103177       16       0.00354630 
S     11.72577133       0.89797680      14.53098692       16       0.00355448 
S     13.28093354       3.83381148      14.61651305       16       0.00306769 
S      8.19574066       0.89780640      14.53091880       16       0.00356020 
Co      9.96072100       3.83388230      10.42192976       27      -0.00154920 
Co     11.62084030       0.95847133      10.42192976       27      -0.00112099 
Co      8.30060171       0.95847133      10.42192977       27      -0.00120127 
Co     16.60120167       5.75082496      13.13289537       27       0.01164689 
Co     13.28095462       3.83387716      12.45365944       27       0.74221071 
Co      9.96072773       1.91694785      13.81214276       27       0.74212130 
S     16.60122948       9.58478009       6.22734857       16       0.00306723 
S     11.72570096       6.76995998       6.31294150       16       0.00356145 
S     13.28105980       9.46359792       6.31282853       16       0.00354752 
S     14.83615176       6.76978959       6.31287337       16       0.00355571 
S     13.28086285       5.87193577       9.10910201       16       0.00354630 
S     11.72577133       8.56574342       9.10905716       16       0.00355448 
S     13.28093353      11.50157809       9.19458329       16       0.00306769 
S     14.83622132       8.56557301       9.10898903       16       0.00356020 
Co     16.60120167      11.50164891       5.00000000       27      -0.00154920 
Co     18.26132097       8.62623794       5.00000000       27      -0.00112099 
Co     14.94108238       8.62623794       5.00000000       27      -0.00120127 
Co     13.28096133       7.66776661       7.71096561       27       0.01164689 
Co     19.92143529      11.50164377       7.03172967       27       0.74221071 
Co     16.60120840       9.58471447       8.39021299       27       0.74212130 
S     13.28098914       7.66783844      11.64927833       16       0.00306723 
S     18.36618163      10.60384328      11.73487126       16       0.00356145 
S     16.60130014       7.54665626      11.73475829       16       0.00354752 
S     14.83615175      10.60367289      11.73480313       16       0.00355571 
S     13.28086285       9.70581907      14.53103177       16       0.00354630 
S     15.04601166       6.64880176      14.53098692       16       0.00355448 
S     16.60117387       9.58463644      14.61651305       16       0.00306769 
S     11.51598099       6.64863135      14.53091880       16       0.00356020 
Co     13.28096133       9.58470726      10.42192976       27      -0.00154920 
Co     14.94108063       6.70929629      10.42192976       27      -0.00112099 
Co     11.62084204       6.70929629      10.42192977       27      -0.00120127 
Co     19.92144200      11.50164991      13.13289537       27       0.01164689 
Co     16.60119495       9.58470212      12.45365944       27       0.74221071 
Co     13.28096806       7.66777281      13.81214276       27       0.74212130 
