160
Lattice="12.8963007391 0.0 0.0 1.06777668097e-15 17.4381165527 0.0 0.0 0.0 21.6027674184" Properties=species:S:1:pos:R:3:Z:I:1 unit_cell=conventional pbc="T T F"
Mo      0.80604058       2.04716907      10.20537806       42 
Mo      2.41805743       5.31233064       5.47726307       42 
Mo      0.80601824       7.69413345       8.96454996       42 
Mo      2.41805694       8.36528040       6.71690261       42 
S      0.80602004       3.85925846       6.46446408       16 
S      2.41805515       3.48109712       9.21698848       16 
S      0.80601769       7.30515846       5.00000000       16 
S      2.41800471       0.04354777      10.63419498       16 
S      2.41805699       6.31073903       7.88529650       16 
S      0.80601819       1.02961655       7.79615607       16 
Mo      0.80118039       0.36709274      15.93002475       42 
Mo      2.41801080       3.95985501      11.51072533       42 
Mo      0.80448911       6.45873622      14.75620354       42 
Mo      2.41683771       6.99494870      12.55408289       42 
S      0.80608097       2.51088817      12.50787812       16 
S      2.41806633       1.97420149      16.52098358       16 
S      0.80618228       5.92901678      10.95760738       16 
S      2.41811396       7.39526201      16.60083420       16 
S      2.41802004       4.94131193      13.91663402       16 
S      0.80605525       8.48748444      13.64468716       16 
Mo      4.03007012       2.04721491      10.20542358       42 
Mo      5.64213262       5.31233064       5.47726307       42 
Mo      4.03009343       7.69413345       8.96454996       42 
Mo      5.64213212       8.36528040       6.71690261       42 
S      4.03009522       3.85925846       6.46446408       16 
S      5.64213033       3.48109712       9.21698848       16 
S      4.03009287       7.30515846       5.00000000       16 
S      5.64218300       0.04366643      10.63412312       16 
S      5.64213218       6.31073903       7.88529650       16 
S      4.03009338       1.02961655       7.79615607       16 
Mo      4.03492112       0.36739368      15.92985137       42 
Mo      5.64217651       3.95956420      11.51047479       42 
Mo      4.03162941       6.45871381      14.75600639       42 
Mo      5.64335323       6.99562906      12.55411378       42 
S      4.03003019       2.51091870      12.50791107       16 
S      5.64212233       1.98261215      16.52084288       16 
S      4.02993032       5.92932351      10.95815524       16 
S      5.64207285       7.39353503      16.60276742       16 
S      5.64216912       4.94064210      13.91516843       16 
S      4.03005821       8.48650668      13.64398150       16 
Mo      0.80604058      10.76622735      10.20537806       42 
Mo      2.41805743      14.03138892       5.47726307       42 
Mo      0.80601824      16.41319173       8.96454996       42 
Mo      2.41805694      17.08433868       6.71690261       42 
S      0.80602004      12.57831674       6.46446408       16 
S      2.41805515      12.20015540       9.21698848       16 
S      0.80601769      16.02421674       5.00000000       16 
S      2.41800471       8.76260604      10.63419498       16 
S      2.41805699      15.02979730       7.88529650       16 
S      0.80601819       9.74867483       7.79615607       16 
Mo      0.80118039       9.08615102      15.93002475       42 
Mo      2.41801080      12.67891328      11.51072533       42 
Mo      0.80448911      15.17779449      14.75620354       42 
Mo      2.41683771      15.71400698      12.55408289       42 
S      0.80608097      11.22994644      12.50787812       16 
S      2.41806633      10.69325977      16.52098358       16 
S      0.80618228      14.64807506      10.95760738       16 
S      2.41811396      16.11432029      16.60083420       16 
S      2.41802004      13.66037021      13.91663402       16 
S      0.80605525      17.20654271      13.64468716       16 
Mo      4.03007012      10.76627319      10.20542358       42 
Mo      5.64213262      14.03138892       5.47726307       42 
Mo      4.03009343      16.41319173       8.96454996       42 
Mo      5.64213212      17.08433868       6.71690261       42 
S      4.03009522      12.57831674       6.46446408       16 
S      5.64213033      12.20015540       9.21698848       16 
S      4.03009287      16.02421674       5.00000000       16 
S      5.64218300       8.76272471      10.63412312       16 
S      5.64213218      15.02979730       7.88529650       16 
S      4.03009338       9.74867483       7.79615607       16 
Mo      4.03492112       9.08645196      15.92985137       42 
Mo      5.64217651      12.67862248      11.51047479       42 
Mo      4.03162941      15.17777209      14.75600639       42 
Mo      5.64335323      15.71468734      12.55411378       42 
S      4.03003019      11.22997698      12.50791107       16 
S      5.64212233      10.70167043      16.52084288       16 
S      4.02993032      14.64838179      10.95815524       16 
S      5.64207285      16.11259331      16.60276742       16 
S      5.64216912      13.65970038      13.91516843       16 
S      4.03005821      17.20556496      13.64398150       16 
Mo      7.25419094       2.04716907      10.20537806       42 
Mo      8.86620780       5.31233064       5.47726307       42 
Mo      7.25416861       7.69413345       8.96454996       42 
Mo      8.86620731       8.36528040       6.71690261       42 
S      7.25417041       3.85925846       6.46446408       16 
S      8.86620552       3.48109712       9.21698848       16 
S      7.25416806       7.30515846       5.00000000       16 
S      8.86615508       0.04354777      10.63419498       16 
S      8.86620736       6.31073903       7.88529650       16 
S      7.25416856       1.02961655       7.79615607       16 
Mo      7.24933076       0.36709274      15.93002475       42 
Mo      8.86616117       3.95985501      11.51072533       42 
Mo      7.25263948       6.45873622      14.75620354       42 
Mo      8.86498808       6.99494870      12.55408289       42 
S      7.25423134       2.51088817      12.50787812       16 
S      8.86621670       1.97420149      16.52098358       16 
S      7.25433265       5.92901678      10.95760738       16 
S      8.86626433       7.39526201      16.60083420       16 
S      8.86617041       4.94131193      13.91663402       16 
S      7.25420562       8.48748444      13.64468716       16 
Mo     10.47822049       2.04721491      10.20542358       42 
Mo     12.09028299       5.31233064       5.47726307       42 
Mo     10.47824380       7.69413345       8.96454996       42 
Mo     12.09028249       8.36528040       6.71690261       42 
S     10.47824559       3.85925846       6.46446408       16 
S     12.09028070       3.48109712       9.21698848       16 
S     10.47824324       7.30515846       5.00000000       16 
S     12.09033337       0.04366643      10.63412312       16 
S     12.09028255       6.31073903       7.88529650       16 
S     10.47824375       1.02961655       7.79615607       16 
Mo     10.48307149       0.36739368      15.92985137       42 
Mo     12.09032688       3.95956420      11.51047479       42 
Mo     10.47977978       6.45871381      14.75600639       42 
Mo     12.09150360       6.99562906      12.55411378       42 
S     10.47818056       2.51091870      12.50791107       16 
S     12.09027270       1.98261215      16.52084288       16 
S     10.47808069       5.92932351      10.95815524       16 
S     12.09022322       7.39353503      16.60276742       16 
S     12.09031949       4.94064210      13.91516843       16 
S     10.47820858       8.48650668      13.64398150       16 
Mo      7.25419094      10.76622735      10.20537806       42 
Mo      8.86620780      14.03138892       5.47726307       42 
Mo      7.25416861      16.41319173       8.96454996       42 
Mo      8.86620731      17.08433868       6.71690261       42 
S      7.25417041      12.57831674       6.46446408       16 
S      8.86620552      12.20015540       9.21698848       16 
S      7.25416806      16.02421674       5.00000000       16 
S      8.86615508       8.76260604      10.63419498       16 
S      8.86620736      15.02979730       7.88529650       16 
S      7.25416856       9.74867483       7.79615607       16 
Mo      7.24933076       9.08615102      15.93002475       42 
Mo      8.86616117      12.67891328      11.51072533       42 
Mo      7.25263948      15.17779449      14.75620354       42 
Mo      8.86498808      15.71400698      12.55408289       42 
S      7.25423134      11.22994644      12.50787812       16 
S      8.86621670      10.69325977      16.52098358       16 
S      7.25433265      14.64807506      10.95760738       16 
S      8.86626433      16.11432029      16.60083420       16 
S      8.86617041      13.66037021      13.91663402       16 
S      7.25420562      17.20654271      13.64468716       16 
Mo     10.47822049      10.76627319      10.20542358       42 
Mo     12.09028299      14.03138892       5.47726307       42 
Mo     10.47824380      16.41319173       8.96454996       42 
Mo     12.09028249      17.08433868       6.71690261       42 
S     10.47824559      12.57831674       6.46446408       16 
S     12.09028070      12.20015540       9.21698848       16 
S     10.47824324      16.02421674       5.00000000       16 
S     12.09033337       8.76272471      10.63412312       16 
S     12.09028255      15.02979730       7.88529650       16 
S     10.47824375       9.74867483       7.79615607       16 
Mo     10.48307149       9.08645196      15.92985137       42 
Mo     12.09032688      12.67862248      11.51047479       42 
Mo     10.47977978      15.17777209      14.75600639       42 
Mo     12.09150360      15.71468734      12.55411378       42 
S     10.47818056      11.22997698      12.50791107       16 
S     12.09027270      10.70167043      16.52084288       16 
S     10.47808069      14.64838179      10.95815524       16 
S     12.09022322      16.11259331      16.60276742       16 
S     12.09031949      13.65970038      13.91516843       16 
S     10.47820858      17.20556496      13.64398150       16 
