336
Lattice="28.8664892352 0.0 0.0 10.8850147709 26.7355690831 0.0 0.0 0.0 18.3441209085" Properties=species:S:1:pos:R:3:Z:I:1 unit_cell=conventional pbc="T T F"
Mo     17.04845482      11.61706890       8.16159086       42 
Mo     15.59434393      12.05826386       5.88243459       42 
Mo     17.18814690       9.83936046       6.08219585       42 
Mo     14.31019242       9.47373762       6.20142604       42 
Mo     15.76430331       9.03254265       8.48058232       42 
Mo     14.17050034      11.25144606       8.28082106       42 
Mo     14.23531226       6.48925719       5.30451463       42 
Mo      4.34178157       1.25437281       7.31097699       42 
Mo     11.37809193      12.40325395       7.51073825       42 
Mo      8.50013689      12.03765015       7.62996416       42 
Mo     12.95116319       3.90474230       5.62349751       42 
Mo     11.35736322       6.12364772       5.42374483       42 
Mo      8.42526573       9.05315636       6.73305275       42 
Mo     12.96497666       3.81827967       8.73951939       42 
Mo     14.55877664       1.59937425       8.93927208       42 
Mo     11.68082759       1.23376478       9.05850227       42 
Mo      7.14111366       6.46864916       7.05203991       42 
Mo      5.54731069       8.68755256       6.85227866       42 
S     18.17139574       9.44428077       8.29926208       16 
S      9.90159819       0.00479723       7.93447450       16 
S      7.15977997       4.54000910       8.54182381       16 
S     13.18725150      11.64652574       6.06375483       16 
S     16.01454166       7.71822474       6.42854240       16 
S      4.32311527       3.18301287       5.82119310       16 
S     13.33538448       8.96894601       8.37178332       16 
S     18.02326275      12.12186051       5.99123359       16 
S     15.35825563       4.31648042       5.44217727       16 
S     12.53096846       8.24478344       5.07739827       16 
S      9.78914424      12.78000099       5.68474329       16 
S      1.93468614       0.84264238       7.49230152       16 
S     10.20448070      10.28212391       7.85708052       16 
S     12.94630491       5.74690636       7.24973550       16 
S     10.52224192       3.84113430       5.51470708       16 
S      6.77070884       1.31797513       7.41977171       16 
S      9.54820909       6.88037959       6.87071539       16 
S      6.72092193      10.80868260       6.50593639       16 
S     12.96983494       1.97611561       7.11328140       16 
S     10.55788423       3.40654155       8.92083963       16 
S      7.39134657       5.15431788       5.00000000       16 
S      7.13625838       8.31080552       8.67827362       16 
S      4.71218640       6.40504684       6.94324520       16 
S     15.39389793       3.88188767       8.84830982       16 
Mo      8.60903502       5.94098955      12.44720950       42 
Mo      7.15492413       6.38218452      10.16805322       42 
Mo      8.74872711       4.16328111      10.36781448       42 
Mo      5.87077262       3.79765827      10.48704468       42 
Mo      7.32488351       3.35646330      12.76620095       42 
Mo      5.73108054       5.57536671      12.56643969       42 
Mo      5.79589246       0.81317784       9.59013327       42 
Mo     15.77811378       8.94607801      11.59659563       42 
Mo      2.93867213       6.72717460      11.79635688       42 
Mo     14.49396172       6.36157080      11.91558279       42 
Mo      9.95425078      11.59644749       9.90911615       42 
Mo      2.91794342       0.44756837       9.70936346       42 
Mo     14.41909055       3.37707701      11.01867138       42 
Mo      9.96806425      11.50998487      13.02513803       42 
Mo     11.56186422       9.29107944      13.22489071       42 
Mo      8.68391518       8.92546997      13.34412091       42 
Mo     13.13493849       0.79256981      11.33765855       42 
Mo     11.54113551       3.01147322      11.13789729       42 
S      9.73197595       3.76820142      12.58488071       16 
S      6.90468578       7.69650242      12.22009314       16 
S     18.59611218      12.23171430      12.82744244       16 
S      4.74783170       5.97044639      10.34937346       16 
S      7.57512186       2.04214539      10.71416104       16 
S     15.75944747      10.87471806      10.10681173       16 
S      4.89596469       3.29286666      12.65740195       16 
S      9.58384296       6.44578116      10.27685222       16 
S     12.36134322      12.00818561       9.72779591       16 
S      4.09154866       2.56870409       9.36301691       16 
S     15.78296906       7.10392164       9.97036192       16 
S     13.37101835       8.53434757      11.77792015       16 
S     16.19830552       4.60604456      12.14269915       16 
S      4.50688512       0.07082701      11.53535414       16 
S      7.52532951      11.53283950       9.80032572       16 
S      3.77379643       9.00968032      11.70539034       16 
S      1.10878930       1.20430024      11.15633402       16 
S     12.71474675       5.13260325      10.79155502       16 
S      9.97292253       9.66782081      11.39890004       16 
S      7.56097182      11.09824674      13.20645827       16 
S     18.82767878      12.84602308       9.28561863       16 
S     13.13008320       2.63472618      12.96389225       16 
S     10.70601122       0.72896749      11.22886383       16 
S     12.39698552      11.57359286      13.13392846       16 
Mo     22.49096221      24.98485344       8.16159086       42 
Mo     21.03685131      25.42604841       5.88243459       42 
Mo     22.63065429      23.20714500       6.08219585       42 
Mo     19.75269980      22.84152216       6.20142604       42 
Mo     21.20681070      22.40032719       8.48058232       42 
Mo     19.61300772      24.61923060       8.28082106       42 
Mo     19.67781964      19.85704174       5.30451463       42 
Mo      9.78428896      14.62215736       7.31097699       42 
Mo     16.82059932      25.77103849       7.51073825       42 
Mo     13.94264428      25.40543469       7.62996416       42 
Mo     18.39367058      17.27252684       5.62349751       42 
Mo     16.79987060      19.49143226       5.42374483       42 
Mo     13.86777311      22.42094090       6.73305275       42 
Mo     18.40748404      17.18606421       8.73951939       42 
Mo     20.00128402      14.96715879       8.93927208       42 
Mo     17.12333498      14.60154932       9.05850227       42 
Mo     12.58362105      19.83643370       7.05203991       42 
Mo     10.98981808      22.05533711       6.85227866       42 
S     23.61390313      22.81206531       8.29926208       16 
S     15.34410558      13.37258177       7.93447450       16 
S     12.60228735      17.90779365       8.54182381       16 
S     18.62975888      25.01431028       6.06375483       16 
S     21.45704905      21.08600928       6.42854240       16 
S      9.76562265      16.55079741       5.82119310       16 
S     18.77789187      22.33673055       8.37178332       16 
S     23.46577014      25.48964505       5.99123359       16 
S     20.80076301      17.68426496       5.44217727       16 
S     17.97347584      21.61256798       5.07739827       16 
S     15.23165163      26.14778553       5.68474329       16 
S      7.37719353      14.21042692       7.49230152       16 
S     15.64698808      23.64990845       7.85708052       16 
S     18.38881230      19.11469090       7.24973550       16 
S     15.96474931      17.20891885       5.51470708       16 
S     12.21321622      14.68575967       7.41977171       16 
S     14.99071648      20.24816413       6.87071539       16 
S     12.16342931      24.17646714       6.50593639       16 
S     18.41234233      15.34390016       7.11328140       16 
S     16.00039161      16.77432609       8.92083963       16 
S     12.83385396      18.52210243       5.00000000       16 
S     12.57876576      21.67859007       8.67827362       16 
S     10.15469378      19.77283138       6.94324520       16 
S     20.83640532      17.24967221       8.84830982       16 
Mo     14.05154241      19.30877409      12.44720950       42 
Mo     12.59743152      19.74996906      10.16805322       42 
Mo     14.19123449      17.53106565      10.36781448       42 
Mo     11.31328001      17.16544281      10.48704468       42 
Mo     12.76739090      16.72424784      12.76620095       42 
Mo     11.17358793      18.94315125      12.56643969       42 
Mo     11.23839985      14.18096239       9.59013327       42 
Mo     21.22062116      22.31386255      11.59659563       42 
Mo      8.38117952      20.09495914      11.79635688       42 
Mo     19.93646910      19.72935534      11.91558279       42 
Mo     15.39675817      24.96423203       9.90911615       42 
Mo      8.36045081      13.81535291       9.70936346       42 
Mo     19.86159793      16.74486155      11.01867138       42 
Mo     15.41057163      24.87776941      13.02513803       42 
Mo     17.00437161      22.65886398      13.22489071       42 
Mo     14.12642257      22.29325451      13.34412091       42 
Mo     18.57744587      14.16035435      11.33765855       42 
Mo     16.98364290      16.37925776      11.13789729       42 
S     15.17448333      17.13598596      12.58488071       16 
S     12.34719317      21.06428696      12.22009314       16 
S     24.03861956      25.59949884      12.82744244       16 
S     10.19033909      19.33823093      10.34937346       16 
S     13.01762925      15.40992994      10.71416104       16 
S     21.20195486      24.24250260      10.10681173       16 
S     10.33847207      16.66065120      12.65740195       16 
S     15.02635034      19.81356570      10.27685222       16 
S     17.80385060      25.37597016       9.72779591       16 
S      9.53405605      15.93648863       9.36301691       16 
S     21.22547645      20.47170618       9.97036192       16 
S     18.81352573      21.90213212      11.77792015       16 
S     21.64081290      17.97382910      12.14269915       16 
S      9.94939250      13.43861155      11.53535414       16 
S     12.96783690      24.90062404       9.80032572       16 
S      9.21630381      22.37746487      11.70539034       16 
S      6.55129668      14.57208478      11.15633402       16 
S     18.15725413      18.50038780      10.79155502       16 
S     15.41542992      23.03560535      11.39890004       16 
S     13.00347920      24.46603128      13.20645827       16 
S     24.27018617      26.21380762       9.28561863       16 
S     18.57259059      16.00251072      12.96389225       16 
S     16.14851861      14.09675203      11.22886383       16 
S     17.83949291      24.94137740      13.13392846       16 
Mo     31.48169944      11.61706890       8.16159086       42 
Mo     30.02758855      12.05826386       5.88243459       42 
Mo     31.62139152       9.83936046       6.08219585       42 
Mo     28.74343703       9.47373762       6.20142604       42 
Mo     30.19754793       9.03254265       8.48058232       42 
Mo     28.60374495      11.25144606       8.28082106       42 
Mo     28.66855688       6.48925719       5.30451463       42 
Mo     18.77502619       1.25437281       7.31097699       42 
Mo     25.81133655      12.40325395       7.51073825       42 
Mo     22.93338151      12.03765015       7.62996416       42 
Mo     27.38440781       3.90474230       5.62349751       42 
Mo     25.79060783       6.12364772       5.42374483       42 
Mo     22.85851034       9.05315636       6.73305275       42 
Mo     27.39822128       3.81827967       8.73951939       42 
Mo     28.99202125       1.59937425       8.93927208       42 
Mo     26.11407221       1.23376478       9.05850227       42 
Mo     21.57435828       6.46864916       7.05203991       42 
Mo     19.98055531       8.68755256       6.85227866       42 
S     32.60464036       9.44428077       8.29926208       16 
S     24.33484281       0.00479723       7.93447450       16 
S     21.59302459       4.54000910       8.54182381       16 
S     27.62049611      11.64652574       6.06375483       16 
S     30.44778628       7.71822474       6.42854240       16 
S     18.75635988       3.18301287       5.82119310       16 
S     27.76862910       8.96894601       8.37178332       16 
S     32.45650737      12.12186051       5.99123359       16 
S     29.79150024       4.31648042       5.44217727       16 
S     26.96421308       8.24478344       5.07739827       16 
S     24.22238886      12.78000099       5.68474329       16 
S     16.36793076       0.84264238       7.49230152       16 
S     24.63772531      10.28212391       7.85708052       16 
S     27.37954953       5.74690636       7.24973550       16 
S     24.95548654       3.84113430       5.51470708       16 
S     21.20395345       1.31797513       7.41977171       16 
S     23.98145371       6.88037959       6.87071539       16 
S     21.15416654      10.80868260       6.50593639       16 
S     27.40307956       1.97611561       7.11328140       16 
S     24.99112884       3.40654155       8.92083963       16 
S     21.82459119       5.15431788       5.00000000       16 
S     21.56950300       8.31080552       8.67827362       16 
S     19.14543102       6.40504684       6.94324520       16 
S     29.82714255       3.88188767       8.84830982       16 
Mo     23.04227964       5.94098955      12.44720950       42 
Mo     21.58816875       6.38218452      10.16805322       42 
Mo     23.18197172       4.16328111      10.36781448       42 
Mo     20.30401724       3.79765827      10.48704468       42 
Mo     21.75812813       3.35646330      12.76620095       42 
Mo     20.16432516       5.57536671      12.56643969       42 
Mo     20.22913708       0.81317784       9.59013327       42 
Mo     30.21135840       8.94607801      11.59659563       42 
Mo     17.37191675       6.72717460      11.79635688       42 
Mo     28.92720633       6.36157080      11.91558279       42 
Mo     24.38749540      11.59644749       9.90911615       42 
Mo     17.35118804       0.44756837       9.70936346       42 
Mo     28.85233517       3.37707701      11.01867138       42 
Mo     24.40130887      11.50998487      13.02513803       42 
Mo     25.99510884       9.29107944      13.22489071       42 
Mo     23.11715980       8.92546997      13.34412091       42 
Mo     27.56818310       0.79256981      11.33765855       42 
Mo     25.97438013       3.01147322      11.13789729       42 
S     24.16522056       3.76820142      12.58488071       16 
S     21.33793040       7.69650242      12.22009314       16 
S     33.02935679      12.23171430      12.82744244       16 
S     19.18107632       5.97044639      10.34937346       16 
S     22.00836648       2.04214539      10.71416104       16 
S     30.19269209      10.87471806      10.10681173       16 
S     19.32920930       3.29286666      12.65740195       16 
S     24.01708758       6.44578116      10.27685222       16 
S     26.79458783      12.00818561       9.72779591       16 
S     18.52479328       2.56870409       9.36301691       16 
S     30.21621368       7.10392164       9.97036192       16 
S     27.80426297       8.53434757      11.77792015       16 
S     30.63155013       4.60604456      12.14269915       16 
S     18.94012973       0.07082701      11.53535414       16 
S     21.95857413      11.53283950       9.80032572       16 
S     18.20704104       9.00968032      11.70539034       16 
S     15.54203391       1.20430024      11.15633402       16 
S     27.14799136       5.13260325      10.79155502       16 
S     24.40616715       9.66782081      11.39890004       16 
S     21.99421643      11.09824674      13.20645827       16 
S     33.26092340      12.84602308       9.28561863       16 
S     27.56332782       2.63472618      12.96389225       16 
S     25.13925584       0.72896749      11.22886383       16 
S     26.83023014      11.57359286      13.13392846       16 
Mo     36.92420682      24.98485344       8.16159086       42 
Mo     35.47009593      25.42604841       5.88243459       42 
Mo     37.06389890      23.20714500       6.08219585       42 
Mo     34.18594442      22.84152216       6.20142604       42 
Mo     35.64005531      22.40032719       8.48058232       42 
Mo     34.04625234      24.61923060       8.28082106       42 
Mo     34.11106426      19.85704174       5.30451463       42 
Mo     24.21753357      14.62215736       7.31097699       42 
Mo     31.25384393      25.77103849       7.51073825       42 
Mo     28.37588890      25.40543469       7.62996416       42 
Mo     32.82691520      17.27252684       5.62349751       42 
Mo     31.23311522      19.49143226       5.42374483       42 
Mo     28.30101773      22.42094090       6.73305275       42 
Mo     32.84072866      17.18606421       8.73951939       42 
Mo     34.43452864      14.96715879       8.93927208       42 
Mo     31.55657960      14.60154932       9.05850227       42 
Mo     27.01686567      19.83643370       7.05203991       42 
Mo     25.42306269      22.05533711       6.85227866       42 
S     38.04714775      22.81206531       8.29926208       16 
S     29.77735019      13.37258177       7.93447450       16 
S     27.03553197      17.90779365       8.54182381       16 
S     33.06300350      25.01431028       6.06375483       16 
S     35.89029366      21.08600928       6.42854240       16 
S     24.19886727      16.55079741       5.82119310       16 
S     33.21113649      22.33673055       8.37178332       16 
S     37.89901476      25.48964505       5.99123359       16 
S     35.23400763      17.68426496       5.44217727       16 
S     32.40672046      21.61256798       5.07739827       16 
S     29.66489624      26.14778553       5.68474329       16 
S     21.81043814      14.21042692       7.49230152       16 
S     30.08023270      23.64990845       7.85708052       16 
S     32.82205692      19.11469090       7.24973550       16 
S     30.39799392      17.20891885       5.51470708       16 
S     26.64646084      14.68575967       7.41977171       16 
S     29.42396110      20.24816413       6.87071539       16 
S     26.59667393      24.17646714       6.50593639       16 
S     32.84558694      15.34390016       7.11328140       16 
S     30.43363623      16.77432609       8.92083963       16 
S     27.26709858      18.52210243       5.00000000       16 
S     27.01201038      21.67859007       8.67827362       16 
S     24.58793840      19.77283138       6.94324520       16 
S     35.26964993      17.24967221       8.84830982       16 
Mo     28.48478703      19.30877409      12.44720950       42 
Mo     27.03067614      19.74996906      10.16805322       42 
Mo     28.62447911      17.53106565      10.36781448       42 
Mo     25.74652462      17.16544281      10.48704468       42 
Mo     27.20063552      16.72424784      12.76620095       42 
Mo     25.60683254      18.94315125      12.56643969       42 
Mo     25.67164447      14.18096239       9.59013327       42 
Mo     35.65386578      22.31386255      11.59659563       42 
Mo     22.81442414      20.09495914      11.79635688       42 
Mo     34.36971372      19.72935534      11.91558279       42 
Mo     29.83000279      24.96423203       9.90911615       42 
Mo     22.79369542      13.81535291       9.70936346       42 
Mo     34.29484255      16.74486155      11.01867138       42 
Mo     29.84381625      24.87776941      13.02513803       42 
Mo     31.43761623      22.65886398      13.22489071       42 
Mo     28.55966719      22.29325451      13.34412091       42 
Mo     33.01069049      14.16035435      11.33765855       42 
Mo     31.41688752      16.37925776      11.13789729       42 
S     29.60772795      17.13598596      12.58488071       16 
S     26.78043778      21.06428696      12.22009314       16 
S     38.47186418      25.59949884      12.82744244       16 
S     24.62358370      19.33823093      10.34937346       16 
S     27.45087387      15.40992994      10.71416104       16 
S     35.63519948      24.24250260      10.10681173       16 
S     24.77171669      16.66065120      12.65740195       16 
S     29.45959496      19.81356570      10.27685222       16 
S     32.23709522      25.37597016       9.72779591       16 
S     23.96730066      15.93648863       9.36301691       16 
S     35.65872107      20.47170618       9.97036192       16 
S     33.24677035      21.90213212      11.77792015       16 
S     36.07405752      17.97382910      12.14269915       16 
S     24.38263712      13.43861155      11.53535414       16 
S     27.40108151      24.90062404       9.80032572       16 
S     23.64954843      22.37746487      11.70539034       16 
S     20.98454130      14.57208478      11.15633402       16 
S     32.59049875      18.50038780      10.79155502       16 
S     29.84867453      23.03560535      11.39890004       16 
S     27.43672382      24.46603128      13.20645827       16 
S     38.70343078      26.21380762       9.28561863       16 
S     33.00583520      16.00251072      12.96389225       16 
S     30.58176322      14.09675203      11.22886383       16 
S     32.27273752      24.94137740      13.13392846       16 
