1152
Lattice="47.5362257454 0.0 0.0 2.3423534844e-15 56.34155789 0.0 0.0 0.0 16.1813783832" Properties=species:S:1:pos:R:3 unit_cell=conventional pbc="T T F"
Ti       7.91512159       8.59587449      10.49248033 
Ti       7.48798626      12.99285297       5.40191452 
Ti       2.32936899      11.16243656       5.17270435 
Ti       6.97803555       8.59587449       7.28962954 
Ti      11.18056281      10.48538713       6.06005648 
Ti       4.86461292       1.09253650       6.16945778 
Ti       5.68177889      12.96833328       7.66888328 
Ti       1.17203650       3.60000234       5.51131624 
Ti       1.66578728       5.92571930       7.10536763 
Ti       1.90617045       0.28349503       5.29652445 
Ti       8.27137272       9.96555895       5.17271414 
Ti      11.62389874       8.15967017       7.66885817 
Ti       0.36959012       1.55332660       7.48460339 
Ti       1.03603732      12.53206287       7.28961511 
Ti      10.02322977       2.92295291       6.39866651 
Ti       4.50449706       7.32619480       6.27482016 
Ti       4.08122746       4.11983053       6.39866155 
Ti       7.84810220       6.75919467       5.29655239 
Ti       7.60790621       1.11705620       7.10533938 
Ti       6.31165138       5.48951498       7.48459938 
Ti       5.23856084      10.64250417       6.06004928 
Ti       1.54590256       8.13511742       5.40193140 
Ti      10.44642896      13.80189444       6.27484863 
Ti      10.80669697       5.95027205       6.16944210 
S       5.89432482       2.90492056       7.60669784 
S      11.83630477       4.13793873       7.60671182 
S       7.39536081      11.18046891       7.16752662 
S       2.91963630       5.80591062       5.00000828 
S       2.72417775       2.10808394       6.79570485 
S       1.45338078       9.94745075       7.16751238 
S      10.56550815      11.97730553       7.97852054 
S       3.49092255      12.84852977       6.57136809 
S       8.66623425       4.93474798       6.79569514 
S       8.86167541       1.23685970       5.00000000 
S       4.62345087       9.15064149       7.97852760 
S       9.43296440       8.27947885       6.57136920 
Ti       8.05112477       3.44288530       8.71417511 
Ti       8.42507230      12.99285297       8.60476531 
Ti       3.26645503      11.16243656       8.37555514 
Ti       7.11403873       3.44288530       5.51132432 
Ti       0.23359241      10.48538713       9.26290727 
Ti       5.80169897       1.09253650       9.37230857 
Ti       6.61886493      12.96833328      10.87173406 
Ti       2.10912254       3.60000234       8.71416703 
Ti       2.60287332       5.92571930      10.30821841 
Ti       2.84325649       0.28349503       8.49937523 
Ti       9.20845876       9.96555895       8.37556492 
Ti       0.67692835       8.15967017      10.87170896 
Ti       1.30667616       1.55332660      10.68745417 
Ti       1.97312337      12.53206287      10.49246589 
Ti      10.96031582       2.92295291       9.60151730 
Ti       5.44158310       7.32619480       9.47767095 
Ti       5.01831350       4.11983053       9.60151234 
Ti       8.78518824       6.75919467       8.49940318 
Ti       8.54499225       1.11705620      10.30819016 
Ti       7.24873743       5.48951498      10.68745017 
Ti       6.17564688      10.64250417       9.26290006 
Ti       2.48298860       8.13511742       8.60478219 
Ti      11.38351500      13.80189444       9.47769941 
Ti      11.74378301       5.95027205       9.37229288 
S       6.83141086       2.90492056      10.80954862 
S       0.88933438       4.13793873      10.80956260 
S       8.33244685      11.18046891      10.37037741 
S       3.85672234       5.80591062       8.20285906 
S       3.66126379       2.10808394       9.99855564 
S       2.39046682       9.94745075      10.37036317 
S      11.50259419      11.97730553      11.18137132 
S       4.42800859      12.84852977       9.77421888 
S       9.60332029       4.93474798       9.99854592 
S       9.79876145       1.23685970       8.20285079 
S       5.56053691       9.15064149      11.18137838 
S      10.37005044       8.27947885       9.77421998 
Ti       7.11403873      17.52827477       5.51132432 
Ti       7.48798626      27.07824244       5.40191452 
Ti       2.32936899      25.24782603       5.17270435 
Ti       6.97803555      22.68126396       7.28962954 
Ti      11.18056281      24.57077661       6.06005648 
Ti       4.86461292      15.17792597       6.16945778 
Ti       5.68177889      27.05372275       7.66888328 
Ti       1.17203650      17.68539181       5.51131624 
Ti       1.66578728      20.01110878       7.10536763 
Ti       1.90617045      14.36888450       5.29652445 
Ti       8.27137272      24.05094842       5.17271414 
Ti      11.62389874      22.24505964       7.66885817 
Ti       0.36959012      15.63871607       7.48460339 
Ti       1.03603732      26.61745235       7.28961511 
Ti      10.02322977      17.00834238       6.39866651 
Ti       4.50449706      21.41158427       6.27482016 
Ti       4.08122746      18.20522000       6.39866155 
Ti       7.84810220      20.84458415       5.29655239 
Ti       7.60790621      15.20244567       7.10533938 
Ti       6.31165138      19.57490446       7.48459938 
Ti       5.23856084      24.72789364       6.06004928 
Ti       1.54590256      22.22050690       5.40193140 
Ti      10.44642896      27.88728391       6.27484863 
Ti      10.80669697      20.03566152       6.16944210 
S       5.89432482      16.99031004       7.60669784 
S      11.83630477      18.22332820       7.60671182 
S       7.39536081      25.26585838       7.16752662 
S       2.91963630      19.89130009       5.00000828 
S       2.72417775      16.19347341       6.79570485 
S       1.45338078      24.03284022       7.16751238 
S      10.56550815      26.06269501       7.97852054 
S       3.49092255      26.93391924       6.57136809 
S       8.66623425      19.02013745       6.79569514 
S       8.86167541      15.32224918       5.00000000 
S       4.62345087      23.23603096       7.97852760 
S       9.43296440      22.36486832       6.57136920 
Ti       8.05112477      17.52827477       8.71417511 
Ti       8.42507230      27.07824244       8.60476531 
Ti       3.26645503      25.24782603       8.37555514 
Ti       7.91512159      22.68126396      10.49248033 
Ti       0.23359241      24.57077661       9.26290727 
Ti       5.80169897      15.17792597       9.37230857 
Ti       6.61886493      27.05372275      10.87173406 
Ti       2.10912254      17.68539181       8.71416703 
Ti       2.60287332      20.01110878      10.30821841 
Ti       2.84325649      14.36888450       8.49937523 
Ti       9.20845876      24.05094842       8.37556492 
Ti       0.67692835      22.24505964      10.87170896 
Ti       1.30667616      15.63871607      10.68745417 
Ti       1.97312337      26.61745235      10.49246589 
Ti      10.96031582      17.00834238       9.60151730 
Ti       5.44158310      21.41158427       9.47767095 
Ti       5.01831350      18.20522000       9.60151234 
Ti       8.78518824      20.84458415       8.49940318 
Ti       8.54499225      15.20244567      10.30819016 
Ti       7.24873743      19.57490446      10.68745017 
Ti       6.17564688      24.72789364       9.26290006 
Ti       2.48298860      22.22050690       8.60478219 
Ti      11.38351500      27.88728391       9.47769941 
Ti      11.74378301      20.03566152       9.37229288 
S       6.83141086      16.99031004      10.80954862 
S       0.88933438      18.22332820      10.80956260 
S       8.33244685      25.26585838      10.37037741 
S       3.85672234      19.89130009       8.20285906 
S       3.66126379      16.19347341       9.99855564 
S       2.39046682      24.03284022      10.37036317 
S      11.50259419      26.06269501      11.18137132 
S       4.42800859      26.93391924       9.77421888 
S       9.60332029      19.02013745       9.99854592 
S       9.79876145      15.32224918       8.20285079 
S       5.56053691      23.23603096      11.18137838 
S      10.37005044      22.36486832       9.77421998 
Ti      18.99809516       3.44288530       5.51132432 
Ti      19.37204270      12.99285297       5.40191452 
Ti      14.21342543      11.16243656       5.17270435 
Ti      18.86209199       8.59587449       7.28962954 
Ti      23.06461924      10.48538713       6.06005648 
Ti      16.74866936       1.09253650       6.16945778 
Ti      17.56583533      12.96833328       7.66888328 
Ti      13.05609294       3.60000234       5.51131624 
Ti      13.54984371       5.92571930       7.10536763 
Ti      13.79022689       0.28349503       5.29652445 
Ti      20.15542916       9.96555895       5.17271414 
Ti      23.50795518       8.15967017       7.66885817 
Ti      12.25364656       1.55332660       7.48460339 
Ti      12.92009376      12.53206287       7.28961511 
Ti      21.90728621       2.92295291       6.39866651 
Ti      16.38855350       7.32619480       6.27482016 
Ti      15.96528389       4.11983053       6.39866155 
Ti      19.73215863       6.75919467       5.29655239 
Ti      19.49196264       1.11705620       7.10533938 
Ti      18.19570782       5.48951498       7.48459938 
Ti      17.12261727      10.64250417       6.06004928 
Ti      13.42995900       8.13511742       5.40193140 
Ti      22.33048540      13.80189444       6.27484863 
Ti      22.69075341       5.95027205       6.16944210 
S      17.77838126       2.90492056       7.60669784 
S      23.72036121       4.13793873       7.60671182 
S      19.27941724      11.18046891       7.16752662 
S      14.80369274       5.80591062       5.00000828 
S      14.60823418       2.10808394       6.79570485 
S      13.33743722       9.94745075       7.16751238 
S      22.44956459      11.97730553       7.97852054 
S      15.37497898      12.84852977       6.57136809 
S      20.55029069       4.93474798       6.79569514 
S      20.74573184       1.23685970       5.00000000 
S      16.50750731       9.15064149       7.97852760 
S      21.31702083       8.27947885       6.57136920 
Ti      19.93518121       3.44288530       8.71417511 
Ti      20.30912874      12.99285297       8.60476531 
Ti      15.15051147      11.16243656       8.37555514 
Ti      19.79917803       8.59587449      10.49248033 
Ti      12.11764885      10.48538713       9.26290727 
Ti      17.68575540       1.09253650       9.37230857 
Ti      18.50292137      12.96833328      10.87173406 
Ti      13.99317898       3.60000234       8.71416703 
Ti      14.48692975       5.92571930      10.30821841 
Ti      14.72731293       0.28349503       8.49937523 
Ti      21.09251520       9.96555895       8.37556492 
Ti      12.56098478       8.15967017      10.87170896 
Ti      13.19073260       1.55332660      10.68745417 
Ti      13.85717980      12.53206287      10.49246589 
Ti      22.84437225       2.92295291       9.60151730 
Ti      17.32563954       7.32619480       9.47767095 
Ti      16.90236993       4.11983053       9.60151234 
Ti      20.66924467       6.75919467       8.49940318 
Ti      20.42904869       1.11705620      10.30819016 
Ti      19.13279386       5.48951498      10.68745017 
Ti      18.05970332      10.64250417       9.26290006 
Ti      14.36704504       8.13511742       8.60478219 
Ti      23.26757144      13.80189444       9.47769941 
Ti      23.62783945       5.95027205       9.37229288 
S      18.71546730       2.90492056      10.80954862 
S      12.77339081       4.13793873      10.80956260 
S      20.21650329      11.18046891      10.37037741 
S      15.74077878       5.80591062       8.20285906 
S      15.54532023       2.10808394       9.99855564 
S      14.27452326       9.94745075      10.37036317 
S      23.38665063      11.97730553      11.18137132 
S      16.31206503      12.84852977       9.77421888 
S      21.48737673       4.93474798       9.99854592 
S      21.68281788       1.23685970       8.20285079 
S      17.44459335       9.15064149      11.18137838 
S      22.25410687       8.27947885       9.77421998 
Ti      18.99809516      17.52827477       5.51132432 
Ti      19.37204270      27.07824244       5.40191452 
Ti      14.21342543      25.24782603       5.17270435 
Ti      18.86209199      22.68126396       7.28962954 
Ti      23.06461924      24.57077661       6.06005648 
Ti      16.74866936      15.17792597       6.16945778 
Ti      17.56583533      27.05372275       7.66888328 
Ti      13.05609294      17.68539181       5.51131624 
Ti      13.54984371      20.01110878       7.10536763 
Ti      13.79022689      14.36888450       5.29652445 
Ti      20.15542916      24.05094842       5.17271414 
Ti      23.50795518      22.24505964       7.66885817 
Ti      12.25364656      15.63871607       7.48460339 
Ti      12.92009376      26.61745235       7.28961511 
Ti      21.90728621      17.00834238       6.39866651 
Ti      16.38855350      21.41158427       6.27482016 
Ti      15.96528389      18.20522000       6.39866155 
Ti      19.73215863      20.84458415       5.29655239 
Ti      19.49196264      15.20244567       7.10533938 
Ti      18.19570782      19.57490446       7.48459938 
Ti      17.12261727      24.72789364       6.06004928 
Ti      13.42995900      22.22050690       5.40193140 
Ti      22.33048540      27.88728391       6.27484863 
Ti      22.69075341      20.03566152       6.16944210 
S      17.77838126      16.99031004       7.60669784 
S      23.72036121      18.22332820       7.60671182 
S      19.27941724      25.26585838       7.16752662 
S      14.80369274      19.89130009       5.00000828 
S      14.60823418      16.19347341       6.79570485 
S      13.33743722      24.03284022       7.16751238 
S      22.44956459      26.06269501       7.97852054 
S      15.37497898      26.93391924       6.57136809 
S      20.55029069      19.02013745       6.79569514 
S      20.74573184      15.32224918       5.00000000 
S      16.50750731      23.23603096       7.97852760 
S      21.31702083      22.36486832       6.57136920 
Ti      19.93518121      17.52827477       8.71417511 
Ti      20.30912874      27.07824244       8.60476531 
Ti      15.15051147      25.24782603       8.37555514 
Ti      19.79917803      22.68126396      10.49248033 
Ti      12.11764885      24.57077661       9.26290727 
Ti      17.68575540      15.17792597       9.37230857 
Ti      18.50292137      27.05372275      10.87173406 
Ti      13.99317898      17.68539181       8.71416703 
Ti      14.48692975      20.01110878      10.30821841 
Ti      14.72731293      14.36888450       8.49937523 
Ti      21.09251520      24.05094842       8.37556492 
Ti      12.56098478      22.24505964      10.87170896 
Ti      13.19073260      15.63871607      10.68745417 
Ti      13.85717980      26.61745235      10.49246589 
Ti      22.84437225      17.00834238       9.60151730 
Ti      17.32563954      21.41158427       9.47767095 
Ti      16.90236993      18.20522000       9.60151234 
Ti      20.66924467      20.84458415       8.49940318 
Ti      20.42904869      15.20244567      10.30819016 
Ti      19.13279386      19.57490446      10.68745017 
Ti      18.05970332      24.72789364       9.26290006 
Ti      14.36704504      22.22050690       8.60478219 
Ti      23.26757144      27.88728391       9.47769941 
Ti      23.62783945      20.03566152       9.37229288 
S      18.71546730      16.99031004      10.80954862 
S      12.77339081      18.22332820      10.80956260 
S      20.21650329      25.26585838      10.37037741 
S      15.74077878      19.89130009       8.20285906 
S      15.54532023      16.19347341       9.99855564 
S      14.27452326      24.03284022      10.37036317 
S      23.38665063      26.06269501      11.18137132 
S      16.31206503      26.93391924       9.77421888 
S      21.48737673      19.02013745       9.99854592 
S      21.68281788      15.32224918       8.20285079 
S      17.44459335      23.23603096      11.18137838 
S      22.25410687      22.36486832       9.77421998 
Ti       7.11403873      31.61366424       5.51132432 
Ti       7.48798626      41.16363191       5.40191452 
Ti       2.32936899      39.33321550       5.17270435 
Ti       6.97803555      36.76665343       7.28962954 
Ti      11.18056281      38.65616608       6.06005648 
Ti       4.86461292      29.26331544       6.16945778 
Ti       5.68177889      41.13911222       7.66888328 
Ti       1.17203650      31.77078128       5.51131624 
Ti       1.66578728      34.09649824       7.10536763 
Ti       1.90617045      28.45427397       5.29652445 
Ti       8.27137272      38.13633789       5.17271414 
Ti      11.62389874      36.33044912       7.66885817 
Ti       0.36959012      29.72410554       7.48460339 
Ti       1.03603732      40.70284181       7.28961511 
Ti      10.02322977      31.09373185       6.39866651 
Ti       4.50449706      35.49697374       6.27482016 
Ti       4.08122746      32.29060947       6.39866155 
Ti       7.84810220      34.92997362       5.29655239 
Ti       7.60790621      29.28783514       7.10533938 
Ti       6.31165138      33.66029392       7.48459938 
Ti       5.23856084      38.81328311       6.06004928 
Ti       1.54590256      36.30589636       5.40193140 
Ti      10.44642896      41.97267339       6.27484863 
Ti      10.80669697      34.12105099       6.16944210 
S       5.89432482      31.07569950       7.60669784 
S      11.83630477      32.30871767       7.60671182 
S       7.39536081      39.35124785       7.16752662 
S       2.91963630      33.97668957       5.00000828 
S       2.72417775      30.27886288       6.79570485 
S       1.45338078      38.11822969       7.16751238 
S      10.56550815      40.14808447       7.97852054 
S       3.49092255      41.01930872       6.57136809 
S       8.66623425      33.10552692       6.79569514 
S       8.86167541      29.40763864       5.00000000 
S       4.62345087      37.32142044       7.97852760 
S       9.43296440      36.45025779       6.57136920 
Ti       8.05112477      31.61366424       8.71417511 
Ti       8.42507230      41.16363191       8.60476531 
Ti       3.26645503      39.33321550       8.37555514 
Ti       7.91512159      36.76665343      10.49248033 
Ti       0.23359241      38.65616608       9.26290727 
Ti       5.80169897      29.26331544       9.37230857 
Ti       6.61886493      41.13911222      10.87173406 
Ti       2.10912254      31.77078128       8.71416703 
Ti       2.60287332      34.09649824      10.30821841 
Ti       2.84325649      28.45427397       8.49937523 
Ti       9.20845876      38.13633789       8.37556492 
Ti       0.67692835      36.33044912      10.87170896 
Ti       1.30667616      29.72410554      10.68745417 
Ti       1.97312337      40.70284181      10.49246589 
Ti      10.96031582      31.09373185       9.60151730 
Ti       5.44158310      35.49697374       9.47767095 
Ti       5.01831350      32.29060947       9.60151234 
Ti       8.78518824      34.92997362       8.49940318 
Ti       8.54499225      29.28783514      10.30819016 
Ti       7.24873743      33.66029392      10.68745017 
Ti       6.17564688      38.81328311       9.26290006 
Ti       2.48298860      36.30589636       8.60478219 
Ti      11.38351500      41.97267339       9.47769941 
Ti      11.74378301      34.12105099       9.37229288 
S       6.83141086      31.07569950      10.80954862 
S       0.88933438      32.30871767      10.80956260 
S       8.33244685      39.35124785      10.37037741 
S       3.85672234      33.97668957       8.20285906 
S       3.66126379      30.27886288       9.99855564 
S       2.39046682      38.11822969      10.37036317 
S      11.50259419      40.14808447      11.18137132 
S       4.42800859      41.01930872       9.77421888 
S       9.60332029      33.10552692       9.99854592 
S       9.79876145      29.40763864       8.20285079 
S       5.56053691      37.32142044      11.18137838 
S      10.37005044      36.45025779       9.77421998 
Ti       7.11403873      45.69905371       5.51132432 
Ti       7.48798626      55.24902138       5.40191452 
Ti       2.32936899      53.41860497       5.17270435 
Ti       6.97803555      50.85204290       7.28962954 
Ti      11.18056281      52.74155555       6.06005648 
Ti       4.86461292      43.34870491       6.16945778 
Ti       5.68177889      55.22450170       7.66888328 
Ti       1.17203650      45.85617075       5.51131624 
Ti       1.66578728      48.18188772       7.10536763 
Ti       1.90617045      42.53966345       5.29652445 
Ti       8.27137272      52.22172736       5.17271414 
Ti      11.62389874      50.41583859       7.66885817 
Ti       0.36959012      43.80949501       7.48460339 
Ti       1.03603732      54.78823130       7.28961511 
Ti      10.02322977      45.17912132       6.39866651 
Ti       4.50449706      49.58236322       6.27482016 
Ti       4.08122746      46.37599894       6.39866155 
Ti       7.84810220      49.01536309       5.29655239 
Ti       7.60790621      43.37322461       7.10533938 
Ti       6.31165138      47.74568340       7.48459938 
Ti       5.23856084      52.89867258       6.06004928 
Ti       1.54590256      50.39128584       5.40193140 
Ti      10.44642896      56.05806286       6.27484863 
Ti      10.80669697      48.20644047       6.16944210 
S       5.89432482      45.16108898       7.60669784 
S      11.83630477      46.39410714       7.60671182 
S       7.39536081      53.43663732       7.16752662 
S       2.91963630      48.06207903       5.00000828 
S       2.72417775      44.36425235       6.79570485 
S       1.45338078      52.20361916       7.16751238 
S      10.56550815      54.23347395       7.97852054 
S       3.49092255      55.10469819       6.57136809 
S       8.66623425      47.19091640       6.79569514 
S       8.86167541      43.49302812       5.00000000 
S       4.62345087      51.40680991       7.97852760 
S       9.43296440      50.53564726       6.57136920 
Ti       8.05112477      45.69905371       8.71417511 
Ti       8.42507230      55.24902138       8.60476531 
Ti       3.26645503      53.41860497       8.37555514 
Ti       7.91512159      50.85204290      10.49248033 
Ti       0.23359241      52.74155555       9.26290727 
Ti       5.80169897      43.34870491       9.37230857 
Ti       6.61886493      55.22450170      10.87173406 
Ti       2.10912254      45.85617075       8.71416703 
Ti       2.60287332      48.18188772      10.30821841 
Ti       2.84325649      42.53966345       8.49937523 
Ti       9.20845876      52.22172736       8.37556492 
Ti       0.67692835      50.41583859      10.87170896 
Ti       1.30667616      43.80949501      10.68745417 
Ti       1.97312337      54.78823130      10.49246589 
Ti      10.96031582      45.17912132       9.60151730 
Ti       5.44158310      49.58236322       9.47767095 
Ti       5.01831350      46.37599894       9.60151234 
Ti       8.78518824      49.01536309       8.49940318 
Ti       8.54499225      43.37322461      10.30819016 
Ti       7.24873743      47.74568340      10.68745017 
Ti       6.17564688      52.89867258       9.26290006 
Ti       2.48298860      50.39128584       8.60478219 
Ti      11.38351500      56.05806286       9.47769941 
Ti      11.74378301      48.20644047       9.37229288 
S       6.83141086      45.16108898      10.80954862 
S       0.88933438      46.39410714      10.80956260 
S       8.33244685      53.43663732      10.37037741 
S       3.85672234      48.06207903       8.20285906 
S       3.66126379      44.36425235       9.99855564 
S       2.39046682      52.20361916      10.37036317 
S      11.50259419      54.23347395      11.18137132 
S       4.42800859      55.10469819       9.77421888 
S       9.60332029      47.19091640       9.99854592 
S       9.79876145      43.49302812       8.20285079 
S       5.56053691      51.40680991      11.18137838 
S      10.37005044      50.53564726       9.77421998 
Ti      18.99809516      31.61366424       5.51132432 
Ti      19.37204270      41.16363191       5.40191452 
Ti      14.21342543      39.33321550       5.17270435 
Ti      18.86209199      36.76665343       7.28962954 
Ti      23.06461924      38.65616608       6.06005648 
Ti      16.74866936      29.26331544       6.16945778 
Ti      17.56583533      41.13911222       7.66888328 
Ti      13.05609294      31.77078128       5.51131624 
Ti      13.54984371      34.09649824       7.10536763 
Ti      13.79022689      28.45427397       5.29652445 
Ti      20.15542916      38.13633789       5.17271414 
Ti      23.50795518      36.33044912       7.66885817 
Ti      12.25364656      29.72410554       7.48460339 
Ti      12.92009376      40.70284181       7.28961511 
Ti      21.90728621      31.09373185       6.39866651 
Ti      16.38855350      35.49697374       6.27482016 
Ti      15.96528389      32.29060947       6.39866155 
Ti      19.73215863      34.92997362       5.29655239 
Ti      19.49196264      29.28783514       7.10533938 
Ti      18.19570782      33.66029392       7.48459938 
Ti      17.12261727      38.81328311       6.06004928 
Ti      13.42995900      36.30589636       5.40193140 
Ti      22.33048540      41.97267339       6.27484863 
Ti      22.69075341      34.12105099       6.16944210 
S      17.77838126      31.07569950       7.60669784 
S      23.72036121      32.30871767       7.60671182 
S      19.27941724      39.35124785       7.16752662 
S      14.80369274      33.97668957       5.00000828 
S      14.60823418      30.27886288       6.79570485 
S      13.33743722      38.11822969       7.16751238 
S      22.44956459      40.14808447       7.97852054 
S      15.37497898      41.01930872       6.57136809 
S      20.55029069      33.10552692       6.79569514 
S      20.74573184      29.40763864       5.00000000 
S      16.50750731      37.32142044       7.97852760 
S      21.31702083      36.45025779       6.57136920 
Ti      19.93518121      31.61366424       8.71417511 
Ti      20.30912874      41.16363191       8.60476531 
Ti      15.15051147      39.33321550       8.37555514 
Ti      19.79917803      36.76665343      10.49248033 
Ti      12.11764885      38.65616608       9.26290727 
Ti      17.68575540      29.26331544       9.37230857 
Ti      18.50292137      41.13911222      10.87173406 
Ti      13.99317898      31.77078128       8.71416703 
Ti      14.48692975      34.09649824      10.30821841 
Ti      14.72731293      28.45427397       8.49937523 
Ti      21.09251520      38.13633789       8.37556492 
Ti      12.56098478      36.33044912      10.87170896 
Ti      13.19073260      29.72410554      10.68745417 
Ti      13.85717980      40.70284181      10.49246589 
Ti      22.84437225      31.09373185       9.60151730 
Ti      17.32563954      35.49697374       9.47767095 
Ti      16.90236993      32.29060947       9.60151234 
Ti      20.66924467      34.92997362       8.49940318 
Ti      20.42904869      29.28783514      10.30819016 
Ti      19.13279386      33.66029392      10.68745017 
Ti      18.05970332      38.81328311       9.26290006 
Ti      14.36704504      36.30589636       8.60478219 
Ti      23.26757144      41.97267339       9.47769941 
Ti      23.62783945      34.12105099       9.37229288 
S      18.71546730      31.07569950      10.80954862 
S      12.77339081      32.30871767      10.80956260 
S      20.21650329      39.35124785      10.37037741 
S      15.74077878      33.97668957       8.20285906 
S      15.54532023      30.27886288       9.99855564 
S      14.27452326      38.11822969      10.37036317 
S      23.38665063      40.14808447      11.18137132 
S      16.31206503      41.01930872       9.77421888 
S      21.48737673      33.10552692       9.99854592 
S      21.68281788      29.40763864       8.20285079 
S      17.44459335      37.32142044      11.18137838 
S      22.25410687      36.45025779       9.77421998 
Ti      18.99809516      45.69905371       5.51132432 
Ti      19.37204270      55.24902138       5.40191452 
Ti      14.21342543      53.41860497       5.17270435 
Ti      18.86209199      50.85204290       7.28962954 
Ti      23.06461924      52.74155555       6.06005648 
Ti      16.74866936      43.34870491       6.16945778 
Ti      17.56583533      55.22450170       7.66888328 
Ti      13.05609294      45.85617075       5.51131624 
Ti      13.54984371      48.18188772       7.10536763 
Ti      13.79022689      42.53966345       5.29652445 
Ti      20.15542916      52.22172736       5.17271414 
Ti      23.50795518      50.41583859       7.66885817 
Ti      12.25364656      43.80949501       7.48460339 
Ti      12.92009376      54.78823130       7.28961511 
Ti      21.90728621      45.17912132       6.39866651 
Ti      16.38855350      49.58236322       6.27482016 
Ti      15.96528389      46.37599894       6.39866155 
Ti      19.73215863      49.01536309       5.29655239 
Ti      19.49196264      43.37322461       7.10533938 
Ti      18.19570782      47.74568340       7.48459938 
Ti      17.12261727      52.89867258       6.06004928 
Ti      13.42995900      50.39128584       5.40193140 
Ti      22.33048540      56.05806286       6.27484863 
Ti      22.69075341      48.20644047       6.16944210 
S      17.77838126      45.16108898       7.60669784 
S      23.72036121      46.39410714       7.60671182 
S      19.27941724      53.43663732       7.16752662 
S      14.80369274      48.06207903       5.00000828 
S      14.60823418      44.36425235       6.79570485 
S      13.33743722      52.20361916       7.16751238 
S      22.44956459      54.23347395       7.97852054 
S      15.37497898      55.10469819       6.57136809 
S      20.55029069      47.19091640       6.79569514 
S      20.74573184      43.49302812       5.00000000 
S      16.50750731      51.40680991       7.97852760 
S      21.31702083      50.53564726       6.57136920 
Ti      19.93518121      45.69905371       8.71417511 
Ti      20.30912874      55.24902138       8.60476531 
Ti      15.15051147      53.41860497       8.37555514 
Ti      19.79917803      50.85204290      10.49248033 
Ti      12.11764885      52.74155555       9.26290727 
Ti      17.68575540      43.34870491       9.37230857 
Ti      18.50292137      55.22450170      10.87173406 
Ti      13.99317898      45.85617075       8.71416703 
Ti      14.48692975      48.18188772      10.30821841 
Ti      14.72731293      42.53966345       8.49937523 
Ti      21.09251520      52.22172736       8.37556492 
Ti      12.56098478      50.41583859      10.87170896 
Ti      13.19073260      43.80949501      10.68745417 
Ti      13.85717980      54.78823130      10.49246589 
Ti      22.84437225      45.17912132       9.60151730 
Ti      17.32563954      49.58236322       9.47767095 
Ti      16.90236993      46.37599894       9.60151234 
Ti      20.66924467      49.01536309       8.49940318 
Ti      20.42904869      43.37322461      10.30819016 
Ti      19.13279386      47.74568340      10.68745017 
Ti      18.05970332      52.89867258       9.26290006 
Ti      14.36704504      50.39128584       8.60478219 
Ti      23.26757144      56.05806286       9.47769941 
Ti      23.62783945      48.20644047       9.37229288 
S      18.71546730      45.16108898      10.80954862 
S      12.77339081      46.39410714      10.80956260 
S      20.21650329      53.43663732      10.37037741 
S      15.74077878      48.06207903       8.20285906 
S      15.54532023      44.36425235       9.99855564 
S      14.27452326      52.20361916      10.37036317 
S      23.38665063      54.23347395      11.18137132 
S      16.31206503      55.10469819       9.77421888 
S      21.48737673      47.19091640       9.99854592 
S      21.68281788      43.49302812       8.20285079 
S      17.44459335      51.40680991      11.18137838 
S      22.25410687      50.53564726       9.77421998 
Ti      30.88215160       3.44288530       5.51132432 
Ti      31.25609913      12.99285297       5.40191452 
Ti      26.09748186      11.16243656       5.17270435 
Ti      30.74614842       8.59587449       7.28962954 
Ti      34.94867568      10.48538713       6.06005648 
Ti      28.63272579       1.09253650       6.16945778 
Ti      29.44989176      12.96833328       7.66888328 
Ti      24.94014937       3.60000234       5.51131624 
Ti      25.43390015       5.92571930       7.10536763 
Ti      25.67428332       0.28349503       5.29652445 
Ti      32.03948559       9.96555895       5.17271414 
Ti      35.39201161       8.15967017       7.66885817 
Ti      24.13770299       1.55332660       7.48460339 
Ti      24.80415019      12.53206287       7.28961511 
Ti      33.79134264       2.92295291       6.39866651 
Ti      28.27260993       7.32619480       6.27482016 
Ti      27.84934033       4.11983053       6.39866155 
Ti      31.61621507       6.75919467       5.29655239 
Ti      31.37601908       1.11705620       7.10533938 
Ti      30.07976425       5.48951498       7.48459938 
Ti      29.00667371      10.64250417       6.06004928 
Ti      25.31401543       8.13511742       5.40193140 
Ti      34.21454183      13.80189444       6.27484863 
Ti      34.57480984       5.95027205       6.16944210 
S      29.66243769       2.90492056       7.60669784 
S      35.60441764       4.13793873       7.60671182 
S      31.16347368      11.18046891       7.16752662 
S      26.68774917       5.80591062       5.00000828 
S      26.49229062       2.10808394       6.79570485 
S      25.22149365       9.94745075       7.16751238 
S      34.33362102      11.97730553       7.97852054 
S      27.25903542      12.84852977       6.57136809 
S      32.43434712       4.93474798       6.79569514 
S      32.62978828       1.23685970       5.00000000 
S      28.39156374       9.15064149       7.97852760 
S      33.20107727       8.27947885       6.57136920 
Ti      31.81923764       3.44288530       8.71417511 
Ti      32.19318517      12.99285297       8.60476531 
Ti      27.03456790      11.16243656       8.37555514 
Ti      31.68323446       8.59587449      10.49248033 
Ti      24.00170528      10.48538713       9.26290727 
Ti      29.56981184       1.09253650       9.37230857 
Ti      30.38697780      12.96833328      10.87173406 
Ti      25.87723541       3.60000234       8.71416703 
Ti      26.37098619       5.92571930      10.30821841 
Ti      26.61136936       0.28349503       8.49937523 
Ti      32.97657163       9.96555895       8.37556492 
Ti      24.44504122       8.15967017      10.87170896 
Ti      25.07478903       1.55332660      10.68745417 
Ti      25.74123624      12.53206287      10.49246589 
Ti      34.72842869       2.92295291       9.60151730 
Ti      29.20969597       7.32619480       9.47767095 
Ti      28.78642637       4.11983053       9.60151234 
Ti      32.55330111       6.75919467       8.49940318 
Ti      32.31310512       1.11705620      10.30819016 
Ti      31.01685030       5.48951498      10.68745017 
Ti      29.94375975      10.64250417       9.26290006 
Ti      26.25110147       8.13511742       8.60478219 
Ti      35.15162787      13.80189444       9.47769941 
Ti      35.51189588       5.95027205       9.37229288 
S      30.59952373       2.90492056      10.80954862 
S      24.65744725       4.13793873      10.80956260 
S      32.10055972      11.18046891      10.37037741 
S      27.62483521       5.80591062       8.20285906 
S      27.42937666       2.10808394       9.99855564 
S      26.15857969       9.94745075      10.37036317 
S      35.27070706      11.97730553      11.18137132 
S      28.19612146      12.84852977       9.77421888 
S      33.37143316       4.93474798       9.99854592 
S      33.56687432       1.23685970       8.20285079 
S      29.32864978       9.15064149      11.18137838 
S      34.13816331       8.27947885       9.77421998 
Ti      30.88215160      17.52827477       5.51132432 
Ti      31.25609913      27.07824244       5.40191452 
Ti      26.09748186      25.24782603       5.17270435 
Ti      30.74614842      22.68126396       7.28962954 
Ti      34.94867568      24.57077661       6.06005648 
Ti      28.63272579      15.17792597       6.16945778 
Ti      29.44989176      27.05372275       7.66888328 
Ti      24.94014937      17.68539181       5.51131624 
Ti      25.43390015      20.01110878       7.10536763 
Ti      25.67428332      14.36888450       5.29652445 
Ti      32.03948559      24.05094842       5.17271414 
Ti      35.39201161      22.24505964       7.66885817 
Ti      24.13770299      15.63871607       7.48460339 
Ti      24.80415019      26.61745235       7.28961511 
Ti      33.79134264      17.00834238       6.39866651 
Ti      28.27260993      21.41158427       6.27482016 
Ti      27.84934033      18.20522000       6.39866155 
Ti      31.61621507      20.84458415       5.29655239 
Ti      31.37601908      15.20244567       7.10533938 
Ti      30.07976425      19.57490446       7.48459938 
Ti      29.00667371      24.72789364       6.06004928 
Ti      25.31401543      22.22050690       5.40193140 
Ti      34.21454183      27.88728391       6.27484863 
Ti      34.57480984      20.03566152       6.16944210 
S      29.66243769      16.99031004       7.60669784 
S      35.60441764      18.22332820       7.60671182 
S      31.16347368      25.26585838       7.16752662 
S      26.68774917      19.89130009       5.00000828 
S      26.49229062      16.19347341       6.79570485 
S      25.22149365      24.03284022       7.16751238 
S      34.33362102      26.06269501       7.97852054 
S      27.25903542      26.93391924       6.57136809 
S      32.43434712      19.02013745       6.79569514 
S      32.62978828      15.32224918       5.00000000 
S      28.39156374      23.23603096       7.97852760 
S      33.20107727      22.36486832       6.57136920 
Ti      31.81923764      17.52827477       8.71417511 
Ti      32.19318517      27.07824244       8.60476531 
Ti      27.03456790      25.24782603       8.37555514 
Ti      31.68323446      22.68126396      10.49248033 
Ti      24.00170528      24.57077661       9.26290727 
Ti      29.56981184      15.17792597       9.37230857 
Ti      30.38697780      27.05372275      10.87173406 
Ti      25.87723541      17.68539181       8.71416703 
Ti      26.37098619      20.01110878      10.30821841 
Ti      26.61136936      14.36888450       8.49937523 
Ti      32.97657163      24.05094842       8.37556492 
Ti      24.44504122      22.24505964      10.87170896 
Ti      25.07478903      15.63871607      10.68745417 
Ti      25.74123624      26.61745235      10.49246589 
Ti      34.72842869      17.00834238       9.60151730 
Ti      29.20969597      21.41158427       9.47767095 
Ti      28.78642637      18.20522000       9.60151234 
Ti      32.55330111      20.84458415       8.49940318 
Ti      32.31310512      15.20244567      10.30819016 
Ti      31.01685030      19.57490446      10.68745017 
Ti      29.94375975      24.72789364       9.26290006 
Ti      26.25110147      22.22050690       8.60478219 
Ti      35.15162787      27.88728391       9.47769941 
Ti      35.51189588      20.03566152       9.37229288 
S      30.59952373      16.99031004      10.80954862 
S      24.65744725      18.22332820      10.80956260 
S      32.10055972      25.26585838      10.37037741 
S      27.62483521      19.89130009       8.20285906 
S      27.42937666      16.19347341       9.99855564 
S      26.15857969      24.03284022      10.37036317 
S      35.27070706      26.06269501      11.18137132 
S      28.19612146      26.93391924       9.77421888 
S      33.37143316      19.02013745       9.99854592 
S      33.56687432      15.32224918       8.20285079 
S      29.32864978      23.23603096      11.18137838 
S      34.13816331      22.36486832       9.77421998 
Ti      42.76620803       3.44288530       5.51132432 
Ti      43.14015557      12.99285297       5.40191452 
Ti      37.98153830      11.16243656       5.17270435 
Ti      42.63020486       8.59587449       7.28962954 
Ti      46.83273211      10.48538713       6.06005648 
Ti      40.51678223       1.09253650       6.16945778 
Ti      41.33394820      12.96833328       7.66888328 
Ti      36.82420581       3.60000234       5.51131624 
Ti      37.31795658       5.92571930       7.10536763 
Ti      37.55833976       0.28349503       5.29652445 
Ti      43.92354203       9.96555895       5.17271414 
Ti      47.27606805       8.15967017       7.66885817 
Ti      36.02175943       1.55332660       7.48460339 
Ti      36.68820663      12.53206287       7.28961511 
Ti      45.67539908       2.92295291       6.39866651 
Ti      40.15666637       7.32619480       6.27482016 
Ti      39.73339676       4.11983053       6.39866155 
Ti      43.50027150       6.75919467       5.29655239 
Ti      43.26007551       1.11705620       7.10533938 
Ti      41.96382069       5.48951498       7.48459938 
Ti      40.89073014      10.64250417       6.06004928 
Ti      37.19807187       8.13511742       5.40193140 
Ti      46.09859827      13.80189444       6.27484863 
Ti      46.45886628       5.95027205       6.16944210 
S      41.54649413       2.90492056       7.60669784 
S      47.48847408       4.13793873       7.60671182 
S      43.04753011      11.18046891       7.16752662 
S      38.57180561       5.80591062       5.00000828 
S      38.37634705       2.10808394       6.79570485 
S      37.10555009       9.94745075       7.16751238 
S      46.21767746      11.97730553       7.97852054 
S      39.14309185      12.84852977       6.57136809 
S      44.31840356       4.93474798       6.79569514 
S      44.51384471       1.23685970       5.00000000 
S      40.27562018       9.15064149       7.97852760 
S      45.08513370       8.27947885       6.57136920 
Ti      43.70329408       3.44288530       8.71417511 
Ti      44.07724161      12.99285297       8.60476531 
Ti      38.91862434      11.16243656       8.37555514 
Ti      43.56729090       8.59587449      10.49248033 
Ti      35.88576172      10.48538713       9.26290727 
Ti      41.45386827       1.09253650       9.37230857 
Ti      42.27103424      12.96833328      10.87173406 
Ti      37.76129185       3.60000234       8.71416703 
Ti      38.25504262       5.92571930      10.30821841 
Ti      38.49542580       0.28349503       8.49937523 
Ti      44.86062807       9.96555895       8.37556492 
Ti      36.32909765       8.15967017      10.87170896 
Ti      36.95884547       1.55332660      10.68745417 
Ti      37.62529267      12.53206287      10.49246589 
Ti      46.61248512       2.92295291       9.60151730 
Ti      41.09375241       7.32619480       9.47767095 
Ti      40.67048280       4.11983053       9.60151234 
Ti      44.43735754       6.75919467       8.49940318 
Ti      44.19716156       1.11705620      10.30819016 
Ti      42.90090673       5.48951498      10.68745017 
Ti      41.82781619      10.64250417       9.26290006 
Ti      38.13515791       8.13511742       8.60478219 
Ti      47.03568431      13.80189444       9.47769941 
Ti      47.39595232       5.95027205       9.37229288 
S      42.48358017       2.90492056      10.80954862 
S      36.54150368       4.13793873      10.80956260 
S      43.98461616      11.18046891      10.37037741 
S      39.50889165       5.80591062       8.20285906 
S      39.31343310       2.10808394       9.99855564 
S      38.04263613       9.94745075      10.37036317 
S      47.15476350      11.97730553      11.18137132 
S      40.08017790      12.84852977       9.77421888 
S      45.25548960       4.93474798       9.99854592 
S      45.45093075       1.23685970       8.20285079 
S      41.21270622       9.15064149      11.18137838 
S      46.02221974       8.27947885       9.77421998 
Ti      42.76620803      17.52827477       5.51132432 
Ti      43.14015557      27.07824244       5.40191452 
Ti      37.98153830      25.24782603       5.17270435 
Ti      42.63020486      22.68126396       7.28962954 
Ti      46.83273211      24.57077661       6.06005648 
Ti      40.51678223      15.17792597       6.16945778 
Ti      41.33394820      27.05372275       7.66888328 
Ti      36.82420581      17.68539181       5.51131624 
Ti      37.31795658      20.01110878       7.10536763 
Ti      37.55833976      14.36888450       5.29652445 
Ti      43.92354203      24.05094842       5.17271414 
Ti      47.27606805      22.24505964       7.66885817 
Ti      36.02175943      15.63871607       7.48460339 
Ti      36.68820663      26.61745235       7.28961511 
Ti      45.67539908      17.00834238       6.39866651 
Ti      40.15666637      21.41158427       6.27482016 
Ti      39.73339676      18.20522000       6.39866155 
Ti      43.50027150      20.84458415       5.29655239 
Ti      43.26007551      15.20244567       7.10533938 
Ti      41.96382069      19.57490446       7.48459938 
Ti      40.89073014      24.72789364       6.06004928 
Ti      37.19807187      22.22050690       5.40193140 
Ti      46.09859827      27.88728391       6.27484863 
Ti      46.45886628      20.03566152       6.16944210 
S      41.54649413      16.99031004       7.60669784 
S      47.48847408      18.22332820       7.60671182 
S      43.04753011      25.26585838       7.16752662 
S      38.57180561      19.89130009       5.00000828 
S      38.37634705      16.19347341       6.79570485 
S      37.10555009      24.03284022       7.16751238 
S      46.21767746      26.06269501       7.97852054 
S      39.14309185      26.93391924       6.57136809 
S      44.31840356      19.02013745       6.79569514 
S      44.51384471      15.32224918       5.00000000 
S      40.27562018      23.23603096       7.97852760 
S      45.08513370      22.36486832       6.57136920 
Ti      43.70329408      17.52827477       8.71417511 
Ti      44.07724161      27.07824244       8.60476531 
Ti      38.91862434      25.24782603       8.37555514 
Ti      43.56729090      22.68126396      10.49248033 
Ti      35.88576172      24.57077661       9.26290727 
Ti      41.45386827      15.17792597       9.37230857 
Ti      42.27103424      27.05372275      10.87173406 
Ti      37.76129185      17.68539181       8.71416703 
Ti      38.25504262      20.01110878      10.30821841 
Ti      38.49542580      14.36888450       8.49937523 
Ti      44.86062807      24.05094842       8.37556492 
Ti      36.32909765      22.24505964      10.87170896 
Ti      36.95884547      15.63871607      10.68745417 
Ti      37.62529267      26.61745235      10.49246589 
Ti      46.61248512      17.00834238       9.60151730 
Ti      41.09375241      21.41158427       9.47767095 
Ti      40.67048280      18.20522000       9.60151234 
Ti      44.43735754      20.84458415       8.49940318 
Ti      44.19716156      15.20244567      10.30819016 
Ti      42.90090673      19.57490446      10.68745017 
Ti      41.82781619      24.72789364       9.26290006 
Ti      38.13515791      22.22050690       8.60478219 
Ti      47.03568431      27.88728391       9.47769941 
Ti      47.39595232      20.03566152       9.37229288 
S      42.48358017      16.99031004      10.80954862 
S      36.54150368      18.22332820      10.80956260 
S      43.98461616      25.26585838      10.37037741 
S      39.50889165      19.89130009       8.20285906 
S      39.31343310      16.19347341       9.99855564 
S      38.04263613      24.03284022      10.37036317 
S      47.15476350      26.06269501      11.18137132 
S      40.08017790      26.93391924       9.77421888 
S      45.25548960      19.02013745       9.99854592 
S      45.45093075      15.32224918       8.20285079 
S      41.21270622      23.23603096      11.18137838 
S      46.02221974      22.36486832       9.77421998 
Ti      30.88215160      31.61366424       5.51132432 
Ti      31.25609913      41.16363191       5.40191452 
Ti      26.09748186      39.33321550       5.17270435 
Ti      30.74614842      36.76665343       7.28962954 
Ti      34.94867568      38.65616608       6.06005648 
Ti      28.63272579      29.26331544       6.16945778 
Ti      29.44989176      41.13911222       7.66888328 
Ti      24.94014937      31.77078128       5.51131624 
Ti      25.43390015      34.09649824       7.10536763 
Ti      25.67428332      28.45427397       5.29652445 
Ti      32.03948559      38.13633789       5.17271414 
Ti      35.39201161      36.33044912       7.66885817 
Ti      24.13770299      29.72410554       7.48460339 
Ti      24.80415019      40.70284181       7.28961511 
Ti      33.79134264      31.09373185       6.39866651 
Ti      28.27260993      35.49697374       6.27482016 
Ti      27.84934033      32.29060947       6.39866155 
Ti      31.61621507      34.92997362       5.29655239 
Ti      31.37601908      29.28783514       7.10533938 
Ti      30.07976425      33.66029392       7.48459938 
Ti      29.00667371      38.81328311       6.06004928 
Ti      25.31401543      36.30589636       5.40193140 
Ti      34.21454183      41.97267339       6.27484863 
Ti      34.57480984      34.12105099       6.16944210 
S      29.66243769      31.07569950       7.60669784 
S      35.60441764      32.30871767       7.60671182 
S      31.16347368      39.35124785       7.16752662 
S      26.68774917      33.97668957       5.00000828 
S      26.49229062      30.27886288       6.79570485 
S      25.22149365      38.11822969       7.16751238 
S      34.33362102      40.14808447       7.97852054 
S      27.25903542      41.01930872       6.57136809 
S      32.43434712      33.10552692       6.79569514 
S      32.62978828      29.40763864       5.00000000 
S      28.39156374      37.32142044       7.97852760 
S      33.20107727      36.45025779       6.57136920 
Ti      31.81923764      31.61366424       8.71417511 
Ti      32.19318517      41.16363191       8.60476531 
Ti      27.03456790      39.33321550       8.37555514 
Ti      31.68323446      36.76665343      10.49248033 
Ti      24.00170528      38.65616608       9.26290727 
Ti      29.56981184      29.26331544       9.37230857 
Ti      30.38697780      41.13911222      10.87173406 
Ti      25.87723541      31.77078128       8.71416703 
Ti      26.37098619      34.09649824      10.30821841 
Ti      26.61136936      28.45427397       8.49937523 
Ti      32.97657163      38.13633789       8.37556492 
Ti      24.44504122      36.33044912      10.87170896 
Ti      25.07478903      29.72410554      10.68745417 
Ti      25.74123624      40.70284181      10.49246589 
Ti      34.72842869      31.09373185       9.60151730 
Ti      29.20969597      35.49697374       9.47767095 
Ti      28.78642637      32.29060947       9.60151234 
Ti      32.55330111      34.92997362       8.49940318 
Ti      32.31310512      29.28783514      10.30819016 
Ti      31.01685030      33.66029392      10.68745017 
Ti      29.94375975      38.81328311       9.26290006 
Ti      26.25110147      36.30589636       8.60478219 
Ti      35.15162787      41.97267339       9.47769941 
Ti      35.51189588      34.12105099       9.37229288 
S      30.59952373      31.07569950      10.80954862 
S      24.65744725      32.30871767      10.80956260 
S      32.10055972      39.35124785      10.37037741 
S      27.62483521      33.97668957       8.20285906 
S      27.42937666      30.27886288       9.99855564 
S      26.15857969      38.11822969      10.37036317 
S      35.27070706      40.14808447      11.18137132 
S      28.19612146      41.01930872       9.77421888 
S      33.37143316      33.10552692       9.99854592 
S      33.56687432      29.40763864       8.20285079 
S      29.32864978      37.32142044      11.18137838 
S      34.13816331      36.45025779       9.77421998 
Ti      30.88215160      45.69905371       5.51132432 
Ti      31.25609913      55.24902138       5.40191452 
Ti      26.09748186      53.41860497       5.17270435 
Ti      30.74614842      50.85204290       7.28962954 
Ti      34.94867568      52.74155555       6.06005648 
Ti      28.63272579      43.34870491       6.16945778 
Ti      29.44989176      55.22450170       7.66888328 
Ti      24.94014937      45.85617075       5.51131624 
Ti      25.43390015      48.18188772       7.10536763 
Ti      25.67428332      42.53966345       5.29652445 
Ti      32.03948559      52.22172736       5.17271414 
Ti      35.39201161      50.41583859       7.66885817 
Ti      24.13770299      43.80949501       7.48460339 
Ti      24.80415019      54.78823130       7.28961511 
Ti      33.79134264      45.17912132       6.39866651 
Ti      28.27260993      49.58236322       6.27482016 
Ti      27.84934033      46.37599894       6.39866155 
Ti      31.61621507      49.01536309       5.29655239 
Ti      31.37601908      43.37322461       7.10533938 
Ti      30.07976425      47.74568340       7.48459938 
Ti      29.00667371      52.89867258       6.06004928 
Ti      25.31401543      50.39128584       5.40193140 
Ti      34.21454183      56.05806286       6.27484863 
Ti      34.57480984      48.20644047       6.16944210 
S      29.66243769      45.16108898       7.60669784 
S      35.60441764      46.39410714       7.60671182 
S      31.16347368      53.43663732       7.16752662 
S      26.68774917      48.06207903       5.00000828 
S      26.49229062      44.36425235       6.79570485 
S      25.22149365      52.20361916       7.16751238 
S      34.33362102      54.23347395       7.97852054 
S      27.25903542      55.10469819       6.57136809 
S      32.43434712      47.19091640       6.79569514 
S      32.62978828      43.49302812       5.00000000 
S      28.39156374      51.40680991       7.97852760 
S      33.20107727      50.53564726       6.57136920 
Ti      31.81923764      45.69905371       8.71417511 
Ti      32.19318517      55.24902138       8.60476531 
Ti      27.03456790      53.41860497       8.37555514 
Ti      31.68323446      50.85204290      10.49248033 
Ti      24.00170528      52.74155555       9.26290727 
Ti      29.56981184      43.34870491       9.37230857 
Ti      30.38697780      55.22450170      10.87173406 
Ti      25.87723541      45.85617075       8.71416703 
Ti      26.37098619      48.18188772      10.30821841 
Ti      26.61136936      42.53966345       8.49937523 
Ti      32.97657163      52.22172736       8.37556492 
Ti      24.44504122      50.41583859      10.87170896 
Ti      25.07478903      43.80949501      10.68745417 
Ti      25.74123624      54.78823130      10.49246589 
Ti      34.72842869      45.17912132       9.60151730 
Ti      29.20969597      49.58236322       9.47767095 
Ti      28.78642637      46.37599894       9.60151234 
Ti      32.55330111      49.01536309       8.49940318 
Ti      32.31310512      43.37322461      10.30819016 
Ti      31.01685030      47.74568340      10.68745017 
Ti      29.94375975      52.89867258       9.26290006 
Ti      26.25110147      50.39128584       8.60478219 
Ti      35.15162787      56.05806286       9.47769941 
Ti      35.51189588      48.20644047       9.37229288 
S      30.59952373      45.16108898      10.80954862 
S      24.65744725      46.39410714      10.80956260 
S      32.10055972      53.43663732      10.37037741 
S      27.62483521      48.06207903       8.20285906 
S      27.42937666      44.36425235       9.99855564 
S      26.15857969      52.20361916      10.37036317 
S      35.27070706      54.23347395      11.18137132 
S      28.19612146      55.10469819       9.77421888 
S      33.37143316      47.19091640       9.99854592 
S      33.56687432      43.49302812       8.20285079 
S      29.32864978      51.40680991      11.18137838 
S      34.13816331      50.53564726       9.77421998 
Ti      42.76620803      31.61366424       5.51132432 
Ti      43.14015557      41.16363191       5.40191452 
Ti      37.98153830      39.33321550       5.17270435 
Ti      42.63020486      36.76665343       7.28962954 
Ti      46.83273211      38.65616608       6.06005648 
Ti      40.51678223      29.26331544       6.16945778 
Ti      41.33394820      41.13911222       7.66888328 
Ti      36.82420581      31.77078128       5.51131624 
Ti      37.31795658      34.09649824       7.10536763 
Ti      37.55833976      28.45427397       5.29652445 
Ti      43.92354203      38.13633789       5.17271414 
Ti      47.27606805      36.33044912       7.66885817 
Ti      36.02175943      29.72410554       7.48460339 
Ti      36.68820663      40.70284181       7.28961511 
Ti      45.67539908      31.09373185       6.39866651 
Ti      40.15666637      35.49697374       6.27482016 
Ti      39.73339676      32.29060947       6.39866155 
Ti      43.50027150      34.92997362       5.29655239 
Ti      43.26007551      29.28783514       7.10533938 
Ti      41.96382069      33.66029392       7.48459938 
Ti      40.89073014      38.81328311       6.06004928 
Ti      37.19807187      36.30589636       5.40193140 
Ti      46.09859827      41.97267339       6.27484863 
Ti      46.45886628      34.12105099       6.16944210 
S      41.54649413      31.07569950       7.60669784 
S      47.48847408      32.30871767       7.60671182 
S      43.04753011      39.35124785       7.16752662 
S      38.57180561      33.97668957       5.00000828 
S      38.37634705      30.27886288       6.79570485 
S      37.10555009      38.11822969       7.16751238 
S      46.21767746      40.14808447       7.97852054 
S      39.14309185      41.01930872       6.57136809 
S      44.31840356      33.10552692       6.79569514 
S      44.51384471      29.40763864       5.00000000 
S      40.27562018      37.32142044       7.97852760 
S      45.08513370      36.45025779       6.57136920 
Ti      43.70329408      31.61366424       8.71417511 
Ti      44.07724161      41.16363191       8.60476531 
Ti      38.91862434      39.33321550       8.37555514 
Ti      43.56729090      36.76665343      10.49248033 
Ti      35.88576172      38.65616608       9.26290727 
Ti      41.45386827      29.26331544       9.37230857 
Ti      42.27103424      41.13911222      10.87173406 
Ti      37.76129185      31.77078128       8.71416703 
Ti      38.25504262      34.09649824      10.30821841 
Ti      38.49542580      28.45427397       8.49937523 
Ti      44.86062807      38.13633789       8.37556492 
Ti      36.32909765      36.33044912      10.87170896 
Ti      36.95884547      29.72410554      10.68745417 
Ti      37.62529267      40.70284181      10.49246589 
Ti      46.61248512      31.09373185       9.60151730 
Ti      41.09375241      35.49697374       9.47767095 
Ti      40.67048280      32.29060947       9.60151234 
Ti      44.43735754      34.92997362       8.49940318 
Ti      44.19716156      29.28783514      10.30819016 
Ti      42.90090673      33.66029392      10.68745017 
Ti      41.82781619      38.81328311       9.26290006 
Ti      38.13515791      36.30589636       8.60478219 
Ti      47.03568431      41.97267339       9.47769941 
Ti      47.39595232      34.12105099       9.37229288 
S      42.48358017      31.07569950      10.80954862 
S      36.54150368      32.30871767      10.80956260 
S      43.98461616      39.35124785      10.37037741 
S      39.50889165      33.97668957       8.20285906 
S      39.31343310      30.27886288       9.99855564 
S      38.04263613      38.11822969      10.37036317 
S      47.15476350      40.14808447      11.18137132 
S      40.08017790      41.01930872       9.77421888 
S      45.25548960      33.10552692       9.99854592 
S      45.45093075      29.40763864       8.20285079 
S      41.21270622      37.32142044      11.18137838 
S      46.02221974      36.45025779       9.77421998 
Ti      42.76620803      45.69905371       5.51132432 
Ti      43.14015557      55.24902138       5.40191452 
Ti      37.98153830      53.41860497       5.17270435 
Ti      42.63020486      50.85204290       7.28962954 
Ti      46.83273211      52.74155555       6.06005648 
Ti      40.51678223      43.34870491       6.16945778 
Ti      41.33394820      55.22450170       7.66888328 
Ti      36.82420581      45.85617075       5.51131624 
Ti      37.31795658      48.18188772       7.10536763 
Ti      37.55833976      42.53966345       5.29652445 
Ti      43.92354203      52.22172736       5.17271414 
Ti      47.27606805      50.41583859       7.66885817 
Ti      36.02175943      43.80949501       7.48460339 
Ti      36.68820663      54.78823130       7.28961511 
Ti      45.67539908      45.17912132       6.39866651 
Ti      40.15666637      49.58236322       6.27482016 
Ti      39.73339676      46.37599894       6.39866155 
Ti      43.50027150      49.01536309       5.29655239 
Ti      43.26007551      43.37322461       7.10533938 
Ti      41.96382069      47.74568340       7.48459938 
Ti      40.89073014      52.89867258       6.06004928 
Ti      37.19807187      50.39128584       5.40193140 
Ti      46.09859827      56.05806286       6.27484863 
Ti      46.45886628      48.20644047       6.16944210 
S      41.54649413      45.16108898       7.60669784 
S      47.48847408      46.39410714       7.60671182 
S      43.04753011      53.43663732       7.16752662 
S      38.57180561      48.06207903       5.00000828 
S      38.37634705      44.36425235       6.79570485 
S      37.10555009      52.20361916       7.16751238 
S      46.21767746      54.23347395       7.97852054 
S      39.14309185      55.10469819       6.57136809 
S      44.31840356      47.19091640       6.79569514 
S      44.51384471      43.49302812       5.00000000 
S      40.27562018      51.40680991       7.97852760 
S      45.08513370      50.53564726       6.57136920 
Ti      43.70329408      45.69905371       8.71417511 
Ti      44.07724161      55.24902138       8.60476531 
Ti      38.91862434      53.41860497       8.37555514 
Ti      43.56729090      50.85204290      10.49248033 
Ti      35.88576172      52.74155555       9.26290727 
Ti      41.45386827      43.34870491       9.37230857 
Ti      42.27103424      55.22450170      10.87173406 
Ti      37.76129185      45.85617075       8.71416703 
Ti      38.25504262      48.18188772      10.30821841 
Ti      38.49542580      42.53966345       8.49937523 
Ti      44.86062807      52.22172736       8.37556492 
Ti      36.32909765      50.41583859      10.87170896 
Ti      36.95884547      43.80949501      10.68745417 
Ti      37.62529267      54.78823130      10.49246589 
Ti      46.61248512      45.17912132       9.60151730 
Ti      41.09375241      49.58236322       9.47767095 
Ti      40.67048280      46.37599894       9.60151234 
Ti      44.43735754      49.01536309       8.49940318 
Ti      44.19716156      43.37322461      10.30819016 
Ti      42.90090673      47.74568340      10.68745017 
Ti      41.82781619      52.89867258       9.26290006 
Ti      38.13515791      50.39128584       8.60478219 
Ti      47.03568431      56.05806286       9.47769941 
Ti      47.39595232      48.20644047       9.37229288 
S      42.48358017      45.16108898      10.80954862 
S      36.54150368      46.39410714      10.80956260 
S      43.98461616      53.43663732      10.37037741 
S      39.50889165      48.06207903       8.20285906 
S      39.31343310      44.36425235       9.99855564 
S      38.04263613      52.20361916      10.37036317 
S      47.15476350      54.23347395      11.18137132 
S      40.08017790      55.10469819       9.77421888 
S      45.25548960      47.19091640       9.99854592 
S      45.45093075      43.49302812       8.20285079 
S      41.21270622      51.40680991      11.18137838 
S      46.02221974      50.53564726       9.77421998 
