512
Lattice="37.9993376096 0.0 0.0 1.120058572182e-15 18.2919446319 0.0 0.0 0.0 18.6388208668" Properties=species:S:1:pos:R:3 unit_cell=conventional pbc="T T F"
V       1.29800496       3.91080005      13.63500712 
V       3.27905133       3.91806041      11.65108372 
V       2.32494038       1.63156016      12.60518883 
V       2.32851718       4.02808238       6.90484114 
V       1.78001417       0.53904021       9.75189702 
V       0.42834755       2.82643409       8.40178958 
V       0.42564486       2.82551892      11.10564770 
V       8.57472333       0.53989865       9.75465545 
V       1.30148227       1.73878416       5.87780623 
V       6.04812816       1.62482766       8.88482422 
V       9.05868316       3.91080005       5.87432892 
V       4.31236320       4.02378300       8.88868716 
V       8.03320518       4.02648918      12.60952914 
V       8.02886488       1.63156016       6.90126433 
V       7.07475976       3.91806041       7.85537529 
V       7.07839142       1.74150766      11.65471538 
V       6.52932374       2.82551892       5.00196882 
V       5.17833149       0.53989865      13.15104729 
V       5.17557306       0.53904021       6.35633813 
V       3.82546562       2.82643409       5.00467151 
V       6.05160015       4.02488675      10.62792411 
V       3.28341791       1.73991081       7.85974187 
V       4.30850026       1.62482766      10.62445211 
V       9.06249691       1.73776842      13.63882087 
S       7.92017724       2.82315896       9.75011176 
S       0.42979680       0.53630794      11.76086505 
S       0.42367604       0.53668300       7.74642667 
S       2.43435866       2.82281349       9.75586612 
S       3.17010271       0.53668300       5.00000000 
S       5.17954216       2.82281349       7.01068262 
S       5.17378780       2.82315896      12.49650120 
S       7.18454109       0.53630794       5.00612076 
V       3.28341791       6.31289697       7.85974187 
V       3.27905133       8.49104657      11.65108372 
V       2.32494038       6.20454631      12.60518883 
V       2.32851718       8.60106854       6.90484114 
V       1.78001417       5.11202637       9.75189702 
V       0.42834755       7.39942025       8.40178958 
V       0.42564486       7.39850508      11.10564770 
V       8.57472333       5.11288481       9.75465545 
V       1.30148227       6.31177032       5.87780623 
V       6.04812816       6.19781382       8.88482422 
V       9.05868316       8.48378620       5.87432892 
V       4.31236320       8.59676916       8.88868716 
V       8.03320518       8.59947534      12.60952914 
V       8.02886488       6.20454631       6.90126433 
V       7.07475976       8.49104657       7.85537529 
V       7.07839142       6.31449382      11.65471538 
V       6.52932374       7.39850508       5.00196882 
V       5.17833149       5.11288481      13.15104729 
V       5.17557306       5.11202637       6.35633813 
V       3.82546562       7.39942025       5.00467151 
V       6.05160015       8.59787291      10.62792411 
V       1.29800496       8.48378620      13.63500712 
V       4.30850026       6.19781382      10.62445211 
V       9.06249691       6.31075458      13.63882087 
S       7.92017724       7.39614512       9.75011176 
S       0.42979680       5.10929410      11.76086505 
S       0.42367604       5.10966915       7.74642667 
S       2.43435866       7.39579964       9.75586612 
S       3.17010271       5.10966915       5.00000000 
S       5.17954216       7.39579964       7.01068262 
S       5.17378780       7.39614512      12.49650120 
S       7.18454109       5.10929410       5.00612076 
V      12.78325231       1.73991081       7.85974187 
V      12.77888573       3.91806041      11.65108372 
V      11.82477478       1.63156016      12.60518883 
V      11.82835158       4.02808238       6.90484114 
V      11.27984857       0.53904021       9.75189702 
V       9.92818195       2.82643409       8.40178958 
V       9.92547927       2.82551892      11.10564770 
V      18.07455773       0.53989865       9.75465545 
V      10.80131667       1.73878416       5.87780623 
V      15.54796256       1.62482766       8.88482422 
V      18.55851756       3.91080005       5.87432892 
V      13.81219760       4.02378300       8.88868716 
V      17.53303958       4.02648918      12.60952914 
V      17.52869928       1.63156016       6.90126433 
V      16.57459416       3.91806041       7.85537529 
V      16.57822582       1.74150766      11.65471538 
V      16.02915814       2.82551892       5.00196882 
V      14.67816590       0.53989865      13.15104729 
V      14.67540746       0.53904021       6.35633813 
V      13.32530003       2.82643409       5.00467151 
V      15.55143455       4.02488675      10.62792411 
V      10.79783937       3.91080005      13.63500712 
V      13.80833467       1.62482766      10.62445211 
V      18.56233131       1.73776842      13.63882087 
S      17.42001165       2.82315896       9.75011176 
S       9.92963120       0.53630794      11.76086505 
S       9.92351044       0.53668300       7.74642667 
S      11.93419306       2.82281349       9.75586612 
S      12.66993711       0.53668300       5.00000000 
S      14.67937656       2.82281349       7.01068262 
S      14.67362220       2.82315896      12.49650120 
S      16.68437549       0.53630794       5.00612076 
V      12.78325231       6.31289697       7.85974187 
V      12.77888573       8.49104657      11.65108372 
V      11.82477478       6.20454631      12.60518883 
V      11.82835158       8.60106854       6.90484114 
V      11.27984857       5.11202637       9.75189702 
V       9.92818195       7.39942025       8.40178958 
V       9.92547927       7.39850508      11.10564770 
V      18.07455773       5.11288481       9.75465545 
V      10.80131667       6.31177032       5.87780623 
V      15.54796256       6.19781382       8.88482422 
V      18.55851756       8.48378620       5.87432892 
V      13.81219760       8.59676916       8.88868716 
V      17.53303958       8.59947534      12.60952914 
V      17.52869928       6.20454631       6.90126433 
V      16.57459416       8.49104657       7.85537529 
V      16.57822582       6.31449382      11.65471538 
V      16.02915814       7.39850508       5.00196882 
V      14.67816590       5.11288481      13.15104729 
V      14.67540746       5.11202637       6.35633813 
V      13.32530003       7.39942025       5.00467151 
V      15.55143455       8.59787291      10.62792411 
V      10.79783937       8.48378620      13.63500712 
V      13.80833467       6.19781382      10.62445211 
V      18.56233131       6.31075458      13.63882087 
S      17.42001165       7.39614512       9.75011176 
S       9.92963120       5.10929410      11.76086505 
S       9.92351044       5.10966915       7.74642667 
S      11.93419306       7.39579964       9.75586612 
S      12.66993711       5.10966915       5.00000000 
S      14.67937656       7.39579964       7.01068262 
S      14.67362220       7.39614512      12.49650120 
S      16.68437549       5.10929410       5.00612076 
V       3.28341791      10.88588313       7.85974187 
V       3.27905133      13.06403273      11.65108372 
V       2.32494038      10.77753248      12.60518883 
V       2.32851718      13.17405470       6.90484114 
V       1.78001417       9.68501253       9.75189702 
V       0.42834755      11.97240641       8.40178958 
V       0.42564486      11.97149124      11.10564770 
V       8.57472333       9.68587097       9.75465545 
V       1.30148227      10.88475648       5.87780623 
V       6.04812816      10.77079998       8.88482422 
V       9.05868316      13.05677237       5.87432892 
V       4.31236320      13.16975532       8.88868716 
V       8.03320518      13.17246150      12.60952914 
V       8.02886488      10.77753248       6.90126433 
V       7.07475976      13.06403273       7.85537529 
V       7.07839142      10.88747998      11.65471538 
V       6.52932374      11.97149124       5.00196882 
V       5.17833149       9.68587097      13.15104729 
V       5.17557306       9.68501253       6.35633813 
V       3.82546562      11.97240641       5.00467151 
V       6.05160015      13.17085907      10.62792411 
V       1.29800496      13.05677237      13.63500712 
V       4.30850026      10.77079998      10.62445211 
V       9.06249691      10.88374074      13.63882087 
S       7.92017724      11.96913128       9.75011176 
S       0.42979680       9.68228026      11.76086505 
S       0.42367604       9.68265532       7.74642667 
S       2.43435866      11.96878581       9.75586612 
S       3.17010271       9.68265532       5.00000000 
S       5.17954216      11.96878581       7.01068262 
S       5.17378780      11.96913128      12.49650120 
S       7.18454109       9.68228026       5.00612076 
V       3.28341791      15.45886929       7.85974187 
V       3.27905133      17.63701889      11.65108372 
V       2.32494038      15.35051863      12.60518883 
V       2.32851718      17.74704086       6.90484114 
V       1.78001417      14.25799869       9.75189702 
V       0.42834755      16.54539257       8.40178958 
V       0.42564486      16.54447740      11.10564770 
V       8.57472333      14.25885713       9.75465545 
V       1.30148227      15.45774264       5.87780623 
V       6.04812816      15.34378614       8.88482422 
V       9.05868316      17.62975852       5.87432892 
V       4.31236320      17.74274148       8.88868716 
V       8.03320518      17.74544766      12.60952914 
V       8.02886488      15.35051863       6.90126433 
V       7.07475976      17.63701889       7.85537529 
V       7.07839142      15.46046614      11.65471538 
V       6.52932374      16.54447740       5.00196882 
V       5.17833149      14.25885713      13.15104729 
V       5.17557306      14.25799869       6.35633813 
V       3.82546562      16.54539257       5.00467151 
V       6.05160015      17.74384523      10.62792411 
V       1.29800496      17.62975852      13.63500712 
V       4.30850026      15.34378614      10.62445211 
V       9.06249691      15.45672690      13.63882087 
S       7.92017724      16.54211744       9.75011176 
S       0.42979680      14.25526642      11.76086505 
S       0.42367604      14.25564147       7.74642667 
S       2.43435866      16.54177196       9.75586612 
S       3.17010271      14.25564147       5.00000000 
S       5.17954216      16.54177196       7.01068262 
S       5.17378780      16.54211744      12.49650120 
S       7.18454109      14.25526642       5.00612076 
V      12.78325231      10.88588313       7.85974187 
V      12.77888573      13.06403273      11.65108372 
V      11.82477478      10.77753248      12.60518883 
V      11.82835158      13.17405470       6.90484114 
V      11.27984857       9.68501253       9.75189702 
V       9.92818195      11.97240641       8.40178958 
V       9.92547927      11.97149124      11.10564770 
V      18.07455773       9.68587097       9.75465545 
V      10.80131667      10.88475648       5.87780623 
V      15.54796256      10.77079998       8.88482422 
V      18.55851756      13.05677237       5.87432892 
V      13.81219760      13.16975532       8.88868716 
V      17.53303958      13.17246150      12.60952914 
V      17.52869928      10.77753248       6.90126433 
V      16.57459416      13.06403273       7.85537529 
V      16.57822582      10.88747998      11.65471538 
V      16.02915814      11.97149124       5.00196882 
V      14.67816590       9.68587097      13.15104729 
V      14.67540746       9.68501253       6.35633813 
V      13.32530003      11.97240641       5.00467151 
V      15.55143455      13.17085907      10.62792411 
V      10.79783937      13.05677237      13.63500712 
V      13.80833467      10.77079998      10.62445211 
V      18.56233131      10.88374074      13.63882087 
S      17.42001165      11.96913128       9.75011176 
S       9.92963120       9.68228026      11.76086505 
S       9.92351044       9.68265532       7.74642667 
S      11.93419306      11.96878581       9.75586612 
S      12.66993711       9.68265532       5.00000000 
S      14.67937656      11.96878581       7.01068262 
S      14.67362220      11.96913128      12.49650120 
S      16.68437549       9.68228026       5.00612076 
V      12.78325231      15.45886929       7.85974187 
V      12.77888573      17.63701889      11.65108372 
V      11.82477478      15.35051863      12.60518883 
V      11.82835158      17.74704086       6.90484114 
V      11.27984857      14.25799869       9.75189702 
V       9.92818195      16.54539257       8.40178958 
V       9.92547927      16.54447740      11.10564770 
V      18.07455773      14.25885713       9.75465545 
V      10.80131667      15.45774264       5.87780623 
V      15.54796256      15.34378614       8.88482422 
V      18.55851756      17.62975852       5.87432892 
V      13.81219760      17.74274148       8.88868716 
V      17.53303958      17.74544766      12.60952914 
V      17.52869928      15.35051863       6.90126433 
V      16.57459416      17.63701889       7.85537529 
V      16.57822582      15.46046614      11.65471538 
V      16.02915814      16.54447740       5.00196882 
V      14.67816590      14.25885713      13.15104729 
V      14.67540746      14.25799869       6.35633813 
V      13.32530003      16.54539257       5.00467151 
V      15.55143455      17.74384523      10.62792411 
V      10.79783937      17.62975852      13.63500712 
V      13.80833467      15.34378614      10.62445211 
V      18.56233131      15.45672690      13.63882087 
S      17.42001165      16.54211744       9.75011176 
S       9.92963120      14.25526642      11.76086505 
S       9.92351044      14.25564147       7.74642667 
S      11.93419306      16.54177196       9.75586612 
S      12.66993711      14.25564147       5.00000000 
S      14.67937656      16.54177196       7.01068262 
S      14.67362220      16.54211744      12.49650120 
S      16.68437549      14.25526642       5.00612076 
V      22.28308671       1.73991081       7.85974187 
V      22.27872013       3.91806041      11.65108372 
V      21.32460918       1.63156016      12.60518883 
V      21.32818598       4.02808238       6.90484114 
V      20.77968297       0.53904021       9.75189702 
V      19.42801635       2.82643409       8.40178958 
V      19.42531366       2.82551892      11.10564770 
V      27.57439213       0.53989865       9.75465545 
V      20.30115107       1.73878416       5.87780623 
V      25.04779696       1.62482766       8.88482422 
V      28.05835196       3.91080005       5.87432892 
V      23.31203200       4.02378300       8.88868716 
V      27.03287398       4.02648918      12.60952914 
V      27.02853368       1.63156016       6.90126433 
V      26.07442856       3.91806041       7.85537529 
V      26.07806022       1.74150766      11.65471538 
V      25.52899254       2.82551892       5.00196882 
V      24.17800029       0.53989865      13.15104729 
V      24.17524186       0.53904021       6.35633813 
V      22.82513442       2.82643409       5.00467151 
V      25.05126895       4.02488675      10.62792411 
V      20.29767376       3.91080005      13.63500712 
V      23.30816906       1.62482766      10.62445211 
V      28.06216571       1.73776842      13.63882087 
S      26.91984604       2.82315896       9.75011176 
S      19.42946560       0.53630794      11.76086505 
S      19.42334484       0.53668300       7.74642667 
S      21.43402746       2.82281349       9.75586612 
S      22.16977151       0.53668300       5.00000000 
S      24.17921096       2.82281349       7.01068262 
S      24.17345660       2.82315896      12.49650120 
S      26.18420989       0.53630794       5.00612076 
V      22.28308671       6.31289697       7.85974187 
V      22.27872013       8.49104657      11.65108372 
V      21.32460918       6.20454631      12.60518883 
V      21.32818598       8.60106854       6.90484114 
V      20.77968297       5.11202637       9.75189702 
V      19.42801635       7.39942025       8.40178958 
V      19.42531366       7.39850508      11.10564770 
V      27.57439213       5.11288481       9.75465545 
V      20.30115107       6.31177032       5.87780623 
V      25.04779696       6.19781382       8.88482422 
V      28.05835196       8.48378620       5.87432892 
V      23.31203200       8.59676916       8.88868716 
V      27.03287398       8.59947534      12.60952914 
V      27.02853368       6.20454631       6.90126433 
V      26.07442856       8.49104657       7.85537529 
V      26.07806022       6.31449382      11.65471538 
V      25.52899254       7.39850508       5.00196882 
V      24.17800029       5.11288481      13.15104729 
V      24.17524186       5.11202637       6.35633813 
V      22.82513442       7.39942025       5.00467151 
V      25.05126895       8.59787291      10.62792411 
V      20.29767376       8.48378620      13.63500712 
V      23.30816906       6.19781382      10.62445211 
V      28.06216571       6.31075458      13.63882087 
S      26.91984604       7.39614512       9.75011176 
S      19.42946560       5.10929410      11.76086505 
S      19.42334484       5.10966915       7.74642667 
S      21.43402746       7.39579964       9.75586612 
S      22.16977151       5.10966915       5.00000000 
S      24.17921096       7.39579964       7.01068262 
S      24.17345660       7.39614512      12.49650120 
S      26.18420989       5.10929410       5.00612076 
V      31.78292111       1.73991081       7.85974187 
V      31.77855453       3.91806041      11.65108372 
V      30.82444358       1.63156016      12.60518883 
V      30.82802038       4.02808238       6.90484114 
V      30.27951737       0.53904021       9.75189702 
V      28.92785075       2.82643409       8.40178958 
V      28.92514807       2.82551892      11.10564770 
V      37.07422653       0.53989865       9.75465545 
V      29.80098547       1.73878416       5.87780623 
V      34.54763136       1.62482766       8.88482422 
V      37.55818636       3.91080005       5.87432892 
V      32.81186640       4.02378300       8.88868716 
V      36.53270838       4.02648918      12.60952914 
V      36.52836808       1.63156016       6.90126433 
V      35.57426296       3.91806041       7.85537529 
V      35.57789462       1.74150766      11.65471538 
V      35.02882694       2.82551892       5.00196882 
V      33.67783470       0.53989865      13.15104729 
V      33.67507626       0.53904021       6.35633813 
V      32.32496883       2.82643409       5.00467151 
V      34.55110335       4.02488675      10.62792411 
V      29.79750817       3.91080005      13.63500712 
V      32.80800347       1.62482766      10.62445211 
V      37.56200011       1.73776842      13.63882087 
S      36.41968045       2.82315896       9.75011176 
S      28.92930000       0.53630794      11.76086505 
S      28.92317924       0.53668300       7.74642667 
S      30.93386186       2.82281349       9.75586612 
S      31.66960591       0.53668300       5.00000000 
S      33.67904536       2.82281349       7.01068262 
S      33.67329100       2.82315896      12.49650120 
S      35.68404429       0.53630794       5.00612076 
V      31.78292111       6.31289697       7.85974187 
V      31.77855453       8.49104657      11.65108372 
V      30.82444358       6.20454631      12.60518883 
V      30.82802038       8.60106854       6.90484114 
V      30.27951737       5.11202637       9.75189702 
V      28.92785075       7.39942025       8.40178958 
V      28.92514807       7.39850508      11.10564770 
V      37.07422653       5.11288481       9.75465545 
V      29.80098547       6.31177032       5.87780623 
V      34.54763136       6.19781382       8.88482422 
V      37.55818636       8.48378620       5.87432892 
V      32.81186640       8.59676916       8.88868716 
V      36.53270838       8.59947534      12.60952914 
V      36.52836808       6.20454631       6.90126433 
V      35.57426296       8.49104657       7.85537529 
V      35.57789462       6.31449382      11.65471538 
V      35.02882694       7.39850508       5.00196882 
V      33.67783470       5.11288481      13.15104729 
V      33.67507626       5.11202637       6.35633813 
V      32.32496883       7.39942025       5.00467151 
V      34.55110335       8.59787291      10.62792411 
V      29.79750817       8.48378620      13.63500712 
V      32.80800347       6.19781382      10.62445211 
V      37.56200011       6.31075458      13.63882087 
S      36.41968045       7.39614512       9.75011176 
S      28.92930000       5.10929410      11.76086505 
S      28.92317924       5.10966915       7.74642667 
S      30.93386186       7.39579964       9.75586612 
S      31.66960591       5.10966915       5.00000000 
S      33.67904536       7.39579964       7.01068262 
S      33.67329100       7.39614512      12.49650120 
S      35.68404429       5.10929410       5.00612076 
V      22.28308671      10.88588313       7.85974187 
V      22.27872013      13.06403273      11.65108372 
V      21.32460918      10.77753248      12.60518883 
V      21.32818598      13.17405470       6.90484114 
V      20.77968297       9.68501253       9.75189702 
V      19.42801635      11.97240641       8.40178958 
V      19.42531366      11.97149124      11.10564770 
V      27.57439213       9.68587097       9.75465545 
V      20.30115107      10.88475648       5.87780623 
V      25.04779696      10.77079998       8.88482422 
V      28.05835196      13.05677237       5.87432892 
V      23.31203200      13.16975532       8.88868716 
V      27.03287398      13.17246150      12.60952914 
V      27.02853368      10.77753248       6.90126433 
V      26.07442856      13.06403273       7.85537529 
V      26.07806022      10.88747998      11.65471538 
V      25.52899254      11.97149124       5.00196882 
V      24.17800029       9.68587097      13.15104729 
V      24.17524186       9.68501253       6.35633813 
V      22.82513442      11.97240641       5.00467151 
V      25.05126895      13.17085907      10.62792411 
V      20.29767376      13.05677237      13.63500712 
V      23.30816906      10.77079998      10.62445211 
V      28.06216571      10.88374074      13.63882087 
S      26.91984604      11.96913128       9.75011176 
S      19.42946560       9.68228026      11.76086505 
S      19.42334484       9.68265532       7.74642667 
S      21.43402746      11.96878581       9.75586612 
S      22.16977151       9.68265532       5.00000000 
S      24.17921096      11.96878581       7.01068262 
S      24.17345660      11.96913128      12.49650120 
S      26.18420989       9.68228026       5.00612076 
V      22.28308671      15.45886929       7.85974187 
V      22.27872013      17.63701889      11.65108372 
V      21.32460918      15.35051863      12.60518883 
V      21.32818598      17.74704086       6.90484114 
V      20.77968297      14.25799869       9.75189702 
V      19.42801635      16.54539257       8.40178958 
V      19.42531366      16.54447740      11.10564770 
V      27.57439213      14.25885713       9.75465545 
V      20.30115107      15.45774264       5.87780623 
V      25.04779696      15.34378614       8.88482422 
V      28.05835196      17.62975852       5.87432892 
V      23.31203200      17.74274148       8.88868716 
V      27.03287398      17.74544766      12.60952914 
V      27.02853368      15.35051863       6.90126433 
V      26.07442856      17.63701889       7.85537529 
V      26.07806022      15.46046614      11.65471538 
V      25.52899254      16.54447740       5.00196882 
V      24.17800029      14.25885713      13.15104729 
V      24.17524186      14.25799869       6.35633813 
V      22.82513442      16.54539257       5.00467151 
V      25.05126895      17.74384523      10.62792411 
V      20.29767376      17.62975852      13.63500712 
V      23.30816906      15.34378614      10.62445211 
V      28.06216571      15.45672690      13.63882087 
S      26.91984604      16.54211744       9.75011176 
S      19.42946560      14.25526642      11.76086505 
S      19.42334484      14.25564147       7.74642667 
S      21.43402746      16.54177196       9.75586612 
S      22.16977151      14.25564147       5.00000000 
S      24.17921096      16.54177196       7.01068262 
S      24.17345660      16.54211744      12.49650120 
S      26.18420989      14.25526642       5.00612076 
V      31.78292111      10.88588313       7.85974187 
V      31.77855453      13.06403273      11.65108372 
V      30.82444358      10.77753248      12.60518883 
V      30.82802038      13.17405470       6.90484114 
V      30.27951737       9.68501253       9.75189702 
V      28.92785075      11.97240641       8.40178958 
V      28.92514807      11.97149124      11.10564770 
V      37.07422653       9.68587097       9.75465545 
V      29.80098547      10.88475648       5.87780623 
V      34.54763136      10.77079998       8.88482422 
V      37.55818636      13.05677237       5.87432892 
V      32.81186640      13.16975532       8.88868716 
V      36.53270838      13.17246150      12.60952914 
V      36.52836808      10.77753248       6.90126433 
V      35.57426296      13.06403273       7.85537529 
V      35.57789462      10.88747998      11.65471538 
V      35.02882694      11.97149124       5.00196882 
V      33.67783470       9.68587097      13.15104729 
V      33.67507626       9.68501253       6.35633813 
V      32.32496883      11.97240641       5.00467151 
V      34.55110335      13.17085907      10.62792411 
V      29.79750817      13.05677237      13.63500712 
V      32.80800347      10.77079998      10.62445211 
V      37.56200011      10.88374074      13.63882087 
S      36.41968045      11.96913128       9.75011176 
S      28.92930000       9.68228026      11.76086505 
S      28.92317924       9.68265532       7.74642667 
S      30.93386186      11.96878581       9.75586612 
S      31.66960591       9.68265532       5.00000000 
S      33.67904536      11.96878581       7.01068262 
S      33.67329100      11.96913128      12.49650120 
S      35.68404429       9.68228026       5.00612076 
V      31.78292111      15.45886929       7.85974187 
V      31.77855453      17.63701889      11.65108372 
V      30.82444358      15.35051863      12.60518883 
V      30.82802038      17.74704086       6.90484114 
V      30.27951737      14.25799869       9.75189702 
V      28.92785075      16.54539257       8.40178958 
V      28.92514807      16.54447740      11.10564770 
V      37.07422653      14.25885713       9.75465545 
V      29.80098547      15.45774264       5.87780623 
V      34.54763136      15.34378614       8.88482422 
V      37.55818636      17.62975852       5.87432892 
V      32.81186640      17.74274148       8.88868716 
V      36.53270838      17.74544766      12.60952914 
V      36.52836808      15.35051863       6.90126433 
V      35.57426296      17.63701889       7.85537529 
V      35.57789462      15.46046614      11.65471538 
V      35.02882694      16.54447740       5.00196882 
V      33.67783470      14.25885713      13.15104729 
V      33.67507626      14.25799869       6.35633813 
V      32.32496883      16.54539257       5.00467151 
V      34.55110335      17.74384523      10.62792411 
V      29.79750817      17.62975852      13.63500712 
V      32.80800347      15.34378614      10.62445211 
V      37.56200011      15.45672690      13.63882087 
S      36.41968045      16.54211744       9.75011176 
S      28.92930000      14.25526642      11.76086505 
S      28.92317924      14.25564147       7.74642667 
S      30.93386186      16.54177196       9.75586612 
S      31.66960591      14.25564147       5.00000000 
S      33.67904536      16.54177196       7.01068262 
S      33.67329100      16.54211744      12.49650120 
S      35.68404429      14.25526642       5.00612076 
