512
Lattice="45.5367319544 0.0 0.0 0.0 25.8505440664 0.0 0.0 0.0 14.9294958347" Properties=species:S:1:pos:R:3 unit_cell=conventional pbc="T T F"
Ti       3.32038765       2.42348851       9.92949583 
S      10.90984108       0.80782950       6.64316528 
Ti       9.01247915       2.42348851       6.64316528 
S       2.37170384       0.80782950       5.00000000 
Ti       3.32038765       2.42348851       6.64316528 
S       8.06379533       0.80782950       5.00000000 
Ti       6.16643340       2.42348851       5.00000000 
S       5.21774959       0.80782950       6.64316528 
Ti       6.16643340       2.42348851       8.28633056 
S       5.21774959       0.80782950       9.92949583 
Ti       0.47434191       2.42348851       5.00000000 
S       8.06379533       0.80782950       8.28633056 
Ti       9.01247915       2.42348851       9.92949583 
S       2.37170384       0.80782950       8.28633056 
Ti       0.47434191       2.42348851       8.28633056 
S      10.90984108       0.80782950       9.92949583 
Ti       0.47434191       5.65480651       5.00000000 
S      10.90984108       4.03914751       6.64316528 
Ti       9.01247915       5.65480651       6.64316528 
S       2.37170384       4.03914751       5.00000000 
Ti       3.32038765       5.65480651       6.64316528 
S       8.06379533       4.03914751       5.00000000 
Ti       6.16643340       5.65480651       5.00000000 
S       5.21774959       4.03914751       6.64316528 
Ti       6.16643340       5.65480651       8.28633056 
S       5.21774959       4.03914751       9.92949583 
Ti       3.32038765       5.65480651       9.92949583 
S       8.06379533       4.03914751       8.28633056 
Ti       9.01247915       5.65480651       9.92949583 
S       2.37170384       4.03914751       8.28633056 
Ti       0.47434191       5.65480651       8.28633056 
S      10.90984108       4.03914751       9.92949583 
Ti       0.47434191       8.88612452       5.00000000 
S      10.90984108       7.27046552       6.64316528 
Ti       9.01247915       8.88612452       6.64316528 
S       2.37170384       7.27046552       5.00000000 
Ti       3.32038765       8.88612452       6.64316528 
S       8.06379533       7.27046552       5.00000000 
Ti       6.16643340       8.88612452       5.00000000 
S       5.21774959       7.27046552       6.64316528 
Ti       6.16643340       8.88612452       8.28633056 
S       5.21774959       7.27046552       9.92949583 
Ti       3.32038765       8.88612452       9.92949583 
S       8.06379533       7.27046552       8.28633056 
Ti       9.01247915       8.88612452       9.92949583 
S       2.37170384       7.27046552       8.28633056 
Ti       0.47434191       8.88612452       8.28633056 
S      10.90984108       7.27046552       9.92949583 
Ti       0.47434191      12.11744253       5.00000000 
S      10.90984108      10.50178353       6.64316528 
Ti       9.01247915      12.11744253       6.64316528 
S       2.37170384      10.50178353       5.00000000 
Ti       3.32038765      12.11744253       6.64316528 
S       8.06379533      10.50178353       5.00000000 
Ti       6.16643340      12.11744253       5.00000000 
S       5.21774959      10.50178353       6.64316528 
Ti       6.16643340      12.11744253       8.28633056 
S       5.21774959      10.50178353       9.92949583 
Ti       3.32038765      12.11744253       9.92949583 
S       8.06379533      10.50178353       8.28633056 
Ti       9.01247915      12.11744253       9.92949583 
S       2.37170384      10.50178353       8.28633056 
Ti       0.47434191      12.11744253       8.28633056 
S      10.90984108      10.50178353       9.92949583 
Ti      11.85852490       2.42348851       5.00000000 
S      22.29402407       0.80782950       6.64316528 
Ti      20.39666214       2.42348851       6.64316528 
S      13.75588683       0.80782950       5.00000000 
Ti      14.70457064       2.42348851       6.64316528 
S      19.44797832       0.80782950       5.00000000 
Ti      17.55061639       2.42348851       5.00000000 
S      16.60193258       0.80782950       6.64316528 
Ti      17.55061639       2.42348851       8.28633056 
S      16.60193258       0.80782950       9.92949583 
Ti      14.70457064       2.42348851       9.92949583 
S      19.44797832       0.80782950       8.28633056 
Ti      20.39666214       2.42348851       9.92949583 
S      13.75588683       0.80782950       8.28633056 
Ti      11.85852490       2.42348851       8.28633056 
S      22.29402407       0.80782950       9.92949583 
Ti      11.85852490       5.65480651       5.00000000 
S      22.29402407       4.03914751       6.64316528 
Ti      20.39666214       5.65480651       6.64316528 
S      13.75588683       4.03914751       5.00000000 
Ti      14.70457064       5.65480651       6.64316528 
S      19.44797832       4.03914751       5.00000000 
Ti      17.55061639       5.65480651       5.00000000 
S      16.60193258       4.03914751       6.64316528 
Ti      17.55061639       5.65480651       8.28633056 
S      16.60193258       4.03914751       9.92949583 
Ti      14.70457064       5.65480651       9.92949583 
S      19.44797832       4.03914751       8.28633056 
Ti      20.39666214       5.65480651       9.92949583 
S      13.75588683       4.03914751       8.28633056 
Ti      11.85852490       5.65480651       8.28633056 
S      22.29402407       4.03914751       9.92949583 
Ti      11.85852490       8.88612452       5.00000000 
S      22.29402407       7.27046552       6.64316528 
Ti      20.39666214       8.88612452       6.64316528 
S      13.75588683       7.27046552       5.00000000 
Ti      14.70457064       8.88612452       6.64316528 
S      19.44797832       7.27046552       5.00000000 
Ti      17.55061639       8.88612452       5.00000000 
S      16.60193258       7.27046552       6.64316528 
Ti      17.55061639       8.88612452       8.28633056 
S      16.60193258       7.27046552       9.92949583 
Ti      14.70457064       8.88612452       9.92949583 
S      19.44797832       7.27046552       8.28633056 
Ti      20.39666214       8.88612452       9.92949583 
S      13.75588683       7.27046552       8.28633056 
Ti      11.85852490       8.88612452       8.28633056 
S      22.29402407       7.27046552       9.92949583 
Ti      11.85852490      12.11744253       5.00000000 
S      22.29402407      10.50178353       6.64316528 
Ti      20.39666214      12.11744253       6.64316528 
S      13.75588683      10.50178353       5.00000000 
Ti      14.70457064      12.11744253       6.64316528 
S      19.44797832      10.50178353       5.00000000 
Ti      17.55061639      12.11744253       5.00000000 
S      16.60193258      10.50178353       6.64316528 
Ti      17.55061639      12.11744253       8.28633056 
S      16.60193258      10.50178353       9.92949583 
Ti      14.70457064      12.11744253       9.92949583 
S      19.44797832      10.50178353       8.28633056 
Ti      20.39666214      12.11744253       9.92949583 
S      13.75588683      10.50178353       8.28633056 
Ti      11.85852490      12.11744253       8.28633056 
S      22.29402407      10.50178353       9.92949583 
Ti       0.47434191      15.34876054       5.00000000 
S      10.90984108      13.73310153       6.64316528 
Ti       9.01247915      15.34876054       6.64316528 
S       2.37170384      13.73310153       5.00000000 
Ti       3.32038765      15.34876054       6.64316528 
S       8.06379533      13.73310153       5.00000000 
Ti       6.16643340      15.34876054       5.00000000 
S       5.21774959      13.73310153       6.64316528 
Ti       6.16643340      15.34876054       8.28633056 
S       5.21774959      13.73310153       9.92949583 
Ti       3.32038765      15.34876054       9.92949583 
S       8.06379533      13.73310153       8.28633056 
Ti       9.01247915      15.34876054       9.92949583 
S       2.37170384      13.73310153       8.28633056 
Ti       0.47434191      15.34876054       8.28633056 
S      10.90984108      13.73310153       9.92949583 
Ti       0.47434191      18.58007854       5.00000000 
S      10.90984108      16.96441954       6.64316528 
Ti       9.01247915      18.58007854       6.64316528 
S       2.37170384      16.96441954       5.00000000 
Ti       3.32038765      18.58007854       6.64316528 
S       8.06379533      16.96441954       5.00000000 
Ti       6.16643340      18.58007854       5.00000000 
S       5.21774959      16.96441954       6.64316528 
Ti       6.16643340      18.58007854       8.28633056 
S       5.21774959      16.96441954       9.92949583 
Ti       3.32038765      18.58007854       9.92949583 
S       8.06379533      16.96441954       8.28633056 
Ti       9.01247915      18.58007854       9.92949583 
S       2.37170384      16.96441954       8.28633056 
Ti       0.47434191      18.58007854       8.28633056 
S      10.90984108      16.96441954       9.92949583 
Ti       0.47434191      21.81139655       5.00000000 
S      10.90984108      20.19573755       6.64316528 
Ti       9.01247915      21.81139655       6.64316528 
S       2.37170384      20.19573755       5.00000000 
Ti       3.32038765      21.81139655       6.64316528 
S       8.06379533      20.19573755       5.00000000 
Ti       6.16643340      21.81139655       5.00000000 
S       5.21774959      20.19573755       6.64316528 
Ti       6.16643340      21.81139655       8.28633056 
S       5.21774959      20.19573755       9.92949583 
Ti       3.32038765      21.81139655       9.92949583 
S       8.06379533      20.19573755       8.28633056 
Ti       9.01247915      21.81139655       9.92949583 
S       2.37170384      20.19573755       8.28633056 
Ti       0.47434191      21.81139655       8.28633056 
S      10.90984108      20.19573755       9.92949583 
Ti       0.47434191      25.04271456       5.00000000 
S      10.90984108      23.42705556       6.64316528 
Ti       9.01247915      25.04271456       6.64316528 
S       2.37170384      23.42705556       5.00000000 
Ti       3.32038765      25.04271456       6.64316528 
S       8.06379533      23.42705556       5.00000000 
Ti       6.16643340      25.04271456       5.00000000 
S       5.21774959      23.42705556       6.64316528 
Ti       6.16643340      25.04271456       8.28633056 
S       5.21774959      23.42705556       9.92949583 
Ti       3.32038765      25.04271456       9.92949583 
S       8.06379533      23.42705556       8.28633056 
Ti       9.01247915      25.04271456       9.92949583 
S       2.37170384      23.42705556       8.28633056 
Ti       0.47434191      25.04271456       8.28633056 
S      10.90984108      23.42705556       9.92949583 
Ti      11.85852490      15.34876054       5.00000000 
S      22.29402407      13.73310153       6.64316528 
Ti      20.39666214      15.34876054       6.64316528 
S      13.75588683      13.73310153       5.00000000 
Ti      14.70457064      15.34876054       6.64316528 
S      19.44797832      13.73310153       5.00000000 
Ti      17.55061639      15.34876054       5.00000000 
S      16.60193258      13.73310153       6.64316528 
Ti      17.55061639      15.34876054       8.28633056 
S      16.60193258      13.73310153       9.92949583 
Ti      14.70457064      15.34876054       9.92949583 
S      19.44797832      13.73310153       8.28633056 
Ti      20.39666214      15.34876054       9.92949583 
S      13.75588683      13.73310153       8.28633056 
Ti      11.85852490      15.34876054       8.28633056 
S      22.29402407      13.73310153       9.92949583 
Ti      11.85852490      18.58007854       5.00000000 
S      22.29402407      16.96441954       6.64316528 
Ti      20.39666214      18.58007854       6.64316528 
S      13.75588683      16.96441954       5.00000000 
Ti      14.70457064      18.58007854       6.64316528 
S      19.44797832      16.96441954       5.00000000 
Ti      17.55061639      18.58007854       5.00000000 
S      16.60193258      16.96441954       6.64316528 
Ti      17.55061639      18.58007854       8.28633056 
S      16.60193258      16.96441954       9.92949583 
Ti      14.70457064      18.58007854       9.92949583 
S      19.44797832      16.96441954       8.28633056 
Ti      20.39666214      18.58007854       9.92949583 
S      13.75588683      16.96441954       8.28633056 
Ti      11.85852490      18.58007854       8.28633056 
S      22.29402407      16.96441954       9.92949583 
Ti      11.85852490      21.81139655       5.00000000 
S      22.29402407      20.19573755       6.64316528 
Ti      20.39666214      21.81139655       6.64316528 
S      13.75588683      20.19573755       5.00000000 
Ti      14.70457064      21.81139655       6.64316528 
S      19.44797832      20.19573755       5.00000000 
Ti      17.55061639      21.81139655       5.00000000 
S      16.60193258      20.19573755       6.64316528 
Ti      17.55061639      21.81139655       8.28633056 
S      16.60193258      20.19573755       9.92949583 
Ti      14.70457064      21.81139655       9.92949583 
S      19.44797832      20.19573755       8.28633056 
Ti      20.39666214      21.81139655       9.92949583 
S      13.75588683      20.19573755       8.28633056 
Ti      11.85852490      21.81139655       8.28633056 
S      22.29402407      20.19573755       9.92949583 
Ti      11.85852490      25.04271456       5.00000000 
S      22.29402407      23.42705556       6.64316528 
Ti      20.39666214      25.04271456       6.64316528 
S      13.75588683      23.42705556       5.00000000 
Ti      14.70457064      25.04271456       6.64316528 
S      19.44797832      23.42705556       5.00000000 
Ti      17.55061639      25.04271456       5.00000000 
S      16.60193258      23.42705556       6.64316528 
Ti      17.55061639      25.04271456       8.28633056 
S      16.60193258      23.42705556       9.92949583 
Ti      14.70457064      25.04271456       9.92949583 
S      19.44797832      23.42705556       8.28633056 
Ti      20.39666214      25.04271456       9.92949583 
S      13.75588683      23.42705556       8.28633056 
Ti      11.85852490      25.04271456       8.28633056 
S      22.29402407      23.42705556       9.92949583 
Ti      23.24270789       2.42348851       5.00000000 
S      33.67820706       0.80782950       6.64316528 
Ti      31.78084513       2.42348851       6.64316528 
S      25.14006982       0.80782950       5.00000000 
Ti      26.08875363       2.42348851       6.64316528 
S      30.83216131       0.80782950       5.00000000 
Ti      28.93479938       2.42348851       5.00000000 
S      27.98611557       0.80782950       6.64316528 
Ti      28.93479938       2.42348851       8.28633056 
S      27.98611557       0.80782950       9.92949583 
Ti      26.08875363       2.42348851       9.92949583 
S      30.83216131       0.80782950       8.28633056 
Ti      31.78084513       2.42348851       9.92949583 
S      25.14006982       0.80782950       8.28633056 
Ti      23.24270789       2.42348851       8.28633056 
S      33.67820706       0.80782950       9.92949583 
Ti      23.24270789       5.65480651       5.00000000 
S      33.67820706       4.03914751       6.64316528 
Ti      31.78084513       5.65480651       6.64316528 
S      25.14006982       4.03914751       5.00000000 
Ti      26.08875363       5.65480651       6.64316528 
S      30.83216131       4.03914751       5.00000000 
Ti      28.93479938       5.65480651       5.00000000 
S      27.98611557       4.03914751       6.64316528 
Ti      28.93479938       5.65480651       8.28633056 
S      27.98611557       4.03914751       9.92949583 
Ti      26.08875363       5.65480651       9.92949583 
S      30.83216131       4.03914751       8.28633056 
Ti      31.78084513       5.65480651       9.92949583 
S      25.14006982       4.03914751       8.28633056 
Ti      23.24270789       5.65480651       8.28633056 
S      33.67820706       4.03914751       9.92949583 
Ti      23.24270789       8.88612452       5.00000000 
S      33.67820706       7.27046552       6.64316528 
Ti      31.78084513       8.88612452       6.64316528 
S      25.14006982       7.27046552       5.00000000 
Ti      26.08875363       8.88612452       6.64316528 
S      30.83216131       7.27046552       5.00000000 
Ti      28.93479938       8.88612452       5.00000000 
S      27.98611557       7.27046552       6.64316528 
Ti      28.93479938       8.88612452       8.28633056 
S      27.98611557       7.27046552       9.92949583 
Ti      26.08875363       8.88612452       9.92949583 
S      30.83216131       7.27046552       8.28633056 
Ti      31.78084513       8.88612452       9.92949583 
S      25.14006982       7.27046552       8.28633056 
Ti      23.24270789       8.88612452       8.28633056 
S      33.67820706       7.27046552       9.92949583 
Ti      23.24270789      12.11744253       5.00000000 
S      33.67820706      10.50178353       6.64316528 
Ti      31.78084513      12.11744253       6.64316528 
S      25.14006982      10.50178353       5.00000000 
Ti      26.08875363      12.11744253       6.64316528 
S      30.83216131      10.50178353       5.00000000 
Ti      28.93479938      12.11744253       5.00000000 
S      27.98611557      10.50178353       6.64316528 
Ti      28.93479938      12.11744253       8.28633056 
S      27.98611557      10.50178353       9.92949583 
Ti      26.08875363      12.11744253       9.92949583 
S      30.83216131      10.50178353       8.28633056 
Ti      31.78084513      12.11744253       9.92949583 
S      25.14006982      10.50178353       8.28633056 
Ti      23.24270789      12.11744253       8.28633056 
S      33.67820706      10.50178353       9.92949583 
Ti      34.62689088       2.42348851       5.00000000 
S      45.06239005       0.80782950       6.64316528 
Ti      43.16502812       2.42348851       6.64316528 
S      36.52425281       0.80782950       5.00000000 
Ti      37.47293662       2.42348851       6.64316528 
S      42.21634430       0.80782950       5.00000000 
Ti      40.31898237       2.42348851       5.00000000 
S      39.37029856       0.80782950       6.64316528 
Ti      40.31898237       2.42348851       8.28633056 
S      39.37029856       0.80782950       9.92949583 
Ti      37.47293662       2.42348851       9.92949583 
S      42.21634430       0.80782950       8.28633056 
Ti      43.16502812       2.42348851       9.92949583 
S      36.52425281       0.80782950       8.28633056 
Ti      34.62689088       2.42348851       8.28633056 
S      45.06239005       0.80782950       9.92949583 
Ti      34.62689088       5.65480651       5.00000000 
S      45.06239005       4.03914751       6.64316528 
Ti      43.16502812       5.65480651       6.64316528 
S      36.52425281       4.03914751       5.00000000 
Ti      37.47293662       5.65480651       6.64316528 
S      42.21634430       4.03914751       5.00000000 
Ti      40.31898237       5.65480651       5.00000000 
S      39.37029856       4.03914751       6.64316528 
Ti      40.31898237       5.65480651       8.28633056 
S      39.37029856       4.03914751       9.92949583 
Ti      37.47293662       5.65480651       9.92949583 
S      42.21634430       4.03914751       8.28633056 
Ti      43.16502812       5.65480651       9.92949583 
S      36.52425281       4.03914751       8.28633056 
Ti      34.62689088       5.65480651       8.28633056 
S      45.06239005       4.03914751       9.92949583 
Ti      34.62689088       8.88612452       5.00000000 
S      45.06239005       7.27046552       6.64316528 
Ti      43.16502812       8.88612452       6.64316528 
S      36.52425281       7.27046552       5.00000000 
Ti      37.47293662       8.88612452       6.64316528 
S      42.21634430       7.27046552       5.00000000 
Ti      40.31898237       8.88612452       5.00000000 
S      39.37029856       7.27046552       6.64316528 
Ti      40.31898237       8.88612452       8.28633056 
S      39.37029856       7.27046552       9.92949583 
Ti      37.47293662       8.88612452       9.92949583 
S      42.21634430       7.27046552       8.28633056 
Ti      43.16502812       8.88612452       9.92949583 
S      36.52425281       7.27046552       8.28633056 
Ti      34.62689088       8.88612452       8.28633056 
S      45.06239005       7.27046552       9.92949583 
Ti      34.62689088      12.11744253       5.00000000 
S      45.06239005      10.50178353       6.64316528 
Ti      43.16502812      12.11744253       6.64316528 
S      36.52425281      10.50178353       5.00000000 
Ti      37.47293662      12.11744253       6.64316528 
S      42.21634430      10.50178353       5.00000000 
Ti      40.31898237      12.11744253       5.00000000 
S      39.37029856      10.50178353       6.64316528 
Ti      40.31898237      12.11744253       8.28633056 
S      39.37029856      10.50178353       9.92949583 
Ti      37.47293662      12.11744253       9.92949583 
S      42.21634430      10.50178353       8.28633056 
Ti      43.16502812      12.11744253       9.92949583 
S      36.52425281      10.50178353       8.28633056 
Ti      34.62689088      12.11744253       8.28633056 
S      45.06239005      10.50178353       9.92949583 
Ti      23.24270789      15.34876054       5.00000000 
S      33.67820706      13.73310153       6.64316528 
Ti      31.78084513      15.34876054       6.64316528 
S      25.14006982      13.73310153       5.00000000 
Ti      26.08875363      15.34876054       6.64316528 
S      30.83216131      13.73310153       5.00000000 
Ti      28.93479938      15.34876054       5.00000000 
S      27.98611557      13.73310153       6.64316528 
Ti      28.93479938      15.34876054       8.28633056 
S      27.98611557      13.73310153       9.92949583 
Ti      26.08875363      15.34876054       9.92949583 
S      30.83216131      13.73310153       8.28633056 
Ti      31.78084513      15.34876054       9.92949583 
S      25.14006982      13.73310153       8.28633056 
Ti      23.24270789      15.34876054       8.28633056 
S      33.67820706      13.73310153       9.92949583 
Ti      23.24270789      18.58007854       5.00000000 
S      33.67820706      16.96441954       6.64316528 
Ti      31.78084513      18.58007854       6.64316528 
S      25.14006982      16.96441954       5.00000000 
Ti      26.08875363      18.58007854       6.64316528 
S      30.83216131      16.96441954       5.00000000 
Ti      28.93479938      18.58007854       5.00000000 
S      27.98611557      16.96441954       6.64316528 
Ti      28.93479938      18.58007854       8.28633056 
S      27.98611557      16.96441954       9.92949583 
Ti      26.08875363      18.58007854       9.92949583 
S      30.83216131      16.96441954       8.28633056 
Ti      31.78084513      18.58007854       9.92949583 
S      25.14006982      16.96441954       8.28633056 
Ti      23.24270789      18.58007854       8.28633056 
S      33.67820706      16.96441954       9.92949583 
Ti      23.24270789      21.81139655       5.00000000 
S      33.67820706      20.19573755       6.64316528 
Ti      31.78084513      21.81139655       6.64316528 
S      25.14006982      20.19573755       5.00000000 
Ti      26.08875363      21.81139655       6.64316528 
S      30.83216131      20.19573755       5.00000000 
Ti      28.93479938      21.81139655       5.00000000 
S      27.98611557      20.19573755       6.64316528 
Ti      28.93479938      21.81139655       8.28633056 
S      27.98611557      20.19573755       9.92949583 
Ti      26.08875363      21.81139655       9.92949583 
S      30.83216131      20.19573755       8.28633056 
Ti      31.78084513      21.81139655       9.92949583 
S      25.14006982      20.19573755       8.28633056 
Ti      23.24270789      21.81139655       8.28633056 
S      33.67820706      20.19573755       9.92949583 
Ti      23.24270789      25.04271456       5.00000000 
S      33.67820706      23.42705556       6.64316528 
Ti      31.78084513      25.04271456       6.64316528 
S      25.14006982      23.42705556       5.00000000 
Ti      26.08875363      25.04271456       6.64316528 
S      30.83216131      23.42705556       5.00000000 
Ti      28.93479938      25.04271456       5.00000000 
S      27.98611557      23.42705556       6.64316528 
Ti      28.93479938      25.04271456       8.28633056 
S      27.98611557      23.42705556       9.92949583 
Ti      26.08875363      25.04271456       9.92949583 
S      30.83216131      23.42705556       8.28633056 
Ti      31.78084513      25.04271456       9.92949583 
S      25.14006982      23.42705556       8.28633056 
Ti      23.24270789      25.04271456       8.28633056 
S      33.67820706      23.42705556       9.92949583 
Ti      34.62689088      15.34876054       5.00000000 
S      45.06239005      13.73310153       6.64316528 
Ti      43.16502812      15.34876054       6.64316528 
S      36.52425281      13.73310153       5.00000000 
Ti      37.47293662      15.34876054       6.64316528 
S      42.21634430      13.73310153       5.00000000 
Ti      40.31898237      15.34876054       5.00000000 
S      39.37029856      13.73310153       6.64316528 
Ti      40.31898237      15.34876054       8.28633056 
S      39.37029856      13.73310153       9.92949583 
Ti      37.47293662      15.34876054       9.92949583 
S      42.21634430      13.73310153       8.28633056 
Ti      43.16502812      15.34876054       9.92949583 
S      36.52425281      13.73310153       8.28633056 
Ti      34.62689088      15.34876054       8.28633056 
S      45.06239005      13.73310153       9.92949583 
Ti      34.62689088      18.58007854       5.00000000 
S      45.06239005      16.96441954       6.64316528 
Ti      43.16502812      18.58007854       6.64316528 
S      36.52425281      16.96441954       5.00000000 
Ti      37.47293662      18.58007854       6.64316528 
S      42.21634430      16.96441954       5.00000000 
Ti      40.31898237      18.58007854       5.00000000 
S      39.37029856      16.96441954       6.64316528 
Ti      40.31898237      18.58007854       8.28633056 
S      39.37029856      16.96441954       9.92949583 
Ti      37.47293662      18.58007854       9.92949583 
S      42.21634430      16.96441954       8.28633056 
Ti      43.16502812      18.58007854       9.92949583 
S      36.52425281      16.96441954       8.28633056 
Ti      34.62689088      18.58007854       8.28633056 
S      45.06239005      16.96441954       9.92949583 
Ti      34.62689088      21.81139655       5.00000000 
S      45.06239005      20.19573755       6.64316528 
Ti      43.16502812      21.81139655       6.64316528 
S      36.52425281      20.19573755       5.00000000 
Ti      37.47293662      21.81139655       6.64316528 
S      42.21634430      20.19573755       5.00000000 
Ti      40.31898237      21.81139655       5.00000000 
S      39.37029856      20.19573755       6.64316528 
Ti      40.31898237      21.81139655       8.28633056 
S      39.37029856      20.19573755       9.92949583 
Ti      37.47293662      21.81139655       9.92949583 
S      42.21634430      20.19573755       8.28633056 
Ti      43.16502812      21.81139655       9.92949583 
S      36.52425281      20.19573755       8.28633056 
Ti      34.62689088      21.81139655       8.28633056 
S      45.06239005      20.19573755       9.92949583 
Ti      34.62689088      25.04271456       5.00000000 
S      45.06239005      23.42705556       6.64316528 
Ti      43.16502812      25.04271456       6.64316528 
S      36.52425281      23.42705556       5.00000000 
Ti      37.47293662      25.04271456       6.64316528 
S      42.21634430      23.42705556       5.00000000 
Ti      40.31898237      25.04271456       5.00000000 
S      39.37029856      23.42705556       6.64316528 
Ti      40.31898237      25.04271456       8.28633056 
S      39.37029856      23.42705556       9.92949583 
Ti      37.47293662      25.04271456       9.92949583 
S      42.21634430      23.42705556       8.28633056 
Ti      43.16502812      25.04271456       9.92949583 
S      36.52425281      23.42705556       8.28633056 
Ti      34.62689088      25.04271456       8.28633056 
S      45.06239005      23.42705556       9.92949583 
