1152
Lattice="47.5362257454 0.0 0.0 -43.7878815798 57.7797818958 0.0 0.0 0.0 15.927899639" Properties=species:S:1:pos:R:3 unit_cell=conventional pbc="T T F"
Ti       6.61886493       0.21600931      10.74697603 
Ti      -3.45898413      13.47205128       5.40787166 
Ti      -8.61760141      11.63637429       5.59022168 
Ti      -4.90602089       8.89291748       5.10040540 
Ti       0.23359241      11.17292855       6.60560721 
Ti       4.86461292       1.32797505       5.67181748 
Ti      -5.26519150      13.95079266       7.62384893 
Ti       2.10912254       4.33725999       7.59720944 
Ti       1.66578728       6.24837035       5.51277855 
Ti       1.90617045       0.34551794       5.00000000 
Ti      -2.67559768      10.46929090       5.85561266 
Ti      -0.26015769       8.55165658       5.56691324 
Ti       0.36959012       2.06890018       6.85205704 
Ti      -9.91093307      13.44128725       7.35075472 
Ti      -1.86082666       3.16365172       5.48946605 
Ti       5.44158310       8.13999233       7.51550693 
Ti       4.08122746       4.33073618       5.22407978 
Ti      -3.09886820       7.37019618       6.68730956 
Ti       7.60790621       1.55939569       6.57896690 
Ti       6.31165138       5.90711014       5.97928944 
Ti      -5.70840956      11.32613312       6.57076292 
Ti       2.48298860       8.73523568       6.48498475 
Ti      10.44642896       0.00956309       6.07968989 
Ti      -0.14027342       6.77495304       7.71783266 
S       5.89432482       3.41392275       6.67142598 
S      -0.04775166       4.61625238       6.39804480 
S      -3.55160959      12.09626600       7.53139161 
S       3.85672234       6.37488860       6.60951676 
S       2.72417775       2.45710061       6.05730090 
S       2.39046682      10.89393632       7.80477253 
S      -1.31854828      12.34292623       5.02239048 
S      -7.45604785      13.59062125       6.58021632 
S      -3.21782219       5.21340266       5.43054049 
S       9.79876145       1.91956627       7.62259582 
S      -7.26060556       9.58662359       5.64914831 
S      -1.51400600       9.13530100       7.59330453 
Ti      -2.89584563       4.89421775      10.75518169 
Ti      -2.52189809      14.18221340       8.53099877 
Ti      -7.68051536      12.34653641       8.71334879 
Ti      -3.96893485       9.60307960       8.22353250 
Ti       1.17067845      11.88309068       9.72873432 
Ti       5.80169897       2.03813718       8.79494459 
Ti       8.05112477       4.18405562       7.63205459 
Ti       3.04620858       5.04742212      10.72033655 
Ti       2.60287332       6.95853247       8.63590565 
Ti       2.84325649       1.05568006       8.12312710 
Ti      -1.73851163      11.17945302       8.97873977 
Ti       0.67692835       9.26181871       8.69004034 
Ti       1.30667616       2.77906231       9.97518415 
Ti      -8.97384703      14.15144937      10.47388182 
Ti      -0.92374062       3.87381384       8.61259316 
Ti      -5.50538729       8.85015445      10.63863403 
Ti       5.01831350       5.04089831       8.34720688 
Ti      -2.16178216       8.08035831       9.81043667 
Ti       8.54499225       2.26955782       9.70209400 
Ti      -4.63531901       6.61727227       9.10241654 
Ti      -4.77132352      12.03629524       9.69389003 
Ti       3.42007464       9.44539780       9.60811186 
Ti      -0.50054143       0.71972521       9.20281700 
Ti       0.79681262       7.48511516      10.84095976 
S       6.83141086       4.12408488       9.79455308 
S       0.88933438       5.32641450       9.52117190 
S      -2.61452355      12.80642813      10.65451871 
S       4.79380838       7.08505073       9.73264387 
S       3.66126379       3.16726273       9.18042801 
S      -8.55650357      11.60409845      10.92789964 
S      -0.38146224      13.05308836       8.14551759 
S      -6.51896181      14.30078337       9.70334343 
S      -2.28073614       5.92356478       8.55366759 
S      -1.14820895       2.62972839      10.74572292 
S      -6.32351952      10.29678572       8.77227541 
S      -0.57691996       9.84546312      10.71643163 
Ti      -2.89584563      18.62900110       7.63205459 
Ti     -14.40595453      27.91699675       5.40787166 
Ti     -19.56457180      26.08131976       5.59022168 
Ti     -15.85299128      23.33786295       5.10040540 
Ti     -10.71337798      25.61787403       6.60560721 
Ti      -6.08235747      15.77292053       5.67181748 
Ti     -16.21216190      28.39573814       7.62384893 
Ti      -8.83784785      18.78220547       7.59720944 
Ti      -9.28118312      20.69331582       5.51277855 
Ti      -9.04079995      14.79046341       5.00000000 
Ti     -13.62256807      24.91423637       5.85561266 
Ti     -11.20712809      22.99660206       5.56691324 
Ti     -10.57738027      16.51384566       6.85205704 
Ti     -20.85790347      27.88623272       7.35075472 
Ti     -12.80779706      17.60859719       5.48946605 
Ti      -5.50538729      22.58493780       7.51550693 
Ti      -6.86574294      18.77568166       5.22407978 
Ti     -14.04583859      21.81514166       6.68730956 
Ti      -3.33906419      16.00434117       6.57896690 
Ti      -4.63531901      20.35205562       5.97928944 
Ti     -16.65537995      25.77107859       6.57076292 
Ti      -8.46398179      23.18018115       6.48498475 
Ti      -0.50054143      14.45450856       6.07968989 
Ti     -11.08724382      21.21989851       7.71783266 
S      -5.05264557      17.85886823       6.67142598 
S     -10.99472206      19.06119785       6.39804480 
S     -14.49857998      26.54121148       7.53139161 
S      -7.09024805      20.81983408       6.60951676 
S      -8.22279265      16.90204608       6.05730090 
S      -8.55650357      25.33888180       7.80477253 
S     -12.26551868      26.78787171       5.02239048 
S     -18.40301824      28.03556672       6.58021632 
S     -14.16479258      19.65834813       5.43054049 
S      -1.14820895      16.36451174       7.62259582 
S     -18.20757596      24.03156907       5.64914831 
S     -12.46097639      23.58024647       7.59330453 
Ti     -13.84281602      19.33916322      10.75518169 
Ti     -13.46886849      28.62715888       8.53099877 
Ti     -18.62748576      26.79148189       8.71334879 
Ti     -14.91590524      24.04802508       8.22353250 
Ti      -9.77629194      26.32803615       9.72873432 
Ti      -5.14527143      16.48308265       8.79494459 
Ti      -4.32810546      14.66095479      10.74697603 
Ti      -7.90076181      19.49236759      10.72033655 
Ti      -8.34409708      21.40347794       8.63590565 
Ti      -8.10371390      15.50062554       8.12312710 
Ti     -12.68548203      25.62439849       8.97873977 
Ti     -10.27004205      23.70676418       8.69004034 
Ti      -9.64029423      17.22400778       9.97518415 
Ti     -19.92081742      28.59639485      10.47388182 
Ti     -11.87071102      18.31875932       8.61259316 
Ti     -16.45235769      23.29509992      10.63863403 
Ti      -5.92865690      19.48584378       8.34720688 
Ti     -13.10875255      22.52530378       9.81043667 
Ti      -2.40197815      16.71450329       9.70209400 
Ti     -15.58228941      21.06221774       9.10241654 
Ti     -15.71829391      26.48124071       9.69389003 
Ti      -7.52689575      23.89034328       9.60811186 
Ti     -11.44751183      15.16467069       9.20281700 
Ti     -10.15015778      21.93006064      10.84095976 
S      -4.11555953      18.56903035       9.79455308 
S     -10.05763602      19.77135997       9.52117190 
S     -13.56149394      27.25137360      10.65451871 
S      -6.15316201      21.52999620       9.73264387 
S      -7.28570661      17.61220821       9.18042801 
S     -19.50347397      26.04904392      10.92789964 
S     -11.32843264      27.49803383       8.14551759 
S     -17.46593220      28.74572885       9.70334343 
S     -13.22770654      20.36851026       8.55366759 
S     -12.09517934      17.07467387      10.74572292 
S     -17.27048992      24.74173119       8.77227541 
S     -11.52389035      24.29040859      10.71643163 
Ti      19.93518121       4.18405562       7.63205459 
Ti       8.42507230      13.47205128       5.40787166 
Ti       3.26645503      11.63637429       5.59022168 
Ti       6.97803555       8.89291748       5.10040540 
Ti      12.11764885      11.17292855       6.60560721 
Ti      16.74866936       1.32797505       5.67181748 
Ti       6.61886493      13.95079266       7.62384893 
Ti      13.99317898       4.33725999       7.59720944 
Ti      13.54984371       6.24837035       5.51277855 
Ti      13.79022689       0.34551794       5.00000000 
Ti       9.20845876      10.46929090       5.85561266 
Ti      11.62389874       8.55165658       5.56691324 
Ti      12.25364656       2.06890018       6.85205704 
Ti       1.97312337      13.44128725       7.35075472 
Ti      10.02322977       3.16365172       5.48946605 
Ti      17.32563954       8.13999233       7.51550693 
Ti      15.96528389       4.33073618       5.22407978 
Ti       8.78518824       7.37019618       6.68730956 
Ti      19.49196264       1.55939569       6.57896690 
Ti      18.19570782       5.90711014       5.97928944 
Ti       6.17564688      11.32613312       6.57076292 
Ti      14.36704504       8.73523568       6.48498475 
Ti      22.33048540       0.00956309       6.07968989 
Ti      11.74378301       6.77495304       7.71783266 
S      17.77838126       3.41392275       6.67142598 
S      11.83630477       4.61625238       6.39804480 
S       8.33244685      12.09626600       7.53139161 
S      15.74077878       6.37488860       6.60951676 
S      14.60823418       2.45710061       6.05730090 
S      14.27452326      10.89393632       7.80477253 
S      10.56550815      12.34292623       5.02239048 
S       4.42800859      13.59062125       6.58021632 
S       8.66623425       5.21340266       5.43054049 
S      21.68281788       1.91956627       7.62259582 
S       4.62345087       9.58662359       5.64914831 
S      10.37005044       9.13530100       7.59330453 
Ti       8.98821081       4.89421775      10.75518169 
Ti       9.36215834      14.18221340       8.53099877 
Ti       4.20354107      12.34653641       8.71334879 
Ti       7.91512159       9.60307960       8.22353250 
Ti      13.05473489      11.88309068       9.72873432 
Ti      17.68575540       2.03813718       8.79494459 
Ti      18.50292137       0.21600931      10.74697603 
Ti      14.93026502       5.04742212      10.72033655 
Ti      14.48692975       6.95853247       8.63590565 
Ti      14.72731293       1.05568006       8.12312710 
Ti      10.14554480      11.17945302       8.97873977 
Ti      12.56098478       9.26181871       8.69004034 
Ti      13.19073260       2.77906231       9.97518415 
Ti       2.91020941      14.15144937      10.47388182 
Ti      10.96031582       3.87381384       8.61259316 
Ti       6.37866914       8.85015445      10.63863403 
Ti      16.90236993       5.04089831       8.34720688 
Ti       9.72227428       8.08035831       9.81043667 
Ti      20.42904869       2.26955782       9.70209400 
Ti       7.24873743       6.61727227       9.10241654 
Ti       7.11273292      12.03629524       9.69389003 
Ti      15.30413108       9.44539780       9.60811186 
Ti      11.38351500       0.71972521       9.20281700 
Ti      12.68086906       7.48511516      10.84095976 
S      18.71546730       4.12408488       9.79455308 
S      12.77339081       5.32641450       9.52117190 
S       9.26953289      12.80642813      10.65451871 
S      16.67786482       7.08505073       9.73264387 
S      15.54532023       3.16726273       9.18042801 
S       3.32755286      11.60409845      10.92789964 
S      11.50259419      13.05308836       8.14551759 
S       5.36509463      14.30078337       9.70334343 
S       9.60332029       5.92356478       8.55366759 
S      10.73584749       2.62972839      10.74572292 
S       5.56053691      10.29678572       8.77227541 
S      11.30713648       9.84546312      10.71643163 
Ti       8.98821081      18.62900110       7.63205459 
Ti      -2.52189809      27.91699675       5.40787166 
Ti      -7.68051536      26.08131976       5.59022168 
Ti      -3.96893485      23.33786295       5.10040540 
Ti       1.17067845      25.61787403       6.60560721 
Ti       5.80169897      15.77292053       5.67181748 
Ti      -4.32810546      28.39573814       7.62384893 
Ti       3.04620858      18.78220547       7.59720944 
Ti       2.60287332      20.69331582       5.51277855 
Ti       2.84325649      14.79046341       5.00000000 
Ti      -1.73851163      24.91423637       5.85561266 
Ti       0.67692835      22.99660206       5.56691324 
Ti       1.30667616      16.51384566       6.85205704 
Ti      -8.97384703      27.88623272       7.35075472 
Ti      -0.92374062      17.60859719       5.48946605 
Ti       6.37866914      22.58493780       7.51550693 
Ti       5.01831350      18.77568166       5.22407978 
Ti      -2.16178216      21.81514166       6.68730956 
Ti       8.54499225      16.00434117       6.57896690 
Ti       7.24873743      20.35205562       5.97928944 
Ti      -4.77132352      25.77107859       6.57076292 
Ti       3.42007464      23.18018115       6.48498475 
Ti      11.38351500      14.45450856       6.07968989 
Ti       0.79681262      21.21989851       7.71783266 
S       6.83141086      17.85886823       6.67142598 
S       0.88933438      19.06119785       6.39804480 
S      -2.61452355      26.54121148       7.53139161 
S       4.79380838      20.81983408       6.60951676 
S       3.66126379      16.90204608       6.05730090 
S       3.32755286      25.33888180       7.80477253 
S      -0.38146224      26.78787171       5.02239048 
S      -6.51896181      28.03556672       6.58021632 
S      -2.28073614      19.65834813       5.43054049 
S      10.73584749      16.36451174       7.62259582 
S      -6.32351952      24.03156907       5.64914831 
S      -0.57691996      23.58024647       7.59330453 
Ti      -1.95875958      19.33916322      10.75518169 
Ti      -1.58481205      28.62715888       8.53099877 
Ti      -6.74342932      26.79148189       8.71334879 
Ti      -3.03184880      24.04802508       8.22353250 
Ti       2.10776450      26.32803615       9.72873432 
Ti       6.73878501      16.48308265       8.79494459 
Ti       7.55595098      14.66095479      10.74697603 
Ti       3.98329462      19.49236759      10.72033655 
Ti       3.53995936      21.40347794       8.63590565 
Ti       3.78034253      15.50062554       8.12312710 
Ti      -0.80142559      25.62439849       8.97873977 
Ti       1.61401439      23.70676418       8.69004034 
Ti       2.24376220      17.22400778       9.97518415 
Ti      -8.03676099      28.59639485      10.47388182 
Ti       0.01334542      18.31875932       8.61259316 
Ti      -4.56830125      23.29509992      10.63863403 
Ti       5.95539954      19.48584378       8.34720688 
Ti      -1.22469612      22.52530378       9.81043667 
Ti       9.48207829      16.71450329       9.70209400 
Ti      -3.69823297      21.06221774       9.10241654 
Ti      -3.83423747      26.48124071       9.69389003 
Ti       4.35716069      23.89034328       9.60811186 
Ti       0.43654461      15.16467069       9.20281700 
Ti       1.73389866      21.93006064      10.84095976 
S       7.76849690      18.56903035       9.79455308 
S       1.82642042      19.77135997       9.52117190 
S      -1.67743750      27.25137360      10.65451871 
S       5.73089443      21.52999620       9.73264387 
S       4.59834983      17.61220821       9.18042801 
S      -7.61941753      26.04904392      10.92789964 
S       0.55562380      27.49803383       8.14551759 
S      -5.58187576      28.74572885       9.70334343 
S      -1.34365010      20.36851026       8.55366759 
S      -0.21112291      17.07467387      10.74572292 
S      -5.38643348      24.74173119       8.77227541 
S       0.36016608      24.29040859      10.71643163 
Ti     -13.84281602      33.07394657       7.63205459 
Ti     -25.35292492      42.36194223       5.40787166 
Ti     -30.51154220      40.52626524       5.59022168 
Ti     -26.79996168      37.78280843       5.10040540 
Ti     -21.66034838      40.06281950       6.60560721 
Ti     -17.02932787      30.21786600       5.67181748 
Ti     -27.15913229      42.84068361       7.62384893 
Ti     -19.78481825      33.22715094       7.59720944 
Ti     -20.22815351      35.13826130       5.51277855 
Ti     -19.98777034      29.23540889       5.00000000 
Ti     -24.56953847      39.35918185       5.85561266 
Ti     -22.15409848      37.44154753       5.56691324 
Ti     -21.52435067      30.95879113       6.85205704 
Ti     -31.80487386      42.33117820       7.35075472 
Ti     -23.75476745      32.05354267       5.48946605 
Ti     -16.45235769      37.02988328       7.51550693 
Ti     -17.81271333      33.22062713       5.22407978 
Ti     -24.99280899      36.26008713       6.68730956 
Ti     -14.28603458      30.44928664       6.57896690 
Ti     -15.58228941      34.79700109       5.97928944 
Ti     -27.60235035      40.21602407       6.57076292 
Ti     -19.41095219      37.62512663       6.48498475 
Ti     -11.44751183      28.89945404       6.07968989 
Ti     -22.03421421      35.66484399       7.71783266 
S     -15.99961597      32.30381370       6.67142598 
S     -21.94169245      33.50614333       6.39804480 
S     -25.44555038      40.98615695       7.53139161 
S     -18.03721845      35.26477955       6.60951676 
S     -19.16976304      31.34699156       6.05730090 
S     -19.50347397      39.78382727       7.80477253 
S     -23.21248907      41.23281718       5.02239048 
S     -29.34998864      42.48051220       6.58021632 
S     -25.11176298      34.10329361       5.43054049 
S     -12.09517934      30.80945722       7.62259582 
S     -29.15454635      38.47651454       5.64914831 
S     -23.40794679      38.02519195       7.59330453 
Ti     -24.78978642      33.78410870      10.75518169 
Ti     -24.41583888      43.07210435       8.53099877 
Ti     -29.57445615      41.23642736       8.71334879 
Ti     -25.86287564      38.49297055       8.22353250 
Ti     -20.72326234      40.77298163       9.72873432 
Ti     -16.09224182      30.92802813       8.79494459 
Ti     -15.27507586      29.10590026      10.74697603 
Ti     -18.84773221      33.93731307      10.72033655 
Ti     -19.29106747      35.84842342       8.63590565 
Ti     -19.05068430      29.94557101       8.12312710 
Ti     -23.63245242      40.06934397       8.97873977 
Ti     -21.21701244      38.15170966       8.69004034 
Ti     -20.58726463      31.66895326       9.97518415 
Ti     -30.86778782      43.04134032      10.47388182 
Ti     -22.81768141      32.76370479       8.61259316 
Ti     -27.39932808      37.74004540      10.63863403 
Ti     -16.87562729      33.93078926       8.34720688 
Ti     -24.05572295      36.97024926       9.81043667 
Ti     -13.34894854      31.15944877       9.70209400 
Ti     -26.52925980      35.50716322       9.10241654 
Ti     -26.66526431      40.92618619       9.69389003 
Ti     -18.47386615      38.33528875       9.60811186 
Ti     -22.39448222      29.60961616       9.20281700 
Ti     -21.09712817      36.37500611      10.84095976 
S     -15.06252993      33.01397583       9.79455308 
S     -21.00460641      34.21630545       9.52117190 
S     -24.50846434      41.69631908      10.65451871 
S     -17.10013241      35.97494168       9.73264387 
S     -18.23267700      32.05715368       9.18042801 
S     -30.45044436      40.49398940      10.92789964 
S     -22.27540303      41.94297931       8.14551759 
S     -28.41290260      43.19067432       9.70334343 
S     -24.17467693      34.81345573       8.55366759 
S     -23.04214974      31.51961934      10.74572292 
S     -28.21746031      39.18667667       8.77227541 
S     -22.47086075      38.73535407      10.71643163 
Ti     -24.78978642      47.51889205       7.63205459 
Ti     -36.29989532      56.80688770       5.40787166 
Ti     -41.45851259      54.97121071       5.59022168 
Ti     -37.74693207      52.22775390       5.10040540 
Ti     -32.60731877      54.50776498       6.60560721 
Ti     -27.97629826      44.66281148       5.67181748 
Ti     -38.10610269      57.28562909       7.62384893 
Ti     -30.73178864      47.67209642       7.59720944 
Ti     -31.17512391      49.58320677       5.51277855 
Ti     -30.93474074      43.68035436       5.00000000 
Ti     -35.51650886      53.80412732       5.85561266 
Ti     -33.10106888      51.88649301       5.56691324 
Ti     -32.47132106      45.40373661       6.85205704 
Ti     -42.75184426      56.77612367       7.35075472 
Ti     -34.70173785      46.49848814       5.48946605 
Ti     -27.39932808      51.47482875       7.51550693 
Ti     -28.75968373      47.66557261       5.22407978 
Ti     -35.93977938      50.70503261       6.68730956 
Ti     -25.23300498      44.89423212       6.57896690 
Ti     -26.52925980      49.24194657       5.97928944 
Ti     -38.54932074      54.66096954       6.57076292 
Ti     -30.35792258      52.07007210       6.48498475 
Ti     -22.39448222      43.34439951       6.07968989 
Ti     -32.98118461      50.10978946       7.71783266 
S     -26.94658636      46.74875918       6.67142598 
S     -32.88866285      47.95108880       6.39804480 
S     -36.39252077      55.43110243       7.53139161 
S     -28.98418884      49.70972503       6.60951676 
S     -30.11673344      45.79193703       6.05730090 
S     -30.45044436      54.22877275       7.80477253 
S     -34.15945947      55.67776266       5.02239048 
S     -40.29695903      56.92545767       6.58021632 
S     -36.05873337      48.54823908       5.43054049 
S     -23.04214974      45.25440269       7.62259582 
S     -40.10151675      52.92146002       5.64914831 
S     -34.35491718      52.47013742       7.59330453 
Ti     -35.73675681      48.22905417      10.75518169 
Ti     -35.36280928      57.51704983       8.53099877 
Ti     -40.52142655      55.68137284       8.71334879 
Ti     -36.80984603      52.93791603       8.22353250 
Ti     -31.67023273      55.21792710       9.72873432 
Ti     -27.03921222      45.37297360       8.79494459 
Ti     -26.22204625      43.55084574      10.74697603 
Ti     -29.79470260      48.38225854      10.72033655 
Ti     -30.23803787      50.29336889       8.63590565 
Ti     -29.99765469      44.39051649       8.12312710 
Ti     -34.57942282      54.51428944       8.97873977 
Ti     -32.16398284      52.59665513       8.69004034 
Ti     -31.53423502      46.11389873       9.97518415 
Ti     -41.81475821      57.48628580      10.47388182 
Ti     -33.76465181      47.20865027       8.61259316 
Ti     -38.34629848      52.18499087      10.63863403 
Ti     -27.82259769      48.37573473       8.34720688 
Ti     -35.00269334      51.41519473       9.81043667 
Ti     -24.29591894      45.60439424       9.70209400 
Ti     -37.47623020      49.95210869       9.10241654 
Ti     -37.61223470      55.37113166       9.69389003 
Ti     -29.42083654      52.78023423       9.60811186 
Ti     -33.34145262      44.05456164       9.20281700 
Ti     -32.04409857      50.81995159      10.84095976 
S     -26.00950032      47.45892130       9.79455308 
S     -31.95157681      48.66125092       9.52117190 
S     -35.45543473      56.14126455      10.65451871 
S     -28.04710280      50.41988715       9.73264387 
S     -29.17964740      46.50209916       9.18042801 
S     -41.39741476      54.93893487      10.92789964 
S     -33.22237343      56.38792478       8.14551759 
S     -39.35987299      57.63561980       9.70334343 
S     -35.12164733      49.25840121       8.55366759 
S     -33.98912013      45.96456482      10.74572292 
S     -39.16443071      53.63162214       8.77227541 
S     -33.41783114      53.18029954      10.71643163 
Ti      -1.95875958      33.07394657       7.63205459 
Ti     -13.46886849      42.36194223       5.40787166 
Ti     -18.62748576      40.52626524       5.59022168 
Ti     -14.91590524      37.78280843       5.10040540 
Ti      -9.77629194      40.06281950       6.60560721 
Ti      -5.14527143      30.21786600       5.67181748 
Ti     -15.27507586      42.84068361       7.62384893 
Ti      -7.90076181      33.22715094       7.59720944 
Ti      -8.34409708      35.13826130       5.51277855 
Ti      -8.10371390      29.23540889       5.00000000 
Ti     -12.68548203      39.35918185       5.85561266 
Ti     -10.27004205      37.44154753       5.56691324 
Ti      -9.64029423      30.95879113       6.85205704 
Ti     -19.92081742      42.33117820       7.35075472 
Ti     -11.87071102      32.05354267       5.48946605 
Ti      -4.56830125      37.02988328       7.51550693 
Ti      -5.92865690      33.22062713       5.22407978 
Ti     -13.10875255      36.26008713       6.68730956 
Ti      -2.40197815      30.44928664       6.57896690 
Ti      -3.69823297      34.79700109       5.97928944 
Ti     -15.71829391      40.21602407       6.57076292 
Ti      -7.52689575      37.62512663       6.48498475 
Ti       0.43654461      28.89945404       6.07968989 
Ti     -10.15015778      35.66484399       7.71783266 
S      -4.11555953      32.30381370       6.67142598 
S     -10.05763602      33.50614333       6.39804480 
S     -13.56149394      40.98615695       7.53139161 
S      -6.15316201      35.26477955       6.60951676 
S      -7.28570661      31.34699156       6.05730090 
S      -7.61941753      39.78382727       7.80477253 
S     -11.32843264      41.23281718       5.02239048 
S     -17.46593220      42.48051220       6.58021632 
S     -13.22770654      34.10329361       5.43054049 
S      -0.21112291      30.80945722       7.62259582 
S     -17.27048992      38.47651454       5.64914831 
S     -11.52389035      38.02519195       7.59330453 
Ti     -12.90572998      33.78410870      10.75518169 
Ti     -12.53178245      43.07210435       8.53099877 
Ti     -17.69039972      41.23642736       8.71334879 
Ti     -13.97881920      38.49297055       8.22353250 
Ti      -8.83920590      40.77298163       9.72873432 
Ti      -4.20818539      30.92802813       8.79494459 
Ti      -3.39101942      29.10590026      10.74697603 
Ti      -6.96367577      33.93731307      10.72033655 
Ti      -7.40701104      35.84842342       8.63590565 
Ti      -7.16662786      29.94557101       8.12312710 
Ti     -11.74839599      40.06934397       8.97873977 
Ti      -9.33295601      38.15170966       8.69004034 
Ti      -8.70320819      31.66895326       9.97518415 
Ti     -18.98373138      43.04134032      10.47388182 
Ti     -10.93362497      32.76370479       8.61259316 
Ti     -15.51527165      37.74004540      10.63863403 
Ti      -4.99157086      33.93078926       8.34720688 
Ti     -12.17166651      36.97024926       9.81043667 
Ti      -1.46489210      31.15944877       9.70209400 
Ti     -14.64520336      35.50716322       9.10241654 
Ti     -14.78120787      40.92618619       9.69389003 
Ti      -6.58980971      38.33528875       9.60811186 
Ti     -10.51042579      29.60961616       9.20281700 
Ti      -9.21307173      36.37500611      10.84095976 
S      -3.17847349      33.01397583       9.79455308 
S      -9.12054998      34.21630545       9.52117190 
S     -12.62440790      41.69631908      10.65451871 
S      -5.21607597      35.97494168       9.73264387 
S      -6.34862056      32.05715368       9.18042801 
S     -18.56638793      40.49398940      10.92789964 
S     -10.39134660      41.94297931       8.14551759 
S     -16.52884616      43.19067432       9.70334343 
S     -12.29062050      34.81345573       8.55366759 
S     -11.15809330      31.51961934      10.74572292 
S     -16.33340388      39.18667667       8.77227541 
S     -10.58680431      38.73535407      10.71643163 
Ti     -12.90572998      47.51889205       7.63205459 
Ti     -24.41583888      56.80688770       5.40787166 
Ti     -29.57445615      54.97121071       5.59022168 
Ti     -25.86287564      52.22775390       5.10040540 
Ti     -20.72326234      54.50776498       6.60560721 
Ti     -16.09224182      44.66281148       5.67181748 
Ti     -26.22204625      57.28562909       7.62384893 
Ti     -18.84773221      47.67209642       7.59720944 
Ti     -19.29106747      49.58320677       5.51277855 
Ti     -19.05068430      43.68035436       5.00000000 
Ti     -23.63245242      53.80412732       5.85561266 
Ti     -21.21701244      51.88649301       5.56691324 
Ti     -20.58726463      45.40373661       6.85205704 
Ti     -30.86778782      56.77612367       7.35075472 
Ti     -22.81768141      46.49848814       5.48946605 
Ti     -15.51527165      51.47482875       7.51550693 
Ti     -16.87562729      47.66557261       5.22407978 
Ti     -24.05572295      50.70503261       6.68730956 
Ti     -13.34894854      44.89423212       6.57896690 
Ti     -14.64520336      49.24194657       5.97928944 
Ti     -26.66526431      54.66096954       6.57076292 
Ti     -18.47386615      52.07007210       6.48498475 
Ti     -10.51042579      43.34439951       6.07968989 
Ti     -21.09712817      50.10978946       7.71783266 
S     -15.06252993      46.74875918       6.67142598 
S     -21.00460641      47.95108880       6.39804480 
S     -24.50846434      55.43110243       7.53139161 
S     -17.10013241      49.70972503       6.60951676 
S     -18.23267700      45.79193703       6.05730090 
S     -18.56638793      54.22877275       7.80477253 
S     -22.27540303      55.67776266       5.02239048 
S     -28.41290260      56.92545767       6.58021632 
S     -24.17467693      48.54823908       5.43054049 
S     -11.15809330      45.25440269       7.62259582 
S     -28.21746031      52.92146002       5.64914831 
S     -22.47086075      52.47013742       7.59330453 
Ti     -23.85270037      48.22905417      10.75518169 
Ti     -23.47875284      57.51704983       8.53099877 
Ti     -28.63737011      55.68137284       8.71334879 
Ti     -24.92578959      52.93791603       8.22353250 
Ti     -19.78617629      55.21792710       9.72873432 
Ti     -15.15515578      45.37297360       8.79494459 
Ti     -14.33798981      43.55084574      10.74697603 
Ti     -17.91064617      48.38225854      10.72033655 
Ti     -18.35398143      50.29336889       8.63590565 
Ti     -18.11359826      44.39051649       8.12312710 
Ti     -22.69536638      54.51428944       8.97873977 
Ti     -20.27992640      52.59665513       8.69004034 
Ti     -19.65017859      46.11389873       9.97518415 
Ti     -29.93070178      57.48628580      10.47388182 
Ti     -21.88059537      47.20865027       8.61259316 
Ti     -26.46224204      52.18499087      10.63863403 
Ti     -15.93854125      48.37573473       8.34720688 
Ti     -23.11863691      51.41519473       9.81043667 
Ti     -12.41186250      45.60439424       9.70209400 
Ti     -25.59217376      49.95210869       9.10241654 
Ti     -25.72817826      55.37113166       9.69389003 
Ti     -17.53678010      52.78023423       9.60811186 
Ti     -21.45739618      44.05456164       9.20281700 
Ti     -20.16004213      50.81995159      10.84095976 
S     -14.12544389      47.45892130       9.79455308 
S     -20.06752037      48.66125092       9.52117190 
S     -23.57137829      56.14126455      10.65451871 
S     -16.16304636      50.41988715       9.73264387 
S     -17.29559096      46.50209916       9.18042801 
S     -29.51335832      54.93893487      10.92789964 
S     -21.33831699      56.38792478       8.14551759 
S     -27.47581655      57.63561980       9.70334343 
S     -23.23759089      49.25840121       8.55366759 
S     -22.10506370      45.96456482      10.74572292 
S     -27.28037427      53.63162214       8.77227541 
S     -21.53377471      53.18029954      10.71643163 
Ti      31.81923764       4.18405562       7.63205459 
Ti      20.30912874      13.47205128       5.40787166 
Ti      15.15051146      11.63637429       5.59022168 
Ti      18.86209198       8.89291748       5.10040540 
Ti      24.00170528      11.17292855       6.60560721 
Ti      28.63272579       1.32797505       5.67181748 
Ti      18.50292137      13.95079266       7.62384893 
Ti      25.87723541       4.33725999       7.59720944 
Ti      25.43390015       6.24837035       5.51277855 
Ti      25.67428332       0.34551794       5.00000000 
Ti      21.09251519      10.46929090       5.85561266 
Ti      23.50795518       8.55165658       5.56691324 
Ti      24.13770299       2.06890018       6.85205704 
Ti      13.85717980      13.44128725       7.35075472 
Ti      21.90728621       3.16365172       5.48946605 
Ti      29.20969597       8.13999233       7.51550693 
Ti      27.84934033       4.33073618       5.22407978 
Ti      20.66924467       7.37019618       6.68730956 
Ti      31.37601908       1.55939569       6.57896690 
Ti      30.07976425       5.90711014       5.97928944 
Ti      18.05970331      11.32613312       6.57076292 
Ti      26.25110147       8.73523568       6.48498475 
Ti      34.21454183       0.00956309       6.07968989 
Ti      23.62783945       6.77495304       7.71783266 
S      29.66243769       3.41392275       6.67142598 
S      23.72036121       4.61625238       6.39804480 
S      20.21650328      12.09626600       7.53139161 
S      27.62483521       6.37488860       6.60951676 
S      26.49229062       2.45710061       6.05730090 
S      26.15857969      10.89393632       7.80477253 
S      22.44956459      12.34292623       5.02239048 
S      16.31206502      13.59062125       6.58021632 
S      20.55029068       5.21340266       5.43054049 
S      33.56687432       1.91956627       7.62259582 
S      16.50750731       9.58662359       5.64914831 
S      22.25410687       9.13530100       7.59330453 
Ti      20.87226724       4.89421775      10.75518169 
Ti      21.24621478      14.18221340       8.53099877 
Ti      16.08759751      12.34653641       8.71334879 
Ti      19.79917802       9.60307960       8.22353250 
Ti      24.93879132      11.88309068       9.72873432 
Ti      29.56981184       2.03813718       8.79494459 
Ti      30.38697780       0.21600931      10.74697603 
Ti      26.81432145       5.04742212      10.72033655 
Ti      26.37098619       6.95853247       8.63590565 
Ti      26.61136936       1.05568006       8.12312710 
Ti      22.02960124      11.17945302       8.97873977 
Ti      24.44504122       9.26181871       8.69004034 
Ti      25.07478903       2.77906231       9.97518415 
Ti      14.79426584      14.15144937      10.47388182 
Ti      22.84437225       3.87381384       8.61259316 
Ti      18.26272558       8.85015445      10.63863403 
Ti      28.78642637       5.04089831       8.34720688 
Ti      21.60633071       8.08035831       9.81043667 
Ti      32.31310512       2.26955782       9.70209400 
Ti      19.13279386       6.61727227       9.10241654 
Ti      18.99678935      12.03629524       9.69389003 
Ti      27.18818751       9.44539780       9.60811186 
Ti      23.26757144       0.71972521       9.20281700 
Ti      24.56492549       7.48511516      10.84095976 
S      30.59952373       4.12408488       9.79455308 
S      24.65744725       5.32641450       9.52117190 
S      21.15358932      12.80642813      10.65451871 
S      28.56192125       7.08505073       9.73264387 
S      27.42937666       3.16726273       9.18042801 
S      15.21160930      11.60409845      10.92789964 
S      23.38665063      13.05308836       8.14551759 
S      17.24915106      14.30078337       9.70334343 
S      21.48737673       5.92356478       8.55366759 
S      22.61990392       2.62972839      10.74572292 
S      17.44459335      10.29678572       8.77227541 
S      23.19119291       9.84546312      10.71643163 
Ti      20.87226724      18.62900110       7.63205459 
Ti       9.36215834      27.91699675       5.40787166 
Ti       4.20354107      26.08131976       5.59022168 
Ti       7.91512159      23.33786295       5.10040540 
Ti      13.05473489      25.61787403       6.60560721 
Ti      17.68575540      15.77292053       5.67181748 
Ti       7.55595097      28.39573814       7.62384893 
Ti      14.93026502      18.78220547       7.59720944 
Ti      14.48692975      20.69331582       5.51277855 
Ti      14.72731292      14.79046341       5.00000000 
Ti      10.14554480      24.91423637       5.85561266 
Ti      12.56098478      22.99660206       5.56691324 
Ti      13.19073260      16.51384566       6.85205704 
Ti       2.91020940      27.88623272       7.35075472 
Ti      10.96031581      17.60859719       5.48946605 
Ti      18.26272558      22.58493780       7.51550693 
Ti      16.90236993      18.77568166       5.22407978 
Ti       9.72227428      21.81514166       6.68730956 
Ti      20.42904868      16.00434117       6.57896690 
Ti      19.13279386      20.35205562       5.97928944 
Ti       7.11273292      25.77107859       6.57076292 
Ti      15.30413108      23.18018115       6.48498475 
Ti      23.26757144      14.45450856       6.07968989 
Ti      12.68086905      21.21989851       7.71783266 
S      18.71546730      17.85886823       6.67142598 
S      12.77339081      19.06119785       6.39804480 
S       9.26953289      26.54121148       7.53139161 
S      16.67786482      20.81983408       6.60951676 
S      15.54532022      16.90204608       6.05730090 
S      15.21160930      25.33888180       7.80477253 
S      11.50259419      26.78787171       5.02239048 
S       5.36509463      28.03556672       6.58021632 
S       9.60332029      19.65834813       5.43054049 
S      22.61990392      16.36451174       7.62259582 
S       5.56053691      24.03156907       5.64914831 
S      11.30713648      23.58024647       7.59330453 
Ti       9.92529685      19.33916322      10.75518169 
Ti      10.29924438      28.62715888       8.53099877 
Ti       5.14062711      26.79148189       8.71334879 
Ti       8.85220763      24.04802508       8.22353250 
Ti      13.99182093      26.32803615       9.72873432 
Ti      18.62284144      16.48308265       8.79494459 
Ti      19.44000741      14.66095479      10.74697603 
Ti      15.86735106      19.49236759      10.72033655 
Ti      15.42401579      21.40347794       8.63590565 
Ti      15.66439897      15.50062554       8.12312710 
Ti      11.08263084      25.62439849       8.97873977 
Ti      13.49807082      23.70676418       8.69004034 
Ti      14.12781864      17.22400778       9.97518415 
Ti       3.84729545      28.59639485      10.47388182 
Ti      11.89740185      18.31875932       8.61259316 
Ti       7.31575518      23.29509992      10.63863403 
Ti      17.83945597      19.48584378       8.34720688 
Ti      10.65936032      22.52530378       9.81043667 
Ti      21.36613472      16.71450329       9.70209400 
Ti       8.18582346      21.06221774       9.10241654 
Ti       8.04981896      26.48124071       9.69389003 
Ti      16.24121712      23.89034328       9.60811186 
Ti      12.32060104      15.16467069       9.20281700 
Ti      13.61795509      21.93006064      10.84095976 
S      19.65255334      18.56903035       9.79455308 
S      13.71047685      19.77135997       9.52117190 
S      10.20661893      27.25137360      10.65451871 
S      17.61495086      21.52999620       9.73264387 
S      16.48240626      17.61220821       9.18042801 
S       4.26463890      26.04904392      10.92789964 
S      12.43968023      27.49803383       8.14551759 
S       6.30218067      28.74572885       9.70334343 
S      10.54040633      20.36851026       8.55366759 
S      11.67293353      17.07467387      10.74572292 
S       6.49762295      24.74173119       8.77227541 
S      12.24422252      24.29040859      10.71643163 
Ti      43.70329408       4.18405562       7.63205459 
Ti      32.19318517      13.47205128       5.40787166 
Ti      27.03456790      11.63637429       5.59022168 
Ti      30.74614842       8.89291748       5.10040540 
Ti      35.88576172      11.17292855       6.60560721 
Ti      40.51678223       1.32797505       5.67181748 
Ti      30.38697780      13.95079266       7.62384893 
Ti      37.76129185       4.33725999       7.59720944 
Ti      37.31795658       6.24837035       5.51277855 
Ti      37.55833976       0.34551794       5.00000000 
Ti      32.97657163      10.46929090       5.85561266 
Ti      35.39201161       8.55165658       5.56691324 
Ti      36.02175943       2.06890018       6.85205704 
Ti      25.74123624      13.44128725       7.35075472 
Ti      33.79134264       3.16365172       5.48946605 
Ti      41.09375241       8.13999233       7.51550693 
Ti      39.73339676       4.33073618       5.22407978 
Ti      32.55330111       7.37019618       6.68730956 
Ti      43.26007551       1.55939569       6.57896690 
Ti      41.96382069       5.90711014       5.97928944 
Ti      29.94375975      11.32613312       6.57076292 
Ti      38.13515791       8.73523568       6.48498475 
Ti      46.09859827       0.00956309       6.07968989 
Ti      35.51189588       6.77495304       7.71783266 
S      41.54649413       3.41392275       6.67142598 
S      35.60441764       4.61625238       6.39804480 
S      32.10055972      12.09626600       7.53139161 
S      39.50889165       6.37488860       6.60951676 
S      38.37634705       2.45710061       6.05730090 
S      38.04263613      10.89393632       7.80477253 
S      34.33362102      12.34292623       5.02239048 
S      28.19612146      13.59062125       6.58021632 
S      32.43434712       5.21340266       5.43054049 
S      45.45093075       1.91956627       7.62259582 
S      28.39156374       9.58662359       5.64914831 
S      34.13816331       9.13530100       7.59330453 
Ti      32.75632368       4.89421775      10.75518169 
Ti      33.13027121      14.18221340       8.53099877 
Ti      27.97165394      12.34653641       8.71334879 
Ti      31.68323446       9.60307960       8.22353250 
Ti      36.82284776      11.88309068       9.72873432 
Ti      41.45386827       2.03813718       8.79494459 
Ti      42.27103424       0.21600931      10.74697603 
Ti      38.69837789       5.04742212      10.72033655 
Ti      38.25504262       6.95853247       8.63590565 
Ti      38.49542580       1.05568006       8.12312710 
Ti      33.91365767      11.17945302       8.97873977 
Ti      36.32909765       9.26181871       8.69004034 
Ti      36.95884547       2.77906231       9.97518415 
Ti      26.67832228      14.15144937      10.47388182 
Ti      34.72842869       3.87381384       8.61259316 
Ti      30.14678201       8.85015445      10.63863403 
Ti      40.67048280       5.04089831       8.34720688 
Ti      33.49038715       8.08035831       9.81043667 
Ti      44.19716156       2.26955782       9.70209400 
Ti      31.01685030       6.61727227       9.10241654 
Ti      30.88084579      12.03629524       9.69389003 
Ti      39.07224395       9.44539780       9.60811186 
Ti      35.15162787       0.71972521       9.20281700 
Ti      36.44898193       7.48511516      10.84095976 
S      42.48358017       4.12408488       9.79455308 
S      36.54150368       5.32641450       9.52117190 
S      33.03764576      12.80642813      10.65451871 
S      40.44597769       7.08505073       9.73264387 
S      39.31343310       3.16726273       9.18042801 
S      27.09566573      11.60409845      10.92789964 
S      35.27070706      13.05308836       8.14551759 
S      29.13320750      14.30078337       9.70334343 
S      33.37143316       5.92356478       8.55366759 
S      34.50396036       2.62972839      10.74572292 
S      29.32864978      10.29678572       8.77227541 
S      35.07524935       9.84546312      10.71643163 
Ti      32.75632368      18.62900110       7.63205459 
Ti      21.24621478      27.91699675       5.40787166 
Ti      16.08759751      26.08131976       5.59022168 
Ti      19.79917802      23.33786295       5.10040540 
Ti      24.93879132      25.61787403       6.60560721 
Ti      29.56981184      15.77292053       5.67181748 
Ti      19.44000741      28.39573814       7.62384893 
Ti      26.81432145      18.78220547       7.59720944 
Ti      26.37098619      20.69331582       5.51277855 
Ti      26.61136936      14.79046341       5.00000000 
Ti      22.02960124      24.91423637       5.85561266 
Ti      24.44504122      22.99660206       5.56691324 
Ti      25.07478903      16.51384566       6.85205704 
Ti      14.79426584      27.88623272       7.35075472 
Ti      22.84437225      17.60859719       5.48946605 
Ti      30.14678201      22.58493780       7.51550693 
Ti      28.78642637      18.77568166       5.22407978 
Ti      21.60633071      21.81514166       6.68730956 
Ti      32.31310512      16.00434117       6.57896690 
Ti      31.01685030      20.35205562       5.97928944 
Ti      18.99678935      25.77107859       6.57076292 
Ti      27.18818751      23.18018115       6.48498475 
Ti      35.15162787      14.45450856       6.07968989 
Ti      24.56492549      21.21989851       7.71783266 
S      30.59952373      17.85886823       6.67142598 
S      24.65744725      19.06119785       6.39804480 
S      21.15358932      26.54121148       7.53139161 
S      28.56192125      20.81983408       6.60951676 
S      27.42937666      16.90204608       6.05730090 
S      27.09566573      25.33888180       7.80477253 
S      23.38665063      26.78787171       5.02239048 
S      17.24915106      28.03556672       6.58021632 
S      21.48737673      19.65834813       5.43054049 
S      34.50396036      16.36451174       7.62259582 
S      17.44459335      24.03156907       5.64914831 
S      23.19119291      23.58024647       7.59330453 
Ti      21.80935329      19.33916322      10.75518169 
Ti      22.18330082      28.62715888       8.53099877 
Ti      17.02468355      26.79148189       8.71334879 
Ti      20.73626407      24.04802508       8.22353250 
Ti      25.87587737      26.32803615       9.72873432 
Ti      30.50689788      16.48308265       8.79494459 
Ti      31.32406385      14.66095479      10.74697603 
Ti      27.75140749      19.49236759      10.72033655 
Ti      27.30807223      21.40347794       8.63590565 
Ti      27.54845540      15.50062554       8.12312710 
Ti      22.96668728      25.62439849       8.97873977 
Ti      25.38212726      23.70676418       8.69004034 
Ti      26.01187507      17.22400778       9.97518415 
Ti      15.73135188      28.59639485      10.47388182 
Ti      23.78145829      18.31875932       8.61259316 
Ti      19.19981162      23.29509992      10.63863403 
Ti      29.72351241      19.48584378       8.34720688 
Ti      22.54341675      22.52530378       9.81043667 
Ti      33.25019116      16.71450329       9.70209400 
Ti      20.06987990      21.06221774       9.10241654 
Ti      19.93387540      26.48124071       9.69389003 
Ti      28.12527356      23.89034328       9.60811186 
Ti      24.20465748      15.16467069       9.20281700 
Ti      25.50201153      21.93006064      10.84095976 
S      31.53660977      18.56903035       9.79455308 
S      25.59453329      19.77135997       9.52117190 
S      22.09067537      27.25137360      10.65451871 
S      29.49900730      21.52999620       9.73264387 
S      28.36646270      17.61220821       9.18042801 
S      16.14869534      26.04904392      10.92789964 
S      24.32373667      27.49803383       8.14551759 
S      18.18623711      28.74572885       9.70334343 
S      22.42446277      20.36851026       8.55366759 
S      23.55698996      17.07467387      10.74572292 
S      18.38167939      24.74173119       8.77227541 
S      24.12827895      24.29040859      10.71643163 
Ti       9.92529685      33.07394657       7.63205459 
Ti      -1.58481205      42.36194223       5.40787166 
Ti      -6.74342933      40.52626524       5.59022168 
Ti      -3.03184881      37.78280843       5.10040540 
Ti       2.10776449      40.06281950       6.60560721 
Ti       6.73878500      30.21786600       5.67181748 
Ti      -3.39101942      42.84068361       7.62384893 
Ti       3.98329462      33.22715094       7.59720944 
Ti       3.53995936      35.13826130       5.51277855 
Ti       3.78034253      29.23540889       5.00000000 
Ti      -0.80142560      39.35918185       5.85561266 
Ti       1.61401439      37.44154753       5.56691324 
Ti       2.24376220      30.95879113       6.85205704 
Ti      -8.03676099      42.33117820       7.35075472 
Ti       0.01334542      32.05354267       5.48946605 
Ti       7.31575518      37.02988328       7.51550693 
Ti       5.95539954      33.22062713       5.22407978 
Ti      -1.22469612      36.26008713       6.68730956 
Ti       9.48207829      30.44928664       6.57896690 
Ti       8.18582346      34.79700109       5.97928944 
Ti      -3.83423748      40.21602407       6.57076292 
Ti       4.35716068      37.62512663       6.48498475 
Ti      12.32060104      28.89945404       6.07968989 
Ti       1.73389866      35.66484399       7.71783266 
S       7.76849690      32.30381370       6.67142598 
S       1.82642042      33.50614333       6.39804480 
S      -1.67743751      40.98615695       7.53139161 
S       5.73089442      35.26477955       6.60951676 
S       4.59834983      31.34699156       6.05730090 
S       4.26463890      39.78382727       7.80477253 
S       0.55562380      41.23281718       5.02239048 
S      -5.58187577      42.48051220       6.58021632 
S      -1.34365011      34.10329361       5.43054049 
S      11.67293353      30.80945722       7.62259582 
S      -5.38643348      38.47651454       5.64914831 
S       0.36016608      38.02519195       7.59330453 
Ti      -1.02167355      33.78410870      10.75518169 
Ti      -0.64772601      43.07210435       8.53099877 
Ti      -5.80634328      41.23642736       8.71334879 
Ti      -2.09476277      38.49297055       8.22353250 
Ti       3.04485053      40.77298163       9.72873432 
Ti       7.67587105      30.92802813       8.79494459 
Ti       8.49303701      29.10590026      10.74697603 
Ti       4.92038066      33.93731307      10.72033655 
Ti       4.47704540      35.84842342       8.63590565 
Ti       4.71742857      29.94557101       8.12312710 
Ti       0.13566045      40.06934397       8.97873977 
Ti       2.55110043      38.15170966       8.69004034 
Ti       3.18084824      31.66895326       9.97518415 
Ti      -7.09967495      43.04134032      10.47388182 
Ti       0.95043146      32.76370479       8.61259316 
Ti      -3.63121521      37.74004540      10.63863403 
Ti       6.89248558      33.93078926       8.34720688 
Ti      -0.28761008      36.97024926       9.81043667 
Ti      10.41916433      31.15944877       9.70209400 
Ti      -2.76114693      35.50716322       9.10241654 
Ti      -2.89715144      40.92618619       9.69389003 
Ti       5.29424672      38.33528875       9.60811186 
Ti       1.37363065      29.60961616       9.20281700 
Ti       2.67098470      36.37500611      10.84095976 
S       8.70558294      33.01397583       9.79455308 
S       2.76350646      34.21630545       9.52117190 
S      -0.74035147      41.69631908      10.65451871 
S       6.66798046      35.97494168       9.73264387 
S       5.53543587      32.05715368       9.18042801 
S      -6.68233149      40.49398940      10.92789964 
S       1.49270984      41.94297931       8.14551759 
S      -4.64478973      43.19067432       9.70334343 
S      -0.40656406      34.81345573       8.55366759 
S       0.72596313      31.51961934      10.74572292 
S      -4.44934744      39.18667667       8.77227541 
S       1.29725212      38.73535407      10.71643163 
Ti      -1.02167355      47.51889205       7.63205459 
Ti     -12.53178245      56.80688770       5.40787166 
Ti     -17.69039972      54.97121071       5.59022168 
Ti     -13.97881920      52.22775390       5.10040540 
Ti      -8.83920590      54.50776498       6.60560721 
Ti      -4.20818539      44.66281148       5.67181748 
Ti     -14.33798982      57.28562909       7.62384893 
Ti      -6.96367577      47.67209642       7.59720944 
Ti      -7.40701104      49.58320677       5.51277855 
Ti      -7.16662787      43.68035436       5.00000000 
Ti     -11.74839599      53.80412732       5.85561266 
Ti      -9.33295601      51.88649301       5.56691324 
Ti      -8.70320819      45.40373661       6.85205704 
Ti     -18.98373139      56.77612367       7.35075472 
Ti     -10.93362498      46.49848814       5.48946605 
Ti      -3.63121521      51.47482875       7.51550693 
Ti      -4.99157086      47.66557261       5.22407978 
Ti     -12.17166651      50.70503261       6.68730956 
Ti      -1.46489211      44.89423212       6.57896690 
Ti      -2.76114693      49.24194657       5.97928944 
Ti     -14.78120787      54.66096954       6.57076292 
Ti      -6.58980971      52.07007210       6.48498475 
Ti       1.37363065      43.34439951       6.07968989 
Ti      -9.21307174      50.10978946       7.71783266 
S      -3.17847349      46.74875918       6.67142598 
S      -9.12054998      47.95108880       6.39804480 
S     -12.62440790      55.43110243       7.53139161 
S      -5.21607597      49.70972503       6.60951676 
S      -6.34862057      45.79193703       6.05730090 
S      -6.68233149      54.22877275       7.80477253 
S     -10.39134660      55.67776266       5.02239048 
S     -16.52884616      56.92545767       6.58021632 
S     -12.29062050      48.54823908       5.43054049 
S       0.72596313      45.25440269       7.62259582 
S     -16.33340388      52.92146002       5.64914831 
S     -10.58680431      52.47013742       7.59330453 
Ti     -11.96864394      48.22905417      10.75518169 
Ti     -11.59469641      57.51704983       8.53099877 
Ti     -16.75331368      55.68137284       8.71334879 
Ti     -13.04173316      52.93791603       8.22353250 
Ti      -7.90211986      55.21792710       9.72873432 
Ti      -3.27109935      45.37297360       8.79494459 
Ti      -2.45393338      43.55084574      10.74697603 
Ti      -6.02658973      48.38225854      10.72033655 
Ti      -6.46992500      50.29336889       8.63590565 
Ti      -6.22954182      44.39051649       8.12312710 
Ti     -10.81130995      54.51428944       8.97873977 
Ti      -8.39586997      52.59665513       8.69004034 
Ti      -7.76612215      46.11389873       9.97518415 
Ti     -18.04664534      57.48628580      10.47388182 
Ti      -9.99653894      47.20865027       8.61259316 
Ti     -14.57818561      52.18499087      10.63863403 
Ti      -4.05448482      48.37573473       8.34720688 
Ti     -11.23458047      51.41519473       9.81043667 
Ti      -0.52780607      45.60439424       9.70209400 
Ti     -13.70811733      49.95210869       9.10241654 
Ti     -13.84412183      55.37113166       9.69389003 
Ti      -5.65272367      52.78023423       9.60811186 
Ti      -9.57333975      44.05456164       9.20281700 
Ti      -8.27598570      50.81995159      10.84095976 
S      -2.24138745      47.45892130       9.79455308 
S      -8.18346394      48.66125092       9.52117190 
S     -11.68732186      56.14126455      10.65451871 
S      -4.27898993      50.41988715       9.73264387 
S      -5.41153453      46.50209916       9.18042801 
S     -17.62930189      54.93893487      10.92789964 
S      -9.45426056      56.38792478       8.14551759 
S     -15.59176012      57.63561980       9.70334343 
S     -11.35353446      49.25840121       8.55366759 
S     -10.22100726      45.96456482      10.74572292 
S     -15.39631784      53.63162214       8.77227541 
S      -9.64971827      53.18029954      10.71643163 
Ti      21.80935329      33.07394657       7.63205459 
Ti      10.29924438      42.36194223       5.40787166 
Ti       5.14062711      40.52626524       5.59022168 
Ti       8.85220763      37.78280843       5.10040540 
Ti      13.99182093      40.06281950       6.60560721 
Ti      18.62284144      30.21786600       5.67181748 
Ti       8.49303701      42.84068361       7.62384893 
Ti      15.86735106      33.22715094       7.59720944 
Ti      15.42401579      35.13826130       5.51277855 
Ti      15.66439897      29.23540889       5.00000000 
Ti      11.08263084      39.35918185       5.85561266 
Ti      13.49807082      37.44154753       5.56691324 
Ti      14.12781864      30.95879113       6.85205704 
Ti       3.84729545      42.33117820       7.35075472 
Ti      11.89740185      32.05354267       5.48946605 
Ti      19.19981162      37.02988328       7.51550693 
Ti      17.83945597      33.22062713       5.22407978 
Ti      10.65936032      36.26008713       6.68730956 
Ti      21.36613472      30.44928664       6.57896690 
Ti      20.06987990      34.79700109       5.97928944 
Ti       8.04981896      40.21602407       6.57076292 
Ti      16.24121712      37.62512663       6.48498475 
Ti      24.20465748      28.89945404       6.07968989 
Ti      13.61795509      35.66484399       7.71783266 
S      19.65255334      32.30381370       6.67142598 
S      13.71047685      33.50614333       6.39804480 
S      10.20661893      40.98615695       7.53139161 
S      17.61495086      35.26477955       6.60951676 
S      16.48240626      31.34699156       6.05730090 
S      16.14869534      39.78382727       7.80477253 
S      12.43968023      41.23281718       5.02239048 
S       6.30218067      42.48051220       6.58021632 
S      10.54040633      34.10329361       5.43054049 
S      23.55698996      30.80945722       7.62259582 
S       6.49762295      38.47651454       5.64914831 
S      12.24422252      38.02519195       7.59330453 
Ti      10.86238289      33.78410870      10.75518169 
Ti      11.23633042      43.07210435       8.53099877 
Ti       6.07771315      41.23642736       8.71334879 
Ti       9.78929367      38.49297055       8.22353250 
Ti      14.92890697      40.77298163       9.72873432 
Ti      19.55992748      30.92802813       8.79494459 
Ti      20.37709345      29.10590026      10.74697603 
Ti      16.80443710      33.93731307      10.72033655 
Ti      16.36110183      35.84842342       8.63590565 
Ti      16.60148501      29.94557101       8.12312710 
Ti      12.01971688      40.06934397       8.97873977 
Ti      14.43515686      38.15170966       8.69004034 
Ti      15.06490468      31.66895326       9.97518415 
Ti       4.78438149      43.04134032      10.47388182 
Ti      12.83448790      32.76370479       8.61259316 
Ti       8.25284122      37.74004540      10.63863403 
Ti      18.77654201      33.93078926       8.34720688 
Ti      11.59644636      36.97024926       9.81043667 
Ti      22.30322077      31.15944877       9.70209400 
Ti       9.12290951      35.50716322       9.10241654 
Ti       8.98690500      40.92618619       9.69389003 
Ti      17.17830316      38.33528875       9.60811186 
Ti      13.25768708      29.60961616       9.20281700 
Ti      14.55504114      36.37500611      10.84095976 
S      20.58963938      33.01397583       9.79455308 
S      14.64756289      34.21630545       9.52117190 
S      11.14370497      41.69631908      10.65451871 
S      18.55203690      35.97494168       9.73264387 
S      17.41949231      32.05715368       9.18042801 
S       5.20172494      40.49398940      10.92789964 
S      13.37676627      41.94297931       8.14551759 
S       7.23926671      43.19067432       9.70334343 
S      11.47749237      34.81345573       8.55366759 
S      12.61001957      31.51961934      10.74572292 
S       7.43470899      39.18667667       8.77227541 
S      13.18130856      38.73535407      10.71643163 
Ti      10.86238289      47.51889205       7.63205459 
Ti      -0.64772601      56.80688770       5.40787166 
Ti      -5.80634328      54.97121071       5.59022168 
Ti      -2.09476277      52.22775390       5.10040540 
Ti       3.04485053      54.50776498       6.60560721 
Ti       7.67587105      44.66281148       5.67181748 
Ti      -2.45393338      57.28562909       7.62384893 
Ti       4.92038066      47.67209642       7.59720944 
Ti       4.47704540      49.58320677       5.51277855 
Ti       4.71742857      43.68035436       5.00000000 
Ti       0.13566045      53.80412732       5.85561266 
Ti       2.55110043      51.88649301       5.56691324 
Ti       3.18084824      45.40373661       6.85205704 
Ti      -7.09967495      56.77612367       7.35075472 
Ti       0.95043146      46.49848814       5.48946605 
Ti       8.25284122      51.47482875       7.51550693 
Ti       6.89248558      47.66557261       5.22407978 
Ti      -0.28761008      50.70503261       6.68730956 
Ti      10.41916433      44.89423212       6.57896690 
Ti       9.12290951      49.24194657       5.97928944 
Ti      -2.89715144      54.66096954       6.57076292 
Ti       5.29424672      52.07007210       6.48498475 
Ti      13.25768708      43.34439951       6.07968989 
Ti       2.67098470      50.10978946       7.71783266 
S       8.70558294      46.74875918       6.67142598 
S       2.76350646      47.95108880       6.39804480 
S      -0.74035147      55.43110243       7.53139161 
S       6.66798046      49.70972503       6.60951676 
S       5.53543587      45.79193703       6.05730090 
S       5.20172494      54.22877275       7.80477253 
S       1.49270984      55.67776266       5.02239048 
S      -4.64478973      56.92545767       6.58021632 
S      -0.40656406      48.54823908       5.43054049 
S      12.61001957      45.25440269       7.62259582 
S      -4.44934744      52.92146002       5.64914831 
S       1.29725212      52.47013742       7.59330453 
Ti      -0.08458750      48.22905417      10.75518169 
Ti       0.28936003      57.51704983       8.53099877 
Ti      -4.86925724      55.68137284       8.71334879 
Ti      -1.15767672      52.93791603       8.22353250 
Ti       3.98193658      55.21792710       9.72873432 
Ti       8.61295709      45.37297360       8.79494459 
Ti       9.43012306      43.55084574      10.74697603 
Ti       5.85746670      48.38225854      10.72033655 
Ti       5.41413144      50.29336889       8.63590565 
Ti       5.65451461      44.39051649       8.12312710 
Ti       1.07274649      54.51428944       8.97873977 
Ti       3.48818647      52.59665513       8.69004034 
Ti       4.11793428      46.11389873       9.97518415 
Ti      -6.16258891      57.48628580      10.47388182 
Ti       1.88751750      47.20865027       8.61259316 
Ti      -2.69412917      52.18499087      10.63863403 
Ti       7.82957162      48.37573473       8.34720688 
Ti       0.64947596      51.41519473       9.81043667 
Ti      11.35625037      45.60439424       9.70209400 
Ti      -1.82406089      49.95210869       9.10241654 
Ti      -1.96006539      55.37113166       9.69389003 
Ti       6.23133277      52.78023423       9.60811186 
Ti       2.31071669      44.05456164       9.20281700 
Ti       3.60807074      50.81995159      10.84095976 
S       9.64266898      47.45892130       9.79455308 
S       3.70059250      48.66125092       9.52117190 
S       0.19673458      56.14126455      10.65451871 
S       7.60506651      50.41988715       9.73264387 
S       6.47252191      46.50209916       9.18042801 
S      -5.74524545      54.93893487      10.92789964 
S       2.42979588      56.38792478       8.14551759 
S      -3.70770368      57.63561980       9.70334343 
S       0.53052198      49.25840121       8.55366759 
S       1.66304917      45.96456482      10.74572292 
S      -3.51226140      53.63162214       8.77227541 
S       2.23433816      53.18029954      10.71643163 
