512
Lattice="26.2906444518 0.0 0.0 1.582889302356e-15 25.8505440664 0.0 0.0 0.0 19.4868182085" Properties=species:S:1:pos:R:3 unit_cell=conventional pbc="T T F"
Ti       6.57266029       0.80782950       5.00000000 
S       1.64316610       2.42348851       5.94868097 
Ti       3.28632973       0.80782950       5.00000000 
S       4.92949666       2.42348851       5.94868097 
Ti       4.92949501       0.80782950       7.84604575 
S       0.00000082       2.42348851       8.79472671 
Ti       1.64316446       0.80782950       7.84604575 
S       3.28633138       2.42348851       8.79472671 
Ti       3.28632973       0.80782950      10.69209149 
S       4.92949666       2.42348851      11.64077246 
Ti       6.57266029       0.80782950      10.69209149 
S       1.64316610       2.42348851      11.64077246 
Ti       1.64316446       0.80782950      13.53813724 
S       3.28633138       2.42348851      14.48681821 
Ti       4.92949501       0.80782950      13.53813724 
S       0.00000082       2.42348851      14.48681821 
Ti       6.57266029       4.03914751       5.00000000 
S       1.64316610       5.65480651       5.94868097 
Ti       3.28632973       4.03914751       5.00000000 
S       4.92949666       5.65480651       5.94868097 
Ti       4.92949501       4.03914751       7.84604575 
S       0.00000082       5.65480651       8.79472671 
Ti       1.64316446       4.03914751       7.84604575 
S       3.28633138       5.65480651       8.79472671 
Ti       3.28632973       4.03914751      10.69209149 
S       4.92949666       5.65480651      11.64077246 
Ti       6.57266029       4.03914751      10.69209149 
S       1.64316610       5.65480651      11.64077246 
Ti       1.64316446       4.03914751      13.53813724 
S       3.28633138       5.65480651      14.48681821 
Ti       4.92949501       4.03914751      13.53813724 
S       0.00000082       5.65480651      14.48681821 
Ti       6.57266029       7.27046552       5.00000000 
S       1.64316610       8.88612452       5.94868097 
Ti       3.28632973       7.27046552       5.00000000 
S       4.92949666       8.88612452       5.94868097 
Ti       4.92949501       7.27046552       7.84604575 
S       0.00000082       8.88612452       8.79472671 
Ti       1.64316446       7.27046552       7.84604575 
S       3.28633138       8.88612452       8.79472671 
Ti       3.28632973       7.27046552      10.69209149 
S       4.92949666       8.88612452      11.64077246 
Ti       6.57266029       7.27046552      10.69209149 
S       1.64316610       8.88612452      11.64077246 
Ti       1.64316446       7.27046552      13.53813724 
S       3.28633138       8.88612452      14.48681821 
Ti       4.92949501       7.27046552      13.53813724 
S       0.00000082       8.88612452      14.48681821 
Ti       6.57266029      10.50178353       5.00000000 
S       1.64316610      12.11744253       5.94868097 
Ti       3.28632973      10.50178353       5.00000000 
S       4.92949666      12.11744253       5.94868097 
Ti       4.92949501      10.50178353       7.84604575 
S       0.00000082      12.11744253       8.79472671 
Ti       1.64316446      10.50178353       7.84604575 
S       3.28633138      12.11744253       8.79472671 
Ti       3.28632973      10.50178353      10.69209149 
S       4.92949666      12.11744253      11.64077246 
Ti       6.57266029      10.50178353      10.69209149 
S       1.64316610      12.11744253      11.64077246 
Ti       1.64316446      10.50178353      13.53813724 
S       3.28633138      12.11744253      14.48681821 
Ti       4.92949501      10.50178353      13.53813724 
S       0.00000082      12.11744253      14.48681821 
Ti      13.14532140       0.80782950       5.00000000 
S       8.21582721       2.42348851       5.94868097 
Ti       9.85899085       0.80782950       5.00000000 
S      11.50215777       2.42348851       5.94868097 
Ti      11.50215613       0.80782950       7.84604575 
S       6.57266193       2.42348851       8.79472671 
Ti       8.21582557       0.80782950       7.84604575 
S       9.85899249       2.42348851       8.79472671 
Ti       9.85899085       0.80782950      10.69209149 
S      11.50215777       2.42348851      11.64077246 
Ti      13.14532140       0.80782950      10.69209149 
S       8.21582721       2.42348851      11.64077246 
Ti       8.21582557       0.80782950      13.53813724 
S       9.85899249       2.42348851      14.48681821 
Ti      11.50215613       0.80782950      13.53813724 
S       6.57266193       2.42348851      14.48681821 
Ti      13.14532140       4.03914751       5.00000000 
S       8.21582721       5.65480651       5.94868097 
Ti       9.85899085       4.03914751       5.00000000 
S      11.50215777       5.65480651       5.94868097 
Ti      11.50215613       4.03914751       7.84604575 
S       6.57266193       5.65480651       8.79472671 
Ti       8.21582557       4.03914751       7.84604575 
S       9.85899249       5.65480651       8.79472671 
Ti       9.85899085       4.03914751      10.69209149 
S      11.50215777       5.65480651      11.64077246 
Ti      13.14532140       4.03914751      10.69209149 
S       8.21582721       5.65480651      11.64077246 
Ti       8.21582557       4.03914751      13.53813724 
S       9.85899249       5.65480651      14.48681821 
Ti      11.50215613       4.03914751      13.53813724 
S       6.57266193       5.65480651      14.48681821 
Ti      13.14532140       7.27046552       5.00000000 
S       8.21582721       8.88612452       5.94868097 
Ti       9.85899085       7.27046552       5.00000000 
S      11.50215777       8.88612452       5.94868097 
Ti      11.50215613       7.27046552       7.84604575 
S       6.57266193       8.88612452       8.79472671 
Ti       8.21582557       7.27046552       7.84604575 
S       9.85899249       8.88612452       8.79472671 
Ti       9.85899085       7.27046552      10.69209149 
S      11.50215777       8.88612452      11.64077246 
Ti      13.14532140       7.27046552      10.69209149 
S       8.21582721       8.88612452      11.64077246 
Ti       8.21582557       7.27046552      13.53813724 
S       9.85899249       8.88612452      14.48681821 
Ti      11.50215613       7.27046552      13.53813724 
S       6.57266193       8.88612452      14.48681821 
Ti      13.14532140      10.50178353       5.00000000 
S       8.21582721      12.11744253       5.94868097 
Ti       9.85899085      10.50178353       5.00000000 
S      11.50215777      12.11744253       5.94868097 
Ti      11.50215613      10.50178353       7.84604575 
S       6.57266193      12.11744253       8.79472671 
Ti       8.21582557      10.50178353       7.84604575 
S       9.85899249      12.11744253       8.79472671 
Ti       9.85899085      10.50178353      10.69209149 
S      11.50215777      12.11744253      11.64077246 
Ti      13.14532140      10.50178353      10.69209149 
S       8.21582721      12.11744253      11.64077246 
Ti       8.21582557      10.50178353      13.53813724 
S       9.85899249      12.11744253      14.48681821 
Ti      11.50215613      10.50178353      13.53813724 
S       6.57266193      12.11744253      14.48681821 
Ti       6.57266029      13.73310153       5.00000000 
S       1.64316610      15.34876054       5.94868097 
Ti       3.28632973      13.73310153       5.00000000 
S       4.92949666      15.34876054       5.94868097 
Ti       4.92949501      13.73310153       7.84604575 
S       0.00000082      15.34876054       8.79472671 
Ti       1.64316446      13.73310153       7.84604575 
S       3.28633138      15.34876054       8.79472671 
Ti       3.28632973      13.73310153      10.69209149 
S       4.92949666      15.34876054      11.64077246 
Ti       6.57266029      13.73310153      10.69209149 
S       1.64316610      15.34876054      11.64077246 
Ti       1.64316446      13.73310153      13.53813724 
S       3.28633138      15.34876054      14.48681821 
Ti       4.92949501      13.73310153      13.53813724 
S       0.00000082      15.34876054      14.48681821 
Ti       6.57266029      16.96441954       5.00000000 
S       1.64316610      18.58007854       5.94868097 
Ti       3.28632973      16.96441954       5.00000000 
S       4.92949666      18.58007854       5.94868097 
Ti       4.92949501      16.96441954       7.84604575 
S       0.00000082      18.58007854       8.79472671 
Ti       1.64316446      16.96441954       7.84604575 
S       3.28633138      18.58007854       8.79472671 
Ti       3.28632973      16.96441954      10.69209149 
S       4.92949666      18.58007854      11.64077246 
Ti       6.57266029      16.96441954      10.69209149 
S       1.64316610      18.58007854      11.64077246 
Ti       1.64316446      16.96441954      13.53813724 
S       3.28633138      18.58007854      14.48681821 
Ti       4.92949501      16.96441954      13.53813724 
S       0.00000082      18.58007854      14.48681821 
Ti       6.57266029      20.19573755       5.00000000 
S       1.64316610      21.81139655       5.94868097 
Ti       3.28632973      20.19573755       5.00000000 
S       4.92949666      21.81139655       5.94868097 
Ti       4.92949501      20.19573755       7.84604575 
S       0.00000082      21.81139655       8.79472671 
Ti       1.64316446      20.19573755       7.84604575 
S       3.28633138      21.81139655       8.79472671 
Ti       3.28632973      20.19573755      10.69209149 
S       4.92949666      21.81139655      11.64077246 
Ti       6.57266029      20.19573755      10.69209149 
S       1.64316610      21.81139655      11.64077246 
Ti       1.64316446      20.19573755      13.53813724 
S       3.28633138      21.81139655      14.48681821 
Ti       4.92949501      20.19573755      13.53813724 
S       0.00000082      21.81139655      14.48681821 
Ti       6.57266029      23.42705556       5.00000000 
S       1.64316610      25.04271456       5.94868097 
Ti       3.28632973      23.42705556       5.00000000 
S       4.92949666      25.04271456       5.94868097 
Ti       4.92949501      23.42705556       7.84604575 
S       0.00000082      25.04271456       8.79472671 
Ti       1.64316446      23.42705556       7.84604575 
S       3.28633138      25.04271456       8.79472671 
Ti       3.28632973      23.42705556      10.69209149 
S       4.92949666      25.04271456      11.64077246 
Ti       6.57266029      23.42705556      10.69209149 
S       1.64316610      25.04271456      11.64077246 
Ti       1.64316446      23.42705556      13.53813724 
S       3.28633138      25.04271456      14.48681821 
Ti       4.92949501      23.42705556      13.53813724 
S       0.00000082      25.04271456      14.48681821 
Ti      13.14532140      13.73310153       5.00000000 
S       8.21582721      15.34876054       5.94868097 
Ti       9.85899085      13.73310153       5.00000000 
S      11.50215777      15.34876054       5.94868097 
Ti      11.50215613      13.73310153       7.84604575 
S       6.57266193      15.34876054       8.79472671 
Ti       8.21582557      13.73310153       7.84604575 
S       9.85899249      15.34876054       8.79472671 
Ti       9.85899085      13.73310153      10.69209149 
S      11.50215777      15.34876054      11.64077246 
Ti      13.14532140      13.73310153      10.69209149 
S       8.21582721      15.34876054      11.64077246 
Ti       8.21582557      13.73310153      13.53813724 
S       9.85899249      15.34876054      14.48681821 
Ti      11.50215613      13.73310153      13.53813724 
S       6.57266193      15.34876054      14.48681821 
Ti      13.14532140      16.96441954       5.00000000 
S       8.21582721      18.58007854       5.94868097 
Ti       9.85899085      16.96441954       5.00000000 
S      11.50215777      18.58007854       5.94868097 
Ti      11.50215613      16.96441954       7.84604575 
S       6.57266193      18.58007854       8.79472671 
Ti       8.21582557      16.96441954       7.84604575 
S       9.85899249      18.58007854       8.79472671 
Ti       9.85899085      16.96441954      10.69209149 
S      11.50215777      18.58007854      11.64077246 
Ti      13.14532140      16.96441954      10.69209149 
S       8.21582721      18.58007854      11.64077246 
Ti       8.21582557      16.96441954      13.53813724 
S       9.85899249      18.58007854      14.48681821 
Ti      11.50215613      16.96441954      13.53813724 
S       6.57266193      18.58007854      14.48681821 
Ti      13.14532140      20.19573755       5.00000000 
S       8.21582721      21.81139655       5.94868097 
Ti       9.85899085      20.19573755       5.00000000 
S      11.50215777      21.81139655       5.94868097 
Ti      11.50215613      20.19573755       7.84604575 
S       6.57266193      21.81139655       8.79472671 
Ti       8.21582557      20.19573755       7.84604575 
S       9.85899249      21.81139655       8.79472671 
Ti       9.85899085      20.19573755      10.69209149 
S      11.50215777      21.81139655      11.64077246 
Ti      13.14532140      20.19573755      10.69209149 
S       8.21582721      21.81139655      11.64077246 
Ti       8.21582557      20.19573755      13.53813724 
S       9.85899249      21.81139655      14.48681821 
Ti      11.50215613      20.19573755      13.53813724 
S       6.57266193      21.81139655      14.48681821 
Ti      13.14532140      23.42705556       5.00000000 
S       8.21582721      25.04271456       5.94868097 
Ti       9.85899085      23.42705556       5.00000000 
S      11.50215777      25.04271456       5.94868097 
Ti      11.50215613      23.42705556       7.84604575 
S       6.57266193      25.04271456       8.79472671 
Ti       8.21582557      23.42705556       7.84604575 
S       9.85899249      25.04271456       8.79472671 
Ti       9.85899085      23.42705556      10.69209149 
S      11.50215777      25.04271456      11.64077246 
Ti      13.14532140      23.42705556      10.69209149 
S       8.21582721      25.04271456      11.64077246 
Ti       8.21582557      23.42705556      13.53813724 
S       9.85899249      25.04271456      14.48681821 
Ti      11.50215613      23.42705556      13.53813724 
S       6.57266193      25.04271456      14.48681821 
Ti      19.71798252       0.80782950       5.00000000 
S      14.78848833       2.42348851       5.94868097 
Ti      16.43165196       0.80782950       5.00000000 
S      18.07481889       2.42348851       5.94868097 
Ti      18.07481724       0.80782950       7.84604575 
S      13.14532305       2.42348851       8.79472671 
Ti      14.78848669       0.80782950       7.84604575 
S      16.43165361       2.42348851       8.79472671 
Ti      16.43165196       0.80782950      10.69209149 
S      18.07481889       2.42348851      11.64077246 
Ti      19.71798252       0.80782950      10.69209149 
S      14.78848833       2.42348851      11.64077246 
Ti      14.78848669       0.80782950      13.53813724 
S      16.43165361       2.42348851      14.48681821 
Ti      18.07481724       0.80782950      13.53813724 
S      13.14532305       2.42348851      14.48681821 
Ti      19.71798252       4.03914751       5.00000000 
S      14.78848833       5.65480651       5.94868097 
Ti      16.43165196       4.03914751       5.00000000 
S      18.07481889       5.65480651       5.94868097 
Ti      18.07481724       4.03914751       7.84604575 
S      13.14532305       5.65480651       8.79472671 
Ti      14.78848669       4.03914751       7.84604575 
S      16.43165361       5.65480651       8.79472671 
Ti      16.43165196       4.03914751      10.69209149 
S      18.07481889       5.65480651      11.64077246 
Ti      19.71798252       4.03914751      10.69209149 
S      14.78848833       5.65480651      11.64077246 
Ti      14.78848669       4.03914751      13.53813724 
S      16.43165361       5.65480651      14.48681821 
Ti      18.07481724       4.03914751      13.53813724 
S      13.14532305       5.65480651      14.48681821 
Ti      19.71798252       7.27046552       5.00000000 
S      14.78848833       8.88612452       5.94868097 
Ti      16.43165196       7.27046552       5.00000000 
S      18.07481889       8.88612452       5.94868097 
Ti      18.07481724       7.27046552       7.84604575 
S      13.14532305       8.88612452       8.79472671 
Ti      14.78848669       7.27046552       7.84604575 
S      16.43165361       8.88612452       8.79472671 
Ti      16.43165196       7.27046552      10.69209149 
S      18.07481889       8.88612452      11.64077246 
Ti      19.71798252       7.27046552      10.69209149 
S      14.78848833       8.88612452      11.64077246 
Ti      14.78848669       7.27046552      13.53813724 
S      16.43165361       8.88612452      14.48681821 
Ti      18.07481724       7.27046552      13.53813724 
S      13.14532305       8.88612452      14.48681821 
Ti      19.71798252      10.50178353       5.00000000 
S      14.78848833      12.11744253       5.94868097 
Ti      16.43165196      10.50178353       5.00000000 
S      18.07481889      12.11744253       5.94868097 
Ti      18.07481724      10.50178353       7.84604575 
S      13.14532305      12.11744253       8.79472671 
Ti      14.78848669      10.50178353       7.84604575 
S      16.43165361      12.11744253       8.79472671 
Ti      16.43165196      10.50178353      10.69209149 
S      18.07481889      12.11744253      11.64077246 
Ti      19.71798252      10.50178353      10.69209149 
S      14.78848833      12.11744253      11.64077246 
Ti      14.78848669      10.50178353      13.53813724 
S      16.43165361      12.11744253      14.48681821 
Ti      18.07481724      10.50178353      13.53813724 
S      13.14532305      12.11744253      14.48681821 
Ti      26.29064363       0.80782950       5.00000000 
S      21.36114944       2.42348851       5.94868097 
Ti      23.00431308       0.80782950       5.00000000 
S      24.64748000       2.42348851       5.94868097 
Ti      24.64747836       0.80782950       7.84604575 
S      19.71798416       2.42348851       8.79472671 
Ti      21.36114780       0.80782950       7.84604575 
S      23.00431472       2.42348851       8.79472671 
Ti      23.00431308       0.80782950      10.69209149 
S      24.64748000       2.42348851      11.64077246 
Ti      26.29064363       0.80782950      10.69209149 
S      21.36114944       2.42348851      11.64077246 
Ti      21.36114780       0.80782950      13.53813724 
S      23.00431472       2.42348851      14.48681821 
Ti      24.64747836       0.80782950      13.53813724 
S      19.71798416       2.42348851      14.48681821 
Ti      26.29064363       4.03914751       5.00000000 
S      21.36114944       5.65480651       5.94868097 
Ti      23.00431308       4.03914751       5.00000000 
S      24.64748000       5.65480651       5.94868097 
Ti      24.64747836       4.03914751       7.84604575 
S      19.71798416       5.65480651       8.79472671 
Ti      21.36114780       4.03914751       7.84604575 
S      23.00431472       5.65480651       8.79472671 
Ti      23.00431308       4.03914751      10.69209149 
S      24.64748000       5.65480651      11.64077246 
Ti      26.29064363       4.03914751      10.69209149 
S      21.36114944       5.65480651      11.64077246 
Ti      21.36114780       4.03914751      13.53813724 
S      23.00431472       5.65480651      14.48681821 
Ti      24.64747836       4.03914751      13.53813724 
S      19.71798416       5.65480651      14.48681821 
Ti      26.29064363       7.27046552       5.00000000 
S      21.36114944       8.88612452       5.94868097 
Ti      23.00431308       7.27046552       5.00000000 
S      24.64748000       8.88612452       5.94868097 
Ti      24.64747836       7.27046552       7.84604575 
S      19.71798416       8.88612452       8.79472671 
Ti      21.36114780       7.27046552       7.84604575 
S      23.00431472       8.88612452       8.79472671 
Ti      23.00431308       7.27046552      10.69209149 
S      24.64748000       8.88612452      11.64077246 
Ti      26.29064363       7.27046552      10.69209149 
S      21.36114944       8.88612452      11.64077246 
Ti      21.36114780       7.27046552      13.53813724 
S      23.00431472       8.88612452      14.48681821 
Ti      24.64747836       7.27046552      13.53813724 
S      19.71798416       8.88612452      14.48681821 
Ti      26.29064363      10.50178353       5.00000000 
S      21.36114944      12.11744253       5.94868097 
Ti      23.00431308      10.50178353       5.00000000 
S      24.64748000      12.11744253       5.94868097 
Ti      24.64747836      10.50178353       7.84604575 
S      19.71798416      12.11744253       8.79472671 
Ti      21.36114780      10.50178353       7.84604575 
S      23.00431472      12.11744253       8.79472671 
Ti      23.00431308      10.50178353      10.69209149 
S      24.64748000      12.11744253      11.64077246 
Ti      26.29064363      10.50178353      10.69209149 
S      21.36114944      12.11744253      11.64077246 
Ti      21.36114780      10.50178353      13.53813724 
S      23.00431472      12.11744253      14.48681821 
Ti      24.64747836      10.50178353      13.53813724 
S      19.71798416      12.11744253      14.48681821 
Ti      19.71798252      13.73310153       5.00000000 
S      14.78848833      15.34876054       5.94868097 
Ti      16.43165196      13.73310153       5.00000000 
S      18.07481889      15.34876054       5.94868097 
Ti      18.07481724      13.73310153       7.84604575 
S      13.14532305      15.34876054       8.79472671 
Ti      14.78848669      13.73310153       7.84604575 
S      16.43165361      15.34876054       8.79472671 
Ti      16.43165196      13.73310153      10.69209149 
S      18.07481889      15.34876054      11.64077246 
Ti      19.71798252      13.73310153      10.69209149 
S      14.78848833      15.34876054      11.64077246 
Ti      14.78848669      13.73310153      13.53813724 
S      16.43165361      15.34876054      14.48681821 
Ti      18.07481724      13.73310153      13.53813724 
S      13.14532305      15.34876054      14.48681821 
Ti      19.71798252      16.96441954       5.00000000 
S      14.78848833      18.58007854       5.94868097 
Ti      16.43165196      16.96441954       5.00000000 
S      18.07481889      18.58007854       5.94868097 
Ti      18.07481724      16.96441954       7.84604575 
S      13.14532305      18.58007854       8.79472671 
Ti      14.78848669      16.96441954       7.84604575 
S      16.43165361      18.58007854       8.79472671 
Ti      16.43165196      16.96441954      10.69209149 
S      18.07481889      18.58007854      11.64077246 
Ti      19.71798252      16.96441954      10.69209149 
S      14.78848833      18.58007854      11.64077246 
Ti      14.78848669      16.96441954      13.53813724 
S      16.43165361      18.58007854      14.48681821 
Ti      18.07481724      16.96441954      13.53813724 
S      13.14532305      18.58007854      14.48681821 
Ti      19.71798252      20.19573755       5.00000000 
S      14.78848833      21.81139655       5.94868097 
Ti      16.43165196      20.19573755       5.00000000 
S      18.07481889      21.81139655       5.94868097 
Ti      18.07481724      20.19573755       7.84604575 
S      13.14532305      21.81139655       8.79472671 
Ti      14.78848669      20.19573755       7.84604575 
S      16.43165361      21.81139655       8.79472671 
Ti      16.43165196      20.19573755      10.69209149 
S      18.07481889      21.81139655      11.64077246 
Ti      19.71798252      20.19573755      10.69209149 
S      14.78848833      21.81139655      11.64077246 
Ti      14.78848669      20.19573755      13.53813724 
S      16.43165361      21.81139655      14.48681821 
Ti      18.07481724      20.19573755      13.53813724 
S      13.14532305      21.81139655      14.48681821 
Ti      19.71798252      23.42705556       5.00000000 
S      14.78848833      25.04271456       5.94868097 
Ti      16.43165196      23.42705556       5.00000000 
S      18.07481889      25.04271456       5.94868097 
Ti      18.07481724      23.42705556       7.84604575 
S      13.14532305      25.04271456       8.79472671 
Ti      14.78848669      23.42705556       7.84604575 
S      16.43165361      25.04271456       8.79472671 
Ti      16.43165196      23.42705556      10.69209149 
S      18.07481889      25.04271456      11.64077246 
Ti      19.71798252      23.42705556      10.69209149 
S      14.78848833      25.04271456      11.64077246 
Ti      14.78848669      23.42705556      13.53813724 
S      16.43165361      25.04271456      14.48681821 
Ti      18.07481724      23.42705556      13.53813724 
S      13.14532305      25.04271456      14.48681821 
Ti      26.29064363      13.73310153       5.00000000 
S      21.36114944      15.34876054       5.94868097 
Ti      23.00431308      13.73310153       5.00000000 
S      24.64748000      15.34876054       5.94868097 
Ti      24.64747836      13.73310153       7.84604575 
S      19.71798416      15.34876054       8.79472671 
Ti      21.36114780      13.73310153       7.84604575 
S      23.00431472      15.34876054       8.79472671 
Ti      23.00431308      13.73310153      10.69209149 
S      24.64748000      15.34876054      11.64077246 
Ti      26.29064363      13.73310153      10.69209149 
S      21.36114944      15.34876054      11.64077246 
Ti      21.36114780      13.73310153      13.53813724 
S      23.00431472      15.34876054      14.48681821 
Ti      24.64747836      13.73310153      13.53813724 
S      19.71798416      15.34876054      14.48681821 
Ti      26.29064363      16.96441954       5.00000000 
S      21.36114944      18.58007854       5.94868097 
Ti      23.00431308      16.96441954       5.00000000 
S      24.64748000      18.58007854       5.94868097 
Ti      24.64747836      16.96441954       7.84604575 
S      19.71798416      18.58007854       8.79472671 
Ti      21.36114780      16.96441954       7.84604575 
S      23.00431472      18.58007854       8.79472671 
Ti      23.00431308      16.96441954      10.69209149 
S      24.64748000      18.58007854      11.64077246 
Ti      26.29064363      16.96441954      10.69209149 
S      21.36114944      18.58007854      11.64077246 
Ti      21.36114780      16.96441954      13.53813724 
S      23.00431472      18.58007854      14.48681821 
Ti      24.64747836      16.96441954      13.53813724 
S      19.71798416      18.58007854      14.48681821 
Ti      26.29064363      20.19573755       5.00000000 
S      21.36114944      21.81139655       5.94868097 
Ti      23.00431308      20.19573755       5.00000000 
S      24.64748000      21.81139655       5.94868097 
Ti      24.64747836      20.19573755       7.84604575 
S      19.71798416      21.81139655       8.79472671 
Ti      21.36114780      20.19573755       7.84604575 
S      23.00431472      21.81139655       8.79472671 
Ti      23.00431308      20.19573755      10.69209149 
S      24.64748000      21.81139655      11.64077246 
Ti      26.29064363      20.19573755      10.69209149 
S      21.36114944      21.81139655      11.64077246 
Ti      21.36114780      20.19573755      13.53813724 
S      23.00431472      21.81139655      14.48681821 
Ti      24.64747836      20.19573755      13.53813724 
S      19.71798416      21.81139655      14.48681821 
Ti      26.29064363      23.42705556       5.00000000 
S      21.36114944      25.04271456       5.94868097 
Ti      23.00431308      23.42705556       5.00000000 
S      24.64748000      25.04271456       5.94868097 
Ti      24.64747836      23.42705556       7.84604575 
S      19.71798416      25.04271456       8.79472671 
Ti      21.36114780      23.42705556       7.84604575 
S      23.00431472      25.04271456       8.79472671 
Ti      23.00431308      23.42705556      10.69209149 
S      24.64748000      25.04271456      11.64077246 
Ti      26.29064363      23.42705556      10.69209149 
S      21.36114944      25.04271456      11.64077246 
Ti      21.36114780      23.42705556      13.53813724 
S      23.00431472      25.04271456      14.48681821 
Ti      24.64747836      23.42705556      13.53813724 
S      19.71798416      25.04271456      14.48681821 
