512
Lattice="36.8707012982 0.0 0.0 8.7508950012 35.8171809458 0.0 0.0 0.0 15.1263474922" Properties=species:S:1:pos:R:3 unit_cell=conventional pbc="T T F"
Ti       4.62828743       3.03057256      10.12634749 
S       3.41772930       3.28629621       5.00000000 
Ti       9.15932837       6.58785960       7.19700607 
S       1.15220883       1.50765269       6.46467071 
Ti       8.06546649       2.11071198       7.19700607 
S       2.24607070       5.98480031       6.46467071 
Ti       1.11331164       3.88935550       5.73233536 
S       4.51159118       7.76344383       5.00000000 
Ti       4.55049071       6.58785960       7.19700607 
S       5.76104649       1.50765269       6.46467071 
Ti       6.81601118       8.36650312       5.73233536 
S       8.02656696       3.28629621       5.00000000 
Ti       5.72214930       3.88935550       5.73233536 
S       9.12042884       7.76344383       5.00000000 
Ti       3.45662883       2.11071198       7.19700607 
S       6.85490837       5.98480031       6.46467071 
Ti       6.89380790       4.80921608       8.66167678 
S      10.29208743       8.68330441       7.92934142 
Ti       2.20717352       8.36650312       5.73233536 
S       8.02656696       6.90466089       9.39401214 
Ti       5.72214930       7.50772018      10.12634749 
S       6.93270509       2.42751327       9.39401214 
Ti       5.79994602       0.33206846       8.66167678 
S       9.19822556       4.20615679       7.92934142 
Ti       9.23712509       3.03057256      10.12634749 
S       3.41772930       6.90466089       9.39401214 
Ti       2.28497024       4.80921608       8.66167678 
S       5.68324977       8.68330441       7.92934142 
Ti       1.19110836       0.33206846       8.66167678 
S       4.58938790       4.20615679       7.92934142 
Ti      10.33098697       7.50772018      10.12634749 
S       2.32386743       2.42751327       9.39401214 
Ti       4.39489727      17.32079836       5.73233536 
S       5.60545305      12.24059145       5.00000000 
Ti      11.34705212      15.54215484       7.19700607 
S       3.33993258      10.46194793       6.46467071 
Ti      10.25319025      11.06500722       7.19700607 
S       4.43379446      14.93909555       6.46467071 
Ti       3.30103539      12.84365074       5.73233536 
S       6.69931493      16.71773907       5.00000000 
Ti       6.73821446      15.54215484       7.19700607 
S       7.94877024      10.46194793       6.46467071 
Ti       9.00373493      17.32079836       5.73233536 
S      10.21429071      12.24059145       5.00000000 
Ti       7.90987305      12.84365074       5.73233536 
S      11.30815259      16.71773907       5.00000000 
Ti       5.64435258      11.06500722       7.19700607 
S       9.04263212      14.93909555       6.46467071 
Ti       9.08153165      13.76351132       8.66167678 
S      12.47981118      17.63759965       7.92934142 
Ti       6.81601118      11.98486780      10.12634749 
S      10.21429071      15.85895613       9.39401214 
Ti       7.90987305      16.46201541      10.12634749 
S       9.12042884      11.38180851       9.39401214 
Ti       7.98766977       9.28636370       8.66167678 
S      11.38594931      13.16045203       7.92934142 
Ti      11.42484884      11.98486780      10.12634749 
S       5.60545305      15.85895613       9.39401214 
Ti       4.47269399      13.76351132       8.66167678 
S       7.87097352      17.63759965       7.92934142 
Ti       3.37883211       9.28636370       8.66167678 
S       6.77711165      13.16045203       7.92934142 
Ti      12.51871072      16.46201541      10.12634749 
S       4.51159118      11.38180851       9.39401214 
Ti      11.42484884       8.36650312       5.73233536 
S      12.63540463       3.28629621       5.00000000 
Ti      18.37700369       6.58785960       7.19700607 
S      10.36988415       1.50765269       6.46467071 
Ti      17.28314182       2.11071198       7.19700607 
S      11.46374603       5.98480031       6.46467071 
Ti      10.33098697       3.88935550       5.73233536 
S      13.72926650       7.76344383       5.00000000 
Ti      13.76816603       6.58785960       7.19700607 
S      14.97872182       1.50765269       6.46467071 
Ti      16.03368650       8.36650312       5.73233536 
S      17.24424229       3.28629621       5.00000000 
Ti      14.93982463       3.88935550       5.73233536 
S      18.33810416       7.76344383       5.00000000 
Ti      12.67430416       2.11071198       7.19700607 
S      16.07258369       5.98480031       6.46467071 
Ti      16.11148322       4.80921608       8.66167678 
S      19.50976276       8.68330441       7.92934142 
Ti      13.84596275       3.03057256      10.12634749 
S      17.24424229       6.90466089       9.39401214 
Ti      14.93982463       7.50772018      10.12634749 
S      16.15038041       2.42751327       9.39401214 
Ti      15.01762135       0.33206846       8.66167678 
S      18.41590088       4.20615679       7.92934142 
Ti      18.45480042       3.03057256      10.12634749 
S      12.63540463       6.90466089       9.39401214 
Ti      11.50264556       4.80921608       8.66167678 
S      14.90092510       8.68330441       7.92934142 
Ti      10.40878369       0.33206846       8.66167678 
S      13.80706322       4.20615679       7.92934142 
Ti      19.54866229       7.50772018      10.12634749 
S      11.54154275       2.42751327       9.39401214 
Ti      13.61257259      17.32079836       5.73233536 
S      14.82312838      12.24059145       5.00000000 
Ti      20.56472744      15.54215484       7.19700607 
S      12.55760790      10.46194793       6.46467071 
Ti      19.47086557      11.06500722       7.19700607 
S      13.65146978      14.93909555       6.46467071 
Ti      12.51871072      12.84365074       5.73233536 
S      15.91699025      16.71773907       5.00000000 
Ti      15.95588978      15.54215484       7.19700607 
S      17.16644557      10.46194793       6.46467071 
Ti      18.22141025      17.32079836       5.73233536 
S      19.43196604      12.24059145       5.00000000 
Ti      17.12754838      12.84365074       5.73233536 
S      20.52582791      16.71773907       5.00000000 
Ti      14.86202791      11.06500722       7.19700607 
S      18.26030744      14.93909555       6.46467071 
Ti      18.29920697      13.76351132       8.66167678 
S      21.69748651      17.63759965       7.92934142 
Ti      16.03368650      11.98486780      10.12634749 
S      19.43196604      15.85895613       9.39401214 
Ti      17.12754838      16.46201541      10.12634749 
S      18.33810416      11.38180851       9.39401214 
Ti      17.20534510       9.28636370       8.66167678 
S      20.60362463      13.16045203       7.92934142 
Ti      20.64252417      11.98486780      10.12634749 
S      14.82312838      15.85895613       9.39401214 
Ti      13.69036931      13.76351132       8.66167678 
S      17.08864885      17.63759965       7.92934142 
Ti      12.59650744       9.28636370       8.66167678 
S      15.99478697      13.16045203       7.92934142 
Ti      21.73638604      16.46201541      10.12634749 
S      13.72926650      11.38180851       9.39401214 
Ti       6.58262102      26.27509359       5.73233536 
S       7.79317680      21.19488668       5.00000000 
Ti      13.53477587      24.49645007       7.19700607 
S       5.52765633      19.41624316       6.46467071 
Ti      12.44091399      20.01930245       7.19700607 
S       6.62151820      23.89339078       6.46467071 
Ti       5.48875914      21.79794597       5.73233536 
S       8.88703868      25.67203430       5.00000000 
Ti       8.92593821      24.49645007       7.19700607 
S      10.13649399      19.41624316       6.46467071 
Ti      11.19145868      26.27509359       5.73233536 
S      12.40201446      21.19488668       5.00000000 
Ti      10.09759680      21.79794597       5.73233536 
S      13.49587634      25.67203430       5.00000000 
Ti       7.83207633      20.01930245       7.19700607 
S      11.23035587      23.89339078       6.46467071 
Ti      11.26925540      22.71780655       8.66167678 
S      14.66753493      26.59189488       7.92934142 
Ti       9.00373493      20.93916303      10.12634749 
S      12.40201446      24.81325136       9.39401214 
Ti      10.09759680      25.41631065      10.12634749 
S      11.30815259      20.33610374       9.39401214 
Ti      10.17539352      18.24065893       8.66167678 
S      13.57367306      22.11474726       7.92934142 
Ti      13.61257259      20.93916303      10.12634749 
S       7.79317680      24.81325136       9.39401214 
Ti       6.66041774      22.71780655       8.66167678 
S      10.05869727      26.59189488       7.92934142 
Ti       5.56655586      18.24065893       8.66167678 
S       8.96483540      22.11474726       7.92934142 
Ti      14.70643447      25.41631065      10.12634749 
S       6.69931493      20.33610374       9.39401214 
Ti       8.77034477      35.22938883       5.73233536 
S       9.98090055      30.14918192       5.00000000 
Ti      15.72249962      33.45074531       7.19700607 
S       7.71538008      28.37053840       6.46467071 
Ti      14.62863775      28.97359769       7.19700607 
S       8.80924196      32.84768602       6.46467071 
Ti       7.67648289      30.75224121       5.73233536 
S      11.07476243      34.62632954       5.00000000 
Ti      11.11366196      33.45074531       7.19700607 
S      12.32421774      28.37053840       6.46467071 
Ti      13.37918243      35.22938883       5.73233536 
S      14.58973821      30.14918192       5.00000000 
Ti      12.28532055      30.75224121       5.73233536 
S      15.68360009      34.62632954       5.00000000 
Ti      10.01980008      28.97359769       7.19700607 
S      13.41807962      32.84768602       6.46467071 
Ti      13.45697915      31.67210179       8.66167678 
S      16.85525868      35.54619012       7.92934142 
Ti      11.19145868      29.89345827      10.12634749 
S      14.58973821      33.76754660       9.39401214 
Ti      12.28532055      34.37060588      10.12634749 
S      13.49587634      29.29039898       9.39401214 
Ti      12.36311727      27.19495417       8.66167678 
S      15.76139681      31.06904250       7.92934142 
Ti      15.80029634      29.89345827      10.12634749 
S       9.98090055      33.76754660       9.39401214 
Ti       8.84814149      31.67210179       8.66167678 
S      12.24642102      35.54619012       7.92934142 
Ti       7.75427961      27.19495417       8.66167678 
S      11.15255915      31.06904250       7.92934142 
Ti      16.89415822      34.37060588      10.12634749 
S       8.88703868      29.29039898       9.39401214 
Ti      15.80029634      26.27509359       5.73233536 
S      17.01085213      21.19488668       5.00000000 
Ti      22.75245119      24.49645007       7.19700607 
S      14.74533165      19.41624316       6.46467071 
Ti      21.65858932      20.01930245       7.19700607 
S      15.83919353      23.89339078       6.46467071 
Ti      14.70643447      21.79794597       5.73233536 
S      18.10471400      25.67203430       5.00000000 
Ti      18.14361353      24.49645007       7.19700607 
S      19.35416932      19.41624316       6.46467071 
Ti      20.40913400      26.27509359       5.73233536 
S      21.61968979      21.19488668       5.00000000 
Ti      19.31527213      21.79794597       5.73233536 
S      22.71355166      25.67203430       5.00000000 
Ti      17.04975166      20.01930245       7.19700607 
S      20.44803119      23.89339078       6.46467071 
Ti      20.48693072      22.71780655       8.66167678 
S      23.88521026      26.59189488       7.92934142 
Ti      18.22141025      20.93916303      10.12634749 
S      21.61968979      24.81325136       9.39401214 
Ti      19.31527213      25.41631065      10.12634749 
S      20.52582791      20.33610374       9.39401214 
Ti      19.39306885      18.24065893       8.66167678 
S      22.79134838      22.11474726       7.92934142 
Ti      22.83024792      20.93916303      10.12634749 
S      17.01085213      24.81325136       9.39401214 
Ti      15.87809306      22.71780655       8.66167678 
S      19.27637260      26.59189488       7.92934142 
Ti      14.78423119      18.24065893       8.66167678 
S      18.18251072      22.11474726       7.92934142 
Ti      23.92410979      25.41631065      10.12634749 
S      15.91699025      20.33610374       9.39401214 
Ti      17.98802009      35.22938883       5.73233536 
S      19.19857588      30.14918192       5.00000000 
Ti      24.94017494      33.45074531       7.19700607 
S      16.93305540      28.37053840       6.46467071 
Ti      23.84631307      28.97359769       7.19700607 
S      18.02691728      32.84768602       6.46467071 
Ti      16.89415822      30.75224121       5.73233536 
S      20.29243775      34.62632954       5.00000000 
Ti      20.33133728      33.45074531       7.19700607 
S      21.54189307      28.37053840       6.46467071 
Ti      22.59685775      35.22938883       5.73233536 
S      23.80741354      30.14918192       5.00000000 
Ti      21.50299588      30.75224121       5.73233536 
S      24.90127541      34.62632954       5.00000000 
Ti      19.23747541      28.97359769       7.19700607 
S      22.63575494      32.84768602       6.46467071 
Ti      22.67465447      31.67210179       8.66167678 
S      26.07293401      35.54619012       7.92934142 
Ti      20.40913400      29.89345827      10.12634749 
S      23.80741354      33.76754660       9.39401214 
Ti      21.50299588      34.37060588      10.12634749 
S      22.71355166      29.29039898       9.39401214 
Ti      21.58079260      27.19495417       8.66167678 
S      24.97907213      31.06904250       7.92934142 
Ti      25.01797167      29.89345827      10.12634749 
S      19.19857588      33.76754660       9.39401214 
Ti      18.06581681      31.67210179       8.66167678 
S      21.46409635      35.54619012       7.92934142 
Ti      16.97195494      27.19495417       8.66167678 
S      20.37023447      31.06904250       7.92934142 
Ti      26.11183354      34.37060588      10.12634749 
S      18.10471400      29.29039898       9.39401214 
Ti      20.64252417       8.36650312       5.73233536 
S      21.85307995       3.28629621       5.00000000 
Ti      27.59467902       6.58785960       7.19700607 
S      19.58755948       1.50765269       6.46467071 
Ti      26.50081714       2.11071198       7.19700607 
S      20.68142135       5.98480031       6.46467071 
Ti      19.54866229       3.88935550       5.73233536 
S      22.94694183       7.76344383       5.00000000 
Ti      22.98584136       6.58785960       7.19700607 
S      24.19639714       1.50765269       6.46467071 
Ti      25.25136183       8.36650312       5.73233536 
S      26.46191761       3.28629621       5.00000000 
Ti      24.15749995       3.88935550       5.73233536 
S      27.55577949       7.76344383       5.00000000 
Ti      21.89197948       2.11071198       7.19700607 
S      25.29025902       5.98480031       6.46467071 
Ti      25.32915855       4.80921608       8.66167678 
S      28.72743808       8.68330441       7.92934142 
Ti      23.06363808       3.03057256      10.12634749 
S      26.46191761       6.90466089       9.39401214 
Ti      24.15749995       7.50772018      10.12634749 
S      25.36805574       2.42751327       9.39401214 
Ti      24.23529667       0.33206846       8.66167678 
S      27.63357621       4.20615679       7.92934142 
Ti      27.67247574       3.03057256      10.12634749 
S      21.85307995       6.90466089       9.39401214 
Ti      20.72032089       4.80921608       8.66167678 
S      24.11860042       8.68330441       7.92934142 
Ti      19.62645901       0.33206846       8.66167678 
S      23.02473855       4.20615679       7.92934142 
Ti      28.76633762       7.50772018      10.12634749 
S      20.75921808       2.42751327       9.39401214 
Ti      22.83024792      17.32079836       5.73233536 
S      24.04080370      12.24059145       5.00000000 
Ti      29.78240277      15.54215484       7.19700607 
S      21.77528323      10.46194793       6.46467071 
Ti      28.68854090      11.06500722       7.19700607 
S      22.86914511      14.93909555       6.46467071 
Ti      21.73638604      12.84365074       5.73233536 
S      25.13466558      16.71773907       5.00000000 
Ti      25.17356511      15.54215484       7.19700607 
S      26.38412089      10.46194793       6.46467071 
Ti      27.43908558      17.32079836       5.73233536 
S      28.64964136      12.24059145       5.00000000 
Ti      26.34522370      12.84365074       5.73233536 
S      29.74350324      16.71773907       5.00000000 
Ti      24.07970323      11.06500722       7.19700607 
S      27.47798277      14.93909555       6.46467071 
Ti      27.51688230      13.76351132       8.66167678 
S      30.91516183      17.63759965       7.92934142 
Ti      25.25136183      11.98486780      10.12634749 
S      28.64964136      15.85895613       9.39401214 
Ti      26.34522370      16.46201541      10.12634749 
S      27.55577949      11.38180851       9.39401214 
Ti      26.42302042       9.28636370       8.66167678 
S      29.82129996      13.16045203       7.92934142 
Ti      29.86019949      11.98486780      10.12634749 
S      24.04080370      15.85895613       9.39401214 
Ti      22.90804464      13.76351132       8.66167678 
S      26.30632417      17.63759965       7.92934142 
Ti      21.81418276       9.28636370       8.66167678 
S      25.21246230      13.16045203       7.92934142 
Ti      30.95406137      16.46201541      10.12634749 
S      22.94694183      11.38180851       9.39401214 
Ti      29.86019949       8.36650312       5.73233536 
S      31.07075528       3.28629621       5.00000000 
Ti      36.81235434       6.58785960       7.19700607 
S      28.80523480       1.50765269       6.46467071 
Ti      35.71849247       2.11071198       7.19700607 
S      29.89909668       5.98480031       6.46467071 
Ti      28.76633762       3.88935550       5.73233536 
S      32.16461715       7.76344383       5.00000000 
Ti      32.20351668       6.58785960       7.19700607 
S      33.41407247       1.50765269       6.46467071 
Ti      34.46903715       8.36650312       5.73233536 
S      35.67959294       3.28629621       5.00000000 
Ti      33.37517528       3.88935550       5.73233536 
S      36.77345481       7.76344383       5.00000000 
Ti      31.10965481       2.11071198       7.19700607 
S      34.50793434       5.98480031       6.46467071 
Ti      34.54683387       4.80921608       8.66167678 
S      37.94511341       8.68330441       7.92934142 
Ti      32.28131340       3.03057256      10.12634749 
S      35.67959294       6.90466089       9.39401214 
Ti      33.37517528       7.50772018      10.12634749 
S      34.58573106       2.42751327       9.39401214 
Ti      33.45297200       0.33206846       8.66167678 
S      36.85125153       4.20615679       7.92934142 
Ti      36.89015107       3.03057256      10.12634749 
S      31.07075528       6.90466089       9.39401214 
Ti      29.93799621       4.80921608       8.66167678 
S      33.33627575       8.68330441       7.92934142 
Ti      28.84413434       0.33206846       8.66167678 
S      32.24241387       4.20615679       7.92934142 
Ti      37.98401294       7.50772018      10.12634749 
S      29.97689340       2.42751327       9.39401214 
Ti      32.04792324      17.32079836       5.73233536 
S      33.25847903      12.24059145       5.00000000 
Ti      39.00007809      15.54215484       7.19700607 
S      30.99295855      10.46194793       6.46467071 
Ti      37.90621622      11.06500722       7.19700607 
S      32.08682043      14.93909555       6.46467071 
Ti      30.95406137      12.84365074       5.73233536 
S      34.35234090      16.71773907       5.00000000 
Ti      34.39124043      15.54215484       7.19700607 
S      35.60179622      10.46194793       6.46467071 
Ti      36.65676090      17.32079836       5.73233536 
S      37.86731669      12.24059145       5.00000000 
Ti      35.56289903      12.84365074       5.73233536 
S      38.96117856      16.71773907       5.00000000 
Ti      33.29737856      11.06500722       7.19700607 
S      36.69565809      14.93909555       6.46467071 
Ti      36.73455762      13.76351132       8.66167678 
S      40.13283716      17.63759965       7.92934142 
Ti      34.46903715      11.98486780      10.12634749 
S      37.86731669      15.85895613       9.39401214 
Ti      35.56289903      16.46201541      10.12634749 
S      36.77345481      11.38180851       9.39401214 
Ti      35.64069575       9.28636370       8.66167678 
S      39.03897528      13.16045203       7.92934142 
Ti      39.07787482      11.98486780      10.12634749 
S      33.25847903      15.85895613       9.39401214 
Ti      32.12571996      13.76351132       8.66167678 
S      35.52399950      17.63759965       7.92934142 
Ti      31.03185809       9.28636370       8.66167678 
S      34.43013762      13.16045203       7.92934142 
Ti      40.17173669      16.46201541      10.12634749 
S      32.16461715      11.38180851       9.39401214 
Ti      25.01797167      26.27509359       5.73233536 
S      26.22852745      21.19488668       5.00000000 
Ti      31.97012652      24.49645007       7.19700607 
S      23.96300698      19.41624316       6.46467071 
Ti      30.87626464      20.01930245       7.19700607 
S      25.05686885      23.89339078       6.46467071 
Ti      23.92410979      21.79794597       5.73233536 
S      27.32238933      25.67203430       5.00000000 
Ti      27.36128886      24.49645007       7.19700607 
S      28.57184464      19.41624316       6.46467071 
Ti      29.62680933      26.27509359       5.73233536 
S      30.83736511      21.19488668       5.00000000 
Ti      28.53294745      21.79794597       5.73233536 
S      31.93122699      25.67203430       5.00000000 
Ti      26.26742698      20.01930245       7.19700607 
S      29.66570652      23.89339078       6.46467071 
Ti      29.70460605      22.71780655       8.66167678 
S      33.10288558      26.59189488       7.92934142 
Ti      27.43908558      20.93916303      10.12634749 
S      30.83736511      24.81325136       9.39401214 
Ti      28.53294745      25.41631065      10.12634749 
S      29.74350324      20.33610374       9.39401214 
Ti      28.61074417      18.24065893       8.66167678 
S      32.00902371      22.11474726       7.92934142 
Ti      32.04792324      20.93916303      10.12634749 
S      26.22852745      24.81325136       9.39401214 
Ti      25.09576839      22.71780655       8.66167678 
S      28.49404792      26.59189488       7.92934142 
Ti      24.00190651      18.24065893       8.66167678 
S      27.40018605      22.11474726       7.92934142 
Ti      33.14178512      25.41631065      10.12634749 
S      25.13466558      20.33610374       9.39401214 
Ti      27.20569542      35.22938883       5.73233536 
S      28.41625120      30.14918192       5.00000000 
Ti      34.15785027      33.45074531       7.19700607 
S      26.15073073      28.37053840       6.46467071 
Ti      33.06398840      28.97359769       7.19700607 
S      27.24459261      32.84768602       6.46467071 
Ti      26.11183354      30.75224121       5.73233536 
S      29.51011308      34.62632954       5.00000000 
Ti      29.54901261      33.45074531       7.19700607 
S      30.75956839      28.37053840       6.46467071 
Ti      31.81453308      35.22938883       5.73233536 
S      33.02508886      30.14918192       5.00000000 
Ti      30.72067120      30.75224121       5.73233536 
S      34.11895074      34.62632954       5.00000000 
Ti      28.45515073      28.97359769       7.19700607 
S      31.85343027      32.84768602       6.46467071 
Ti      31.89232980      31.67210179       8.66167678 
S      35.29060933      35.54619012       7.92934142 
Ti      29.62680933      29.89345827      10.12634749 
S      33.02508886      33.76754660       9.39401214 
Ti      30.72067120      34.37060588      10.12634749 
S      31.93122699      29.29039898       9.39401214 
Ti      30.79846792      27.19495417       8.66167678 
S      34.19674746      31.06904250       7.92934142 
Ti      34.23564699      29.89345827      10.12634749 
S      28.41625120      33.76754660       9.39401214 
Ti      27.28349214      31.67210179       8.66167678 
S      30.68177167      35.54619012       7.92934142 
Ti      26.18963026      27.19495417       8.66167678 
S      29.58790980      31.06904250       7.92934142 
Ti      35.32950887      34.37060588      10.12634749 
S      27.32238933      29.29039898       9.39401214 
Ti      34.23564699      26.27509359       5.73233536 
S      35.44620278      21.19488668       5.00000000 
Ti      41.18780184      24.49645007       7.19700607 
S      33.18068230      19.41624316       6.46467071 
Ti      40.09393997      20.01930245       7.19700607 
S      34.27454418      23.89339078       6.46467071 
Ti      33.14178512      21.79794597       5.73233536 
S      36.54006465      25.67203430       5.00000000 
Ti      36.57896418      24.49645007       7.19700607 
S      37.78951997      19.41624316       6.46467071 
Ti      38.84448465      26.27509359       5.73233536 
S      40.05504044      21.19488668       5.00000000 
Ti      37.75062278      21.79794597       5.73233536 
S      41.14890231      25.67203430       5.00000000 
Ti      35.48510231      20.01930245       7.19700607 
S      38.88338184      23.89339078       6.46467071 
Ti      38.92228137      22.71780655       8.66167678 
S      42.32056091      26.59189488       7.92934142 
Ti      36.65676090      20.93916303      10.12634749 
S      40.05504044      24.81325136       9.39401214 
Ti      37.75062278      25.41631065      10.12634749 
S      38.96117856      20.33610374       9.39401214 
Ti      37.82841950      18.24065893       8.66167678 
S      41.22669903      22.11474726       7.92934142 
Ti      41.26559857      20.93916303      10.12634749 
S      35.44620278      24.81325136       9.39401214 
Ti      34.31344371      22.71780655       8.66167678 
S      37.71172325      26.59189488       7.92934142 
Ti      33.21958184      18.24065893       8.66167678 
S      36.61786137      22.11474726       7.92934142 
Ti      42.35946044      25.41631065      10.12634749 
S      34.35234090      20.33610374       9.39401214 
Ti      36.42337074      35.22938883       5.73233536 
S      37.63392653      30.14918192       5.00000000 
Ti      43.37552559      33.45074531       7.19700607 
S      35.36840605      28.37053840       6.46467071 
Ti      42.28166372      28.97359769       7.19700607 
S      36.46226793      32.84768602       6.46467071 
Ti      35.32950887      30.75224121       5.73233536 
S      38.72778840      34.62632954       5.00000000 
Ti      38.76668793      33.45074531       7.19700607 
S      39.97724372      28.37053840       6.46467071 
Ti      41.03220840      35.22938883       5.73233536 
S      42.24276419      30.14918192       5.00000000 
Ti      39.93834653      30.75224121       5.73233536 
S      43.33662606      34.62632954       5.00000000 
Ti      37.67282606      28.97359769       7.19700607 
S      41.07110559      32.84768602       6.46467071 
Ti      41.11000512      31.67210179       8.66167678 
S      44.50828466      35.54619012       7.92934142 
Ti      38.84448465      29.89345827      10.12634749 
S      42.24276419      33.76754660       9.39401214 
Ti      39.93834653      34.37060588      10.12634749 
S      41.14890231      29.29039898       9.39401214 
Ti      40.01614325      27.19495417       8.66167678 
S      43.41442278      31.06904250       7.92934142 
Ti      43.45332232      29.89345827      10.12634749 
S      37.63392653      33.76754660       9.39401214 
Ti      36.50116746      31.67210179       8.66167678 
S      39.89944700      35.54619012       7.92934142 
Ti      35.40730559      27.19495417       8.66167678 
S      38.80558512      31.06904250       7.92934142 
Ti      44.54718419      34.37060588      10.12634749 
S      36.54006465      29.29039898       9.39401214 
