96
Lattice="15.9413095271 0.0 0.0 0.0 11.2722080676 0.0 0.0 0.0 17.0194983355" Properties=species:S:1:pos:R:3:Z:I:1 unit_cell=conventional pbc="T T F"
Mn      3.95350027       5.35651701       5.00000000       25 
Mn      2.00595923       2.56467259       7.01119526       25 
Mn      0.00000000       5.31583985       5.06276222       25 
Mn      5.99652264       2.51966226       6.97936815       25 
S      3.98532738       1.86740145       5.95426320       16 
S      1.04460728       0.41357811       7.02144367       16 
S      0.00000000       3.21473659       8.03417095       16 
S      5.95500927       0.38235187       7.95673849       16 
S      0.97594194       3.19219402       5.00089444       16 
S      7.03466480       1.84421301       5.00510303       16 
S      5.95010554       4.66949181       6.04550173       16 
S      2.95163546       4.69476621       7.02074853       16 
Mn      7.93882766       5.35651701       8.98532738       25 
Mn      5.99128661       2.56467259      10.99652264       25 
Mn      3.98532738       5.31583985       9.04808960       25 
Mn      2.01119526       2.51966226      10.96469553       25 
S      0.00000000       1.86740145       9.93959058       16 
S      5.02993467       0.41357811      11.00677105       16 
S      3.98532738       3.21473659      12.01949834       16 
S      1.96968188       0.38235187      11.94206587       16 
S      4.96126932       3.19219402       8.98622182       16 
S      3.04933742       1.84421301       8.99043041       16 
S      1.96477816       4.66949181      10.03082911       16 
S      6.93696284       4.69476621      11.00607591       16 
Mn      3.95350027      10.99262104       5.00000000       25 
Mn      2.00595923       8.20077662       7.01119526       25 
Mn      0.00000000      10.95194389       5.06276222       25 
Mn      5.99652264       8.15576629       6.97936815       25 
S      3.98532738       7.50350548       5.95426320       16 
S      1.04460728       6.04968214       7.02144367       16 
S      0.00000000       8.85084062       8.03417095       16 
S      5.95500927       6.01845590       7.95673849       16 
S      0.97594194       8.82829806       5.00089444       16 
S      7.03466480       7.48031704       5.00510303       16 
S      5.95010554      10.30559584       6.04550173       16 
S      2.95163546      10.33087024       7.02074853       16 
Mn      7.93882766      10.99262104       8.98532738       25 
Mn      5.99128661       8.20077662      10.99652264       25 
Mn      3.98532738      10.95194389       9.04808960       25 
Mn      2.01119526       8.15576629      10.96469553       25 
S      0.00000000       7.50350548       9.93959058       16 
S      5.02993467       6.04968214      11.00677105       16 
S      3.98532738       8.85084062      12.01949834       16 
S      1.96968188       6.01845590      11.94206587       16 
S      4.96126932       8.82829806       8.98622182       16 
S      3.04933742       7.48031704       8.99043041       16 
S      1.96477816      10.30559584      10.03082911       16 
S      6.93696284      10.33087024      11.00607591       16 
Mn     11.92415504       5.35651701       5.00000000       25 
Mn      9.97661399       2.56467259       7.01119526       25 
Mn      7.97065476       5.31583985       5.06276222       25 
Mn     13.96717741       2.51966226       6.97936815       25 
S     11.95598215       1.86740145       5.95426320       16 
S      9.01526205       0.41357811       7.02144367       16 
S      7.97065476       3.21473659       8.03417095       16 
S     13.92566403       0.38235187       7.95673849       16 
S      8.94659671       3.19219402       5.00089444       16 
S     15.00531957       1.84421301       5.00510303       16 
S     13.92076030       4.66949181       6.04550173       16 
S     10.92229022       4.69476621       7.02074853       16 
Mn     15.90948242       5.35651701       8.98532738       25 
Mn     13.96194137       2.56467259      10.99652264       25 
Mn     11.95598215       5.31583985       9.04808960       25 
Mn      9.98185002       2.51966226      10.96469553       25 
S      7.97065476       1.86740145       9.93959058       16 
S     13.00058943       0.41357811      11.00677105       16 
S     11.95598215       3.21473659      12.01949834       16 
S      9.94033665       0.38235187      11.94206587       16 
S     12.93192409       3.19219402       8.98622182       16 
S     11.01999218       1.84421301       8.99043041       16 
S      9.93543292       4.66949181      10.03082911       16 
S     14.90761760       4.69476621      11.00607591       16 
Mn     11.92415504      10.99262104       5.00000000       25 
Mn      9.97661399       8.20077662       7.01119526       25 
Mn      7.97065476      10.95194389       5.06276222       25 
Mn     13.96717741       8.15576629       6.97936815       25 
S     11.95598215       7.50350548       5.95426320       16 
S      9.01526205       6.04968214       7.02144367       16 
S      7.97065476       8.85084062       8.03417095       16 
S     13.92566403       6.01845590       7.95673849       16 
S      8.94659671       8.82829806       5.00089444       16 
S     15.00531957       7.48031704       5.00510303       16 
S     13.92076030      10.30559584       6.04550173       16 
S     10.92229022      10.33087024       7.02074853       16 
Mn     15.90948242      10.99262104       8.98532738       25 
Mn     13.96194137       8.20077662      10.99652264       25 
Mn     11.95598215      10.95194389       9.04808960       25 
Mn      9.98185002       8.15576629      10.96469553       25 
S      7.97065476       7.50350548       9.93959058       16 
S     13.00058943       6.04968214      11.00677105       16 
S     11.95598215       8.85084062      12.01949834       16 
S      9.94033665       6.01845590      11.94206587       16 
S     12.93192409       8.82829806       8.98622182       16 
S     11.01999218       7.48031704       8.99043041       16 
S      9.93543292      10.30559584      10.03082911       16 
S     14.90761760      10.33087024      11.00607591       16 
