64
Lattice="12.5261992069 0.0 0.0 0.0 11.5226700074 0.0 0.0 0.0 15.424003363" Properties=species:S:1:pos:R:3:Z:I:1 unit_cell=conventional pbc="T T F"
Mn      2.09111124       0.31712778       5.00000000       25 
Mn      4.17200392       3.19781569       5.00000000       25 
S      4.17685430       5.40158182       5.00000000       16 
S      2.08625692       2.52089574       5.00000000       16 
Mn      5.22266104       0.31712778       6.80800112       25 
Mn      1.04045412       3.19781569       6.80800112       25 
S      1.04530450       5.40158182       6.80800112       16 
S      5.21780672       2.52089574       6.80800112       16 
Mn      2.09111124       0.31712778       8.61600224       25 
Mn      4.17200392       3.19781569       8.61600224       25 
S      4.17685430       5.40158182       8.61600224       16 
S      2.08625692       2.52089574       8.61600224       16 
Mn      5.22266104       0.31712778      10.42400336       25 
Mn      1.04045412       3.19781569      10.42400336       25 
S      1.04530450       5.40158182      10.42400336       16 
S      5.21780672       2.52089574      10.42400336       16 
Mn      2.09111124       6.07846279       5.00000000       25 
Mn      4.17200392       8.95915070       5.00000000       25 
S      4.17685430      11.16291682       5.00000000       16 
S      2.08625692       8.28223075       5.00000000       16 
Mn      5.22266104       6.07846279       6.80800112       25 
Mn      1.04045412       8.95915070       6.80800112       25 
S      1.04530450      11.16291682       6.80800112       16 
S      5.21780672       8.28223075       6.80800112       16 
Mn      2.09111124       6.07846279       8.61600224       25 
Mn      4.17200392       8.95915070       8.61600224       25 
S      4.17685430      11.16291682       8.61600224       16 
S      2.08625692       8.28223075       8.61600224       16 
Mn      5.22266104       6.07846279      10.42400336       25 
Mn      1.04045412       8.95915070      10.42400336       25 
S      1.04530450      11.16291682      10.42400336       16 
S      5.21780672       8.28223075      10.42400336       16 
Mn      8.35421084       0.31712778       5.00000000       25 
Mn     10.43510352       3.19781569       5.00000000       25 
S     10.43995390       5.40158182       5.00000000       16 
S      8.34935652       2.52089574       5.00000000       16 
Mn     11.48576064       0.31712778       6.80800112       25 
Mn      7.30355372       3.19781569       6.80800112       25 
S      7.30840410       5.40158182       6.80800112       16 
S     11.48090633       2.52089574       6.80800112       16 
Mn      8.35421084       0.31712778       8.61600224       25 
Mn     10.43510352       3.19781569       8.61600224       25 
S     10.43995390       5.40158182       8.61600224       16 
S      8.34935652       2.52089574       8.61600224       16 
Mn     11.48576064       0.31712778      10.42400336       25 
Mn      7.30355372       3.19781569      10.42400336       25 
S      7.30840410       5.40158182      10.42400336       16 
S     11.48090633       2.52089574      10.42400336       16 
Mn      8.35421084       6.07846279       5.00000000       25 
Mn     10.43510352       8.95915070       5.00000000       25 
S     10.43995390      11.16291682       5.00000000       16 
S      8.34935652       8.28223075       5.00000000       16 
Mn     11.48576064       6.07846279       6.80800112       25 
Mn      7.30355372       8.95915070       6.80800112       25 
S      7.30840410      11.16291682       6.80800112       16 
S     11.48090633       8.28223075       6.80800112       16 
Mn      8.35421084       6.07846279       8.61600224       25 
Mn     10.43510352       8.95915070       8.61600224       25 
S     10.43995390      11.16291682       8.61600224       16 
S      8.34935652       8.28223075       8.61600224       16 
Mn     11.48576064       6.07846279      10.42400336       25 
Mn      7.30355372       8.95915070      10.42400336       25 
S      7.30840410      11.16291682      10.42400336       16 
S     11.48090633       8.28223075      10.42400336       16 
