112
Lattice="13.2610233822 0.0 0.0 6.63051168107 11.4843831349 0.0 0.0 0.0 20.1520453272" Properties=species:S:1:pos:R:3:Z:I:1 unit_cell=conventional pbc="T T F"
S      9.84149906       5.68205035       9.01771648       16 
S      4.97291082       2.87123135       8.93565048       16 
S      4.97291143       4.66756213       6.39491530       16 
S      6.52871345       1.97281120       6.39509345       16 
S      8.28811195       2.98869329       9.01887482       16 
S      6.73230993       5.68344422       9.01869668       16 
S      3.41952432       1.97420508       6.39607365       16 
S      8.28811256       4.78502407       6.47813965       16 
Co      4.97288377       0.95703193       7.70689506       27 
Co      3.31525584       3.82812771       7.70689506       27 
Co      4.97288377       2.87109578       5.00000000       27 
Co      6.63051169       3.82812771       7.70689506       27 
Co      1.65471944       0.95535525       5.67553492       27 
Co      1.66053641       0.95870860       9.73825520       27 
S      3.21098737       1.85392263      14.43150661       16 
S      8.28816667       4.78529521      14.34944061       16 
S      4.97291143       0.83943442      11.80870543       16 
S      3.21345760       3.88687506      11.80888357       16 
S      4.97285611       4.90275714      14.43266495       16 
S      6.73230993       1.85531651      14.43248681       16 
S      6.73478016       3.88826893      11.80986377       16 
S      1.65760087       0.95689636      11.89192977       16 
Co      1.65762792       2.87109578      13.12068519       27 
Co      6.63051169       5.74219157      13.12068519       27 
Co      8.28813961       4.78515964      10.41379013       27 
Co      3.31525584       5.74219157      13.12068519       27 
Co      4.96997528       2.86941911      11.08932505       27 
Co      4.97579225       2.87277245      15.15204533       27 
S     13.15675490      11.42424191       9.01771648       16 
S      8.28816666       8.61342292       8.93565048       16 
S      8.28816727      10.40975370       6.39491530       16 
S      9.84396929       7.71500277       6.39509345       16 
S     11.60336779       8.73088486       9.01887482       16 
S     10.04756577      11.42563579       9.01869668       16 
S      6.73478016       7.71639664       6.39607365       16 
S     11.60336840      10.52721564       6.47813965       16 
Co      8.28813961       6.69922349       7.70689506       27 
Co      6.63051168       9.57031928       7.70689506       27 
Co      8.28813961       8.61328735       5.00000000       27 
Co      9.94576753       9.57031928       7.70689506       27 
Co      4.96997528       6.69754682       5.67553492       27 
Co      4.97579225       6.70090017       9.73825520       27 
S      6.52624322       7.59611420      14.43150661       16 
S     11.60342251      10.52748678      14.34944061       16 
S      8.28816727       6.58162599      11.80870543       16 
S      6.52871344       9.62906662      11.80888357       16 
S      8.28811195      10.64494871      14.43266495       16 
S     10.04756577       7.59750807      14.43248681       16 
S     10.05003600       9.63046050      11.80986377       16 
S      4.97285671       6.69908792      11.89192977       16 
Co      4.97288376       8.61328735      13.12068519       27 
Co      9.94576753      11.48438313      13.12068519       27 
Co     11.60339545      10.52735121      10.41379013       27 
Co      6.63051168      11.48438313      13.12068519       27 
Co      8.28523112       8.61161068      11.08932505       27 
Co      8.29104810       8.61496402      15.15204533       27 
S     16.47201075       5.68205035       9.01771648       16 
S     11.60342251       2.87123135       8.93565048       16 
S     11.60342312       4.66756213       6.39491530       16 
S     13.15922514       1.97281120       6.39509345       16 
S     14.91862364       2.98869329       9.01887482       16 
S     13.36282162       5.68344422       9.01869668       16 
S     10.05003601       1.97420508       6.39607365       16 
S     14.91862425       4.78502407       6.47813965       16 
Co     11.60339546       0.95703193       7.70689506       27 
Co      9.94576753       3.82812771       7.70689506       27 
Co     11.60339546       2.87109578       5.00000000       27 
Co     13.26102338       3.82812771       7.70689506       27 
Co      8.28523113       0.95535525       5.67553492       27 
Co      8.29104810       0.95870860       9.73825520       27 
S      9.84149907       1.85392263      14.43150661       16 
S     14.91867836       4.78529521      14.34944061       16 
S     11.60342312       0.83943442      11.80870543       16 
S      9.84396929       3.88687506      11.80888357       16 
S     11.60336780       4.90275714      14.43266495       16 
S     13.36282162       1.85531651      14.43248681       16 
S     13.36529185       3.88826893      11.80986377       16 
S      8.28811256       0.95689636      11.89192977       16 
Co      8.28813961       2.87109578      13.12068519       27 
Co     13.26102338       5.74219157      13.12068519       27 
Co     14.91865130       4.78515964      10.41379013       27 
Co      9.94576753       5.74219157      13.12068519       27 
Co     11.60048697       2.86941911      11.08932505       27 
Co     11.60630395       2.87277245      15.15204533       27 
S     19.78726659      11.42424191       9.01771648       16 
S     14.91867835       8.61342292       8.93565048       16 
S     14.91867896      10.40975370       6.39491530       16 
S     16.47448098       7.71500277       6.39509345       16 
S     18.23387948       8.73088486       9.01887482       16 
S     16.67807746      11.42563579       9.01869668       16 
S     13.36529185       7.71639664       6.39607365       16 
S     18.23388009      10.52721564       6.47813965       16 
Co     14.91865130       6.69922349       7.70689506       27 
Co     13.26102337       9.57031928       7.70689506       27 
Co     14.91865130       8.61328735       5.00000000       27 
Co     16.57627922       9.57031928       7.70689506       27 
Co     11.60048697       6.69754682       5.67553492       27 
Co     11.60630394       6.70090017       9.73825520       27 
S     13.15675491       7.59611420      14.43150661       16 
S     18.23393420      10.52748678      14.34944061       16 
S     14.91867896       6.58162599      11.80870543       16 
S     13.15922514       9.62906662      11.80888357       16 
S     14.91862364      10.64494871      14.43266495       16 
S     16.67807746       7.59750807      14.43248681       16 
S     16.68054769       9.63046050      11.80986377       16 
S     11.60336840       6.69908792      11.89192977       16 
Co     11.60339545       8.61328735      13.12068519       27 
Co     16.57627922      11.48438313      13.12068519       27 
Co     18.23390714      10.52735121      10.41379013       27 
Co     13.26102337      11.48438313      13.12068519       27 
Co     14.91574281       8.61161068      11.08932505       27 
Co     14.92155979       8.61496402      15.15204533       27 
